"2017-10-17 13:25",0.02
"2017-10-17 15:25",0.02
"2017-10-17 16:25",0.02
"2017-10-17 17:25",0.02
"2017-10-17 18:25",0.02
"2017-10-17 19:25",0.02
"2017-10-17 20:25",0.02
"2017-10-17 21:25",0.02
"2017-10-17 22:25",0.02
"2017-10-17 23:25",0.02
"2017-10-18 00:25",0.02
"2017-10-18 01:25",0.02
"2017-10-18 02:25",0.02
"2017-10-18 03:25",0.02
"2017-10-18 04:25",0.02
"2017-10-18 05:25",0.02
"2017-10-18 05:45",0.03
"2017-10-18 05:50",0.05
"2017-10-18 05:55",0.06
"2017-10-18 06:05",0.08
"2017-10-18 06:15",0.09
"2017-10-18 06:25",0.10
"2017-10-18 07:25",0.10
"2017-10-18 08:25",0.10
"2017-10-18 09:25",0.10
"2017-10-18 10:25",0.10
"2017-10-18 11:25",0.10
"2017-10-18 12:25",0.10
"2017-10-18 13:25",0.10
"2017-10-18 14:25",0.10
"2017-10-18 15:25",0.10
"2017-10-18 16:25",0.10
"2017-10-18 17:25",0.10
"2017-10-18 18:25",0.10
"2017-10-18 19:25",0.10
"2017-10-18 20:25",0.10
"2017-10-18 21:25",0.10
"2017-10-18 22:25",0.10
"2017-10-18 23:25",0.10
"2017-10-19 00:25",0.10
"2017-10-19 01:25",0.10
"2017-10-19 02:25",0.10
"2017-10-19 03:25",0.10
"2017-10-19 04:25",0.10
"2017-10-19 05:25",0.10
"2017-10-19 06:25",0.10
"2017-10-19 07:25",0.10
"2017-10-19 08:25",0.10
"2017-10-19 09:25",0.10
"2017-10-19 10:25",0.10
"2017-10-19 11:25",0.10
"2017-10-19 12:25",0.10
"2017-10-19 13:25",0.10
"2017-10-19 14:25",0.10
"2017-10-19 15:25",0.10
"2017-10-19 15:45",0.09
"2017-10-19 16:25",0.09
"2017-10-19 17:25",0.09
"2017-10-19 18:25",0.09
"2017-10-19 19:25",0.09
"2017-10-19 20:25",0.09
"2017-10-19 21:25",0.09
"2017-10-19 22:25",0.09
"2017-10-19 23:25",0.09
"2017-10-20 00:25",0.09
"2017-10-20 01:25",0.09
"2017-10-20 02:25",0.09
"2017-10-20 03:25",0.09
"2017-10-20 04:25",0.09
"2017-10-20 05:25",0.09
"2017-10-20 06:25",0.09
"2017-10-20 07:25",0.09
"2017-10-20 08:25",0.09
"2017-10-20 09:25",0.09
"2017-10-20 10:25",0.09
"2017-10-20 11:25",0.09
"2017-10-20 12:25",0.09
"2017-10-20 13:25",0.09
"2017-10-20 14:25",0.09
"2017-10-20 15:25",0.09
"2017-10-20 16:25",0.09
"2017-10-20 17:25",0.09
"2017-10-20 18:25",0.09
"2017-10-20 19:25",0.09
"2017-10-20 20:25",0.09
"2017-10-20 21:25",0.09
"2017-10-20 22:25",0.09
"2017-10-20 23:25",0.09
"2017-10-21 00:25",0.09
"2017-10-21 01:25",0.09
"2017-10-21 02:25",0.09
"2017-10-21 03:25",0.09
"2017-10-21 04:25",0.09
"2017-10-21 05:25",0.09
"2017-10-21 06:25",0.09
"2017-10-21 07:25",0.09
"2017-10-21 08:25",0.09
"2017-10-21 09:25",0.09
"2017-10-21 10:25",0.09
"2017-10-21 11:25",0.09
"2017-10-21 12:25",0.09
"2017-10-21 13:25",0.09
"2017-10-21 14:25",0.09
"2017-10-21 15:25",0.09
"2017-10-21 16:25",0.09
"2017-10-21 17:25",0.09
"2017-10-21 18:25",0.09
"2017-10-21 19:25",0.09
"2017-10-21 20:25",0.09
"2017-10-21 21:25",0.09
"2017-10-21 22:25",0.09
"2017-10-21 23:25",0.09
"2017-10-22 00:25",0.09
"2017-10-22 01:25",0.09
"2017-10-22 02:25",0.09
"2017-10-22 03:25",0.09
"2017-10-22 04:25",0.09
"2017-10-22 05:25",0.09
"2017-10-22 06:25",0.09
"2017-10-22 07:25",0.09
"2017-10-22 08:25",0.09
"2017-10-22 09:25",0.09
"2017-10-22 10:25",0.09
"2017-10-22 11:25",0.09
"2017-10-22 12:25",0.09
"2017-10-22 13:25",0.09
"2017-10-22 14:25",0.09
"2017-10-22 15:25",0.09
"2017-10-22 16:25",0.09
"2017-10-22 17:25",0.09
"2017-10-22 18:25",0.09
"2017-10-22 19:25",0.09
"2017-10-22 20:25",0.09
"2017-10-22 21:25",0.09
"2017-10-22 22:25",0.09
"2017-10-22 23:25",0.09
"2017-10-23 00:25",0.09
"2017-10-23 01:25",0.09
"2017-10-23 02:25",0.09
"2017-10-23 03:25",0.09
"2017-10-23 04:25",0.09
"2017-10-23 05:25",0.09
"2017-10-23 06:25",0.09
"2017-10-23 07:25",0.09
"2017-10-23 08:25",0.09
"2017-10-23 09:25",0.09
"2017-10-23 10:25",0.09
"2017-10-23 11:25",0.09
"2017-10-23 12:25",0.09
"2017-10-23 13:25",0.09
"2017-10-23 14:25",0.09
"2017-10-23 15:25",0.09
"2017-10-23 16:25",0.09
"2017-10-23 17:25",0.09
"2017-10-23 18:25",0.09
"2017-10-23 19:25",0.09
"2017-10-23 20:25",0.09
"2017-10-23 21:25",0.09
"2017-10-23 22:25",0.09
"2017-10-23 23:25",0.09
"2017-10-24 00:25",0.09
"2017-10-24 01:25",0.09
"2017-10-24 02:25",0.09
"2017-10-24 03:25",0.09
"2017-10-24 04:25",0.09
"2017-10-24 05:25",0.09
"2017-10-24 06:25",0.09
