"2018-03-08 13:10",0.03
"2018-03-08 14:10",0.03
"2018-03-08 15:10",0.03
"2018-03-08 16:10",0.03
"2018-03-08 17:10",0.03
"2018-03-08 18:10",0.03
"2018-03-08 19:10",0.03
"2018-03-08 20:10",0.03
"2018-03-08 21:10",0.03
"2018-03-08 22:10",0.03
"2018-03-08 23:10",0.03
"2018-03-09 00:10",0.03
"2018-03-09 01:10",0.03
"2018-03-09 02:10",0.03
"2018-03-09 03:10",0.03
"2018-03-09 04:10",0.03
"2018-03-09 05:10",0.03
"2018-03-09 06:10",0.03
"2018-03-09 07:10",0.03
"2018-03-09 08:10",0.03
"2018-03-09 09:10",0.03
"2018-03-09 10:10",0.03
"2018-03-09 11:10",0.03
"2018-03-09 12:10",0.03
"2018-03-09 13:10",0.03
"2018-03-09 14:10",0.03
"2018-03-09 15:10",0.03
"2018-03-09 16:10",0.03
"2018-03-09 17:10",0.03
"2018-03-09 18:10",0.03
"2018-03-09 19:10",0.03
"2018-03-09 20:10",0.03
"2018-03-09 21:10",0.03
"2018-03-09 22:10",0.03
"2018-03-09 23:10",0.03
"2018-03-10 00:10",0.03
"2018-03-10 01:10",0.03
"2018-03-10 02:10",0.03
"2018-03-10 03:10",0.03
"2018-03-10 04:10",0.03
"2018-03-10 05:10",0.03
"2018-03-10 06:10",0.03
"2018-03-10 07:10",0.03
"2018-03-10 08:10",0.03
"2018-03-10 09:10",0.03
"2018-03-10 10:10",0.03
"2018-03-10 11:10",0.03
"2018-03-10 12:10",0.03
"2018-03-10 12:25",0.01
"2018-03-10 13:10",0.02
"2018-03-10 14:10",0.03
"2018-03-10 15:10",0.03
"2018-03-10 16:10",0.03
"2018-03-10 17:10",0.03
"2018-03-10 18:10",0.03
"2018-03-10 19:10",0.03
"2018-03-10 20:10",0.03
"2018-03-10 21:10",0.03
"2018-03-10 22:10",0.03
"2018-03-10 23:10",0.03
"2018-03-11 00:10",0.02
"2018-03-11 01:10",0.02
"2018-03-11 02:10",0.01
"2018-03-11 03:10",0.01
"2018-03-11 04:10",0.01
"2018-03-11 05:10",0.01
"2018-03-11 06:10",0.00
"2018-03-11 07:10",0.00
"2018-03-11 08:10",0.00
"2018-03-11 09:10",0.00
"2018-03-11 10:10",0.00
"2018-03-11 11:10",0.01
"2018-03-11 12:10",0.00
"2018-03-11 13:10",0.01
"2018-03-11 14:10",0.01
"2018-03-11 15:10",0.00
"2018-03-11 16:10",0.00
"2018-03-11 17:10",0.00
"2018-03-11 18:10",0.00
"2018-03-11 19:10",0.00
"2018-03-11 20:10",0.01
"2018-03-11 21:10",0.01
"2018-03-11 22:10",0.01
"2018-03-11 23:10",0.01
"2018-03-12 00:10",0.01
"2018-03-12 01:10",0.02
"2018-03-12 02:10",0.03
"2018-03-12 03:10",0.03
"2018-03-12 04:10",0.03
"2018-03-12 05:10",0.03
"2018-03-12 06:10",0.03
"2018-03-12 07:10",0.03
"2018-03-12 08:10",0.03
"2018-03-12 09:10",0.03
"2018-03-12 10:10",0.03
"2018-03-12 11:10",0.03
"2018-03-12 11:45",0.01
"2018-03-12 12:45",0.01
"2018-03-12 13:45",0.01
"2018-03-12 14:45",0.01
"2018-03-12 15:45",0.01
"2018-03-12 16:45",0.01
"2018-03-12 17:45",0.01
"2018-03-12 18:45",0.01
"2018-03-12 19:45",0.01
"2018-03-12 20:45",0.01
"2018-03-12 21:45",0.01
"2018-03-12 22:45",0.01
"2018-03-12 23:45",0.01
"2018-03-13 00:45",0.01
"2018-03-13 01:45",0.01
"2018-03-13 02:45",0.01
"2018-03-13 03:45",0.01
"2018-03-13 04:45",0.01
"2018-03-13 05:45",0.01
"2018-03-13 06:45",0.01
"2018-03-13 07:45",0.01
"2018-03-13 08:45",0.01
"2018-03-13 09:45",0.01
"2018-03-13 10:45",0.01
"2018-03-13 11:45",0.01
"2018-03-13 12:45",0.01
"2018-03-13 13:45",0.01
"2018-03-13 14:45",0.01
"2018-03-13 15:45",0.01
"2018-03-13 16:45",0.01
"2018-03-13 17:45",0.01
"2018-03-13 18:45",0.01
"2018-03-13 19:45",0.01
"2018-03-13 20:45",0.01
"2018-03-13 21:45",0.01
"2018-03-13 22:45",0.01
"2018-03-13 23:45",0.01
"2018-03-14 00:45",0.01
"2018-03-14 01:45",0.01
"2018-03-14 02:45",0.01
"2018-03-14 03:45",0.01
"2018-03-14 04:45",0.01
"2018-03-14 05:45",0.01
"2018-03-14 06:45",0.01
"2018-03-14 07:45",0.01
"2018-03-14 08:45",0.01
"2018-03-14 09:45",0.01
"2018-03-14 10:45",0.01
"2018-03-14 11:45",0.01
"2018-03-14 12:45",0.01
"2018-03-14 13:45",0.01
"2018-03-14 14:45",0.01
"2018-03-14 15:45",0.01
"2018-03-14 16:45",0.01
"2018-03-14 17:45",0.01
"2018-03-14 18:45",0.01
"2018-03-14 19:45",0.01
"2018-03-14 20:45",0.01
"2018-03-14 21:45",0.01
"2018-03-14 22:05",0.02
"2018-03-14 22:15",0.04
"2018-03-14 22:25",0.05
"2018-03-14 22:45",0.07
"2018-03-14 23:45",0.07
"2018-03-14 23:55",0.08
"2018-03-15 00:20",0.09
"2018-03-15 00:35",0.10
"2018-03-15 01:35",0.11
"2018-03-15 02:35",0.11
"2018-03-15 03:35",0.11
"2018-03-15 04:30",0.09
"2018-03-15 05:30",0.08
"2018-03-15 06:30",0.08
"2018-03-15 06:35",0.07
"2018-03-15 07:35",0.07
"2018-03-15 08:35",0.07
"2018-03-15 09:00",0.05
"2018-03-15 10:00",0.05
"2018-03-15 10:10",0.04
"2018-03-15 11:10",0.04
