"2016-09-05 10:05",0.00
"2016-09-05 11:05",0.00
"2016-09-05 12:05",0.00
"2016-09-05 13:05",0.00
"2016-09-05 14:05",0.00
"2016-09-05 15:05",0.00
"2016-09-05 16:05",0.00
"2016-09-05 17:05",0.00
"2016-09-05 18:05",0.00
"2016-09-05 19:05",0.00
"2016-09-05 20:05",0.00
"2016-09-05 21:05",0.00
"2016-09-05 22:05",0.00
"2016-09-05 23:05",0.00
"2016-09-06 00:05",0.00
"2016-09-06 01:05",0.00
"2016-09-06 02:05",0.00
"2016-09-06 03:05",0.00
"2016-09-06 04:05",0.00
"2016-09-06 05:05",0.00
"2016-09-06 06:05",0.00
"2016-09-06 07:05",0.00
"2016-09-06 08:05",0.00
"2016-09-06 09:05",0.00
"2016-09-06 10:05",0.00
"2016-09-06 11:05",0.00
"2016-09-06 12:05",0.00
"2016-09-06 13:05",0.00
"2016-09-06 14:05",0.00
"2016-09-06 15:05",0.00
"2016-09-06 16:05",0.00
"2016-09-06 17:05",0.00
"2016-09-06 18:05",0.00
"2016-09-06 19:05",0.00
"2016-09-06 20:05",0.00
"2016-09-06 21:05",0.00
"2016-09-06 22:05",0.00
"2016-09-06 23:05",0.00
"2016-09-07 00:05",0.00
"2016-09-07 01:05",0.00
"2016-09-07 02:05",0.00
"2016-09-07 03:05",0.00
"2016-09-07 04:05",0.00
"2016-09-07 05:05",0.00
"2016-09-07 06:05",0.00
"2016-09-07 07:05",0.00
"2016-09-07 08:05",0.00
"2016-09-07 09:05",0.00
"2016-09-07 10:05",0.00
"2016-09-07 11:05",0.00
"2016-09-07 12:05",0.00
"2016-09-07 13:05",0.00
"2016-09-07 14:05",0.00
"2016-09-07 15:05",0.00
"2016-09-07 16:05",0.00
"2016-09-07 17:05",0.00
"2016-09-07 18:05",0.00
"2016-09-07 19:05",0.00
"2016-09-07 20:05",0.00
"2016-09-07 21:05",0.00
"2016-09-07 22:05",0.00
"2016-09-07 23:05",0.00
"2016-09-08 00:05",0.00
"2016-09-08 01:05",0.00
"2016-09-08 02:05",0.00
"2016-09-08 03:05",0.00
"2016-09-08 04:05",0.00
"2016-09-08 05:05",0.00
"2016-09-08 06:05",0.00
"2016-09-08 07:05",0.00
"2016-09-08 08:05",0.00
"2016-09-08 09:05",0.00
"2016-09-08 10:05",0.00
"2016-09-08 11:05",0.00
"2016-09-08 12:05",0.00
"2016-09-08 13:05",0.00
"2016-09-08 14:05",0.00
"2016-09-08 15:05",0.00
"2016-09-08 16:05",0.00
"2016-09-08 17:05",0.00
"2016-09-08 18:05",0.00
"2016-09-08 19:05",0.00
"2016-09-08 20:05",0.00
"2016-09-08 21:05",0.00
"2016-09-08 22:05",0.00
"2016-09-08 23:05",0.00
"2016-09-09 00:05",0.00
"2016-09-09 01:05",0.00
"2016-09-09 02:05",0.00
"2016-09-09 03:05",0.00
"2016-09-09 04:05",0.00
"2016-09-09 05:05",0.00
"2016-09-09 06:05",0.00
"2016-09-09 07:05",0.00
"2016-09-09 08:05",0.00
"2016-09-09 09:05",0.00
"2016-09-09 10:05",0.00
"2016-09-09 11:05",0.00
"2016-09-09 12:05",0.00
"2016-09-09 13:05",0.00
"2016-09-09 14:05",0.00
"2016-09-09 15:05",0.00
"2016-09-09 16:05",0.00
"2016-09-09 17:05",0.00
"2016-09-09 18:05",0.00
"2016-09-09 19:05",0.00
"2016-09-09 20:05",0.00
"2016-09-09 20:20",74.70
"2016-09-09 20:25",99.99
"2016-09-09 21:25",99.99
"2016-09-09 22:05",99.99
"2016-09-09 23:05",99.99
"2016-09-10 00:05",99.99
"2016-09-10 01:05",99.99
"2016-09-10 02:05",99.99
"2016-09-10 03:05",99.99
"2016-09-10 04:05",99.99
"2016-09-10 05:05",99.99
"2016-09-10 06:05",99.99
"2016-09-10 07:05",99.99
"2016-09-10 08:05",99.99
"2016-09-10 09:05",99.99
"2016-09-10 10:05",99.99
"2016-09-10 11:05",99.99
"2016-09-10 12:05",99.99
"2016-09-10 13:05",99.99
"2016-09-10 14:05",99.99
"2016-09-10 15:05",99.99
"2016-09-10 16:05",99.99
"2016-09-10 17:05",99.99
"2016-09-10 18:05",99.99
"2016-09-10 19:05",99.99
"2016-09-10 20:05",99.99
"2016-09-10 21:05",99.99
"2016-09-10 22:05",99.99
"2016-09-10 23:05",99.99
"2016-09-11 00:05",99.99
"2016-09-11 01:05",99.99
"2016-09-11 02:05",99.99
"2016-09-11 03:05",99.99
"2016-09-11 04:05",99.99
"2016-09-11 05:05",99.99
"2016-09-11 06:05",99.99
"2016-09-11 07:05",99.99
"2016-09-11 08:05",99.99
"2016-09-11 09:05",99.99
"2016-09-11 10:05",99.99
"2016-09-11 11:05",99.99
"2016-09-11 12:05",99.99
"2016-09-11 13:05",99.99
"2016-09-11 14:05",99.99
"2016-09-11 15:05",99.99
"2016-09-11 16:05",99.99
"2016-09-11 17:05",99.99
"2016-09-11 18:05",99.99
"2016-09-11 19:05",99.99
"2016-09-11 20:05",99.99
"2016-09-11 21:05",99.99
"2016-09-11 22:05",99.99
"2016-09-11 23:05",99.99
"2016-09-12 00:05",99.99
"2016-09-12 01:05",99.99
"2016-09-12 02:05",99.99
"2016-09-12 03:05",99.99
"2016-09-12 04:05",99.99
"2016-09-12 05:05",99.99
"2016-09-12 06:05",99.99
"2016-09-12 07:05",99.99
