"2017-11-20 07:45",0.00
"2017-11-20 08:00",0.00
"2017-11-20 08:15",0.00
"2017-11-20 08:30",0.00
"2017-11-20 08:45",0.00
"2017-11-20 09:00",0.00
"2017-11-20 09:15",0.00
"2017-11-20 09:30",0.00
"2017-11-20 09:45",0.00
"2017-11-20 10:00",0.00
"2017-11-20 10:15",0.00
"2017-11-20 10:30",0.00
"2017-11-20 10:45",0.00
"2017-11-20 11:00",0.00
"2017-11-20 11:15",0.00
"2017-11-20 11:30",0.00
"2017-11-20 11:45",0.00
"2017-11-20 12:00",0.00
"2017-11-20 12:15",0.00
"2017-11-20 12:30",0.00
"2017-11-20 12:45",0.00
"2017-11-20 13:00",0.00
"2017-11-20 13:15",0.00
"2017-11-20 13:30",0.00
"2017-11-20 13:45",0.00
"2017-11-20 14:00",0.00
"2017-11-20 14:15",0.00
"2017-11-20 14:30",0.00
"2017-11-20 14:45",0.00
"2017-11-20 15:00",0.00
"2017-11-20 15:15",0.00
"2017-11-20 15:30",0.00
"2017-11-20 15:45",0.00
"2017-11-20 16:00",0.00
"2017-11-20 16:15",0.00
"2017-11-20 16:30",0.00
"2017-11-20 16:45",0.00
"2017-11-20 17:00",0.00
"2017-11-20 17:15",0.00
"2017-11-20 17:30",0.00
"2017-11-20 17:45",0.00
"2017-11-20 18:00",0.00
"2017-11-20 18:15",0.00
"2017-11-20 18:30",0.00
"2017-11-20 18:45",0.00
"2017-11-20 19:00",0.00
"2017-11-20 19:15",0.00
"2017-11-20 19:30",0.00
"2017-11-20 19:45",0.00
"2017-11-20 20:00",0.00
"2017-11-20 20:15",0.00
"2017-11-20 20:30",0.00
"2017-11-20 20:45",0.00
"2017-11-20 21:00",0.00
"2017-11-20 21:15",0.00
"2017-11-20 21:30",0.00
"2017-11-20 21:45",0.00
"2017-11-20 22:00",0.00
"2017-11-20 22:15",0.00
"2017-11-20 22:30",0.00
"2017-11-20 22:45",0.00
"2017-11-20 23:00",0.00
"2017-11-20 23:15",0.00
"2017-11-20 23:30",0.00
"2017-11-20 23:45",0.00
"2017-11-21 00:00",0.00
"2017-11-21 00:15",0.00
"2017-11-21 00:30",0.00
"2017-11-21 00:45",0.00
"2017-11-21 01:00",0.00
"2017-11-21 01:15",0.00
"2017-11-21 01:30",0.00
"2017-11-21 01:45",0.00
"2017-11-21 02:00",0.00
"2017-11-21 02:15",0.00
"2017-11-21 02:30",0.00
"2017-11-21 02:45",0.00
"2017-11-21 03:00",0.00
"2017-11-21 03:15",0.00
"2017-11-21 03:30",0.00
"2017-11-21 03:45",0.00
"2017-11-21 04:00",0.00
"2017-11-21 04:15",0.00
"2017-11-21 04:30",0.00
"2017-11-21 04:45",0.00
"2017-11-21 05:00",0.00
"2017-11-21 05:15",0.00
"2017-11-21 05:30",0.00
"2017-11-21 05:45",0.00
"2017-11-21 06:00",0.00
"2017-11-21 06:15",0.00
"2017-11-21 06:30",0.00
"2017-11-21 06:45",0.00
"2017-11-21 07:00",0.00
"2017-11-21 07:15",0.00
"2017-11-21 07:30",0.00
"2017-11-21 07:45",0.00
"2017-11-21 08:00",0.00
"2017-11-21 08:15",0.00
"2017-11-21 08:30",0.00
"2017-11-21 08:45",0.00
"2017-11-21 09:00",0.00
"2017-11-21 09:15",0.00
"2017-11-21 09:30",0.00
"2017-11-21 09:45",0.00
"2017-11-21 10:00",0.00
"2017-11-21 10:15",0.00
"2017-11-21 10:30",0.00
"2017-11-21 10:45",0.00
"2017-11-21 11:00",0.00
"2017-11-21 11:15",0.00
"2017-11-21 11:30",0.00
"2017-11-21 11:45",0.00
"2017-11-21 12:00",0.00
"2017-11-21 12:15",0.00
"2017-11-21 12:30",0.00
"2017-11-21 12:45",0.00
"2017-11-21 13:00",0.00
"2017-11-21 13:15",0.00
"2017-11-21 13:30",0.00
"2017-11-21 13:45",0.00
"2017-11-21 14:00",0.00
"2017-11-21 14:15",0.00
"2017-11-21 14:30",0.00
"2017-11-21 14:45",0.00
"2017-11-21 15:00",0.00
"2017-11-21 15:15",0.00
"2017-11-21 15:30",0.00
"2017-11-21 15:45",0.00
"2017-11-21 16:00",0.00
"2017-11-21 16:15",0.00
"2017-11-21 16:30",0.00
"2017-11-21 16:45",0.00
"2017-11-21 17:00",0.00
"2017-11-21 17:15",0.00
"2017-11-21 17:30",0.00
"2017-11-21 17:45",0.00
"2017-11-21 18:00",0.00
"2017-11-21 18:15",0.00
"2017-11-21 18:30",0.00
"2017-11-21 18:45",0.00
"2017-11-21 19:00",0.00
"2017-11-21 19:15",0.00
"2017-11-21 19:30",0.00
"2017-11-21 19:45",0.00
"2017-11-21 20:00",0.00
"2017-11-21 20:15",0.00
"2017-11-21 20:30",0.00
"2017-11-21 20:45",0.00
"2017-11-21 21:00",0.00
"2017-11-21 21:15",0.00
"2017-11-21 21:30",0.00
"2017-11-21 21:45",0.00
"2017-11-21 22:00",0.00
"2017-11-21 22:15",0.00
"2017-11-21 22:30",0.00
"2017-11-21 22:45",0.00
"2017-11-21 23:00",0.00
"2017-11-21 23:15",0.00
"2017-11-21 23:30",0.00
"2017-11-21 23:45",0.00
"2017-11-22 00:00",0.00
"2017-11-22 00:15",0.00
"2017-11-22 00:30",0.00
"2017-11-22 00:45",0.00
"2017-11-22 01:00",0.00
"2017-11-22 01:15",0.00
"2017-11-22 01:30",0.00
"2017-11-22 01:45",0.00
"2017-11-22 02:00",0.00
"2017-11-22 02:15",0.00
"2017-11-22 02:30",0.00
"2017-11-22 02:45",0.00
"2017-11-22 03:00",0.00
"2017-11-22 03:15",0.00
"2017-11-22 03:30",0.00
"2017-11-22 03:45",0.00
"2017-11-22 04:00",0.00
"2017-11-22 04:15",0.00
"2017-11-22 04:30",0.00
"2017-11-22 04:45",0.00
"2017-11-22 05:00",0.00
"2017-11-22 05:15",0.00
"2017-11-22 05:30",0.00
"2017-11-22 05:45",0.00
"2017-11-22 06:00",0.00
"2017-11-22 06:15",0.00
"2017-11-22 06:30",0.00
"2017-11-22 06:45",0.00
"2017-11-22 07:00",0.00
"2017-11-22 07:15",0.00
"2017-11-22 07:30",0.00
"2017-11-22 07:45",0.00
"2017-11-22 08:00",0.00
"2017-11-22 08:15",0.00
"2017-11-22 08:30",0.00
"2017-11-22 08:45",0.00
"2017-11-22 09:00",0.00
"2017-11-22 09:15",0.00
"2017-11-22 09:30",0.00
"2017-11-22 09:45",0.00
"2017-11-22 10:00",0.00
"2017-11-22 10:15",0.00
"2017-11-22 10:30",0.00
"2017-11-22 10:45",0.00
"2017-11-22 11:00",0.00
"2017-11-22 11:15",0.00
"2017-11-22 11:30",0.00
"2017-11-22 11:45",0.00
"2017-11-22 12:00",0.00
"2017-11-22 12:15",0.00
"2017-11-22 12:30",0.00
"2017-11-22 12:45",0.00
"2017-11-22 13:00",0.00
"2017-11-22 13:15",0.00
"2017-11-22 13:30",0.00
"2017-11-22 13:45",0.00
"2017-11-22 14:00",0.00
"2017-11-22 14:15",0.00
"2017-11-22 14:30",0.00
"2017-11-22 14:45",0.00
"2017-11-22 15:00",0.00
"2017-11-22 15:15",0.00
"2017-11-22 15:30",0.00
"2017-11-22 15:45",0.00
"2017-11-22 16:00",0.00
"2017-11-22 16:15",0.00
"2017-11-22 16:30",0.00
"2017-11-22 16:45",0.00
"2017-11-22 17:00",0.00
"2017-11-22 17:15",0.00
"2017-11-22 17:30",0.00
"2017-11-22 17:45",0.00
"2017-11-22 18:00",0.00
"2017-11-22 18:15",0.00
"2017-11-22 18:30",0.00
"2017-11-22 18:45",0.00
"2017-11-22 19:00",0.00
"2017-11-22 19:15",0.00
"2017-11-22 19:30",0.00
"2017-11-22 19:45",0.00
"2017-11-22 20:00",0.00
"2017-11-22 20:15",0.00
"2017-11-22 20:30",0.00
"2017-11-22 20:45",0.00
"2017-11-22 21:00",0.00
"2017-11-22 21:15",0.00
"2017-11-22 21:30",0.00
"2017-11-22 21:45",0.00
"2017-11-22 22:00",0.00
"2017-11-22 22:15",0.00
"2017-11-22 22:30",0.00
"2017-11-22 22:45",0.00
"2017-11-22 23:00",0.00
"2017-11-22 23:15",0.00
"2017-11-22 23:30",0.00
"2017-11-22 23:45",0.00
"2017-11-23 00:00",0.00
"2017-11-23 00:15",0.00
"2017-11-23 00:30",0.00
"2017-11-23 00:45",0.00
"2017-11-23 01:00",0.00
"2017-11-23 01:15",0.00
"2017-11-23 01:30",0.00
"2017-11-23 01:45",0.00
"2017-11-23 02:00",0.00
"2017-11-23 02:15",0.00
"2017-11-23 02:30",0.00
"2017-11-23 02:45",0.00
"2017-11-23 03:00",0.00
"2017-11-23 03:15",0.00
"2017-11-23 03:30",0.00
"2017-11-23 03:45",0.00
"2017-11-23 04:00",0.00
"2017-11-23 04:15",0.00
"2017-11-23 04:30",0.00
"2017-11-23 04:45",0.00
"2017-11-23 05:00",0.00
"2017-11-23 05:15",0.00
"2017-11-23 05:30",0.00
"2017-11-23 05:45",0.00
"2017-11-23 06:00",0.00
"2017-11-23 06:15",0.00
"2017-11-23 06:30",0.00
"2017-11-23 06:45",0.00
"2017-11-23 07:00",0.00
"2017-11-23 07:15",0.00
"2017-11-23 07:30",0.00
"2017-11-23 07:45",0.00
"2017-11-23 08:00",0.00
"2017-11-23 08:15",0.00
"2017-11-23 08:30",0.00
"2017-11-23 08:45",0.00
"2017-11-23 09:00",0.00
"2017-11-23 09:15",0.00
"2017-11-23 09:30",0.00
"2017-11-23 09:45",0.00
"2017-11-23 10:00",0.00
"2017-11-23 10:15",0.00
"2017-11-23 10:30",0.00
"2017-11-23 10:45",0.00
"2017-11-23 11:00",0.00
"2017-11-23 11:15",0.00
"2017-11-23 11:30",0.00
"2017-11-23 11:45",0.00
"2017-11-23 12:00",0.00
"2017-11-23 12:15",0.00
"2017-11-23 12:30",0.00
"2017-11-23 12:45",0.00
"2017-11-23 13:00",0.00
"2017-11-23 13:15",0.00
"2017-11-23 13:30",0.00
"2017-11-23 13:45",0.00
"2017-11-23 14:00",0.00
"2017-11-23 14:15",0.00
"2017-11-23 14:30",0.00
"2017-11-23 14:45",0.00
"2017-11-23 15:00",0.00
"2017-11-23 15:15",0.00
"2017-11-23 15:30",0.00
"2017-11-23 15:45",0.00
"2017-11-23 16:00",0.00
"2017-11-23 16:15",0.00
"2017-11-23 16:30",0.00
"2017-11-23 16:45",0.00
"2017-11-23 17:00",0.00
"2017-11-23 17:15",0.00
"2017-11-23 17:30",0.00
"2017-11-23 17:45",0.00
"2017-11-23 18:00",0.00
"2017-11-23 18:15",0.00
"2017-11-23 18:30",0.00
"2017-11-23 18:45",0.00
"2017-11-23 19:00",0.00
"2017-11-23 19:15",0.00
"2017-11-23 19:30",0.00
"2017-11-23 19:45",0.00
"2017-11-23 20:00",0.00
"2017-11-23 20:15",0.00
"2017-11-23 20:30",0.00
"2017-11-23 20:45",0.00
"2017-11-23 21:00",0.00
"2017-11-23 21:15",0.00
"2017-11-23 21:30",0.00
"2017-11-23 21:45",0.00
"2017-11-23 22:00",0.00
"2017-11-23 22:15",0.00
"2017-11-23 22:30",0.00
"2017-11-23 22:45",0.00
"2017-11-23 23:00",0.00
"2017-11-23 23:15",0.00
"2017-11-23 23:30",0.00
"2017-11-23 23:45",0.00
"2017-11-24 00:00",0.00
"2017-11-24 00:15",0.00
"2017-11-24 00:30",0.00
"2017-11-24 00:45",0.00
"2017-11-24 01:00",0.00
"2017-11-24 01:15",0.00
"2017-11-24 01:30",0.00
"2017-11-24 01:45",0.00
"2017-11-24 02:00",0.00
"2017-11-24 02:15",0.00
"2017-11-24 02:30",0.00
"2017-11-24 02:45",0.00
"2017-11-24 03:00",0.00
"2017-11-24 03:15",0.00
"2017-11-24 03:30",0.00
"2017-11-24 03:45",0.00
"2017-11-24 04:00",0.00
"2017-11-24 04:15",0.00
"2017-11-24 04:30",0.00
"2017-11-24 04:45",0.00
"2017-11-24 05:00",0.00
"2017-11-24 05:15",0.00
"2017-11-24 05:30",0.00
"2017-11-24 05:45",0.00
"2017-11-24 06:00",0.00
"2017-11-24 06:15",0.00
"2017-11-24 06:30",0.00
"2017-11-24 06:45",0.00
"2017-11-24 07:00",0.00
"2017-11-24 07:15",0.00
"2017-11-24 07:30",0.00
"2017-11-24 07:45",0.00
"2017-11-24 08:00",0.00
"2017-11-24 08:15",0.00
"2017-11-24 08:30",0.00
"2017-11-24 08:45",0.00
"2017-11-24 09:00",0.00
"2017-11-24 09:15",0.00
"2017-11-24 09:30",0.00
"2017-11-24 09:45",0.00
"2017-11-24 10:00",0.00
"2017-11-24 10:15",0.00
"2017-11-24 10:30",0.00
"2017-11-24 10:45",0.00
"2017-11-24 11:00",0.00
"2017-11-24 11:15",0.00
"2017-11-24 11:30",0.00
"2017-11-24 11:45",0.00
"2017-11-24 12:00",0.00
"2017-11-24 12:15",0.00
"2017-11-24 12:30",0.00
"2017-11-24 12:45",0.00
"2017-11-24 13:00",0.00
"2017-11-24 13:15",0.00
"2017-11-24 13:30",0.00
"2017-11-24 13:45",0.00
"2017-11-24 14:00",0.00
"2017-11-24 14:15",0.00
"2017-11-24 14:30",0.00
"2017-11-24 14:45",0.00
"2017-11-24 15:00",0.00
"2017-11-24 15:15",0.00
"2017-11-24 15:30",0.00
"2017-11-24 15:45",0.00
"2017-11-24 16:00",0.00
"2017-11-24 16:15",0.00
"2017-11-24 16:30",0.00
"2017-11-24 16:45",0.00
"2017-11-24 17:00",0.00
"2017-11-24 17:15",0.00
"2017-11-24 17:30",0.00
"2017-11-24 17:45",0.00
"2017-11-24 18:00",0.00
"2017-11-24 18:15",0.00
"2017-11-24 18:30",0.00
"2017-11-24 18:45",0.00
"2017-11-24 19:00",0.00
"2017-11-24 19:15",0.00
"2017-11-24 19:30",0.00
"2017-11-24 19:45",0.00
"2017-11-24 20:00",0.00
"2017-11-24 20:15",0.00
"2017-11-24 20:30",0.00
"2017-11-24 20:45",0.00
"2017-11-24 21:00",0.00
"2017-11-24 21:15",0.00
"2017-11-24 21:30",0.00
"2017-11-24 21:45",0.00
"2017-11-24 22:00",0.00
"2017-11-24 22:15",0.00
"2017-11-24 22:30",0.00
"2017-11-24 22:45",0.00
"2017-11-24 23:00",0.00
"2017-11-24 23:15",0.00
"2017-11-24 23:30",0.00
"2017-11-24 23:45",0.00
"2017-11-25 00:00",0.00
"2017-11-25 00:15",0.00
"2017-11-25 00:30",0.00
"2017-11-25 00:45",0.00
"2017-11-25 01:00",0.00
"2017-11-25 01:15",0.00
"2017-11-25 01:30",0.00
"2017-11-25 01:45",0.00
"2017-11-25 02:00",0.00
"2017-11-25 02:15",0.00
"2017-11-25 02:30",0.00
"2017-11-25 02:45",0.00
"2017-11-25 03:00",0.00
"2017-11-25 03:15",0.00
"2017-11-25 03:30",0.00
"2017-11-25 03:45",0.00
"2017-11-25 04:00",0.00
"2017-11-25 04:15",0.00
"2017-11-25 04:30",0.00
"2017-11-25 04:45",0.00
"2017-11-25 05:00",0.00
"2017-11-25 05:15",0.00
"2017-11-25 05:30",0.00
"2017-11-25 05:45",0.00
"2017-11-25 06:00",0.00
"2017-11-25 06:15",0.00
"2017-11-25 06:30",0.00
"2017-11-25 06:45",0.00
"2017-11-25 07:00",0.00
"2017-11-25 07:15",0.00
"2017-11-25 07:30",0.00
"2017-11-25 07:45",0.00
"2017-11-25 08:00",0.00
"2017-11-25 08:15",0.00
"2017-11-25 08:30",0.00
"2017-11-25 08:45",0.00
"2017-11-25 09:00",0.00
"2017-11-25 09:15",0.00
"2017-11-25 09:30",0.00
"2017-11-25 09:45",0.00
"2017-11-25 10:00",0.00
"2017-11-25 10:15",0.00
"2017-11-25 10:30",0.00
"2017-11-25 10:45",0.00
"2017-11-25 11:00",0.00
"2017-11-25 11:15",0.00
"2017-11-25 11:30",0.00
"2017-11-25 11:45",0.00
"2017-11-25 12:00",0.00
"2017-11-25 12:15",0.00
"2017-11-25 12:30",0.00
"2017-11-25 12:45",0.00
"2017-11-25 13:00",0.00
"2017-11-25 13:15",0.00
"2017-11-25 13:30",0.00
"2017-11-25 13:45",0.00
"2017-11-25 14:00",0.00
"2017-11-25 14:15",0.00
"2017-11-25 14:30",0.00
"2017-11-25 14:45",0.00
"2017-11-25 15:00",0.00
"2017-11-25 15:15",0.00
"2017-11-25 15:30",0.00
"2017-11-25 15:45",0.00
"2017-11-25 16:00",0.00
"2017-11-25 16:15",0.00
"2017-11-25 16:30",0.00
"2017-11-25 16:45",0.00
"2017-11-25 17:00",0.00
"2017-11-25 17:15",0.00
"2017-11-25 17:30",0.00
"2017-11-25 17:45",0.00
"2017-11-25 18:00",0.00
"2017-11-25 18:15",0.00
"2017-11-25 18:30",0.00
"2017-11-25 18:45",0.00
"2017-11-25 19:00",0.00
"2017-11-25 19:15",0.00
"2017-11-25 19:30",0.00
"2017-11-25 19:45",0.00
"2017-11-25 20:00",0.00
"2017-11-25 20:15",0.00
"2017-11-25 20:30",0.00
"2017-11-25 20:45",0.00
"2017-11-25 21:00",0.00
"2017-11-25 21:15",0.00
"2017-11-25 21:30",0.00
"2017-11-25 21:45",0.00
"2017-11-25 22:00",0.00
"2017-11-25 22:15",0.00
"2017-11-25 22:30",0.00
"2017-11-25 22:45",0.00
"2017-11-25 23:00",0.00
"2017-11-25 23:15",0.00
"2017-11-25 23:30",0.00
"2017-11-25 23:45",0.00
"2017-11-26 00:00",0.00
"2017-11-26 00:15",0.00
"2017-11-26 00:30",0.00
"2017-11-26 00:45",0.00
"2017-11-26 01:00",0.00
"2017-11-26 01:15",0.00
"2017-11-26 01:30",0.00
"2017-11-26 01:45",0.00
"2017-11-26 02:00",0.00
"2017-11-26 02:15",0.00
"2017-11-26 02:30",0.00
"2017-11-26 02:45",0.00
"2017-11-26 03:00",0.00
"2017-11-26 03:15",0.00
"2017-11-26 03:30",0.00
"2017-11-26 03:45",0.00
"2017-11-26 04:00",0.00
"2017-11-26 04:15",0.00
"2017-11-26 04:30",0.00
"2017-11-26 04:45",0.00
"2017-11-26 05:00",0.00
"2017-11-26 05:15",0.00
"2017-11-26 05:30",0.00
"2017-11-26 05:45",0.00
"2017-11-26 06:00",0.00
"2017-11-26 06:15",0.00
"2017-11-26 06:30",0.00
"2017-11-26 06:45",0.00
"2017-11-26 07:00",0.00
"2017-11-26 07:15",0.00
"2017-11-26 07:30",0.00
"2017-11-26 07:45",0.00
"2017-11-26 08:00",0.00
"2017-11-26 08:15",0.00
"2017-11-26 08:30",0.00
"2017-11-26 08:45",0.00
"2017-11-26 09:00",0.00
"2017-11-26 09:15",0.00
"2017-11-26 09:30",0.00
"2017-11-26 09:45",0.00
"2017-11-26 10:00",0.00
"2017-11-26 10:15",0.00
"2017-11-26 10:30",0.00
"2017-11-26 10:45",0.00
"2017-11-26 11:00",0.00
"2017-11-26 11:15",0.00
"2017-11-26 11:30",0.00
"2017-11-26 11:45",0.00
"2017-11-26 12:00",0.00
"2017-11-26 12:15",0.00
"2017-11-26 12:30",0.00
"2017-11-26 12:45",0.00
"2017-11-26 13:00",0.00
"2017-11-26 13:15",0.00
"2017-11-26 13:30",0.00
"2017-11-26 13:45",0.00
"2017-11-26 14:00",0.00
"2017-11-26 14:15",0.00
"2017-11-26 14:30",0.00
"2017-11-26 14:45",0.00
"2017-11-26 15:00",0.00
"2017-11-26 15:15",0.00
"2017-11-26 15:30",0.00
"2017-11-26 15:45",0.00
"2017-11-26 16:00",0.00
"2017-11-26 16:15",0.00
"2017-11-26 16:30",0.00
"2017-11-26 16:45",0.00
"2017-11-26 17:00",0.00
"2017-11-26 17:15",0.00
"2017-11-26 17:30",0.00
"2017-11-26 17:45",0.00
"2017-11-26 18:00",0.00
"2017-11-26 18:15",0.00
"2017-11-26 18:30",0.00
"2017-11-26 18:45",0.00
"2017-11-26 19:00",0.00
"2017-11-26 19:15",0.00
"2017-11-26 19:30",0.00
"2017-11-26 19:45",0.00
"2017-11-26 20:00",0.00
"2017-11-26 20:15",0.00
"2017-11-26 20:30",0.00
"2017-11-26 20:45",0.00
"2017-11-26 21:00",0.00
"2017-11-26 21:15",0.00
"2017-11-26 21:30",0.00
"2017-11-26 21:45",0.00
"2017-11-26 22:00",0.00
"2017-11-26 22:15",0.00
"2017-11-26 22:30",0.00
"2017-11-26 22:45",0.00
"2017-11-26 23:00",0.00
"2017-11-26 23:15",0.00
"2017-11-26 23:30",0.00
"2017-11-26 23:45",0.00
"2017-11-27 00:00",0.00
"2017-11-27 00:15",0.00
"2017-11-27 00:30",0.00
"2017-11-27 00:45",0.00
"2017-11-27 01:00",0.00
"2017-11-27 01:15",0.00
"2017-11-27 01:30",0.00
"2017-11-27 01:45",0.00
"2017-11-27 02:00",0.00
"2017-11-27 02:15",0.00
"2017-11-27 02:30",0.00
"2017-11-27 02:45",0.00
"2017-11-27 03:00",0.00
"2017-11-27 03:15",0.00
"2017-11-27 03:30",0.00
"2017-11-27 03:45",0.00
"2017-11-27 04:00",0.00
"2017-11-27 04:15",0.00
"2017-11-27 04:30",0.00
"2017-11-27 04:45",0.00
"2017-11-27 05:00",0.00
"2017-11-27 05:15",0.00
"2017-11-27 05:30",0.00
"2017-11-27 05:45",0.00
"2017-11-27 06:00",0.00
"2017-11-27 06:15",0.00
"2017-11-27 06:30",0.00
