"2016-10-17 08:10",0.00
"2016-10-17 09:10",0.00
"2016-10-17 10:10",0.00
"2016-10-17 11:10",0.00
"2016-10-17 12:10",0.00
"2016-10-17 13:10",0.00
"2016-10-17 14:10",0.00
"2016-10-17 15:10",0.00
"2016-10-17 16:10",0.00
"2016-10-17 17:10",0.00
"2016-10-17 18:10",0.00
"2016-10-17 19:10",0.00
"2016-10-17 20:10",0.00
"2016-10-17 21:10",0.00
"2016-10-17 22:10",0.00
"2016-10-17 23:10",0.00
"2016-10-18 00:10",0.00
"2016-10-18 01:10",0.00
"2016-10-18 02:10",0.00
"2016-10-18 03:10",0.00
"2016-10-18 04:10",0.00
"2016-10-18 05:10",0.00
"2016-10-18 06:10",0.00
"2016-10-18 07:10",0.00
"2016-10-18 08:10",0.00
"2016-10-18 09:10",0.00
"2016-10-18 10:10",0.00
"2016-10-18 11:10",0.00
"2016-10-18 12:10",0.00
"2016-10-18 13:10",0.00
"2016-10-18 14:10",0.00
"2016-10-18 15:10",0.00
"2016-10-18 16:10",0.00
"2016-10-18 17:10",0.00
"2016-10-18 18:10",0.00
"2016-10-18 19:10",0.00
"2016-10-18 20:10",0.00
"2016-10-18 21:10",0.00
"2016-10-18 22:10",0.00
"2016-10-18 23:10",0.00
"2016-10-19 00:10",0.00
"2016-10-19 01:10",0.00
"2016-10-19 02:10",0.00
"2016-10-19 03:10",0.00
"2016-10-19 04:10",0.00
"2016-10-19 05:10",0.00
"2016-10-19 06:10",0.00
"2016-10-19 07:10",0.00
"2016-10-19 08:10",0.00
"2016-10-19 09:10",0.00
"2016-10-19 10:10",0.00
"2016-10-19 11:10",0.00
"2016-10-19 12:10",0.00
"2016-10-19 13:10",0.00
"2016-10-19 14:10",0.00
"2016-10-19 15:10",0.00
"2016-10-19 16:10",0.00
"2016-10-19 17:10",0.00
"2016-10-19 18:10",0.00
"2016-10-19 19:10",0.00
"2016-10-19 20:10",0.00
"2016-10-19 21:10",0.00
"2016-10-19 22:10",0.00
"2016-10-19 23:10",0.00
"2016-10-20 00:10",0.00
"2016-10-20 01:10",0.00
"2016-10-20 02:10",0.00
"2016-10-20 03:10",0.00
"2016-10-20 04:10",0.00
"2016-10-20 05:10",0.00
"2016-10-20 06:10",0.00
"2016-10-20 07:10",0.00
"2016-10-20 08:10",0.00
"2016-10-20 09:10",0.00
"2016-10-20 10:10",0.00
"2016-10-20 11:10",0.00
"2016-10-20 12:10",0.00
"2016-10-20 13:10",0.11
"2016-10-20 13:15",0.25
"2016-10-20 13:20",0.30
"2016-10-20 13:25",0.31
"2016-10-20 13:40",0.33
"2016-10-20 13:50",0.30
"2016-10-20 14:05",0.28
"2016-10-20 14:15",0.27
"2016-10-20 14:30",0.25
"2016-10-20 14:40",0.24
"2016-10-20 14:45",0.22
"2016-10-20 14:50",0.23
"2016-10-20 14:55",0.22
"2016-10-20 15:00",0.20
"2016-10-20 15:15",0.19
"2016-10-20 15:25",0.18
"2016-10-20 15:45",0.44
"2016-10-20 15:50",0.59
"2016-10-20 16:05",0.55
"2016-10-20 16:10",0.50
"2016-10-20 16:15",0.48
"2016-10-20 16:20",0.46
"2016-10-20 16:25",0.44
"2016-10-20 16:30",0.42
"2016-10-20 16:40",0.40
"2016-10-20 16:45",0.38
"2016-10-20 16:50",0.36
"2016-10-20 17:00",0.35
"2016-10-20 17:05",0.33
"2016-10-20 17:10",0.32
"2016-10-20 17:15",0.31
"2016-10-20 17:25",0.29
"2016-10-20 17:35",0.27
"2016-10-20 17:50",0.25
"2016-10-20 17:55",0.24
"2016-10-20 18:05",0.22
"2016-10-20 18:20",0.21
"2016-10-20 18:35",0.20
"2016-10-20 18:40",0.18
"2016-10-20 19:00",0.17
"2016-10-20 19:10",0.15
"2016-10-20 19:25",0.17
"2016-10-20 19:35",0.14
"2016-10-20 20:35",0.13
"2016-10-20 20:55",0.11
"2016-10-20 21:35",0.12
"2016-10-20 21:45",0.11
"2016-10-20 22:10",0.10
"2016-10-20 22:35",0.09
"2016-10-20 23:05",0.10
"2016-10-20 23:15",0.09
"2016-10-20 23:30",0.08
"2016-10-20 23:50",0.06
"2016-10-20 23:55",0.08
"2016-10-21 00:00",0.07
"2016-10-21 00:25",0.04
"2016-10-21 01:00",0.05
"2016-10-21 01:10",0.03
"2016-10-21 01:25",0.02
"2016-10-21 02:15",0.01
"2016-10-21 03:15",0.00
"2016-10-21 04:15",0.00
"2016-10-21 05:15",0.00
"2016-10-21 06:15",0.00
"2016-10-21 07:15",0.00
"2016-10-21 08:15",0.00
"2016-10-21 09:15",0.00
"2016-10-21 10:15",0.00
"2016-10-21 11:15",0.00
"2016-10-21 12:15",0.00
"2016-10-21 13:15",0.00
"2016-10-21 14:15",0.00
"2016-10-21 15:15",0.00
"2016-10-21 16:15",0.00
"2016-10-21 17:15",0.00
"2016-10-21 18:15",0.00
"2016-10-21 19:15",0.00
"2016-10-21 20:15",0.00
"2016-10-21 21:15",0.00
"2016-10-21 22:15",0.00
"2016-10-21 23:15",0.00
"2016-10-22 00:15",0.00
"2016-10-22 01:15",0.00
"2016-10-22 02:15",0.00
"2016-10-22 03:15",0.00
"2016-10-22 04:15",0.00
"2016-10-22 05:15",0.00
"2016-10-22 06:15",0.00
"2016-10-22 07:15",0.00
"2016-10-22 08:15",0.00
"2016-10-22 09:15",0.00
"2016-10-22 10:00",0.10
"2016-10-22 10:05",0.16
"2016-10-22 10:10",0.21
"2016-10-22 10:15",0.23
"2016-10-22 10:40",0.21
"2016-10-22 10:45",0.19
"2016-10-22 10:50",0.20
"2016-10-22 11:00",0.18
"2016-10-22 11:20",0.17
"2016-10-22 11:25",0.16
"2016-10-22 11:50",0.14
"2016-10-22 12:40",0.13
"2016-10-22 13:40",0.12
"2016-10-22 14:25",0.11
"2016-10-22 15:00",0.10
"2016-10-22 15:30",0.11
"2016-10-22 15:35",0.10
"2016-10-22 16:05",0.08
"2016-10-22 16:35",0.07
"2016-10-22 16:45",0.06
"2016-10-22 16:50",0.07
"2016-10-22 17:20",0.08
"2016-10-22 17:35",0.07
"2016-10-22 18:05",0.06
"2016-10-22 18:20",0.07
"2016-10-22 18:45",0.05
"2016-10-22 19:05",0.04
"2016-10-22 19:40",0.05
"2016-10-22 19:45",0.04
"2016-10-22 19:50",0.03
"2016-10-22 20:45",0.02
"2016-10-22 21:30",0.00
"2016-10-22 22:30",0.01
"2016-10-22 23:30",0.00
"2016-10-23 00:30",0.00
"2016-10-23 01:30",0.00
"2016-10-23 02:30",0.00
"2016-10-23 03:30",0.00
"2016-10-23 04:30",0.00
"2016-10-23 05:30",0.00
"2016-10-23 06:30",0.00
"2016-10-23 07:30",0.00
"2016-10-23 08:30",0.00
"2016-10-23 09:30",0.00
"2016-10-23 10:30",0.00
"2016-10-23 11:30",0.00
"2016-10-23 12:30",0.00
"2016-10-23 13:30",0.00
"2016-10-23 14:30",0.00
"2016-10-23 15:30",0.00
"2016-10-23 15:40",0.12
"2016-10-23 15:45",0.31
"2016-10-23 15:50",0.37
"2016-10-23 16:05",0.35
"2016-10-23 16:15",0.33
"2016-10-23 16:20",0.32
"2016-10-23 16:25",0.30
"2016-10-23 16:35",0.28
"2016-10-23 16:45",0.27
"2016-10-23 16:50",0.26
"2016-10-23 17:00",0.25
"2016-10-23 17:10",0.23
"2016-10-23 17:15",0.22
"2016-10-23 17:30",0.20
"2016-10-23 17:45",0.19
"2016-10-23 17:55",0.18
"2016-10-23 18:20",0.17
"2016-10-23 18:45",0.20
"2016-10-23 18:50",0.23
"2016-10-23 18:55",0.28
"2016-10-23 19:00",0.29
"2016-10-23 19:05",0.30
"2016-10-23 19:10",0.34
"2016-10-23 19:15",0.42
"2016-10-23 19:20",0.51
"2016-10-23 19:25",0.62
"2016-10-23 19:40",0.57
"2016-10-23 19:45",0.55
"2016-10-23 19:50",0.52
"2016-10-23 19:55",0.49
"2016-10-23 20:00",0.47
"2016-10-23 20:10",0.44
"2016-10-23 20:15",0.43
"2016-10-23 20:20",0.42
"2016-10-23 20:25",0.40
"2016-10-23 20:35",0.37
"2016-10-23 20:45",0.36
"2016-10-23 20:55",0.34
"2016-10-23 21:05",0.32
"2016-10-23 21:15",0.31
"2016-10-23 21:20",0.29
"2016-10-23 21:30",0.28
"2016-10-23 21:45",0.27
"2016-10-23 21:55",0.25
"2016-10-23 22:00",0.23
"2016-10-23 22:20",0.22
"2016-10-23 22:40",0.20
"2016-10-23 23:05",0.18
"2016-10-23 23:40",0.16
"2016-10-23 23:45",0.14
"2016-10-23 23:50",0.16
"2016-10-24 00:35",0.14
"2016-10-24 00:55",0.13
"2016-10-24 01:25",0.12
"2016-10-24 02:25",0.13
"2016-10-24 02:50",0.12
"2016-10-24 03:50",0.11
"2016-10-24 04:50",0.11
"2016-10-24 05:50",0.10
