"2018-03-08 12:50",0.18
"2018-03-08 13:00",0.19
"2018-03-08 13:05",0.18
"2018-03-08 13:20",0.18
"2018-03-08 13:30",0.18
"2018-03-08 13:40",0.19
"2018-03-08 13:45",0.18
"2018-03-08 14:00",0.19
"2018-03-08 14:05",0.18
"2018-03-08 14:55",0.18
"2018-03-08 15:00",0.19
"2018-03-08 15:05",0.18
"2018-03-08 15:20",0.18
"2018-03-08 15:25",0.19
"2018-03-08 15:30",0.18
"2018-03-08 16:10",0.18
"2018-03-08 16:15",0.19
"2018-03-08 16:35",0.18
"2018-03-08 17:00",0.18
"2018-03-08 17:05",0.19
"2018-03-08 17:15",0.18
"2018-03-08 17:20",0.18
"2018-03-08 17:35",0.18
"2018-03-08 17:40",0.19
"2018-03-08 17:50",0.18
"2018-03-08 17:55",0.19
"2018-03-08 18:05",0.18
"2018-03-08 18:15",0.18
"2018-03-08 18:20",0.19
"2018-03-08 18:25",0.18
"2018-03-08 18:30",0.19
"2018-03-08 18:55",0.18
"2018-03-08 19:10",0.19
"2018-03-08 19:15",0.18
"2018-03-08 19:35",0.19
"2018-03-08 19:40",0.19
"2018-03-08 19:45",0.18
"2018-03-08 20:00",0.18
"2018-03-08 20:05",0.19
"2018-03-08 20:10",0.18
"2018-03-08 20:25",0.19
"2018-03-08 20:30",0.18
"2018-03-08 20:40",0.19
"2018-03-08 20:50",0.18
"2018-03-08 20:55",0.19
"2018-03-08 21:00",0.18
"2018-03-08 21:15",0.18
"2018-03-08 22:10",0.17
"2018-03-08 22:20",0.18
"2018-03-08 22:30",0.19
"2018-03-08 22:35",0.18
"2018-03-08 23:00",0.19
"2018-03-08 23:05",0.18
"2018-03-08 23:10",0.17
"2018-03-08 23:30",0.18
"2018-03-08 23:40",0.17
"2018-03-08 23:45",0.18
"2018-03-09 00:15",0.18
"2018-03-09 00:30",0.18
"2018-03-09 00:40",0.17
"2018-03-09 00:55",0.18
"2018-03-09 01:00",0.17
"2018-03-09 01:05",0.18
"2018-03-09 01:20",0.18
"2018-03-09 01:25",0.18
"2018-03-09 01:35",0.18
"2018-03-09 01:40",0.18
"2018-03-09 01:50",0.17
"2018-03-09 01:55",0.18
"2018-03-09 02:05",0.18
"2018-03-09 02:15",0.19
"2018-03-09 02:20",0.18
"2018-03-09 02:25",0.18
"2018-03-09 02:30",0.18
"2018-03-09 02:35",0.17
"2018-03-09 02:40",0.19
"2018-03-09 02:45",0.18
"2018-03-09 03:15",0.18
"2018-03-09 03:35",0.18
"2018-03-09 04:10",0.18
"2018-03-09 04:15",0.18
"2018-03-09 04:20",0.17
"2018-03-09 04:25",0.18
"2018-03-09 04:55",0.18
"2018-03-09 05:00",0.18
"2018-03-09 05:15",0.17
"2018-03-09 05:20",0.18
"2018-03-09 05:25",0.17
"2018-03-09 05:40",0.18
"2018-03-09 05:50",0.18
"2018-03-09 05:55",0.18
"2018-03-09 06:15",0.19
"2018-03-09 06:20",0.18
"2018-03-09 06:30",0.19
"2018-03-09 06:35",0.17
"2018-03-09 06:40",0.18
"2018-03-09 07:10",0.18
"2018-03-09 07:15",0.18
"2018-03-09 07:35",0.18
"2018-03-09 07:40",0.18
"2018-03-09 07:55",0.18
"2018-03-09 08:05",0.18
"2018-03-09 08:10",0.18
"2018-03-09 08:15",0.17
"2018-03-09 08:25",0.18
"2018-03-09 08:35",0.18
"2018-03-09 08:45",0.18
"2018-03-09 08:50",0.17
"2018-03-09 08:55",0.18
"2018-03-09 09:10",0.18
"2018-03-09 09:15",0.18
"2018-03-09 10:05",0.18
"2018-03-09 10:10",0.18
"2018-03-09 10:15",0.18
"2018-03-09 10:25",0.18
"2018-03-09 10:35",0.18
"2018-03-09 10:45",0.18
"2018-03-09 10:50",0.18
"2018-03-09 11:05",0.18
"2018-03-09 11:10",0.18
"2018-03-09 11:25",0.19
"2018-03-09 11:30",0.18
"2018-03-09 11:35",0.19
"2018-03-09 11:45",0.18
"2018-03-09 11:50",0.18
"2018-03-09 12:20",0.18
"2018-03-09 12:30",0.18
"2018-03-09 12:35",0.18
"2018-03-09 12:40",0.18
"2018-03-09 12:45",0.18
"2018-03-09 12:55",0.18
"2018-03-09 13:00",0.18
"2018-03-09 13:25",0.17
"2018-03-09 13:30",0.18
"2018-03-09 13:35",0.17
"2018-03-09 13:40",0.18
"2018-03-09 13:45",0.18
"2018-03-09 13:50",0.19
"2018-03-09 13:55",0.18
"2018-03-09 14:00",0.19
"2018-03-09 14:05",0.18
"2018-03-09 14:10",0.17
"2018-03-09 14:15",0.18
"2018-03-09 14:45",0.19
"2018-03-09 14:55",0.18
"2018-03-09 15:10",0.19
"2018-03-09 15:15",0.18
"2018-03-09 15:20",0.18
"2018-03-09 15:30",0.17
"2018-03-09 15:55",0.18
"2018-03-09 16:00",0.17
"2018-03-09 16:05",0.18
"2018-03-09 16:20",0.18
"2018-03-09 16:55",0.17
"2018-03-09 17:00",0.19
"2018-03-09 17:05",0.18
"2018-03-09 17:10",0.19
"2018-03-09 17:15",0.18
"2018-03-09 17:20",0.18
"2018-03-09 17:25",0.17
"2018-03-09 17:30",0.18
"2018-03-09 17:40",0.18
"2018-03-09 17:55",0.18
"2018-03-09 18:00",0.18
"2018-03-09 18:05",0.19
"2018-03-09 18:10",0.18
"2018-03-09 18:15",0.19
"2018-03-09 18:20",0.18
"2018-03-09 18:25",0.18
"2018-03-09 18:35",0.18
"2018-03-09 18:40",0.18
"2018-03-09 18:55",0.18
"2018-03-09 19:00",0.17
"2018-03-09 19:05",0.18
"2018-03-09 19:10",0.17
"2018-03-09 19:15",0.18
"2018-03-09 19:55",0.18
"2018-03-09 20:00",0.18
"2018-03-09 20:05",0.18
"2018-03-09 20:10",0.19
"2018-03-09 20:15",0.18
"2018-03-09 20:20",0.18
"2018-03-09 20:55",0.18
"2018-03-09 21:05",0.18
"2018-03-09 21:10",0.17
"2018-03-09 21:15",0.18
"2018-03-09 21:35",0.19
"2018-03-09 21:50",0.18
"2018-03-09 21:55",0.18
"2018-03-09 22:00",0.17
"2018-03-09 22:05",0.18
"2018-03-09 22:30",0.17
"2018-03-09 22:35",0.18
"2018-03-09 22:40",0.18
"2018-03-09 22:50",0.17
"2018-03-09 22:55",0.19
"2018-03-09 23:00",0.18
"2018-03-09 23:05",0.18
"2018-03-09 23:25",0.18
"2018-03-09 23:35",0.17
"2018-03-09 23:50",0.18
"2018-03-10 00:15",0.17
"2018-03-10 00:20",0.18
"2018-03-10 00:30",0.18
"2018-03-10 00:35",0.18
"2018-03-10 00:50",0.18
"2018-03-10 00:55",0.18
"2018-03-10 01:00",0.17
"2018-03-10 01:05",0.18
"2018-03-10 01:10",0.17
"2018-03-10 01:15",0.19
"2018-03-10 01:20",0.17
"2018-03-10 01:25",0.18
"2018-03-10 01:30",0.18
"2018-03-10 01:40",0.18
"2018-03-10 01:45",0.18
"2018-03-10 01:50",0.18
"2018-03-10 01:55",0.18
"2018-03-10 02:00",0.18
"2018-03-10 02:05",0.18
"2018-03-10 02:10",0.18
"2018-03-10 02:15",0.18
"2018-03-10 02:55",0.18
"2018-03-10 03:00",0.17
"2018-03-10 03:05",0.18
"2018-03-10 03:10",0.17
"2018-03-10 03:15",0.18
"2018-03-10 03:25",0.19
"2018-03-10 03:30",0.18
"2018-03-10 03:35",0.17
"2018-03-10 03:40",0.19
"2018-03-10 03:45",0.18
"2018-03-10 03:55",0.17
"2018-03-10 04:00",0.18
"2018-03-10 04:05",0.19
"2018-03-10 04:10",0.18
"2018-03-10 04:15",0.18
"2018-03-10 04:20",0.18
"2018-03-10 04:50",0.18
"2018-03-10 04:55",0.18
"2018-03-10 05:05",0.19
"2018-03-10 05:10",0.18
"2018-03-10 05:25",0.18
"2018-03-10 05:45",0.18
"2018-03-10 05:50",0.18
"2018-03-10 05:55",0.17
"2018-03-10 06:00",0.18
"2018-03-10 06:05",0.18
"2018-03-10 06:10",0.17
"2018-03-10 06:15",0.18
"2018-03-10 06:20",0.17
"2018-03-10 06:25",0.18
"2018-03-10 06:30",0.18
"2018-03-10 06:35",0.19
"2018-03-10 06:45",0.18
"2018-03-10 07:00",0.18
"2018-03-10 07:05",0.18
"2018-03-10 07:50",0.18
"2018-03-10 07:55",0.18
"2018-03-10 08:55",0.18
"2018-03-10 09:00",0.18
"2018-03-10 09:25",0.18
"2018-03-10 09:50",0.18
"2018-03-10 09:55",0.18
"2018-03-10 10:10",0.18
"2018-03-10 10:15",0.19
"2018-03-10 10:25",0.18
"2018-03-10 10:35",0.17
"2018-03-10 10:55",0.18
"2018-03-10 11:00",0.18
"2018-03-10 11:20",0.19
"2018-03-10 11:35",0.19
"2018-03-10 11:40",0.19
"2018-03-10 12:00",0.20
"2018-03-10 12:10",0.19
"2018-03-10 12:30",0.20
"2018-03-10 12:40",0.19
"2018-03-10 12:45",0.20
"2018-03-10 12:50",0.19
"2018-03-10 12:55",0.19
"2018-03-10 13:00",0.19
"2018-03-10 13:05",0.19
"2018-03-10 13:35",0.19
"2018-03-10 13:40",0.20
"2018-03-10 13:50",0.20
"2018-03-10 14:00",0.20
"2018-03-10 14:05",0.20
"2018-03-10 14:15",0.20
"2018-03-10 14:20",0.20
"2018-03-10 14:45",0.19
"2018-03-10 14:50",0.20
"2018-03-10 15:00",0.19
"2018-03-10 15:05",0.20
"2018-03-10 15:10",0.19
"2018-03-10 15:15",0.20
"2018-03-10 15:25",0.19
"2018-03-10 15:35",0.20
"2018-03-10 15:40",0.20
"2018-03-10 15:50",0.19
"2018-03-10 16:05",0.19
"2018-03-10 16:10",0.19
"2018-03-10 16:30",0.19
"2018-03-10 16:40",0.20
"2018-03-10 16:50",0.19
"2018-03-10 16:55",0.20
"2018-03-10 17:00",0.19
"2018-03-10 17:05",0.20
"2018-03-10 17:20",0.19
"2018-03-10 17:45",0.20
"2018-03-10 17:50",0.19
"2018-03-10 17:55",0.20
"2018-03-10 18:00",0.19
"2018-03-10 18:40",0.20
"2018-03-10 18:45",0.19
"2018-03-10 19:10",0.20
"2018-03-10 19:25",0.18
"2018-03-10 19:35",0.19
"2018-03-10 19:45",0.18
"2018-03-10 19:50",0.19
"2018-03-10 20:05",0.20
"2018-03-10 20:10",0.19
"2018-03-10 20:15",0.20
"2018-03-10 20:20",0.20
"2018-03-10 20:40",0.20
"2018-03-10 20:50",0.20
"2018-03-10 20:55",0.20
"2018-03-10 21:05",0.20
"2018-03-10 21:15",0.20
"2018-03-10 21:20",0.19
"2018-03-10 21:30",0.20
"2018-03-10 21:40",0.20
"2018-03-10 21:45",0.20
"2018-03-10 21:55",0.20
"2018-03-10 22:10",0.20
"2018-03-10 22:20",0.20
"2018-03-10 22:30",0.19
"2018-03-10 22:35",0.20
"2018-03-10 22:45",0.19
"2018-03-10 22:50",0.20
"2018-03-10 22:55",0.20
"2018-03-10 23:10",0.20
"2018-03-10 23:15",0.20
"2018-03-10 23:30",0.19
"2018-03-10 23:50",0.20
"2018-03-10 23:55",0.18
"2018-03-11 00:00",0.20
"2018-03-11 00:20",0.19
"2018-03-11 00:30",0.19
"2018-03-11 00:35",0.20
"2018-03-11 00:45",0.20
"2018-03-11 00:50",0.20
"2018-03-11 01:40",0.20
"2018-03-11 01:55",0.19
"2018-03-11 02:10",0.20
"2018-03-11 02:30",0.20
"2018-03-11 02:45",0.19
"2018-03-11 02:50",0.19
"2018-03-11 02:55",0.20
"2018-03-11 03:00",0.20
"2018-03-11 03:15",0.19
"2018-03-11 03:20",0.20
"2018-03-11 03:45",0.19
"2018-03-11 03:55",0.19
"2018-03-11 04:00",0.19
"2018-03-11 04:10",0.20
"2018-03-11 04:25",0.19
"2018-03-11 04:30",0.20
"2018-03-11 04:40",0.19
"2018-03-11 04:45",0.20
"2018-03-11 04:50",0.19
"2018-03-11 05:00",0.20
"2018-03-11 05:05",0.20
"2018-03-11 05:10",0.19
"2018-03-11 05:15",0.20
"2018-03-11 05:20",0.20
"2018-03-11 05:25",0.19
"2018-03-11 05:45",0.19
"2018-03-11 06:05",0.19
"2018-03-11 06:25",0.19
"2018-03-11 06:30",0.20
"2018-03-11 06:35",0.19
"2018-03-11 06:50",0.19
"2018-03-11 07:00",0.20
"2018-03-11 07:05",0.19
"2018-03-11 07:40",0.19
"2018-03-11 07:45",0.20
"2018-03-11 07:55",0.20
"2018-03-11 08:00",0.19
"2018-03-11 08:05",0.20
"2018-03-11 08:10",0.19
"2018-03-11 08:20",0.19
"2018-03-11 08:40",0.19
"2018-03-11 08:45",0.19
"2018-03-11 08:55",0.18
"2018-03-11 09:00",0.19
"2018-03-11 09:05",0.19
"2018-03-11 09:10",0.19
"2018-03-11 09:15",0.18
"2018-03-11 09:20",0.19
"2018-03-11 09:25",0.19
"2018-03-11 09:30",0.20
"2018-03-11 09:40",0.19
"2018-03-11 09:50",0.19
"2018-03-11 10:10",0.20
"2018-03-11 10:25",0.19
"2018-03-11 10:30",0.18
"2018-03-11 10:35",0.19
"2018-03-11 10:45",0.20
"2018-03-11 10:50",0.18
"2018-03-11 10:55",0.19
"2018-03-11 11:00",0.20
"2018-03-11 11:05",0.19
"2018-03-11 11:10",0.19
"2018-03-11 11:15",0.19
"2018-03-11 11:20",0.19
"2018-03-11 11:25",0.19
"2018-03-11 11:45",0.19
"2018-03-11 11:50",0.19
"2018-03-11 12:05",0.20
"2018-03-11 12:10",0.19
"2018-03-11 12:20",0.20
"2018-03-11 12:35",0.19
"2018-03-11 12:40",0.19
"2018-03-11 12:55",0.20
"2018-03-11 13:10",0.20
"2018-03-11 13:15",0.19
"2018-03-11 13:25",0.20
"2018-03-11 13:55",0.20
"2018-03-11 14:00",0.20
"2018-03-11 14:05",0.20
"2018-03-11 14:10",0.20
"2018-03-11 14:35",0.19
"2018-03-11 14:40",0.20
"2018-03-11 14:45",0.20
"2018-03-11 14:50",0.19
"2018-03-11 14:55",0.20
"2018-03-11 15:10",0.20
"2018-03-11 15:20",0.20
"2018-03-11 15:35",0.20
"2018-03-11 15:45",0.20
"2018-03-11 16:40",0.19
"2018-03-11 16:45",0.20
"2018-03-11 16:50",0.19
"2018-03-11 17:00",0.20
"2018-03-11 17:10",0.20
"2018-03-11 17:15",0.19
"2018-03-11 17:20",0.20
"2018-03-11 17:35",0.19
"2018-03-11 17:40",0.19
"2018-03-11 17:55",0.20
"2018-03-11 18:00",0.20
"2018-03-11 18:45",0.21
"2018-03-11 18:50",0.19
"2018-03-11 18:55",0.20
"2018-03-11 19:00",0.20
"2018-03-11 19:05",0.20
"2018-03-11 19:20",0.20
"2018-03-11 20:05",0.20
"2018-03-11 20:15",0.19
"2018-03-11 20:30",0.20
"2018-03-11 20:35",0.19
"2018-03-11 20:40",0.19
"2018-03-11 20:45",0.20
"2018-03-11 21:20",0.19
"2018-03-11 21:25",0.20
"2018-03-11 21:30",0.20
"2018-03-11 21:35",0.19
"2018-03-11 21:40",0.20
"2018-03-11 21:45",0.20
"2018-03-11 21:50",0.20
"2018-03-11 22:35",0.19
"2018-03-11 22:45",0.20
"2018-03-11 22:55",0.19
"2018-03-11 23:00",0.20
"2018-03-11 23:10",0.19
"2018-03-11 23:15",0.20
"2018-03-11 23:30",0.19
"2018-03-11 23:35",0.20
"2018-03-11 23:40",0.20
"2018-03-12 00:30",0.19
"2018-03-12 00:35",0.20
"2018-03-12 00:40",0.20
"2018-03-12 00:45",0.20
"2018-03-12 00:50",0.19
"2018-03-12 01:00",0.19
"2018-03-12 01:05",0.20
"2018-03-12 01:15",0.19
"2018-03-12 01:35",0.20
"2018-03-12 01:40",0.19
"2018-03-12 01:45",0.20
"2018-03-12 01:55",0.20
"2018-03-12 02:00",0.19
"2018-03-12 02:10",0.19
"2018-03-12 02:15",0.20
"2018-03-12 02:25",0.19
"2018-03-12 02:30",0.20
"2018-03-12 02:50",0.19
"2018-03-12 02:55",0.19
"2018-03-12 03:05",0.20
"2018-03-12 03:10",0.20
"2018-03-12 03:30",0.19
"2018-03-12 03:45",0.20
"2018-03-12 03:50",0.19
"2018-03-12 03:55",0.19
"2018-03-12 04:00",0.19
"2018-03-12 04:05",0.20
"2018-03-12 04:10",0.19
"2018-03-12 04:30",0.20
"2018-03-12 04:45",0.19
"2018-03-12 04:50",0.20
"2018-03-12 05:05",0.19
"2018-03-12 05:15",0.20
"2018-03-12 05:20",0.19
"2018-03-12 05:30",0.19
"2018-03-12 05:40",0.20
"2018-03-12 05:45",0.19
"2018-03-12 05:50",0.20
"2018-03-12 05:55",0.20
"2018-03-12 06:00",0.19
"2018-03-12 06:30",0.19
"2018-03-12 06:55",0.19
"2018-03-12 07:00",0.19
"2018-03-12 07:05",0.19
"2018-03-12 07:10",0.19
"2018-03-12 07:15",0.19
"2018-03-12 07:20",0.19
"2018-03-12 07:30",0.19
"2018-03-12 07:35",0.20
"2018-03-12 07:50",0.19
"2018-03-12 07:55",0.19
"2018-03-12 08:10",0.19
"2018-03-12 08:15",0.19
"2018-03-12 08:25",0.19
"2018-03-12 08:30",0.19
"2018-03-12 08:40",0.20
"2018-03-12 08:45",0.20
"2018-03-12 08:50",0.19
"2018-03-12 08:55",0.20
"2018-03-12 09:10",0.19
"2018-03-12 09:20",0.20
"2018-03-12 09:25",0.19
"2018-03-12 09:35",0.20
"2018-03-12 09:40",0.19
"2018-03-12 09:45",0.20
"2018-03-12 10:20",0.19
"2018-03-12 10:25",0.20
"2018-03-12 10:30",0.19
"2018-03-12 10:35",0.20
"2018-03-12 10:40",0.19
"2018-03-12 10:45",0.20
"2018-03-12 11:00",0.20
"2018-03-12 11:10",0.20
"2018-03-12 11:25",0.19
"2018-03-12 11:30",0.20
"2018-03-12 11:40",0.19
"2018-03-12 11:50",0.20
"2018-03-12 12:00",0.19
"2018-03-12 12:05",0.20
"2018-03-12 12:35",0.20
"2018-03-12 12:45",0.19
"2018-03-12 12:55",0.20
"2018-03-12 13:00",0.20
"2018-03-12 13:30",0.19
"2018-03-12 13:45",0.20
"2018-03-12 14:00",0.19
"2018-03-12 14:10",0.19
"2018-03-12 14:20",0.20
"2018-03-12 14:25",0.20
"2018-03-12 14:30",0.20
"2018-03-12 14:45",0.19
"2018-03-12 14:50",0.20
"2018-03-12 14:55",0.19
"2018-03-12 15:00",0.20
"2018-03-12 15:05",0.20
"2018-03-12 15:15",0.19
"2018-03-12 15:20",0.20
"2018-03-12 15:25",0.19
"2018-03-12 15:30",0.19
"2018-03-12 15:35",0.20
"2018-03-12 15:40",0.19
"2018-03-12 15:45",0.20
"2018-03-12 15:50",0.20
"2018-03-12 15:55",0.19
"2018-03-12 16:00",0.20
"2018-03-12 16:20",0.19
"2018-03-12 16:30",0.20
"2018-03-12 16:35",0.20
"2018-03-12 16:40",0.20
"2018-03-12 17:25",0.20
"2018-03-12 17:40",0.20
"2018-03-12 17:45",0.20
"2018-03-12 18:05",0.19
"2018-03-12 18:10",0.20
"2018-03-12 18:15",0.20
"2018-03-12 18:20",0.20
"2018-03-12 18:30",0.19
"2018-03-12 18:40",0.20
"2018-03-12 18:45",0.19
"2018-03-12 18:50",0.19
"2018-03-12 18:55",0.20
"2018-03-12 19:05",0.19
"2018-03-12 19:15",0.19
"2018-03-12 19:20",0.20
"2018-03-12 19:25",0.19
"2018-03-12 19:35",0.20
"2018-03-12 19:45",0.20
"2018-03-12 19:50",0.19
"2018-03-12 20:15",0.20
"2018-03-12 20:20",0.19
"2018-03-12 20:30",0.20
"2018-03-12 20:50",0.19
"2018-03-12 21:10",0.20
"2018-03-12 21:15",0.19
"2018-03-12 21:25",0.20
"2018-03-12 21:40",0.19
"2018-03-12 21:45",0.20
"2018-03-12 21:50",0.19
"2018-03-12 21:55",0.20
"2018-03-12 22:10",0.20
"2018-03-12 22:15",0.19
"2018-03-12 22:20",0.20
"2018-03-12 22:45",0.19
"2018-03-12 23:30",0.19
"2018-03-12 23:35",0.20
"2018-03-12 23:40",0.20
"2018-03-12 23:50",0.20
"2018-03-12 23:55",0.19
"2018-03-13 00:05",0.19
"2018-03-13 00:15",0.20
"2018-03-13 00:20",0.20
"2018-03-13 00:30",0.19
"2018-03-13 00:40",0.20
"2018-03-13 00:45",0.19
"2018-03-13 00:50",0.20
"2018-03-13 00:55",0.19
"2018-03-13 01:00",0.20
"2018-03-13 01:05",0.19
"2018-03-13 01:25",0.19
"2018-03-13 01:30",0.19
"2018-03-13 01:35",0.20
"2018-03-13 01:40",0.19
"2018-03-13 01:45",0.19
"2018-03-13 02:00",0.19
"2018-03-13 02:05",0.20
"2018-03-13 02:10",0.19
"2018-03-13 02:15",0.20
"2018-03-13 02:20",0.19
"2018-03-13 02:40",0.19
"2018-03-13 02:50",0.19
"2018-03-13 02:55",0.18
"2018-03-13 03:00",0.19
"2018-03-13 03:25",0.19
"2018-03-13 03:30",0.20
"2018-03-13 03:35",0.19
"2018-03-13 03:40",0.19
"2018-03-13 03:45",0.19
"2018-03-13 03:55",0.19
"2018-03-13 04:30",0.20
"2018-03-13 04:40",0.19
"2018-03-13 05:35",0.19
"2018-03-13 05:45",0.20
"2018-03-13 05:50",0.19
"2018-03-13 05:55",0.19
"2018-03-13 06:00",0.20
"2018-03-13 06:05",0.19
"2018-03-13 06:10",0.19
"2018-03-13 06:15",0.20
"2018-03-13 06:35",0.19
"2018-03-13 06:45",0.19
"2018-03-13 07:05",0.19
"2018-03-13 07:10",0.20
"2018-03-13 07:15",0.19
"2018-03-13 07:25",0.20
"2018-03-13 07:40",0.19
"2018-03-13 07:45",0.19
"2018-03-13 08:00",0.19
"2018-03-13 08:05",0.19
"2018-03-13 08:20",0.20
"2018-03-13 08:30",0.19
"2018-03-13 08:35",0.20
"2018-03-13 08:40",0.19
"2018-03-13 08:50",0.20
"2018-03-13 08:55",0.19
"2018-03-13 09:20",0.19
"2018-03-13 09:25",0.18
"2018-03-13 09:30",0.19
"2018-03-13 09:35",0.20
"2018-03-13 09:40",0.19
"2018-03-13 09:55",0.19
"2018-03-13 10:15",0.19
"2018-03-13 10:25",0.20
"2018-03-13 10:55",0.19
"2018-03-13 11:30",0.20
"2018-03-13 11:35",0.19
"2018-03-13 11:40",0.20
"2018-03-13 11:45",0.20
"2018-03-13 12:25",0.19
"2018-03-13 12:30",0.20
"2018-03-13 12:55",0.19
"2018-03-13 13:00",0.20
"2018-03-13 13:20",0.19
"2018-03-13 13:30",0.20
"2018-03-13 13:40",0.20
"2018-03-13 13:55",0.20
"2018-03-13 14:15",0.20
"2018-03-13 14:20",0.19
"2018-03-13 14:25",0.21
"2018-03-13 14:30",0.20
"2018-03-13 14:35",0.20
"2018-03-13 14:45",0.19
"2018-03-13 14:50",0.20
"2018-03-13 15:10",0.20
"2018-03-13 15:15",0.20
"2018-03-13 15:30",0.20
"2018-03-13 16:15",0.20
"2018-03-13 16:20",0.19
"2018-03-13 16:30",0.21
"2018-03-13 16:45",0.20
"2018-03-13 16:50",0.21
"2018-03-13 16:55",0.20
"2018-03-13 17:05",0.21
"2018-03-13 17:10",0.20
"2018-03-13 17:15",0.19
"2018-03-13 17:20",0.20
"2018-03-13 17:30",0.20
"2018-03-13 17:40",0.20
"2018-03-13 17:50",0.20
"2018-03-13 17:55",0.20
"2018-03-13 18:10",0.20
"2018-03-13 18:15",0.19
"2018-03-13 18:20",0.20
"2018-03-13 18:50",0.19
"2018-03-13 18:55",0.20
"2018-03-13 19:05",0.20
"2018-03-13 19:20",0.20
"2018-03-13 19:25",0.19
"2018-03-13 19:35",0.20
"2018-03-13 19:40",0.19
"2018-03-13 19:45",0.20
"2018-03-13 19:50",0.19
"2018-03-13 20:10",0.19
"2018-03-13 20:15",0.19
"2018-03-13 20:20",0.20
"2018-03-13 20:25",0.19
"2018-03-13 20:30",0.20
"2018-03-13 20:35",0.19
"2018-03-13 20:45",0.20
"2018-03-13 21:00",0.19
"2018-03-13 21:10",0.19
"2018-03-13 21:15",0.20
"2018-03-13 21:20",0.19
"2018-03-13 21:25",0.19
"2018-03-13 21:30",0.20
"2018-03-13 21:35",0.19
"2018-03-13 22:05",0.20
"2018-03-13 22:10",0.19
"2018-03-13 22:20",0.20
"2018-03-13 22:25",0.19
"2018-03-13 22:30",0.20
"2018-03-13 22:35",0.20
"2018-03-13 22:45",0.19
"2018-03-13 23:05",0.19
"2018-03-13 23:10",0.20
"2018-03-13 23:20",0.19
"2018-03-13 23:25",0.19
"2018-03-13 23:30",0.19
"2018-03-13 23:35",0.19
"2018-03-13 23:40",0.20
"2018-03-14 00:15",0.19
"2018-03-14 00:20",0.20
"2018-03-14 00:25",0.19
"2018-03-14 00:45",0.20
"2018-03-14 00:55",0.19
"2018-03-14 01:05",0.19
"2018-03-14 01:10",0.19
"2018-03-14 01:20",0.19
"2018-03-14 01:55",0.20
"2018-03-14 02:00",0.19
"2018-03-14 02:05",0.19
"2018-03-14 02:10",0.18
"2018-03-14 02:15",0.19
"2018-03-14 02:55",0.20
"2018-03-14 03:00",0.19
"2018-03-14 03:05",0.20
"2018-03-14 03:35",0.19
"2018-03-14 04:10",0.20
"2018-03-14 04:15",0.19
"2018-03-14 04:30",0.19
"2018-03-14 04:35",0.19
"2018-03-14 04:40",0.19
"2018-03-14 04:45",0.19
"2018-03-14 04:50",0.19
"2018-03-14 04:55",0.19
"2018-03-14 05:10",0.19
"2018-03-14 05:30",0.19
"2018-03-14 05:35",0.19
"2018-03-14 05:45",0.19
"2018-03-14 05:50",0.19
"2018-03-14 05:55",0.19
"2018-03-14 06:10",0.19
"2018-03-14 06:15",0.19
"2018-03-14 06:25",0.19
"2018-03-14 06:30",0.20
"2018-03-14 06:35",0.19
"2018-03-14 06:40",0.18
"2018-03-14 06:50",0.19
"2018-03-14 06:55",0.20
"2018-03-14 07:00",0.19
"2018-03-14 07:05",0.19
"2018-03-14 07:10",0.19
"2018-03-14 07:15",0.19
"2018-03-14 07:20",0.19
"2018-03-14 07:35",0.18
"2018-03-14 07:40",0.19
"2018-03-14 08:10",0.19
"2018-03-14 08:15",0.20
"2018-03-14 08:25",0.19
"2018-03-14 08:30",0.19
"2018-03-14 08:35",0.19
"2018-03-14 08:40",0.19
"2018-03-14 08:45",0.18
"2018-03-14 08:50",0.19
"2018-03-14 09:05",0.20
"2018-03-14 09:10",0.19
"2018-03-14 09:20",0.20
"2018-03-14 09:25",0.19
"2018-03-14 09:30",0.19
"2018-03-14 09:35",0.19
"2018-03-14 09:40",0.18
"2018-03-14 09:50",0.19
"2018-03-14 10:05",0.19
"2018-03-14 10:10",0.19
"2018-03-14 10:25",0.19
"2018-03-14 10:35",0.19
"2018-03-14 10:40",0.19
"2018-03-14 10:50",0.20
"2018-03-14 10:55",0.19
"2018-03-14 11:05",0.20
"2018-03-14 11:10",0.19
"2018-03-14 11:35",0.20
"2018-03-14 11:40",0.19
"2018-03-14 12:00",0.19
"2018-03-14 12:05",0.19
"2018-03-14 12:10",0.20
"2018-03-14 12:30",0.19
"2018-03-14 12:40",0.19
"2018-03-14 13:15",0.19
"2018-03-14 13:20",0.20
"2018-03-14 13:25",0.19
"2018-03-14 13:40",0.19
"2018-03-14 13:55",0.19
"2018-03-14 14:00",0.19
"2018-03-14 14:10",0.19
"2018-03-14 14:15",0.19
"2018-03-14 14:20",0.19
"2018-03-14 15:00",0.19
"2018-03-14 15:05",0.19
"2018-03-14 15:25",0.20
"2018-03-14 15:35",0.19
"2018-03-14 15:45",0.20
"2018-03-14 15:50",0.19
"2018-03-14 15:55",0.20
"2018-03-14 16:20",0.19
"2018-03-14 16:30",0.19
"2018-03-14 16:55",0.20
"2018-03-14 17:05",0.19
"2018-03-14 17:25",0.20
"2018-03-14 17:30",0.19
"2018-03-14 17:45",0.19
"2018-03-14 17:50",0.20
"2018-03-14 17:55",0.19
"2018-03-14 18:15",0.19
"2018-03-14 18:20",0.18
"2018-03-14 18:25",0.18
"2018-03-14 18:35",0.19
"2018-03-14 18:45",0.17
"2018-03-14 18:50",0.18
"2018-03-14 18:55",0.19
"2018-03-14 19:15",0.19
"2018-03-14 19:20",0.19
"2018-03-14 19:25",0.18
"2018-03-14 19:30",0.19
"2018-03-14 19:45",0.18
"2018-03-14 19:50",0.19
"2018-03-14 19:55",0.19
"2018-03-14 20:05",0.18
"2018-03-14 20:15",0.19
"2018-03-14 20:20",0.19
"2018-03-14 20:55",0.19
"2018-03-14 21:05",0.18
"2018-03-14 21:15",0.20
"2018-03-14 21:20",0.19
"2018-03-14 21:25",0.19
"2018-03-14 21:35",0.19
"2018-03-14 21:45",0.20
"2018-03-14 21:55",0.19
"2018-03-14 22:00",0.20
"2018-03-14 22:05",0.19
"2018-03-14 22:10",0.19
"2018-03-14 22:15",0.20
"2018-03-14 22:25",0.19
"2018-03-14 22:35",0.19
"2018-03-14 22:45",0.20
"2018-03-14 22:50",0.20
"2018-03-14 23:50",0.19
"2018-03-14 23:55",0.20
"2018-03-15 00:00",0.20
"2018-03-15 00:10",0.19
"2018-03-15 00:20",0.20
"2018-03-15 00:25",0.19
"2018-03-15 00:30",0.21
"2018-03-15 00:35",0.20
"2018-03-15 00:40",0.20
"2018-03-15 00:50",0.19
"2018-03-15 00:55",0.20
"2018-03-15 01:00",0.20
"2018-03-15 01:15",0.20
"2018-03-15 01:20",0.20
"2018-03-15 01:25",0.20
"2018-03-15 01:55",0.20
"2018-03-15 02:00",0.20
"2018-03-15 02:10",0.20
"2018-03-15 02:20",0.20
"2018-03-15 02:50",0.21
"2018-03-15 02:55",0.19
"2018-03-15 03:00",0.20
"2018-03-15 03:35",0.20
"2018-03-15 03:45",0.20
"2018-03-15 04:00",0.20
"2018-03-15 04:05",0.19
"2018-03-15 04:15",0.20
"2018-03-15 04:25",0.21
"2018-03-15 04:30",0.20
"2018-03-15 04:35",0.20
"2018-03-15 04:45",0.20
"2018-03-15 04:50",0.21
"2018-03-15 04:55",0.20
"2018-03-15 05:00",0.21
"2018-03-15 05:05",0.19
"2018-03-15 05:10",0.20
"2018-03-15 05:15",0.19
"2018-03-15 05:20",0.20
"2018-03-15 05:35",0.20
"2018-03-15 06:10",0.20
"2018-03-15 06:15",0.21
"2018-03-15 06:20",0.20
"2018-03-15 06:25",0.20
"2018-03-15 06:30",0.21
"2018-03-15 06:35",0.20
"2018-03-15 06:40",0.19
"2018-03-15 06:50",0.21
"2018-03-15 06:55",0.20
"2018-03-15 07:00",0.20
"2018-03-15 07:15",0.20
"2018-03-15 07:25",0.20
"2018-03-15 07:30",0.20
"2018-03-15 07:35",0.20
"2018-03-15 07:40",0.20
"2018-03-15 07:45",0.20
"2018-03-15 07:50",0.20
"2018-03-15 08:00",0.20
"2018-03-15 08:05",0.20
"2018-03-15 08:10",0.19
"2018-03-15 08:15",0.20
"2018-03-15 08:20",0.20
"2018-03-15 08:25",0.20
"2018-03-15 08:50",0.20
"2018-03-15 08:55",0.19
"2018-03-15 09:00",0.20
"2018-03-15 09:05",0.20
"2018-03-15 09:15",0.21
"2018-03-15 09:20",0.20
"2018-03-15 09:25",0.20
"2018-03-15 09:30",0.20
"2018-03-15 09:55",0.19
"2018-03-15 10:00",0.20
"2018-03-15 10:05",0.20
"2018-03-15 10:20",0.20
"2018-03-15 10:35",0.19
"2018-03-15 10:45",0.21
"2018-03-15 10:50",0.20
"2018-03-15 10:55",0.21
"2018-03-15 11:00",0.19
"2018-03-15 11:05",0.20
"2018-03-15 11:15",0.19
"2018-03-15 11:20",0.20
"2018-03-15 11:25",0.20
"2018-03-15 11:40",0.19
