"2018-03-08 12:50",16.03
"2018-03-08 12:55",16.65
"2018-03-08 13:55",16.65
"2018-03-08 14:10",16.03
"2018-03-08 15:10",16.04
"2018-03-08 15:45",15.45
"2018-03-08 15:55",16.04
"2018-03-08 16:00",15.45
"2018-03-08 16:30",14.87
"2018-03-08 16:35",15.45
"2018-03-08 16:45",14.87
"2018-03-08 16:50",15.45
"2018-03-08 17:00",14.87
"2018-03-08 17:30",15.45
"2018-03-08 17:35",14.87
"2018-03-08 18:35",14.87
"2018-03-08 19:20",14.29
"2018-03-08 19:35",14.87
"2018-03-08 19:40",14.29
"2018-03-08 20:40",14.29
"2018-03-08 21:40",13.70
"2018-03-08 21:50",14.29
"2018-03-08 22:50",14.29
"2018-03-08 23:35",13.70
"2018-03-08 23:40",14.29
"2018-03-08 23:55",13.70
"2018-03-09 00:55",13.70
"2018-03-09 01:55",13.70
"2018-03-09 02:25",14.29
"2018-03-09 02:30",13.70
"2018-03-09 02:35",14.29
"2018-03-09 02:40",13.70
"2018-03-09 02:50",14.29
"2018-03-09 03:05",13.70
"2018-03-09 03:20",14.29
"2018-03-09 04:20",13.70
"2018-03-09 04:25",14.29
"2018-03-09 04:30",13.70
"2018-03-09 04:40",14.29
"2018-03-09 04:45",13.70
"2018-03-09 05:45",13.70
"2018-03-09 06:05",13.09
"2018-03-09 07:05",13.09
"2018-03-09 07:30",12.48
"2018-03-09 08:30",12.48
"2018-03-09 09:00",11.89
"2018-03-09 09:05",12.48
"2018-03-09 09:10",11.89
"2018-03-09 10:10",11.89
"2018-03-09 10:20",11.33
"2018-03-09 11:15",10.78
"2018-03-09 11:25",11.33
"2018-03-09 11:30",10.78
"2018-03-09 12:30",10.78
"2018-03-09 12:40",10.22
"2018-03-09 13:40",10.22
"2018-03-09 13:45",9.72
"2018-03-09 13:55",10.22
"2018-03-09 14:00",9.72
"2018-03-09 15:00",9.72
"2018-03-09 16:00",9.72
"2018-03-09 16:05",10.22
"2018-03-09 16:10",9.72
"2018-03-09 16:15",10.22
"2018-03-09 17:00",10.78
"2018-03-09 18:00",10.78
"2018-03-09 19:00",10.78
"2018-03-09 20:00",10.78
"2018-03-09 21:00",10.78
"2018-03-09 22:00",10.78
"2018-03-09 23:00",10.78
"2018-03-10 00:00",10.78
"2018-03-10 00:40",11.33
"2018-03-10 01:40",11.33
"2018-03-10 02:10",11.89
"2018-03-10 02:15",11.33
"2018-03-10 02:30",11.89
"2018-03-10 02:35",11.33
"2018-03-10 02:40",11.89
"2018-03-10 03:20",11.33
"2018-03-10 03:25",11.89
"2018-03-10 03:40",11.33
"2018-03-10 03:45",11.89
"2018-03-10 03:50",11.33
"2018-03-10 04:50",11.33
"2018-03-10 05:40",10.78
"2018-03-10 06:40",10.78
"2018-03-10 06:55",10.22
"2018-03-10 07:55",9.72
"2018-03-10 08:55",9.72
"2018-03-10 09:20",9.25
"2018-03-10 10:15",9.72
"2018-03-10 10:40",10.22
"2018-03-10 10:55",10.78
"2018-03-10 11:00",11.33
"2018-03-10 11:05",11.89
"2018-03-10 11:10",12.48
"2018-03-10 11:15",13.09
"2018-03-10 11:20",14.29
"2018-03-10 11:25",15.45
"2018-03-10 11:30",16.65
"2018-03-10 11:35",19.08
"2018-03-10 11:40",20.40
"2018-03-10 11:45",22.39
"2018-03-10 11:50",23.82
"2018-03-10 11:55",25.96
"2018-03-10 12:00",28.33
"2018-03-10 12:05",30.71
"2018-03-10 12:10",33.09
"2018-03-10 12:15",36.57
"2018-03-10 12:20",40.16
"2018-03-10 12:25",44.85
"2018-03-10 12:30",48.86
"2018-03-10 12:35",51.86
"2018-03-10 12:40",56.18
"2018-03-10 12:45",60.61
"2018-03-10 12:50",66.35
"2018-03-10 12:55",72.40
"2018-03-10 13:00",78.72
"2018-03-10 13:05",86.77
"2018-03-10 13:10",96.16
"2018-03-10 13:15",105.15
"2018-03-10 13:20",112.65
"2018-03-10 13:25",121.95
"2018-03-10 13:30",128.58
"2018-03-10 13:35",136.86
"2018-03-10 13:40",140.17
"2018-03-10 13:45",147.10
"2018-03-10 13:50",150.73
"2018-03-10 13:55",154.35
"2018-03-10 14:00",159.79
"2018-03-10 14:05",163.42
"2018-03-10 14:10",168.86
"2018-03-10 14:20",174.61
"2018-03-10 14:25",172.64
"2018-03-10 14:30",178.55
"2018-03-10 14:35",180.52
"2018-03-10 14:45",174.61
"2018-03-10 14:50",176.58
"2018-03-10 14:55",174.61
"2018-03-10 15:05",170.67
"2018-03-10 15:15",172.64
"2018-03-10 15:20",167.04
"2018-03-10 15:25",168.86
"2018-03-10 15:30",161.60
"2018-03-10 15:45",157.98
"2018-03-10 15:50",150.73
"2018-03-10 15:55",152.54
"2018-03-10 16:05",148.92
"2018-03-10 16:15",145.29
"2018-03-10 16:20",143.48
"2018-03-10 16:25",140.17
"2018-03-10 16:30",141.82
"2018-03-10 16:35",138.51
"2018-03-10 16:40",136.86
"2018-03-10 16:45",133.54
"2018-03-10 16:50",135.20
"2018-03-10 16:55",133.54
"2018-03-10 17:05",128.58
"2018-03-10 17:10",130.23
"2018-03-10 17:15",128.58
"2018-03-10 17:20",126.92
"2018-03-10 17:30",125.27
"2018-03-10 17:35",123.61
"2018-03-10 17:50",121.95
"2018-03-10 17:55",123.61
"2018-03-10 18:00",121.95
"2018-03-10 18:10",120.30
"2018-03-10 18:20",118.64
"2018-03-10 18:45",115.65
"2018-03-10 18:50",117.14
"2018-03-10 18:55",115.65
"2018-03-10 19:05",114.15
"2018-03-10 19:25",112.65
"2018-03-10 19:40",111.15
"2018-03-10 19:50",109.65
"2018-03-10 20:00",108.15
"2018-03-10 20:05",109.65
"2018-03-10 20:10",108.15
"2018-03-10 20:15",109.65
"2018-03-10 20:25",108.15
"2018-03-10 20:30",106.65
"2018-03-10 20:50",103.66
"2018-03-10 20:55",105.15
"2018-03-10 21:00",103.66
"2018-03-10 21:10",102.16
"2018-03-10 21:40",100.66
"2018-03-10 21:45",99.16
"2018-03-10 21:50",100.66
"2018-03-10 21:55",99.16
"2018-03-10 22:05",96.16
"2018-03-10 22:20",94.82
"2018-03-10 22:30",93.48
"2018-03-10 22:40",92.14
"2018-03-10 22:50",90.80
"2018-03-10 23:00",89.45
"2018-03-10 23:30",84.09
"2018-03-10 23:40",82.75
"2018-03-10 23:50",81.40
"2018-03-11 00:00",80.06
"2018-03-11 00:10",78.72
"2018-03-11 00:25",77.38
"2018-03-11 00:30",76.04
"2018-03-11 00:45",74.83
"2018-03-11 00:55",73.61
"2018-03-11 01:10",72.40
"2018-03-11 01:20",71.19
"2018-03-11 01:25",69.98
"2018-03-11 01:40",68.77
"2018-03-11 01:45",67.56
"2018-03-11 01:50",68.77
"2018-03-11 01:55",67.56
"2018-03-11 02:00",66.35
"2018-03-11 02:15",65.14
"2018-03-11 02:25",63.93
"2018-03-11 02:35",62.82
"2018-03-11 02:50",61.72
"2018-03-11 03:00",60.61
"2018-03-11 03:15",59.50
"2018-03-11 03:20",58.40
"2018-03-11 03:40",57.29
"2018-03-11 03:55",56.18
"2018-03-11 04:05",55.08
"2018-03-11 04:20",53.97
"2018-03-11 04:30",52.87
"2018-03-11 04:45",51.86
"2018-03-11 05:00",50.86
"2018-03-11 05:05",51.86
"2018-03-11 05:10",50.86
"2018-03-11 05:15",49.86
"2018-03-11 05:25",48.86
"2018-03-11 05:40",47.86
"2018-03-11 05:55",46.86
"2018-03-11 06:10",45.85
"2018-03-11 06:25",44.85
"2018-03-11 06:45",43.85
"2018-03-11 06:55",42.85
"2018-03-11 07:15",41.95
"2018-03-11 07:30",41.06
"2018-03-11 07:45",40.16
"2018-03-11 08:05",39.26
"2018-03-11 08:25",38.37
"2018-03-11 08:35",37.47
"2018-03-11 09:05",36.57
"2018-03-11 09:35",35.67
"2018-03-11 10:15",36.57
"2018-03-11 10:30",37.47
"2018-03-11 10:55",38.37
"2018-03-11 11:10",39.26
"2018-03-11 11:25",40.16
"2018-03-11 11:35",41.06
"2018-03-11 11:40",41.95
"2018-03-11 11:45",42.85
"2018-03-11 11:55",43.85
"2018-03-11 12:05",44.85
"2018-03-11 12:15",45.85
"2018-03-11 12:25",46.86
"2018-03-11 12:35",47.86
"2018-03-11 12:45",48.86
"2018-03-11 13:15",49.86
"2018-03-11 14:15",49.86
"2018-03-11 14:40",50.86
"2018-03-11 15:10",51.86
"2018-03-11 15:15",50.86
"2018-03-11 15:50",49.86
"2018-03-11 15:55",50.86
"2018-03-11 16:00",49.86
"2018-03-11 16:30",48.86
"2018-03-11 17:30",47.86
"2018-03-11 18:05",46.85
"2018-03-11 18:25",45.85
"2018-03-11 18:50",44.85
"2018-03-11 19:20",43.85
"2018-03-11 19:50",42.85
"2018-03-11 20:25",41.95
"2018-03-11 20:55",41.06
"2018-03-11 21:20",40.16
"2018-03-11 22:00",39.26
"2018-03-11 22:30",38.37
"2018-03-11 23:00",37.47
"2018-03-11 23:35",36.57
"2018-03-12 00:05",35.67
"2018-03-12 00:30",34.78
"2018-03-12 00:55",33.88
"2018-03-12 01:25",33.09
"2018-03-12 01:50",32.30
"2018-03-12 02:20",31.50
"2018-03-12 02:45",30.71
"2018-03-12 03:00",31.50
"2018-03-12 03:05",30.71
"2018-03-12 03:20",29.92
"2018-03-12 04:00",29.13
"2018-03-12 04:05",29.92
"2018-03-12 04:15",29.13
"2018-03-12 04:40",28.33
"2018-03-12 05:25",27.54
"2018-03-12 06:15",26.75
"2018-03-12 07:00",25.96
"2018-03-12 08:00",25.96
"2018-03-12 08:05",25.24
"2018-03-12 09:05",25.24
"2018-03-12 09:20",24.53
"2018-03-12 10:10",23.82
"2018-03-12 11:10",23.10
"2018-03-12 12:10",22.39
"2018-03-12 12:45",21.73
"2018-03-12 13:45",21.73
"2018-03-12 13:50",21.07
"2018-03-12 14:35",20.40
"2018-03-12 15:30",19.74
"2018-03-12 16:30",19.08
"2018-03-12 17:20",18.47
"2018-03-12 18:15",17.86
"2018-03-12 19:15",17.86
"2018-03-12 19:20",17.25
"2018-03-12 20:15",16.65
"2018-03-12 21:15",16.65
"2018-03-12 21:30",16.03
"2018-03-12 22:30",16.04
"2018-03-12 22:50",15.45
"2018-03-12 23:50",15.45
"2018-03-12 23:55",14.87
"2018-03-13 00:55",14.87
"2018-03-13 01:30",14.29
"2018-03-13 02:30",14.29
"2018-03-13 03:30",14.29
"2018-03-13 03:40",13.70
"2018-03-13 04:40",13.70
"2018-03-13 05:40",13.70
"2018-03-13 05:50",13.09
"2018-03-13 06:50",13.09
"2018-03-13 07:50",13.09
"2018-03-13 08:50",12.48
"2018-03-13 09:50",12.48
"2018-03-13 10:50",12.48
"2018-03-13 11:50",12.48
"2018-03-13 12:45",11.89
"2018-03-13 13:45",11.89
"2018-03-13 14:45",11.89
"2018-03-13 15:30",11.33
"2018-03-13 16:30",11.33
"2018-03-13 17:30",11.33
"2018-03-13 18:25",10.78
"2018-03-13 19:25",10.78
"2018-03-13 20:25",10.78
"2018-03-13 21:00",10.22
"2018-03-13 22:00",10.22
"2018-03-13 23:00",10.22
"2018-03-13 23:25",9.72
"2018-03-14 00:25",9.72
"2018-03-14 01:25",9.72
"2018-03-14 02:25",9.72
"2018-03-14 02:40",9.25
"2018-03-14 03:40",9.25
"2018-03-14 04:40",9.25
"2018-03-14 05:40",9.25
"2018-03-14 06:40",9.25
"2018-03-14 07:25",8.78
"2018-03-14 08:25",8.78
"2018-03-14 09:25",8.78
"2018-03-14 10:25",8.78
"2018-03-14 11:25",8.78
"2018-03-14 12:20",8.33
"2018-03-14 12:30",8.78
"2018-03-14 12:40",8.33
"2018-03-14 13:40",8.33
"2018-03-14 14:40",8.33
"2018-03-14 15:40",8.33
"2018-03-14 16:40",8.33
"2018-03-14 17:40",8.33
"2018-03-14 18:15",8.78
"2018-03-14 18:20",8.33
"2018-03-14 18:30",8.78
"2018-03-14 19:05",9.25
"2018-03-14 19:45",9.72
"2018-03-14 20:05",10.22
"2018-03-14 20:20",10.78
"2018-03-14 20:30",11.33
"2018-03-14 20:40",11.89
"2018-03-14 20:45",12.48
"2018-03-14 20:50",13.09
"2018-03-14 21:00",13.70
"2018-03-14 21:05",14.29
"2018-03-14 21:10",14.87
"2018-03-14 21:15",15.45
"2018-03-14 21:20",16.65
"2018-03-14 21:25",17.25
"2018-03-14 21:30",18.47
"2018-03-14 21:35",19.74
"2018-03-14 21:40",20.40
"2018-03-14 21:45",21.73
"2018-03-14 21:50",23.82
"2018-03-14 21:55",25.24
"2018-03-14 22:00",26.75
"2018-03-14 22:05",28.33
"2018-03-14 22:10",29.92
"2018-03-14 22:15",30.71
"2018-03-14 22:20",33.09
"2018-03-14 22:25",34.78
"2018-03-14 22:30",37.47
"2018-03-14 22:35",39.26
"2018-03-14 22:40",41.95
"2018-03-14 22:45",42.85
"2018-03-14 22:50",44.85
"2018-03-14 22:55",45.85
"2018-03-14 23:00",47.86
"2018-03-14 23:05",48.86
"2018-03-14 23:10",49.86
"2018-03-14 23:15",51.86
"2018-03-14 23:20",52.87
"2018-03-14 23:25",53.97
"2018-03-14 23:30",56.18
"2018-03-14 23:35",57.29
"2018-03-14 23:40",59.50
"2018-03-14 23:45",60.61
"2018-03-14 23:50",62.82
"2018-03-14 23:55",65.14
"2018-03-15 00:00",67.56
"2018-03-15 00:05",69.98
"2018-03-15 00:15",76.04
"2018-03-15 00:20",80.06
"2018-03-15 00:25",82.75
"2018-03-15 00:30",88.11
"2018-03-15 00:35",90.80
"2018-03-15 00:40",94.82
"2018-03-15 00:45",96.16
"2018-03-15 00:50",100.66
"2018-03-15 00:55",103.66
"2018-03-15 01:00",108.15
"2018-03-15 01:05",109.65
"2018-03-15 01:10",111.15
"2018-03-15 01:15",115.64
"2018-03-15 01:20",117.14
"2018-03-15 01:25",120.30
"2018-03-15 01:30",121.95
"2018-03-15 01:35",123.61
"2018-03-15 01:40",126.92
"2018-03-15 01:45",128.58
"2018-03-15 01:55",130.23
"2018-03-15 02:00",133.54
"2018-03-15 02:10",136.86
"2018-03-15 02:15",138.51
"2018-03-15 02:20",136.86
"2018-03-15 02:25",138.51
"2018-03-15 02:35",141.82
"2018-03-15 02:50",147.10
"2018-03-15 02:55",145.29
"2018-03-15 03:00",148.92
"2018-03-15 03:15",150.73
"2018-03-15 03:20",154.35
"2018-03-15 03:25",152.54
"2018-03-15 03:30",156.17
"2018-03-15 03:35",154.35
"2018-03-15 03:40",156.17
"2018-03-15 03:45",157.98
"2018-03-15 03:55",154.35
"2018-03-15 04:00",159.79
"2018-03-15 04:05",157.98
"2018-03-15 04:10",161.60
"2018-03-15 04:25",163.42
"2018-03-15 04:30",161.60
"2018-03-15 04:40",165.23
"2018-03-15 04:45",163.42
"2018-03-15 04:55",161.60
"2018-03-15 05:05",163.42
"2018-03-15 05:10",161.60
"2018-03-15 05:15",159.79
"2018-03-15 05:20",157.98
"2018-03-15 05:30",154.35
"2018-03-15 05:35",156.17
"2018-03-15 05:40",154.35
"2018-03-15 05:45",148.92
"2018-03-15 05:50",150.73
"2018-03-15 06:05",148.92
"2018-03-15 06:15",145.29
"2018-03-15 06:20",143.48
"2018-03-15 06:25",145.29
"2018-03-15 06:30",141.82
"2018-03-15 06:35",143.48
"2018-03-15 06:40",140.17
"2018-03-15 06:45",138.51
"2018-03-15 06:55",135.20
"2018-03-15 07:10",133.54
"2018-03-15 07:15",131.89
"2018-03-15 07:25",128.58
"2018-03-15 07:40",123.61
"2018-03-15 07:45",125.26
"2018-03-15 07:50",121.95
"2018-03-15 07:55",123.61
"2018-03-15 08:00",121.95
"2018-03-15 08:05",120.30
"2018-03-15 08:10",118.64
"2018-03-15 08:15",120.30
"2018-03-15 08:20",117.14
"2018-03-15 08:25",115.64
"2018-03-15 08:35",114.15
"2018-03-15 08:40",111.15
"2018-03-15 08:55",109.65
"2018-03-15 09:00",108.15
"2018-03-15 09:05",106.65
"2018-03-15 09:15",105.15
"2018-03-15 09:20",103.66
"2018-03-15 09:30",100.66
"2018-03-15 09:40",99.16
"2018-03-15 09:45",97.66
"2018-03-15 09:55",96.16
"2018-03-15 10:05",94.82
"2018-03-15 10:10",93.48
"2018-03-15 10:15",92.14
"2018-03-15 10:20",90.80
"2018-03-15 10:25",89.45
"2018-03-15 10:30",88.11
"2018-03-15 10:40",86.77
"2018-03-15 10:45",85.43
"2018-03-15 10:55",84.09
"2018-03-15 11:05",82.75
"2018-03-15 11:10",81.40
"2018-03-15 11:25",78.72
"2018-03-15 11:40",77.38
