"2018-03-08 13:30",2.40
"2018-03-08 13:45",2.40
"2018-03-08 14:00",2.40
"2018-03-08 14:15",2.40
"2018-03-08 14:30",2.40
"2018-03-08 14:45",2.40
"2018-03-08 15:00",2.40
"2018-03-08 15:15",2.40
"2018-03-08 15:30",2.39
"2018-03-08 15:45",2.36
"2018-03-08 16:00",2.36
"2018-03-08 16:15",2.36
"2018-03-08 16:30",2.36
"2018-03-08 16:45",2.36
"2018-03-08 17:00",2.36
"2018-03-08 17:15",2.36
"2018-03-08 17:30",2.36
"2018-03-08 17:45",2.36
"2018-03-08 18:00",2.36
"2018-03-08 18:15",2.36
"2018-03-08 18:30",2.36
"2018-03-08 18:45",2.36
"2018-03-08 19:00",2.36
"2018-03-08 19:15",2.36
"2018-03-08 19:30",2.36
"2018-03-08 20:00",2.36
"2018-03-08 20:15",2.36
"2018-03-08 20:30",2.36
"2018-03-08 20:45",2.36
"2018-03-08 21:00",2.36
"2018-03-08 21:15",2.36
"2018-03-08 21:30",2.36
"2018-03-08 21:45",2.36
"2018-03-08 22:00",2.36
"2018-03-08 22:15",2.36
"2018-03-08 22:30",2.36
"2018-03-08 22:45",2.36
"2018-03-08 23:00",2.36
"2018-03-08 23:15",2.36
"2018-03-08 23:30",2.36
"2018-03-08 23:45",2.36
"2018-03-09 00:00",2.36
"2018-03-09 00:15",2.36
"2018-03-09 00:30",2.36
"2018-03-09 00:45",2.36
"2018-03-09 01:00",2.36
"2018-03-09 01:15",2.36
"2018-03-09 01:30",2.39
"2018-03-09 01:45",2.40
"2018-03-09 02:00",2.40
"2018-03-09 02:15",2.40
"2018-03-09 02:30",2.40
"2018-03-09 02:45",2.40
"2018-03-09 03:00",2.43
"2018-03-09 03:15",2.43
"2018-03-09 03:30",2.47
"2018-03-09 03:45",2.47
"2018-03-09 04:00",2.50
"2018-03-09 04:15",2.50
"2018-03-09 04:30",2.50
"2018-03-09 04:45",2.50
"2018-03-09 05:00",2.54
"2018-03-09 05:15",2.54
"2018-03-09 05:30",2.54
"2018-03-09 05:45",2.57
"2018-03-09 06:00",2.57
"2018-03-09 06:15",2.57
"2018-03-09 06:30",2.60
"2018-03-09 06:45",2.60
"2018-03-09 07:00",2.60
"2018-03-09 07:15",2.63
"2018-03-09 07:30",2.60
"2018-03-09 07:45",2.63
"2018-03-09 08:00",2.61
"2018-03-09 08:15",2.63
"2018-03-09 08:30",2.63
"2018-03-09 08:45",2.61
"2018-03-09 09:00",2.63
"2018-03-09 09:15",2.60
"2018-03-09 09:30",2.63
"2018-03-09 09:45",2.60
"2018-03-09 10:00",2.61
"2018-03-09 10:15",2.61
"2018-03-09 10:30",2.60
"2018-03-09 10:45",2.63
"2018-03-09 11:00",2.63
"2018-03-09 11:15",2.63
"2018-03-09 11:30",2.63
"2018-03-09 11:45",2.63
"2018-03-09 12:00",2.63
"2018-03-09 12:15",2.63
"2018-03-09 12:30",2.63
"2018-03-09 13:00",2.63
"2018-03-09 13:15",2.66
"2018-03-09 13:30",2.66
"2018-03-09 13:45",2.66
"2018-03-09 14:00",2.66
"2018-03-09 14:15",2.69
"2018-03-09 14:30",2.69
"2018-03-09 14:45",2.69
"2018-03-09 15:00",2.72
"2018-03-09 15:15",2.72
"2018-03-09 15:30",2.75
"2018-03-09 15:45",2.75
"2018-03-09 16:00",2.78
"2018-03-09 16:15",2.81
"2018-03-09 16:30",2.81
"2018-03-09 16:45",2.84
"2018-03-09 17:00",2.86
"2018-03-09 17:15",2.89
"2018-03-09 17:30",3.02
"2018-03-09 17:45",3.11
"2018-03-09 18:00",3.21
"2018-03-09 18:15",3.31
"2018-03-09 18:30",3.40
"2018-03-09 18:45",3.51
"2018-03-09 19:00",3.61
"2018-03-09 19:15",3.71
"2018-03-09 19:30",3.82
"2018-03-09 19:45",4.04
"2018-03-09 20:00",4.16
"2018-03-09 20:15",4.27
"2018-03-09 20:30",4.50
"2018-03-09 20:45",4.75
"2018-03-09 21:00",4.87
"2018-03-09 21:15",5.00
"2018-03-09 21:30",5.00
"2018-03-09 21:45",5.13
"2018-03-09 22:00",5.26
"2018-03-09 22:15",5.40
"2018-03-09 22:30",5.40
"2018-03-09 22:45",5.40
"2018-03-09 23:00",5.53
"2018-03-09 23:15",5.66
"2018-03-09 23:30",5.80
"2018-03-09 23:45",5.81
"2018-03-10 00:00",5.81
"2018-03-10 00:15",5.83
"2018-03-10 00:30",5.83
"2018-03-10 00:45",5.83
"2018-03-10 01:00",5.81
"2018-03-10 01:15",5.81
"2018-03-10 01:30",5.81
"2018-03-10 01:45",5.81
"2018-03-10 02:00",5.82
"2018-03-10 02:15",5.95
"2018-03-10 02:30",5.96
"2018-03-10 02:45",5.96
"2018-03-10 03:00",5.83
"2018-03-10 03:15",5.96
"2018-03-10 03:30",5.94
"2018-03-10 03:45",5.96
"2018-03-10 04:00",5.96
"2018-03-10 04:15",6.09
"2018-03-10 04:30",5.96
"2018-03-10 04:45",5.96
"2018-03-10 05:00",5.96
"2018-03-10 05:15",5.83
"2018-03-10 05:30",5.96
"2018-03-10 05:45",5.83
"2018-03-10 06:00",5.94
"2018-03-10 06:15",5.81
"2018-03-10 06:30",5.83
"2018-03-10 06:45",5.80
"2018-03-10 07:00",5.81
"2018-03-10 07:15",5.81
"2018-03-10 07:30",5.95
"2018-03-10 07:45",6.24
"2018-03-10 08:00",6.69
"2018-03-10 08:15",8.18
"2018-03-10 08:30",9.67
"2018-03-10 08:45",12.77
"2018-03-10 09:00",15.34
"2018-03-10 09:15",17.27
"2018-03-10 09:30",18.99
"2018-03-10 09:45",25.84
"2018-03-10 10:00",28.05
"2018-03-10 10:15",28.05
"2018-03-10 10:30",28.05
"2018-03-10 10:45",28.05
"2018-03-10 11:00",28.05
"2018-03-10 11:15",28.05
"2018-03-10 11:30",28.05
"2018-03-10 11:45",28.05
"2018-03-10 12:00",28.05
"2018-03-10 12:15",28.05
"2018-03-10 12:30",28.05
"2018-03-10 12:45",28.05
"2018-03-10 13:00",28.05
"2018-03-10 13:15",28.05
"2018-03-10 13:30",28.05
"2018-03-10 13:45",28.05
"2018-03-10 14:00",28.05
"2018-03-10 14:15",28.05
"2018-03-10 14:30",28.05
"2018-03-10 14:45",28.05
"2018-03-10 15:00",28.05
"2018-03-10 15:15",28.05
"2018-03-10 15:30",28.05
"2018-03-10 15:45",28.05
"2018-03-10 16:00",28.05
"2018-03-10 16:15",28.05
"2018-03-10 16:30",26.61
"2018-03-10 16:45",25.84
"2018-03-10 17:00",25.78
"2018-03-10 17:15",25.11
"2018-03-10 17:30",24.11
"2018-03-10 17:45",23.11
"2018-03-10 18:00",22.48
"2018-03-10 18:15",21.79
"2018-03-10 18:30",20.83
"2018-03-10 18:45",20.46
"2018-03-10 19:00",19.83
"2018-03-10 19:15",19.27
"2018-03-10 19:30",18.43
"2018-03-10 19:45",17.84
"2018-03-10 20:00",17.05
"2018-03-10 20:15",16.49
"2018-03-10 20:30",16.43
"2018-03-10 20:45",15.87
"2018-03-10 21:00",15.08
"2018-03-10 21:15",14.82
"2018-03-10 21:30",14.37
"2018-03-10 21:45",14.16
"2018-03-10 22:00",13.69
"2018-03-10 22:15",13.68
"2018-03-10 22:30",13.66
"2018-03-10 22:45",13.45
"2018-03-10 23:00",13.46
"2018-03-10 23:15",13.48
"2018-03-10 23:30",13.68
"2018-03-10 23:45",13.91
"2018-03-11 00:00",14.15
"2018-03-11 00:15",14.13
"2018-03-11 00:30",13.93
"2018-03-11 00:45",13.70
"2018-03-11 01:00",13.45
"2018-03-11 01:15",13.45
"2018-03-11 01:30",13.23
"2018-03-11 01:45",13.22
"2018-03-11 02:00",13.00
"2018-03-11 02:15",13.00
"2018-03-11 02:30",12.57
"2018-03-11 02:45",12.32
"2018-03-11 03:00",12.07
"2018-03-11 03:15",11.84
"2018-03-11 03:30",11.64
"2018-03-11 03:45",11.43
"2018-03-11 04:00",11.18
"2018-03-11 04:15",10.95
"2018-03-11 04:30",10.73
"2018-03-11 04:45",10.50
"2018-03-11 05:00",10.27
"2018-03-11 05:15",10.27
"2018-03-11 05:30",10.02
"2018-03-11 05:45",9.85
"2018-03-11 06:00",9.65
"2018-03-11 06:15",9.65
"2018-03-11 06:30",9.46
"2018-03-11 06:45",9.44
"2018-03-11 07:00",9.27
"2018-03-11 07:15",9.08
"2018-03-11 07:30",8.91
"2018-03-11 07:45",8.91
"2018-03-11 08:00",8.88
"2018-03-11 08:15",8.89
"2018-03-11 08:30",8.71
"2018-03-11 08:45",8.38
"2018-03-11 09:00",8.36
"2018-03-11 09:15",8.36
"2018-03-11 09:30",8.18
"2018-03-11 09:45",8.00
"2018-03-11 10:00",7.98
"2018-03-11 10:15",7.85
"2018-03-11 10:30",7.68
"2018-03-11 10:45",7.67
"2018-03-11 11:00",7.50
"2018-03-11 11:15",7.48
"2018-03-11 11:30",7.33
"2018-03-11 11:45",7.32
"2018-03-11 12:00",7.02
"2018-03-11 12:15",7.17
"2018-03-11 12:30",7.00
"2018-03-11 12:45",7.00
"2018-03-11 13:00",6.85
"2018-03-11 13:15",6.85
"2018-03-11 13:30",6.69
"2018-03-11 13:45",6.56
"2018-03-11 14:00",6.54
"2018-03-11 14:15",6.54
"2018-03-11 14:30",6.53
"2018-03-11 14:45",6.53
"2018-03-11 15:00",6.38
"2018-03-11 15:15",6.37
"2018-03-11 15:30",6.26
"2018-03-11 15:45",6.11
"2018-03-11 16:00",6.24
"2018-03-11 16:15",6.10
"2018-03-11 16:30",6.24
"2018-03-11 16:45",6.24
"2018-03-11 17:00",6.38
"2018-03-11 17:15",6.23
"2018-03-11 17:30",6.24
"2018-03-11 17:45",6.24
"2018-03-11 18:00",6.24
"2018-03-11 18:15",6.11
"2018-03-11 18:30",6.11
"2018-03-11 18:45",6.23
"2018-03-11 19:00",6.23
"2018-03-11 19:15",6.24
"2018-03-11 19:30",6.37
"2018-03-11 19:45",6.24
"2018-03-11 20:00",6.10
"2018-03-11 20:15",6.23
"2018-03-11 20:30",6.10
"2018-03-11 20:45",6.23
"2018-03-11 21:00",6.10
"2018-03-11 21:15",6.10
"2018-03-11 21:30",5.96
"2018-03-11 21:45",5.96
"2018-03-11 22:00",5.82
"2018-03-11 22:15",5.81
"2018-03-11 22:30",5.81
"2018-03-11 22:45",5.69
"2018-03-11 23:00",5.67
"2018-03-11 23:15",5.67
"2018-03-11 23:30",5.67
"2018-03-11 23:45",5.66
"2018-03-12 00:00",5.67
"2018-03-12 00:15",5.66
"2018-03-12 00:30",5.67
"2018-03-12 00:45",5.54
"2018-03-12 01:00",5.53
"2018-03-12 01:15",5.53
"2018-03-12 01:30",5.53
"2018-03-12 01:45",5.53
"2018-03-12 02:00",5.53
"2018-03-12 02:15",5.52
"2018-03-12 02:30",5.52
"2018-03-12 02:45",5.53
"2018-03-12 03:00",5.53
"2018-03-12 03:15",5.53
"2018-03-12 03:30",5.53
"2018-03-12 03:45",5.53
"2018-03-12 04:00",5.53
"2018-03-12 04:15",5.67
"2018-03-12 04:30",5.67
"2018-03-12 04:45",5.81
"2018-03-12 05:00",5.80
"2018-03-12 05:15",5.81
"2018-03-12 05:30",5.96
"2018-03-12 05:45",5.96
"2018-03-12 06:00",5.83
"2018-03-12 06:15",5.94
"2018-03-12 06:30",5.82
"2018-03-12 06:45",5.94
"2018-03-12 07:00",5.81
"2018-03-12 07:15",5.81
"2018-03-12 07:30",5.81
"2018-03-12 07:45",5.81
"2018-03-12 08:00",5.67
"2018-03-12 08:15",5.54
"2018-03-12 08:30",5.67
"2018-03-12 08:45",5.67
"2018-03-12 09:00",5.53
"2018-03-12 09:15",5.53
"2018-03-12 09:30",5.53
"2018-03-12 09:45",5.53
"2018-03-12 10:00",5.53
"2018-03-12 10:15",5.41
"2018-03-12 10:30",5.40
"2018-03-12 10:45",5.40
"2018-03-12 11:00",5.40
"2018-03-12 11:15",5.40
"2018-03-12 11:30",5.26
"2018-03-12 11:45",5.39
"2018-03-12 12:00",5.26
"2018-03-12 12:15",5.14
"2018-03-12 12:30",5.26
"2018-03-12 12:45",5.25
"2018-03-12 13:00",5.13
"2018-03-12 13:15",5.11
"2018-03-12 13:30",5.11
"2018-03-12 13:45",5.00
"2018-03-12 14:00",5.00
"2018-03-12 14:15",4.99
"2018-03-12 14:30",4.88
"2018-03-12 14:45",4.87
"2018-03-12 15:00",4.86
"2018-03-12 15:15",4.75
"2018-03-12 15:30",4.75
"2018-03-12 15:45",4.75
"2018-03-12 16:00",4.63
"2018-03-12 16:15",4.62
"2018-03-12 16:30",4.62
"2018-03-12 17:00",4.51
"2018-03-12 17:15",4.61
"2018-03-12 17:30",4.50
"2018-03-12 17:45",4.39
"2018-03-12 18:00",4.40
"2018-03-12 18:15",4.39
"2018-03-12 18:30",4.38
"2018-03-12 18:45",4.28
"2018-03-12 19:00",4.26
"2018-03-12 19:15",4.26
"2018-03-12 19:30",4.16
"2018-03-12 19:45",4.16
"2018-03-12 20:00",4.05
"2018-03-12 20:15",4.05
"2018-03-12 20:30",4.04
"2018-03-12 20:45",3.94
"2018-03-12 21:00",4.04
"2018-03-12 21:15",4.03
"2018-03-12 21:30",3.93
"2018-03-12 21:45",3.93
"2018-03-12 22:00",3.82
"2018-03-12 22:15",3.92
"2018-03-12 22:30",3.72
"2018-03-12 22:45",3.81
"2018-03-12 23:00",3.82
"2018-03-12 23:15",3.71
"2018-03-12 23:30",3.62
"2018-03-12 23:45",3.70
"2018-03-13 00:00",3.70
"2018-03-13 00:15",3.62
"2018-03-13 00:30",3.61
"2018-03-13 00:45",3.61
"2018-03-13 01:00",3.61
"2018-03-13 01:15",3.60
"2018-03-13 01:30",3.52
"2018-03-13 01:45",3.51
"2018-03-13 02:00",3.51
"2018-03-13 02:15",3.50
"2018-03-13 02:30",3.41
"2018-03-13 02:45",3.40
"2018-03-13 03:00",3.32
"2018-03-13 03:15",3.32
"2018-03-13 03:30",3.39
"2018-03-13 03:45",3.31
"2018-03-13 04:00",3.31
"2018-03-13 04:15",3.31
"2018-03-13 04:30",3.31
"2018-03-13 04:45",3.31
"2018-03-13 05:00",3.31
"2018-03-13 05:15",3.31
"2018-03-13 05:30",3.32
"2018-03-13 05:45",3.32
"2018-03-13 06:00",3.39
"2018-03-13 06:15",3.40
"2018-03-13 06:30",3.39
"2018-03-13 06:45",3.40
"2018-03-13 07:00",3.50
"2018-03-13 07:15",3.41
"2018-03-13 07:30",3.40
"2018-03-13 07:45",3.41
"2018-03-13 08:00",3.40
"2018-03-13 08:15",3.50
"2018-03-13 08:30",3.41
"2018-03-13 08:45",3.40
"2018-03-13 09:00",3.40
"2018-03-13 09:15",3.31
"2018-03-13 09:30",3.31
"2018-03-13 09:45",3.31
"2018-03-13 10:00",3.21
"2018-03-13 10:15",3.21
"2018-03-13 10:30",3.20
"2018-03-13 10:45",3.21
"2018-03-13 11:00",3.21
"2018-03-13 11:15",3.11
"2018-03-13 11:30",3.12
"2018-03-13 11:45",3.11
"2018-03-13 12:00",3.11
"2018-03-13 12:15",3.02
"2018-03-13 12:30",3.10
"2018-03-13 12:45",3.02
"2018-03-13 13:00",3.02
"2018-03-13 13:15",2.90
"2018-03-13 13:30",2.90
"2018-03-13 13:45",2.89
"2018-03-13 14:00",2.89
"2018-03-13 14:15",2.89
"2018-03-13 14:30",2.89
"2018-03-13 14:45",2.86
"2018-03-13 15:00",2.86
"2018-03-13 15:15",2.86
"2018-03-13 15:30",2.84
"2018-03-13 15:45",2.84
"2018-03-13 16:00",2.84
"2018-03-13 16:15",2.84
"2018-03-13 16:30",2.83
"2018-03-13 16:45",2.81
"2018-03-13 17:00",2.84
"2018-03-13 17:15",2.81
"2018-03-13 17:30",2.81
"2018-03-13 17:45",2.81
"2018-03-13 18:00",2.78
"2018-03-13 18:15",2.78
"2018-03-13 18:30",2.78
"2018-03-13 18:45",2.76
"2018-03-13 19:00",2.76
"2018-03-13 19:15",2.75
"2018-03-13 19:30",2.78
"2018-03-13 19:45",2.76
"2018-03-13 20:00",2.78
"2018-03-13 20:15",2.75
"2018-03-13 20:30",2.75
"2018-03-13 20:45",2.75
"2018-03-13 21:00",2.75
"2018-03-13 21:15",2.75
"2018-03-13 21:30",2.72
"2018-03-13 21:45",2.72
"2018-03-13 22:00",2.72
"2018-03-13 22:15",2.72
"2018-03-13 22:30",2.72
"2018-03-13 22:45",2.72
"2018-03-13 23:00",2.72
"2018-03-13 23:15",2.69
"2018-03-13 23:30",2.69
"2018-03-13 23:45",2.69
"2018-03-14 00:00",2.69
"2018-03-14 00:15",2.69
"2018-03-14 00:30",2.69
"2018-03-14 00:45",2.67
"2018-03-14 01:00",2.69
"2018-03-14 01:15",2.69
"2018-03-14 01:30",2.66
"2018-03-14 01:45",2.66
"2018-03-14 02:00",2.66
"2018-03-14 02:15",2.66
"2018-03-14 02:30",2.66
"2018-03-14 02:45",2.66
"2018-03-14 03:00",2.66
"2018-03-14 03:15",2.66
"2018-03-14 03:30",2.66
"2018-03-14 03:45",2.64
"2018-03-14 04:00",2.63
"2018-03-14 04:15",2.63
"2018-03-14 04:30",2.63
"2018-03-14 04:45",2.66
"2018-03-14 05:00",2.66
"2018-03-14 05:15",2.64
"2018-03-14 05:30",2.63
"2018-03-14 05:45",2.63
"2018-03-14 06:00",2.63
"2018-03-14 06:15",2.61
"2018-03-14 06:30",2.63
"2018-03-14 06:45",2.63
"2018-03-14 07:00",2.63
"2018-03-14 07:15",2.63
"2018-03-14 07:30",2.63
"2018-03-14 07:45",2.61
"2018-03-14 08:00",2.63
"2018-03-14 08:15",2.63
"2018-03-14 08:30",2.63
"2018-03-14 08:45",2.64
"2018-03-14 09:00",2.63
"2018-03-14 09:15",2.64
"2018-03-14 09:30",2.64
"2018-03-14 09:45",2.64
"2018-03-14 10:00",2.66
"2018-03-14 10:15",2.69
"2018-03-14 10:30",2.67
"2018-03-14 10:45",2.69
"2018-03-14 11:00",2.67
"2018-03-14 11:15",2.69
"2018-03-14 11:30",2.69
"2018-03-14 11:45",2.69
"2018-03-14 12:00",2.69
"2018-03-14 12:15",2.72
"2018-03-14 12:30",2.70
"2018-03-14 12:45",2.72
"2018-03-14 13:00",2.72
"2018-03-14 13:15",2.72
"2018-03-14 13:30",2.75
"2018-03-14 13:45",2.75
"2018-03-14 14:00",2.75
"2018-03-14 14:15",2.73
"2018-03-14 14:30",2.73
"2018-03-14 14:45",2.75
"2018-03-14 15:00",2.75
"2018-03-14 15:15",2.75
"2018-03-14 15:30",2.75
"2018-03-14 15:45",2.78
"2018-03-14 16:00",2.76
"2018-03-14 16:15",2.78
"2018-03-14 16:30",2.78
"2018-03-14 16:45",2.81
"2018-03-14 17:00",2.84
"2018-03-14 17:15",2.84
"2018-03-14 17:30",2.86
"2018-03-14 17:45",3.02
"2018-03-14 18:00",3.31
"2018-03-14 18:15",3.51
"2018-03-14 18:30",3.71
"2018-03-14 18:45",4.37
"2018-03-14 19:00",4.88
"2018-03-14 19:15",5.80
"2018-03-14 19:30",7.01
"2018-03-14 19:45",8.37
"2018-03-14 20:00",9.46
"2018-03-14 20:15",11.41
"2018-03-14 20:30",13.68
"2018-03-14 20:45",16.49
"2018-03-14 21:00",20.40
"2018-03-14 21:15",22.84
"2018-03-14 21:30",25.51
"2018-03-14 21:45",27.27
"2018-03-14 22:00",28.05
"2018-03-14 22:15",28.05
"2018-03-14 22:30",28.05
"2018-03-14 22:45",28.05
"2018-03-14 23:00",28.05
"2018-03-14 23:15",28.05
"2018-03-14 23:30",28.05
"2018-03-14 23:45",28.05
"2018-03-15 00:00",28.05
"2018-03-15 00:15",28.05
"2018-03-15 00:30",28.05
"2018-03-15 00:45",28.05
"2018-03-15 01:00",28.05
"2018-03-15 01:15",28.05
"2018-03-15 01:30",27.67
"2018-03-15 01:45",26.94
"2018-03-15 02:00",25.91
"2018-03-15 02:15",25.15
"2018-03-15 02:30",25.48
"2018-03-15 02:45",24.43
"2018-03-15 03:00",24.13
"2018-03-15 03:15",23.77
"2018-03-15 03:30",22.78
"2018-03-15 03:45",22.48
"2018-03-15 04:00",21.79
"2018-03-15 04:15",21.12
"2018-03-15 04:30",20.79
"2018-03-15 04:45",19.61
"2018-03-15 05:00",19.80
"2018-03-15 05:15",19.27
"2018-03-15 05:30",18.45
"2018-03-15 05:45",17.89
"2018-03-15 06:00",17.86
"2018-03-15 06:15",17.30
"2018-03-15 06:30",16.77
"2018-03-15 06:45",16.46
"2018-03-15 07:00",15.90
"2018-03-15 07:15",15.59
"2018-03-15 07:30",15.08
"2018-03-15 07:45",14.84
"2018-03-15 08:00",14.81
"2018-03-15 08:15",14.16
"2018-03-15 08:30",14.14
"2018-03-15 08:45",13.70
"2018-03-15 09:00",13.66
"2018-03-15 09:15",13.25
"2018-03-15 09:30",12.77
"2018-03-15 09:45",12.57
"2018-03-15 10:00",12.11
"2018-03-15 10:15",11.86
"2018-03-15 10:30",11.64
"2018-03-15 10:45",11.41
"2018-03-15 11:00",11.18
"2018-03-15 11:15",10.95
"2018-03-15 11:30",10.73
"2018-03-15 11:45",10.70
