"2017-06-09 12:25",6.97
"2017-06-09 13:25",6.97
"2017-06-09 14:25",6.97
"2017-06-09 15:25",6.97
"2017-06-09 16:25",6.97
"2017-06-09 17:25",6.97
"2017-06-09 18:25",6.97
"2017-06-09 19:25",6.97
"2017-06-09 20:25",6.97
"2017-06-09 21:25",6.97
"2017-06-09 22:25",6.97
"2017-06-09 23:25",6.97
"2017-06-10 00:25",6.97
"2017-06-10 01:25",6.97
"2017-06-10 02:25",6.97
"2017-06-10 03:25",6.97
"2017-06-10 04:25",6.97
"2017-06-10 05:25",6.97
"2017-06-10 06:25",6.97
"2017-06-10 07:25",6.97
"2017-06-10 08:25",6.97
"2017-06-10 09:25",6.97
"2017-06-10 10:25",6.97
"2017-06-10 11:25",6.97
"2017-06-10 12:25",6.97
"2017-06-10 13:25",6.97
"2017-06-10 14:25",6.97
"2017-06-10 15:25",6.97
"2017-06-10 16:25",6.97
"2017-06-10 17:25",6.97
"2017-06-10 17:40",0.00
"2017-06-10 18:40",0.00
"2017-06-10 19:40",0.00
"2017-06-10 20:40",0.00
"2017-06-10 21:40",0.00
"2017-06-10 22:40",0.00
"2017-06-10 23:40",0.00
"2017-06-11 00:00",0.02
"2017-06-11 01:00",0.02
"2017-06-11 02:00",0.02
"2017-06-11 03:00",0.02
"2017-06-11 04:00",0.02
"2017-06-11 05:00",0.02
"2017-06-11 06:00",0.02
"2017-06-11 07:00",0.02
"2017-06-11 08:00",0.02
"2017-06-11 09:00",0.02
"2017-06-11 10:00",0.02
"2017-06-11 11:00",0.02
"2017-06-11 12:00",0.02
"2017-06-11 13:00",0.02
"2017-06-11 14:00",0.02
"2017-06-11 14:35",0.00
"2017-06-11 15:35",0.00
"2017-06-11 16:35",0.00
"2017-06-11 17:35",0.00
"2017-06-11 18:35",0.00
"2017-06-11 19:35",0.00
"2017-06-11 20:35",0.00
"2017-06-11 21:35",0.00
"2017-06-11 22:35",0.00
"2017-06-11 23:35",0.00
"2017-06-12 00:35",0.00
"2017-06-12 01:35",0.00
"2017-06-12 02:35",0.00
"2017-06-12 02:50",250.00
"2017-06-12 02:55",6.97
"2017-06-12 03:55",6.97
"2017-06-12 04:55",6.97
"2017-06-12 05:55",6.97
"2017-06-12 06:55",6.97
"2017-06-12 07:55",6.97
"2017-06-12 08:55",6.97
"2017-06-12 09:55",6.97
"2017-06-12 10:55",6.97
"2017-06-12 11:55",6.97
"2017-06-12 12:55",6.97
"2017-06-12 13:55",6.97
"2017-06-12 14:50",250.00
"2017-06-12 14:55",0.00
"2017-06-12 15:55",0.00
"2017-06-12 16:55",0.00
"2017-06-12 17:55",0.00
"2017-06-12 18:55",0.00
"2017-06-12 19:55",0.00
"2017-06-12 20:55",0.00
"2017-06-12 21:55",0.00
"2017-06-12 22:55",0.00
"2017-06-12 23:55",0.00
"2017-06-13 00:55",0.00
"2017-06-13 01:55",0.00
"2017-06-13 02:55",0.00
"2017-06-13 03:55",0.00
"2017-06-13 04:55",0.00
"2017-06-13 05:55",0.00
"2017-06-13 06:55",250.00
"2017-06-13 07:00",8.75
"2017-06-13 08:00",8.75
"2017-06-13 09:00",8.75
"2017-06-13 10:00",8.75
"2017-06-13 10:35",250.00
"2017-06-13 10:40",0.01
"2017-06-13 11:40",0.00
"2017-06-13 12:40",0.00
"2017-06-13 13:40",0.00
"2017-06-13 14:40",0.00
"2017-06-13 15:40",0.00
"2017-06-13 16:40",0.00
"2017-06-13 17:40",0.00
"2017-06-13 18:40",0.00
"2017-06-13 19:40",0.00
"2017-06-13 20:40",0.00
"2017-06-13 21:40",0.00
"2017-06-13 22:40",0.00
"2017-06-13 23:40",0.00
"2017-06-14 00:40",0.00
"2017-06-14 01:40",0.00
"2017-06-14 02:40",0.00
"2017-06-14 03:40",0.00
"2017-06-14 04:40",0.00
"2017-06-14 05:10",250.00
"2017-06-14 06:10",250.00
"2017-06-14 07:00",250.00
"2017-06-14 08:00",250.00
"2017-06-14 09:00",250.00
"2017-06-14 09:15",0.00
"2017-06-14 10:15",0.00
"2017-06-14 11:15",0.00
"2017-06-14 12:15",0.00
"2017-06-14 13:15",0.00
"2017-06-14 14:15",0.00
"2017-06-14 15:15",0.00
"2017-06-14 16:15",0.00
"2017-06-14 17:15",0.00
"2017-06-14 18:15",0.00
"2017-06-14 19:15",0.00
"2017-06-14 20:15",0.00
"2017-06-14 21:15",0.00
"2017-06-14 22:15",0.00
"2017-06-14 23:15",0.00
"2017-06-15 00:15",0.00
"2017-06-15 01:15",0.00
"2017-06-15 02:15",0.00
"2017-06-15 03:15",0.00
"2017-06-15 04:15",0.00
"2017-06-15 05:15",0.00
"2017-06-15 06:15",0.00
"2017-06-15 07:15",0.00
"2017-06-15 08:15",0.00
"2017-06-15 09:15",0.00
"2017-06-15 10:15",0.00
"2017-06-15 11:15",0.00
"2017-06-15 12:15",0.00
"2017-06-15 13:15",0.00
"2017-06-15 14:15",0.00
"2017-06-15 15:15",0.00
"2017-06-15 16:15",0.00
"2017-06-15 17:15",0.00
"2017-06-15 18:15",0.00
"2017-06-15 19:15",0.00
"2017-06-15 20:15",0.00
"2017-06-15 21:15",0.00
"2017-06-15 22:15",0.00
"2017-06-15 23:15",0.00
"2017-06-16 00:15",0.00
"2017-06-16 01:15",0.00
"2017-06-16 02:15",0.00
"2017-06-16 03:15",0.00
"2017-06-16 04:15",0.00
"2017-06-16 05:15",0.00
"2017-06-16 06:15",0.00
"2017-06-16 07:15",0.00
"2017-06-16 08:15",0.00
"2017-06-16 09:15",0.00
