"2016-07-18 12:05",211.65
"2016-07-18 13:05",211.66
"2016-07-18 13:35",211.64
"2016-07-18 14:35",211.65
"2016-07-18 15:35",211.65
"2016-07-18 16:35",211.65
"2016-07-18 17:35",211.64
"2016-07-18 18:35",211.65
"2016-07-18 19:35",211.65
"2016-07-18 20:35",211.65
"2016-07-18 21:35",211.65
"2016-07-18 22:35",211.65
"2016-07-18 23:35",211.65
"2016-07-19 00:35",211.65
"2016-07-19 01:10",211.64
"2016-07-19 02:10",211.64
"2016-07-19 03:10",211.63
"2016-07-19 04:10",211.64
"2016-07-19 05:10",211.64
"2016-07-19 06:10",211.64
"2016-07-19 07:10",211.64
"2016-07-19 08:10",211.64
"2016-07-19 09:10",211.64
"2016-07-19 10:10",211.64
"2016-07-19 11:10",211.65
"2016-07-19 12:10",211.66
"2016-07-19 13:10",211.65
"2016-07-19 14:10",211.64
"2016-07-19 15:10",211.65
"2016-07-19 16:10",211.65
"2016-07-19 17:10",211.65
"2016-07-19 18:10",211.65
"2016-07-19 19:10",211.64
"2016-07-19 20:10",211.64
"2016-07-19 20:20",211.65
"2016-07-19 20:35",211.64
"2016-07-19 21:35",211.64
"2016-07-19 22:35",211.65
"2016-07-19 23:35",211.65
"2016-07-20 00:35",211.65
"2016-07-20 01:35",211.65
"2016-07-20 02:35",211.64
"2016-07-20 03:35",211.65
"2016-07-20 04:35",211.64
"2016-07-20 05:35",211.64
"2016-07-20 06:35",211.64
"2016-07-20 07:35",211.64
"2016-07-20 08:35",211.65
"2016-07-20 09:35",211.65
"2016-07-20 10:35",211.65
"2016-07-20 11:35",211.64
"2016-07-20 12:25",211.65
"2016-07-20 13:25",211.65
"2016-07-20 14:25",211.65
"2016-07-20 15:25",211.66
"2016-07-20 16:25",211.65
"2016-07-20 17:25",211.65
"2016-07-20 18:25",211.65
"2016-07-20 19:25",211.65
"2016-07-20 19:40",211.66
"2016-07-20 20:25",211.65
"2016-07-20 21:25",211.65
"2016-07-20 22:25",211.65
"2016-07-20 23:25",211.64
"2016-07-21 00:25",211.65
"2016-07-21 01:25",211.64
"2016-07-21 02:15",211.65
"2016-07-21 03:15",211.66
"2016-07-21 04:15",211.66
"2016-07-21 04:55",211.65
"2016-07-21 05:55",211.65
"2016-07-21 06:50",211.65
"2016-07-21 07:50",211.65
"2016-07-21 08:50",211.65
"2016-07-21 09:50",211.66
"2016-07-21 10:50",211.66
"2016-07-21 11:40",211.65
"2016-07-21 12:40",211.65
"2016-07-21 13:40",211.66
"2016-07-21 14:40",211.66
"2016-07-21 15:30",211.67
"2016-07-21 16:30",211.67
"2016-07-21 17:30",211.67
"2016-07-21 18:30",211.67
"2016-07-21 19:30",211.66
"2016-07-21 20:30",211.65
"2016-07-21 21:30",211.65
"2016-07-21 22:30",211.65
"2016-07-21 23:30",211.65
"2016-07-22 00:15",211.66
"2016-07-22 01:15",211.66
"2016-07-22 02:15",211.66
"2016-07-22 03:15",211.66
"2016-07-22 04:15",211.66
"2016-07-22 05:15",211.66
"2016-07-22 06:15",211.66
"2016-07-22 07:15",211.65
"2016-07-22 08:15",211.66
"2016-07-22 09:15",211.67
"2016-07-22 10:15",211.66
"2016-07-22 11:00",211.65
"2016-07-22 12:00",211.65
"2016-07-22 13:00",211.65
"2016-07-22 13:35",211.66
"2016-07-22 14:35",211.66
"2016-07-22 15:35",211.65
"2016-07-22 16:35",211.66
"2016-07-22 17:35",211.65
"2016-07-22 18:35",211.65
"2016-07-22 19:35",211.66
"2016-07-22 20:10",211.65
"2016-07-22 21:10",211.65
"2016-07-22 22:10",211.65
"2016-07-22 23:10",211.65
"2016-07-23 00:10",211.65
"2016-07-23 01:10",211.65
"2016-07-23 02:10",211.65
"2016-07-23 03:10",211.65
"2016-07-23 04:10",211.65
"2016-07-23 05:10",211.65
"2016-07-23 06:10",211.65
"2016-07-23 07:10",211.65
"2016-07-23 08:10",211.66
"2016-07-23 09:00",211.65
"2016-07-23 10:00",211.65
"2016-07-23 11:00",211.65
"2016-07-23 12:00",211.66
"2016-07-23 13:00",211.66
"2016-07-23 14:00",211.92
"2016-07-23 14:40",211.66
"2016-07-23 15:40",211.65
"2016-07-23 16:40",211.65
"2016-07-23 17:40",211.65
"2016-07-23 18:40",211.65
"2016-07-23 19:40",211.66
"2016-07-23 20:40",211.66
"2016-07-23 21:40",211.66
"2016-07-23 22:40",211.65
"2016-07-23 23:40",211.65
"2016-07-24 00:15",211.64
"2016-07-24 01:15",211.65
"2016-07-24 02:15",211.65
"2016-07-24 03:15",211.66
"2016-07-24 04:15",211.66
"2016-07-24 05:15",211.66
"2016-07-24 06:15",211.66
"2016-07-24 07:15",211.66
"2016-07-24 08:15",211.66
"2016-07-24 09:15",211.65
"2016-07-24 10:15",211.65
"2016-07-24 11:15",211.65
"2016-07-24 12:15",211.66
"2016-07-24 13:15",211.65
"2016-07-24 14:15",211.65
"2016-07-24 15:15",211.64
"2016-07-24 16:15",211.65
"2016-07-24 17:15",211.65
"2016-07-24 18:15",211.64
"2016-07-24 19:15",211.65
"2016-07-24 20:15",211.64
"2016-07-24 21:15",211.64
"2016-07-24 22:15",211.65
"2016-07-24 23:15",211.65
"2016-07-25 00:15",211.64
"2016-07-25 01:15",211.64
"2016-07-25 02:15",211.64
"2016-07-25 03:15",211.64
"2016-07-25 04:15",211.64
"2016-07-25 05:15",211.64
"2016-07-25 06:15",211.65
"2016-07-25 07:15",211.65
"2016-07-25 09:15",211.64
