"2017-08-30 12:30",0.78
"2017-08-30 13:30",0.77
"2017-08-30 13:35",0.77
"2017-08-30 14:35",0.77
"2017-08-30 15:35",0.77
"2017-08-30 16:35",0.77
"2017-08-30 17:35",0.77
"2017-08-30 18:35",0.77
"2017-08-30 19:35",0.77
"2017-08-30 20:35",0.77
"2017-08-30 21:35",0.77
"2017-08-30 22:35",0.77
"2017-08-30 23:35",0.77
"2017-08-31 00:35",0.77
"2017-08-31 01:35",0.77
"2017-08-31 02:00",0.76
"2017-08-31 02:05",0.76
"2017-08-31 03:05",0.76
"2017-08-31 04:05",0.76
"2017-08-31 04:50",0.75
"2017-08-31 04:55",0.75
"2017-08-31 05:55",0.75
"2017-08-31 06:55",0.75
"2017-08-31 07:35",0.74
"2017-08-31 07:40",0.74
"2017-08-31 08:40",0.74
"2017-08-31 09:40",0.74
"2017-08-31 10:40",0.74
"2017-08-31 11:40",0.74
"2017-08-31 12:40",0.74
"2017-08-31 13:40",0.74
"2017-08-31 14:40",0.74
"2017-08-31 15:40",0.74
"2017-08-31 16:40",0.74
"2017-08-31 17:40",0.74
"2017-08-31 18:40",0.74
"2017-08-31 19:40",0.74
"2017-08-31 19:45",0.73
"2017-08-31 20:45",0.73
"2017-08-31 21:45",0.73
"2017-08-31 22:45",0.73
"2017-08-31 23:45",0.73
"2017-09-01 00:45",0.73
"2017-09-01 01:45",0.73
"2017-09-01 02:15",0.74
"2017-09-01 02:20",0.74
"2017-09-01 03:20",0.75
"2017-09-01 03:25",0.75
"2017-09-01 04:10",0.76
"2017-09-01 04:15",0.76
"2017-09-01 05:00",0.77
"2017-09-01 05:40",0.78
"2017-09-01 05:45",0.78
"2017-09-01 06:45",0.78
"2017-09-01 06:50",0.79
"2017-09-01 06:55",0.79
"2017-09-01 07:30",0.80
"2017-09-01 07:35",0.80
"2017-09-01 08:05",0.81
"2017-09-01 08:10",0.81
"2017-09-01 08:35",0.82
"2017-09-01 08:40",0.82
"2017-09-01 09:10",0.83
"2017-09-01 09:15",0.83
"2017-09-01 09:45",0.84
"2017-09-01 09:50",0.84
"2017-09-01 10:45",0.85
"2017-09-01 10:50",0.85
"2017-09-01 11:30",0.86
"2017-09-01 11:35",0.86
"2017-09-01 12:15",0.87
"2017-09-01 12:20",0.87
"2017-09-01 13:00",0.88
"2017-09-01 13:05",0.88
"2017-09-01 14:00",0.89
"2017-09-01 14:10",0.89
"2017-09-01 15:00",0.89
"2017-09-01 15:05",0.89
"2017-09-01 15:10",0.90
"2017-09-01 15:15",0.90
"2017-09-01 16:15",0.90
"2017-09-01 17:15",0.90
"2017-09-01 18:15",0.90
"2017-09-01 19:15",0.90
"2017-09-01 20:15",0.90
"2017-09-01 21:15",0.90
"2017-09-01 22:15",0.90
"2017-09-01 23:15",0.90
"2017-09-02 00:00",0.91
"2017-09-02 00:05",0.91
"2017-09-02 01:05",0.91
"2017-09-02 02:05",0.91
"2017-09-02 02:10",0.92
"2017-09-02 02:15",0.92
"2017-09-02 03:15",0.92
"2017-09-02 03:55",0.93
"2017-09-02 04:55",0.93
"2017-09-02 05:00",0.94
"2017-09-02 05:40",0.95
"2017-09-02 05:45",0.95
"2017-09-02 06:45",0.95
"2017-09-02 07:40",0.96
"2017-09-02 07:45",0.96
"2017-09-02 08:40",0.97
"2017-09-02 08:45",0.97
"2017-09-02 08:50",0.97
"2017-09-02 09:50",0.97
"2017-09-02 09:55",0.98
"2017-09-02 10:00",0.98
"2017-09-02 10:05",0.98
"2017-09-02 10:10",0.98
"2017-09-02 10:15",0.98
"2017-09-02 10:20",0.98
"2017-09-02 11:20",0.98
"2017-09-02 11:25",0.99
"2017-09-02 11:30",0.98
"2017-09-02 11:35",0.99
"2017-09-02 11:40",0.99
"2017-09-02 11:45",0.98
"2017-09-02 11:50",0.98
"2017-09-02 11:55",0.98
"2017-09-02 12:55",0.98
"2017-09-02 13:50",0.99
"2017-09-02 13:55",0.99
"2017-09-02 14:00",0.98
"2017-09-02 14:05",0.98
"2017-09-02 15:05",0.98
"2017-09-02 16:05",0.98
"2017-09-02 16:25",0.99
"2017-09-02 16:30",0.99
"2017-09-02 17:30",0.99
"2017-09-02 17:50",0.98
"2017-09-02 17:55",0.98
"2017-09-02 18:55",0.98
"2017-09-02 19:00",0.97
"2017-09-02 19:50",0.96
"2017-09-02 19:55",0.96
"2017-09-02 20:35",0.95
"2017-09-02 20:40",0.95
"2017-09-02 21:40",0.95
"2017-09-02 22:15",0.94
"2017-09-02 23:05",0.93
"2017-09-02 23:10",0.93
"2017-09-02 23:50",0.92
"2017-09-02 23:55",0.92
"2017-09-03 00:40",0.91
"2017-09-03 00:45",0.91
"2017-09-03 01:45",0.90
"2017-09-03 01:50",0.90
"2017-09-03 02:50",0.90
"2017-09-03 03:50",0.90
"2017-09-03 04:25",0.89
"2017-09-03 04:30",0.89
"2017-09-03 05:30",0.89
"2017-09-03 06:30",0.89
"2017-09-03 07:30",0.89
"2017-09-03 08:30",0.89
"2017-09-03 09:30",0.89
"2017-09-03 10:30",0.89
"2017-09-03 11:05",0.90
"2017-09-03 11:10",0.90
"2017-09-03 12:10",0.90
"2017-09-03 13:10",0.90
"2017-09-03 14:10",0.90
"2017-09-03 15:10",0.90
"2017-09-03 16:10",0.90
"2017-09-03 17:00",0.89
"2017-09-03 17:05",0.90
"2017-09-03 17:10",0.89
"2017-09-03 17:20",0.89
"2017-09-03 17:35",0.89
"2017-09-03 17:40",0.89
"2017-09-03 18:35",0.88
"2017-09-03 18:40",0.88
"2017-09-03 19:40",0.88
"2017-09-03 20:05",0.87
"2017-09-03 20:10",0.87
"2017-09-03 21:10",0.87
"2017-09-03 21:25",0.86
"2017-09-03 21:30",0.86
"2017-09-03 21:35",0.86
"2017-09-03 22:35",0.86
"2017-09-03 22:40",0.86
"2017-09-03 22:45",0.85
"2017-09-03 22:50",0.85
"2017-09-03 23:50",0.85
"2017-09-04 00:00",0.84
"2017-09-04 00:05",0.84
"2017-09-04 01:05",0.84
"2017-09-04 02:05",0.84
"2017-09-04 03:05",0.84
"2017-09-04 03:40",0.83
"2017-09-04 03:45",0.84
"2017-09-04 03:50",0.84
"2017-09-04 04:40",0.84
"2017-09-04 04:45",0.84
"2017-09-04 05:45",0.84
"2017-09-04 06:45",0.84
"2017-09-04 07:45",0.84
"2017-09-04 08:05",0.85
"2017-09-04 08:10",0.85
"2017-09-04 08:55",0.85
"2017-09-04 09:00",0.85
"2017-09-04 09:05",0.86
"2017-09-04 09:10",0.86
"2017-09-04 09:45",0.86
"2017-09-04 09:50",0.87
"2017-09-04 09:55",0.87
"2017-09-04 10:35",0.88
"2017-09-04 10:40",0.88
"2017-09-04 11:15",0.88
"2017-09-04 11:20",0.89
"2017-09-04 11:25",0.88
"2017-09-04 11:30",0.89
"2017-09-04 11:35",0.89
"2017-09-04 12:05",0.89
"2017-09-04 12:10",0.90
"2017-09-04 12:15",0.90
"2017-09-04 12:20",0.90
"2017-09-04 13:20",0.90
"2017-09-04 14:20",0.90
"2017-09-04 15:10",0.90
"2017-09-04 15:20",0.90
"2017-09-04 15:25",0.91
"2017-09-04 15:30",0.91
"2017-09-04 15:35",0.91
"2017-09-04 15:40",0.91
"2017-09-04 16:00",0.91
"2017-09-04 16:05",0.91
"2017-09-04 17:05",0.91
"2017-09-04 18:05",0.91
"2017-09-04 18:10",0.90
"2017-09-04 18:15",0.91
"2017-09-04 18:20",0.90
"2017-09-04 18:25",0.90
"2017-09-04 19:25",0.90
"2017-09-04 20:25",0.90
"2017-09-04 21:25",0.89
"2017-09-04 21:30",0.89
"2017-09-04 22:30",0.89
"2017-09-04 22:35",0.88
"2017-09-04 23:25",0.87
"2017-09-04 23:30",0.87
"2017-09-05 00:30",0.87
"2017-09-05 00:35",0.86
"2017-09-05 01:35",0.86
"2017-09-05 01:45",0.85
"2017-09-05 01:50",0.85
"2017-09-05 02:50",0.85
"2017-09-05 03:15",0.84
"2017-09-05 03:20",0.84
"2017-09-05 04:20",0.84
"2017-09-05 05:20",0.84
"2017-09-05 06:20",0.84
"2017-09-05 07:20",0.84
"2017-09-05 08:20",0.84
"2017-09-05 09:20",0.84
"2017-09-05 10:20",0.84
"2017-09-05 11:20",0.84
"2017-09-05 12:20",0.84
"2017-09-05 13:20",0.84
"2017-09-05 14:20",0.84
"2017-09-05 15:20",0.84
"2017-09-05 16:20",0.84
"2017-09-05 17:20",0.84
"2017-09-05 18:20",0.84
"2017-09-05 19:20",0.84
"2017-09-05 20:15",0.83
"2017-09-05 20:20",0.83
"2017-09-05 21:20",0.83
"2017-09-05 21:30",0.82
"2017-09-05 21:35",0.82
"2017-09-05 22:35",0.82
"2017-09-05 22:40",0.81
"2017-09-05 22:45",0.81
"2017-09-05 23:45",0.81
"2017-09-05 23:50",0.80
"2017-09-05 23:55",0.80
"2017-09-06 00:55",0.80
"2017-09-06 01:00",0.79
"2017-09-06 01:55",0.78
"2017-09-06 02:00",0.78
"2017-09-06 03:00",0.78
"2017-09-06 03:55",0.77
"2017-09-06 04:00",0.77
"2017-09-06 05:00",0.76
"2017-09-06 05:05",0.76
"2017-09-06 05:50",0.75
"2017-09-06 05:55",0.75
"2017-09-06 06:55",0.74
"2017-09-06 07:00",0.74
"2017-09-06 07:50",0.73
"2017-09-06 07:55",0.73
"2017-09-06 08:55",0.72
"2017-09-06 09:55",0.72
