"2018-02-26 11:40",0.09
"2018-02-26 12:40",0.09
"2018-02-26 13:40",0.09
"2018-02-26 14:40",0.09
"2018-02-26 15:40",0.09
"2018-02-26 16:40",0.09
"2018-02-26 17:40",0.09
"2018-02-26 18:40",0.09
"2018-02-26 19:40",0.09
"2018-02-26 20:40",0.09
"2018-02-26 21:40",0.09
"2018-02-26 22:40",0.09
"2018-02-26 23:40",0.09
"2018-02-27 00:40",0.09
"2018-02-27 01:40",0.09
"2018-02-27 02:40",0.09
"2018-02-27 03:40",0.09
"2018-02-27 04:40",0.09
"2018-02-27 05:40",0.09
"2018-02-27 06:40",0.09
"2018-02-27 07:10",0.10
"2018-02-27 08:10",0.10
"2018-02-27 09:10",0.10
"2018-02-27 10:10",0.10
"2018-02-27 10:55",0.10
"2018-02-27 12:00",0.10
"2018-02-27 13:00",0.10
"2018-02-27 14:00",0.10
"2018-02-27 15:00",0.10
"2018-02-27 16:00",0.10
"2018-02-27 17:00",0.10
"2018-02-27 18:00",0.10
"2018-02-27 19:00",0.10
"2018-02-27 20:00",0.10
"2018-02-27 21:00",0.10
"2018-02-27 21:05",0.11
"2018-02-27 21:10",0.11
"2018-02-27 22:10",0.11
"2018-02-27 23:10",0.11
"2018-02-28 00:00",0.11
"2018-02-28 01:00",0.11
"2018-02-28 02:00",0.11
"2018-02-28 03:00",0.11
"2018-02-28 04:00",0.11
"2018-02-28 05:00",0.11
"2018-02-28 06:00",0.11
"2018-02-28 06:25",0.12
"2018-02-28 06:30",0.12
"2018-02-28 07:30",0.12
"2018-02-28 08:30",0.12
"2018-02-28 09:15",0.13
"2018-02-28 09:20",0.13
"2018-02-28 10:00",0.13
"2018-02-28 10:40",0.14
"2018-02-28 10:45",0.14
"2018-02-28 11:35",0.15
"2018-02-28 11:40",0.15
"2018-02-28 12:05",0.16
"2018-02-28 12:10",0.16
"2018-02-28 12:15",0.17
"2018-02-28 12:20",0.19
"2018-02-28 12:25",0.20
"2018-02-28 12:30",0.24
"2018-02-28 12:35",0.30
"2018-02-28 12:40",0.36
"2018-02-28 12:45",0.41
"2018-02-28 12:50",0.47
"2018-02-28 12:55",0.51
"2018-02-28 13:00",0.54
"2018-02-28 13:05",0.56
"2018-02-28 13:10",0.59
"2018-02-28 13:15",0.62
"2018-02-28 13:20",0.65
"2018-02-28 13:25",0.67
"2018-02-28 13:30",0.69
"2018-02-28 13:35",0.70
"2018-02-28 13:40",0.71
"2018-02-28 13:45",0.72
"2018-02-28 13:50",0.73
"2018-02-28 13:55",0.74
"2018-02-28 14:00",0.75
"2018-02-28 14:05",0.76
"2018-02-28 14:10",0.77
"2018-02-28 14:15",0.78
"2018-02-28 14:20",0.79
"2018-02-28 14:25",0.80
"2018-02-28 14:30",0.81
"2018-02-28 14:35",0.82
"2018-02-28 14:40",0.83
"2018-02-28 14:45",0.84
"2018-02-28 14:50",0.85
"2018-02-28 14:55",0.86
"2018-02-28 15:00",0.87
"2018-02-28 15:05",0.88
"2018-02-28 15:10",0.89
"2018-02-28 15:15",0.90
"2018-02-28 15:20",0.91
"2018-02-28 15:25",0.92
"2018-02-28 15:30",0.94
"2018-02-28 15:35",0.95
"2018-02-28 15:40",0.96
"2018-02-28 15:45",0.97
"2018-02-28 15:50",0.98
"2018-02-28 15:55",1.00
"2018-02-28 16:00",1.01
"2018-02-28 16:05",1.02
"2018-02-28 16:10",1.04
"2018-02-28 16:15",1.05
"2018-02-28 16:20",1.06
"2018-02-28 16:25",1.07
"2018-02-28 16:30",1.08
"2018-02-28 16:35",1.08
"2018-02-28 16:40",1.09
"2018-02-28 16:45",1.11
"2018-02-28 16:50",1.11
"2018-02-28 16:55",1.11
"2018-02-28 17:00",1.12
"2018-02-28 17:05",1.13
"2018-02-28 17:10",1.12
"2018-02-28 17:15",1.12
"2018-02-28 17:20",1.13
"2018-02-28 17:25",1.14
"2018-02-28 17:30",1.12
"2018-02-28 17:35",1.13
"2018-02-28 17:40",1.13
"2018-02-28 17:45",1.13
"2018-02-28 17:50",1.14
"2018-02-28 17:55",1.13
"2018-02-28 18:00",1.14
"2018-02-28 18:05",1.14
"2018-02-28 18:10",1.14
"2018-02-28 18:15",1.14
"2018-02-28 18:20",1.15
"2018-02-28 18:25",1.14
"2018-02-28 18:30",1.14
"2018-02-28 18:35",1.15
"2018-02-28 18:40",1.15
"2018-02-28 18:45",1.14
"2018-02-28 18:50",1.13
"2018-02-28 18:55",1.13
"2018-02-28 19:05",1.12
"2018-02-28 19:10",1.12
"2018-02-28 19:15",1.11
"2018-02-28 19:20",1.11
"2018-02-28 19:25",1.10
"2018-02-28 19:30",1.10
"2018-02-28 19:35",1.09
"2018-02-28 19:40",1.08
"2018-02-28 19:45",1.08
"2018-02-28 19:50",1.07
"2018-02-28 19:55",1.06
"2018-02-28 20:00",1.05
"2018-02-28 20:05",1.04
"2018-02-28 20:10",1.04
"2018-02-28 20:15",1.03
"2018-02-28 20:20",1.03
"2018-02-28 20:25",1.02
"2018-02-28 20:30",1.01
"2018-02-28 20:35",1.01
"2018-02-28 20:40",1.00
"2018-02-28 20:45",0.99
"2018-02-28 20:50",0.99
"2018-02-28 20:55",0.98
"2018-02-28 21:00",0.98
"2018-02-28 21:15",0.98
"2018-02-28 21:20",0.99
"2018-02-28 21:25",1.01
"2018-02-28 21:30",1.03
"2018-02-28 21:35",1.05
"2018-02-28 21:40",1.08
"2018-02-28 21:45",1.12
"2018-02-28 21:50",1.15
"2018-02-28 21:55",1.18
"2018-02-28 22:00",1.20
"2018-02-28 22:05",1.22
"2018-02-28 22:10",1.24
"2018-02-28 22:15",1.25
"2018-02-28 22:20",1.26
"2018-02-28 22:25",1.27
"2018-02-28 22:30",1.28
"2018-02-28 22:35",1.28
"2018-02-28 22:40",1.28
"2018-02-28 22:45",1.28
"2018-02-28 22:50",1.28
"2018-02-28 22:55",1.27
"2018-02-28 23:00",1.26
"2018-02-28 23:05",1.26
"2018-02-28 23:10",1.25
"2018-02-28 23:15",1.24
"2018-02-28 23:20",1.23
"2018-02-28 23:25",1.22
"2018-02-28 23:30",1.21
"2018-02-28 23:35",1.20
"2018-02-28 23:40",1.19
"2018-02-28 23:45",1.18
"2018-02-28 23:50",1.17
"2018-02-28 23:55",1.15
"2018-03-01 00:00",1.14
"2018-03-01 00:05",1.13
"2018-03-01 00:10",1.11
"2018-03-01 00:15",1.11
"2018-03-01 00:20",1.10
"2018-03-01 00:25",1.09
"2018-03-01 00:30",1.08
"2018-03-01 00:35",1.06
"2018-03-01 00:40",1.06
"2018-03-01 00:45",1.05
"2018-03-01 00:50",1.03
"2018-03-01 00:55",1.03
"2018-03-01 01:00",1.02
"2018-03-01 01:05",1.01
"2018-03-01 01:10",1.00
"2018-03-01 01:15",1.00
"2018-03-01 01:20",0.99
"2018-03-01 01:25",0.99
"2018-03-01 01:30",0.98
"2018-03-01 01:35",0.98
"2018-03-01 01:40",0.98
"2018-03-01 01:45",0.97
"2018-03-01 01:50",0.96
"2018-03-01 01:55",0.96
"2018-03-01 02:00",0.95
"2018-03-01 02:05",0.95
"2018-03-01 02:10",0.95
"2018-03-01 02:15",0.94
"2018-03-01 02:20",0.94
"2018-03-01 02:25",0.93
"2018-03-01 02:30",0.93
"2018-03-01 02:35",0.93
"2018-03-01 02:40",0.92
"2018-03-01 02:45",0.92
"2018-03-01 02:55",0.92
"2018-03-01 03:00",0.91
"2018-03-01 03:05",0.91
"2018-03-01 03:25",0.90
"2018-03-01 03:30",0.90
"2018-03-01 03:35",0.90
"2018-03-01 03:40",0.90
"2018-03-01 04:10",0.90
"2018-03-01 04:15",0.90
"2018-03-01 04:20",0.89
"2018-03-01 04:25",0.90
"2018-03-01 04:30",0.90
"2018-03-01 04:35",0.90
"2018-03-01 04:40",0.89
"2018-03-01 05:40",0.89
"2018-03-01 05:45",0.89
"2018-03-01 05:50",0.90
"2018-03-01 05:55",0.90
"2018-03-01 06:00",0.90
"2018-03-01 06:05",0.90
"2018-03-01 06:20",0.91
"2018-03-01 06:25",0.91
"2018-03-01 06:30",0.91
"2018-03-01 06:35",0.92
"2018-03-01 06:40",0.92
"2018-03-01 06:45",0.93
"2018-03-01 06:50",0.93
"2018-03-01 06:55",0.94
"2018-03-01 07:00",0.95
"2018-03-01 07:05",0.96
"2018-03-01 07:10",0.96
"2018-03-01 07:15",0.97
"2018-03-01 07:20",0.97
"2018-03-01 07:25",0.98
"2018-03-01 07:30",0.99
"2018-03-01 07:35",0.99
"2018-03-01 07:40",1.00
"2018-03-01 07:45",1.01
"2018-03-01 07:50",1.01
"2018-03-01 07:55",1.01
"2018-03-01 08:00",1.02
"2018-03-01 08:05",1.02
"2018-03-01 08:10",1.03
"2018-03-01 08:15",1.03
"2018-03-01 08:20",1.03
"2018-03-01 08:25",1.04
"2018-03-01 08:30",1.04
"2018-03-01 08:35",1.04
"2018-03-01 08:40",1.05
"2018-03-01 08:45",1.05
"2018-03-01 08:50",1.05
"2018-03-01 08:55",1.06
"2018-03-01 09:00",1.07
"2018-03-01 09:05",1.07
"2018-03-01 09:10",1.08
"2018-03-01 09:15",1.08
"2018-03-01 09:20",1.08
"2018-03-01 09:25",1.10
"2018-03-01 09:30",1.10
"2018-03-01 09:35",1.12
"2018-03-01 09:40",1.13
"2018-03-01 09:45",1.14
"2018-03-01 09:50",1.15
"2018-03-01 09:55",1.16
"2018-03-01 10:00",1.18
"2018-03-01 10:05",1.19
"2018-03-01 10:10",1.20
"2018-03-01 10:15",1.21
"2018-03-01 10:20",1.22
"2018-03-01 10:25",1.23
"2018-03-01 10:30",1.25
"2018-03-01 10:35",1.27
"2018-03-01 10:40",1.28
"2018-03-01 10:45",1.30
"2018-03-01 10:50",1.31
"2018-03-01 10:55",1.32
"2018-03-01 11:00",1.34
"2018-03-01 11:05",1.36
"2018-03-01 11:10",1.37
"2018-03-01 11:15",1.38
"2018-03-01 11:20",1.37
"2018-03-01 11:25",1.39
"2018-03-01 11:30",1.40
"2018-03-01 11:35",1.40
"2018-03-01 11:40",1.40
"2018-03-01 11:45",1.42
"2018-03-01 11:50",1.42
"2018-03-01 11:55",1.44
"2018-03-01 12:00",1.45
"2018-03-01 12:05",1.44
"2018-03-01 12:10",1.46
"2018-03-01 12:15",1.48
"2018-03-01 12:20",1.49
"2018-03-01 12:25",1.49
"2018-03-01 12:30",1.50
"2018-03-01 12:35",1.51
"2018-03-01 12:40",1.53
"2018-03-01 12:45",1.53
"2018-03-01 12:50",1.54
"2018-03-01 12:55",1.56
"2018-03-01 13:00",1.57
"2018-03-01 13:05",1.58
"2018-03-01 13:10",1.59
"2018-03-01 13:15",1.59
"2018-03-01 13:20",1.60
"2018-03-01 13:25",1.62
"2018-03-01 13:30",1.64
"2018-03-01 13:35",1.64
"2018-03-01 13:40",1.65
"2018-03-01 13:45",1.66
"2018-03-01 13:50",1.68
"2018-03-01 13:55",1.68
"2018-03-01 14:00",1.70
"2018-03-01 14:05",1.71
"2018-03-01 14:10",1.72
"2018-03-01 14:15",1.74
"2018-03-01 14:20",1.73
"2018-03-01 14:25",1.74
"2018-03-01 14:30",1.76
"2018-03-01 14:35",1.77
"2018-03-01 14:40",1.78
"2018-03-01 14:45",1.79
"2018-03-01 14:50",1.81
"2018-03-01 14:55",1.80
"2018-03-01 15:00",1.82
"2018-03-01 15:05",1.81
"2018-03-01 15:10",1.82
"2018-03-01 15:15",1.82
"2018-03-01 15:20",0.42
"2018-03-01 15:25",0.01
"2018-03-01 15:30",23.45
"2018-03-01 15:35",85.21
"2018-03-01 15:40",94.74
"2018-03-01 15:45",99.97
"2018-03-01 15:50",99.96
"2018-03-01 16:00",99.94
"2018-03-01 16:10",99.93
"2018-03-01 16:15",99.91
"2018-03-01 16:30",99.89
"2018-03-01 17:00",99.91
"2018-03-01 17:20",99.92
"2018-03-01 17:25",99.91
"2018-03-01 17:45",99.90
"2018-03-01 18:00",99.89
"2018-03-01 18:05",99.88
"2018-03-01 18:45",99.89
"2018-03-01 18:55",99.91
"2018-03-01 19:00",99.92
"2018-03-01 19:10",99.94
"2018-03-01 19:15",99.96
"2018-03-01 19:25",99.98
"2018-03-01 19:30",70.32
"2018-03-01 19:35",61.34
"2018-03-01 19:40",58.51
"2018-03-01 19:45",85.06
"2018-03-01 19:50",99.98
"2018-03-01 20:00",99.96
"2018-03-01 20:05",99.94
"2018-03-01 20:15",99.91
"2018-03-01 20:25",99.89
"2018-03-01 20:30",99.87
"2018-03-01 20:35",99.85
"2018-03-01 20:40",99.84
"2018-03-01 20:45",99.82
"2018-03-01 20:50",99.80
"2018-03-01 20:55",99.79
"2018-03-01 21:00",99.78
"2018-03-01 21:10",99.75
"2018-03-01 21:15",99.74
"2018-03-01 21:25",99.72
"2018-03-01 21:30",99.70
"2018-03-01 21:35",99.69
"2018-03-01 21:45",99.67
"2018-03-01 21:50",99.66
"2018-03-01 21:55",99.65
"2018-03-01 22:00",99.63
"2018-03-01 22:10",99.61
"2018-03-01 22:15",99.60
"2018-03-01 22:25",99.58
"2018-03-01 22:30",99.56
"2018-03-01 22:35",99.55
"2018-03-01 22:40",99.54
"2018-03-01 22:45",99.53
"2018-03-01 22:50",99.52
"2018-03-01 22:55",99.51
"2018-03-01 23:00",99.50
"2018-03-01 23:10",99.48
"2018-03-01 23:20",99.46
"2018-03-01 23:30",99.44
"2018-03-01 23:40",99.42
"2018-03-01 23:50",99.41
"2018-03-02 00:00",99.40
"2018-03-02 00:05",99.38
"2018-03-02 00:15",99.37
"2018-03-02 00:25",99.36
"2018-03-02 00:35",99.35
"2018-03-02 00:45",99.46
"2018-03-02 00:50",99.33
"2018-03-02 01:05",99.31
"2018-03-02 01:15",99.30
"2018-03-02 01:25",99.29
"2018-03-02 01:35",99.28
"2018-03-02 01:50",99.26
"2018-03-02 02:05",99.25
"2018-03-02 02:20",99.24
"2018-03-02 02:30",99.23
"2018-03-02 02:40",99.22
"2018-03-02 02:50",99.21
"2018-03-02 03:05",99.20
"2018-03-02 03:20",99.19
"2018-03-02 03:35",99.18
"2018-03-02 03:50",99.16
"2018-03-02 04:10",99.15
"2018-03-02 04:25",99.14
"2018-03-02 04:40",99.13
"2018-03-02 04:50",99.12
"2018-03-02 05:25",99.11
"2018-03-02 05:50",99.09
"2018-03-02 06:20",99.08
"2018-03-02 06:50",99.07
"2018-03-02 07:10",99.06
"2018-03-02 07:50",99.05
"2018-03-02 08:50",99.05
"2018-03-02 09:05",22.08
"2018-03-02 09:10",0.85
"2018-03-02 09:15",0.85
"2018-03-02 09:20",0.86
"2018-03-02 09:25",0.86
"2018-03-02 09:35",0.86
"2018-03-02 09:40",0.87
"2018-03-02 09:45",0.87
"2018-03-02 09:50",0.87
"2018-03-02 09:55",0.88
"2018-03-02 10:00",0.88
"2018-03-02 10:05",0.88
"2018-03-02 10:15",0.89
"2018-03-02 10:20",0.89
"2018-03-02 10:40",0.89
"2018-03-02 10:45",0.90
"2018-03-02 10:50",0.89
"2018-03-02 10:55",0.90
"2018-03-02 11:00",0.90
"2018-03-02 11:05",0.90
"2018-03-02 11:10",0.90
"2018-03-02 11:15",0.90
"2018-03-02 11:20",0.90
"2018-03-02 11:30",0.90
"2018-03-02 11:35",0.90
"2018-03-02 11:40",0.90
"2018-03-02 11:45",0.90
"2018-03-02 11:50",0.91
"2018-03-02 11:55",0.91
"2018-03-02 12:05",0.91
"2018-03-02 12:10",0.92
"2018-03-02 12:15",0.92
"2018-03-02 12:20",0.91
"2018-03-02 12:25",0.92
"2018-03-02 12:30",0.91
"2018-03-02 12:35",0.91
"2018-03-02 12:40",0.92
"2018-03-02 12:45",0.92
"2018-03-02 13:05",0.93
"2018-03-02 13:10",0.92
"2018-03-02 13:15",0.93
"2018-03-02 13:20",0.93
"2018-03-02 13:25",0.93
"2018-03-02 13:30",0.93
"2018-03-02 13:35",0.94
"2018-03-02 13:40",0.94
"2018-03-02 13:45",0.94
"2018-03-02 13:50",0.95
"2018-03-02 13:55",0.95
"2018-03-02 14:00",0.96
"2018-03-02 14:05",0.96
"2018-03-02 14:10",0.97
"2018-03-02 14:15",0.97
"2018-03-02 14:20",0.97
"2018-03-02 14:25",0.98
"2018-03-02 14:30",0.98
"2018-03-02 14:35",0.98
"2018-03-02 14:40",0.99
"2018-03-02 14:45",0.99
"2018-03-02 14:50",1.00
"2018-03-02 14:55",1.01
"2018-03-02 15:00",1.02
"2018-03-02 15:05",1.03
"2018-03-02 15:10",1.03
"2018-03-02 15:15",1.04
"2018-03-02 15:20",1.05
"2018-03-02 15:25",1.06
"2018-03-02 15:30",1.07
"2018-03-02 15:35",1.08
"2018-03-02 15:40",1.09
"2018-03-02 15:45",1.10
"2018-03-02 15:50",1.11
"2018-03-02 15:55",1.12
"2018-03-02 16:00",1.12
"2018-03-02 16:05",1.13
"2018-03-02 16:10",1.14
"2018-03-02 16:15",1.14
"2018-03-02 16:20",1.14
"2018-03-02 16:25",1.15
"2018-03-02 16:30",1.16
"2018-03-02 16:35",1.18
"2018-03-02 16:40",1.18
"2018-03-02 16:45",1.19
"2018-03-02 16:50",1.20
"2018-03-02 16:55",1.21
"2018-03-02 17:00",1.22
"2018-03-02 17:05",1.23
"2018-03-02 17:10",1.23
"2018-03-02 17:15",1.24
"2018-03-02 17:20",1.24
"2018-03-02 17:25",1.24
"2018-03-02 17:30",1.24
"2018-03-02 17:35",1.24
"2018-03-02 17:40",1.24
"2018-03-02 17:45",1.24
"2018-03-02 17:50",1.24
"2018-03-02 17:55",1.23
"2018-03-02 18:00",1.24
"2018-03-02 18:05",1.24
"2018-03-02 18:10",1.24
"2018-03-02 18:15",1.23
"2018-03-02 18:20",1.24
"2018-03-02 18:30",1.23
"2018-03-02 18:35",1.24
"2018-03-02 18:40",1.24
"2018-03-02 18:45",1.23
"2018-03-02 19:00",1.23
"2018-03-02 19:05",1.24
"2018-03-02 19:15",1.23
"2018-03-02 19:20",1.22
"2018-03-02 19:25",1.23
"2018-03-02 19:30",1.22
"2018-03-02 19:35",1.22
"2018-03-02 19:40",1.21
"2018-03-02 19:45",1.21
"2018-03-02 19:50",1.20
"2018-03-02 19:55",1.19
"2018-03-02 20:00",1.19
"2018-03-02 20:05",1.18
"2018-03-02 20:10",1.17
"2018-03-02 20:15",1.17
"2018-03-02 20:20",1.16
"2018-03-02 20:25",1.16
"2018-03-02 20:30",1.15
"2018-03-02 20:35",1.14
"2018-03-02 20:40",1.14
"2018-03-02 20:45",1.13
"2018-03-02 20:50",1.13
"2018-03-02 20:55",1.12
"2018-03-02 21:00",1.12
"2018-03-02 21:05",1.12
"2018-03-02 21:10",1.11
"2018-03-02 21:15",1.11
"2018-03-02 21:20",1.11
"2018-03-02 21:25",1.10
"2018-03-02 21:30",1.11
"2018-03-02 21:35",1.11
"2018-03-02 21:40",1.11
"2018-03-02 21:45",1.11
"2018-03-02 21:50",1.11
"2018-03-02 21:55",1.12
"2018-03-02 22:00",1.13
"2018-03-02 22:05",1.13
"2018-03-02 22:10",1.14
"2018-03-02 22:15",1.15
"2018-03-02 22:20",1.16
"2018-03-02 22:25",1.17
"2018-03-02 22:30",1.18
"2018-03-02 22:35",1.20
"2018-03-02 22:40",1.20
"2018-03-02 22:45",1.21
"2018-03-02 22:50",1.21
"2018-03-02 22:55",1.23
"2018-03-02 23:00",1.23
"2018-03-02 23:05",1.23
"2018-03-02 23:10",1.24
"2018-03-02 23:15",1.23
"2018-03-02 23:20",1.22
"2018-03-02 23:25",1.22
"2018-03-02 23:30",1.21
"2018-03-02 23:35",1.21
"2018-03-02 23:40",1.20
"2018-03-02 23:45",1.19
"2018-03-02 23:50",1.18
"2018-03-02 23:55",1.17
"2018-03-03 00:00",1.17
"2018-03-03 00:05",1.17
"2018-03-03 00:10",1.16
"2018-03-03 00:15",1.15
"2018-03-03 00:20",1.14
"2018-03-03 00:25",1.13
"2018-03-03 00:30",1.13
"2018-03-03 00:35",1.13
"2018-03-03 00:40",1.12
"2018-03-03 00:45",1.12
"2018-03-03 00:50",1.11
"2018-03-03 00:55",1.11
"2018-03-03 01:00",1.11
"2018-03-03 01:05",1.10
"2018-03-03 01:10",1.10
"2018-03-03 01:15",1.09
"2018-03-03 01:20",1.09
"2018-03-03 01:30",1.08
"2018-03-03 01:35",1.07
"2018-03-03 01:40",1.08
"2018-03-03 01:45",1.07
"2018-03-03 01:50",1.07
"2018-03-03 01:55",1.06
"2018-03-03 02:00",1.06
"2018-03-03 02:05",1.05
"2018-03-03 02:10",1.05
"2018-03-03 02:15",1.04
"2018-03-03 02:20",1.04
"2018-03-03 02:25",1.04
"2018-03-03 02:30",1.03
"2018-03-03 02:35",1.03
"2018-03-03 02:40",1.03
"2018-03-03 02:45",1.02
"2018-03-03 02:50",1.02
"2018-03-03 02:55",1.02
"2018-03-03 03:00",1.02
"2018-03-03 03:05",1.01
"2018-03-03 03:10",1.01
"2018-03-03 03:15",1.01
"2018-03-03 03:25",1.01
"2018-03-03 03:30",1.00
"2018-03-03 03:35",1.00
"2018-03-03 03:40",1.00
"2018-03-03 03:45",0.99
"2018-03-03 03:50",0.99
"2018-03-03 03:55",0.99
"2018-03-03 04:00",0.99
"2018-03-03 04:05",0.99
"2018-03-03 04:10",0.98
"2018-03-03 04:15",0.98
"2018-03-03 04:20",0.98
"2018-03-03 04:25",0.98
"2018-03-03 04:30",0.97
"2018-03-03 04:40",0.97
"2018-03-03 04:45",0.97
"2018-03-03 04:50",0.97
"2018-03-03 05:00",0.96
"2018-03-03 05:05",0.96
"2018-03-03 05:10",0.95
"2018-03-03 05:15",0.95
"2018-03-03 05:20",0.95
"2018-03-03 05:30",0.95
"2018-03-03 05:35",0.95
"2018-03-03 05:40",0.94
"2018-03-03 05:45",0.94
"2018-03-03 05:55",0.94
"2018-03-03 06:00",0.93
"2018-03-03 06:05",0.93
"2018-03-03 06:10",0.93
"2018-03-03 06:15",0.93
"2018-03-03 06:30",0.93
"2018-03-03 06:35",0.92
"2018-03-03 06:40",0.93
"2018-03-03 06:45",0.92
"2018-03-03 06:50",0.92
"2018-03-03 07:00",0.92
"2018-03-03 07:05",0.92
"2018-03-03 07:10",0.91
"2018-03-03 07:15",0.91
"2018-03-03 07:20",0.91
"2018-03-03 07:35",0.90
"2018-03-03 07:40",0.90
"2018-03-03 07:45",0.90
"2018-03-03 07:50",0.90
"2018-03-03 07:55",0.90
"2018-03-03 08:00",0.89
"2018-03-03 08:05",0.89
"2018-03-03 08:10",0.89
"2018-03-03 08:15",0.89
"2018-03-03 08:30",0.89
"2018-03-03 08:35",0.88
"2018-03-03 08:40",0.88
"2018-03-03 08:55",0.88
"2018-03-03 09:00",0.88
"2018-03-03 09:05",0.87
"2018-03-03 09:30",0.86
"2018-03-03 09:35",0.86
"2018-03-03 09:55",0.85
"2018-03-03 10:00",0.85
"2018-03-03 10:25",0.84
"2018-03-03 10:30",0.84
"2018-03-03 10:35",0.84
"2018-03-03 10:55",0.84
"2018-03-03 11:00",0.83
"2018-03-03 11:05",0.83
"2018-03-03 11:10",0.83
"2018-03-03 11:25",0.83
"2018-03-03 11:30",0.82
"2018-03-03 11:35",0.82
"2018-03-03 11:40",0.82
"2018-03-03 12:05",0.81
"2018-03-03 12:10",0.81
"2018-03-03 12:15",0.81
"2018-03-03 12:55",0.81
"2018-03-03 13:00",0.80
"2018-03-03 13:05",0.80
"2018-03-03 13:10",0.81
"2018-03-03 13:15",0.80
"2018-03-03 13:55",0.80
"2018-03-03 14:00",0.81
"2018-03-03 14:05",0.81
"2018-03-03 14:10",0.81
"2018-03-03 14:20",0.82
"2018-03-03 14:25",0.83
"2018-03-03 14:30",0.83
"2018-03-03 14:35",0.84
"2018-03-03 14:40",0.85
"2018-03-03 14:45",0.86
"2018-03-03 14:50",0.88
"2018-03-03 14:55",0.90
"2018-03-03 15:00",0.92
"2018-03-03 15:05",0.94
"2018-03-03 15:10",0.96
"2018-03-03 15:15",0.98
"2018-03-03 15:20",1.00
"2018-03-03 15:25",1.02
"2018-03-03 15:30",1.05
"2018-03-03 15:35",1.06
"2018-03-03 15:40",1.08
"2018-03-03 15:45",1.09
"2018-03-03 15:50",1.10
"2018-03-03 15:55",1.12
"2018-03-03 16:00",1.12
"2018-03-03 16:05",1.13
"2018-03-03 16:10",1.13
"2018-03-03 16:15",1.13
"2018-03-03 16:20",1.13
"2018-03-03 16:25",1.12
"2018-03-03 16:30",1.12
"2018-03-03 16:35",1.12
"2018-03-03 16:40",1.12
"2018-03-03 16:45",1.11
"2018-03-03 16:50",1.11
"2018-03-03 16:55",1.11
"2018-03-03 17:00",1.11
"2018-03-03 17:05",1.11
"2018-03-03 17:10",1.11
"2018-03-03 17:15",1.11
"2018-03-03 17:20",1.11
"2018-03-03 17:25",1.11
"2018-03-03 17:30",1.11
"2018-03-03 17:35",1.12
"2018-03-03 17:40",1.12
"2018-03-03 17:45",1.13
"2018-03-03 17:50",1.13
"2018-03-03 17:55",1.13
"2018-03-03 18:05",1.14
"2018-03-03 18:10",1.14
"2018-03-03 18:20",1.14
"2018-03-03 18:25",1.15
"2018-03-03 18:30",1.15
"2018-03-03 18:35",1.15
"2018-03-03 18:40",1.16
"2018-03-03 18:45",1.16
"2018-03-03 18:50",1.17
"2018-03-03 18:55",1.17
"2018-03-03 19:00",1.18
"2018-03-03 19:05",1.19
"2018-03-03 19:10",1.20
"2018-03-03 19:15",1.20
"2018-03-03 19:20",1.21
"2018-03-03 19:25",1.22
"2018-03-03 19:30",1.22
"2018-03-03 19:35",1.23
"2018-03-03 19:40",1.23
"2018-03-03 19:45",1.24
"2018-03-03 19:50",1.25
"2018-03-03 19:55",1.24
"2018-03-03 20:00",1.25
"2018-03-03 20:05",1.25
"2018-03-03 20:10",1.25
"2018-03-03 20:15",1.25
"2018-03-03 20:20",1.26
"2018-03-03 20:25",1.25
"2018-03-03 20:30",1.25
"2018-03-03 20:35",1.25
"2018-03-03 20:40",1.24
"2018-03-03 20:45",1.24
"2018-03-03 20:50",1.23
"2018-03-03 20:55",1.23
"2018-03-03 21:00",1.23
"2018-03-03 21:05",1.22
"2018-03-03 21:10",1.21
"2018-03-03 21:15",1.21
"2018-03-03 21:20",1.21
"2018-03-03 21:25",1.21
"2018-03-03 21:30",1.20
"2018-03-03 21:35",1.20
"2018-03-03 21:40",1.19
"2018-03-03 21:45",1.20
"2018-03-03 21:50",1.19
"2018-03-03 21:55",1.20
"2018-03-03 22:00",1.20
"2018-03-03 22:05",1.20
"2018-03-03 22:10",1.20
"2018-03-03 22:20",1.19
"2018-03-03 22:25",1.20
"2018-03-03 22:30",1.20
"2018-03-03 22:35",1.20
"2018-03-03 22:40",1.20
"2018-03-03 22:45",1.21
"2018-03-03 22:50",1.21
"2018-03-03 22:55",1.22
"2018-03-03 23:00",1.23
"2018-03-03 23:05",1.24
"2018-03-03 23:10",1.25
"2018-03-03 23:15",1.27
"2018-03-03 23:20",1.28
"2018-03-03 23:25",1.29
"2018-03-03 23:30",1.30
"2018-03-03 23:35",1.32
"2018-03-03 23:40",1.34
"2018-03-03 23:45",1.36
"2018-03-03 23:50",1.37
"2018-03-03 23:55",1.38
"2018-03-04 00:00",1.39
"2018-03-04 00:05",1.41
"2018-03-04 00:10",1.42
"2018-03-04 00:15",1.41
"2018-03-04 00:20",1.41
"2018-03-04 00:25",1.43
"2018-03-04 00:30",1.43
"2018-03-04 00:35",1.41
"2018-03-04 00:40",1.42
"2018-03-04 00:45",1.42
"2018-03-04 00:50",1.42
"2018-03-04 00:55",1.42
"2018-03-04 01:00",1.43
"2018-03-04 01:05",1.41
"2018-03-04 01:10",1.41
"2018-03-04 01:15",1.42
"2018-03-04 01:20",1.41
"2018-03-04 01:25",1.40
"2018-03-04 01:35",1.40
"2018-03-04 01:40",1.39
"2018-03-04 01:45",1.39
"2018-03-04 01:50",1.38
"2018-03-04 01:55",1.39
"2018-03-04 02:00",1.39
"2018-03-04 02:05",1.39
"2018-03-04 02:10",1.37
"2018-03-04 02:15",1.38
"2018-03-04 02:20",1.37
"2018-03-04 02:25",1.37
"2018-03-04 02:30",1.38
"2018-03-04 02:35",1.38
"2018-03-04 02:40",1.37
"2018-03-04 02:45",1.37
"2018-03-04 02:50",1.36
"2018-03-04 02:55",1.36
"2018-03-04 03:00",1.36
"2018-03-04 03:05",1.36
"2018-03-04 03:10",1.34
"2018-03-04 03:15",1.36
"2018-03-04 03:20",1.36
"2018-03-04 03:25",1.36
"2018-03-04 03:30",1.36
"2018-03-04 03:35",1.36
"2018-03-04 03:40",1.35
"2018-03-04 03:45",1.36
"2018-03-04 03:50",1.35
"2018-03-04 03:55",1.36
"2018-03-04 04:00",1.35
"2018-03-04 04:05",1.35
"2018-03-04 04:10",1.34
"2018-03-04 04:15",1.34
"2018-03-04 04:20",1.34
"2018-03-04 04:25",1.34
"2018-03-04 04:30",1.34
"2018-03-04 04:35",1.34
"2018-03-04 04:40",1.34
"2018-03-04 04:45",1.34
"2018-03-04 04:50",1.35
"2018-03-04 04:55",1.35
"2018-03-04 05:00",1.35
"2018-03-04 05:05",1.37
"2018-03-04 05:10",1.37
"2018-03-04 05:15",1.38
"2018-03-04 05:20",1.39
"2018-03-04 05:25",1.39
"2018-03-04 05:30",1.39
"2018-03-04 05:35",1.41
"2018-03-04 05:40",1.42
"2018-03-04 05:45",1.45
"2018-03-04 05:50",1.46
"2018-03-04 05:55",1.49
"2018-03-04 06:00",1.50
"2018-03-04 06:05",1.53
"2018-03-04 06:10",1.56
"2018-03-04 06:15",1.59
"2018-03-04 06:20",1.62
"2018-03-04 06:25",1.66
"2018-03-04 06:30",1.68
"2018-03-04 06:35",1.71
"2018-03-04 06:40",1.74
"2018-03-04 06:45",1.77
"2018-03-04 06:50",1.80
"2018-03-04 06:55",1.82
"2018-03-04 07:00",1.84
"2018-03-04 07:05",1.86
"2018-03-04 07:10",1.88
"2018-03-04 07:15",1.89
"2018-03-04 07:20",1.91
"2018-03-04 07:25",1.90
"2018-03-04 07:30",1.91
"2018-03-04 07:35",1.93
"2018-03-04 07:40",1.93
"2018-03-04 07:45",1.91
"2018-03-04 07:50",1.93
"2018-03-04 07:55",1.92
"2018-03-04 08:00",1.92
"2018-03-04 08:05",1.91
"2018-03-04 08:10",1.90
"2018-03-04 08:15",1.90
"2018-03-04 08:20",1.90
"2018-03-04 08:25",1.88
"2018-03-04 08:30",1.87
"2018-03-04 08:35",1.86
"2018-03-04 08:40",1.86
"2018-03-04 08:45",1.85
"2018-03-04 08:50",1.84
"2018-03-04 08:55",1.84
"2018-03-04 09:00",1.82
"2018-03-04 09:05",1.80
"2018-03-04 09:10",1.82
"2018-03-04 09:15",1.80
"2018-03-04 09:20",1.79
"2018-03-04 09:25",1.77
"2018-03-04 09:30",1.75
"2018-03-04 09:35",1.74
"2018-03-04 09:40",1.71
"2018-03-04 09:45",1.72
"2018-03-04 09:50",1.71
"2018-03-04 09:55",1.69
"2018-03-04 10:00",1.68
"2018-03-04 10:05",1.67
"2018-03-04 10:10",1.66
"2018-03-04 10:15",1.65
"2018-03-04 10:20",1.63
"2018-03-04 10:25",1.62
"2018-03-04 10:30",1.61
"2018-03-04 10:35",1.59
"2018-03-04 10:40",1.58
"2018-03-04 10:45",1.56
"2018-03-04 10:50",1.55
"2018-03-04 10:55",1.54
"2018-03-04 11:00",1.52
"2018-03-04 11:05",1.50
"2018-03-04 11:10",1.49
"2018-03-04 11:15",1.49
"2018-03-04 11:20",1.48
"2018-03-04 11:25",1.46
"2018-03-04 11:30",1.45
"2018-03-04 11:35",1.45
"2018-03-04 11:40",1.44
"2018-03-04 11:45",1.42
"2018-03-04 11:50",1.41
"2018-03-04 11:55",1.39
"2018-03-04 12:00",1.39
"2018-03-04 12:05",1.38
"2018-03-04 12:10",1.37
"2018-03-04 12:15",1.36
"2018-03-04 12:20",1.35
"2018-03-04 12:25",1.36
"2018-03-04 12:30",1.33
"2018-03-04 12:35",1.33
"2018-03-04 12:40",1.32
"2018-03-04 12:45",1.30
"2018-03-04 12:50",1.30
"2018-03-04 12:55",1.30
"2018-03-04 13:00",1.29
"2018-03-04 13:05",1.27
"2018-03-04 13:10",1.27
"2018-03-04 13:15",1.26
"2018-03-04 13:20",1.25
"2018-03-04 13:25",1.24
"2018-03-04 13:30",1.24
"2018-03-04 13:35",1.23
"2018-03-04 13:40",1.21
"2018-03-04 13:45",1.21
"2018-03-04 13:50",1.21
"2018-03-04 13:55",1.21
"2018-03-04 14:00",1.20
"2018-03-04 14:05",1.19
"2018-03-04 14:10",1.18
"2018-03-04 14:15",1.18
"2018-03-04 14:20",1.17
"2018-03-04 14:25",1.17
"2018-03-04 14:30",1.16
"2018-03-04 14:35",1.16
"2018-03-04 14:40",1.15
"2018-03-04 14:45",1.15
"2018-03-04 14:55",1.14
"2018-03-04 15:00",1.13
"2018-03-04 15:05",1.12
"2018-03-04 15:10",1.12
"2018-03-04 15:15",1.11
"2018-03-04 15:20",1.10
"2018-03-04 15:25",1.10
"2018-03-04 15:30",1.10
"2018-03-04 15:35",1.09
"2018-03-04 15:40",1.09
"2018-03-04 15:45",1.08
"2018-03-04 15:50",1.08
"2018-03-04 15:55",1.08
"2018-03-04 16:00",1.07
"2018-03-04 16:05",1.06
"2018-03-04 16:10",1.06
"2018-03-04 16:15",1.06
"2018-03-04 16:20",1.05
"2018-03-04 16:25",1.05
"2018-03-04 16:30",1.04
"2018-03-04 16:35",1.05
"2018-03-04 16:40",1.04
"2018-03-04 16:45",1.03
"2018-03-04 16:50",1.02
"2018-03-04 16:55",1.03
"2018-03-04 17:00",1.02
"2018-03-04 17:05",1.02
"2018-03-04 17:10",1.01
"2018-03-04 17:15",1.01
"2018-03-04 17:20",1.01
"2018-03-04 17:25",1.00
"2018-03-04 17:30",1.00
"2018-03-04 17:35",1.00
"2018-03-04 17:40",1.00
"2018-03-04 17:45",0.99
"2018-03-04 17:50",0.99
"2018-03-04 17:55",0.99
"2018-03-04 18:00",0.98
"2018-03-04 18:05",0.98
"2018-03-04 18:10",0.97
"2018-03-04 18:15",0.98
"2018-03-04 18:20",0.97
"2018-03-04 18:30",0.96
"2018-03-04 18:35",0.96
"2018-03-04 18:50",0.95
"2018-03-04 18:55",0.95
"2018-03-04 19:00",0.95
"2018-03-04 19:10",0.94
"2018-03-04 19:15",0.94
"2018-03-04 19:20",0.94
"2018-03-04 19:25",0.94
"2018-03-04 19:30",0.94
"2018-03-04 19:35",0.93
"2018-03-04 19:40",0.93
"2018-03-04 19:45",0.93
"2018-03-04 19:50",0.93
"2018-03-04 19:55",0.92
"2018-03-04 20:00",0.92
"2018-03-04 20:05",0.92
"2018-03-04 20:10",0.91
"2018-03-04 20:20",0.92
"2018-03-04 20:25",0.91
"2018-03-04 20:30",0.91
"2018-03-04 20:35",0.91
"2018-03-04 20:45",0.91
"2018-03-04 20:50",0.91
"2018-03-04 20:55",0.90
"2018-03-04 21:00",0.90
"2018-03-04 21:15",0.89
"2018-03-04 21:20",0.89
"2018-03-04 21:25",0.89
"2018-03-04 21:30",0.89
"2018-03-04 21:50",0.89
"2018-03-04 21:55",0.88
"2018-03-04 22:00",0.88
"2018-03-04 22:30",0.87
"2018-03-04 22:35",0.87
"2018-03-04 22:40",0.87
"2018-03-04 22:45",0.87
"2018-03-04 23:10",0.87
"2018-03-04 23:20",0.87
"2018-03-04 23:25",0.87
"2018-03-04 23:30",0.86
"2018-03-04 23:35",0.87
"2018-03-04 23:40",0.86
"2018-03-04 23:45",0.86
"2018-03-05 00:15",0.86
"2018-03-05 00:20",0.86
"2018-03-05 00:25",0.87
"2018-03-05 00:30",0.87
"2018-03-05 00:35",0.87
"2018-03-05 00:55",0.87
"2018-03-05 01:00",0.88
"2018-03-05 01:05",0.88
"2018-03-05 01:10",0.88
"2018-03-05 01:20",0.89
"2018-03-05 01:25",0.89
"2018-03-05 01:30",0.89
"2018-03-05 01:35",0.90
"2018-03-05 01:40",0.90
"2018-03-05 01:45",0.90
"2018-03-05 01:50",0.91
"2018-03-05 01:55",0.91
"2018-03-05 02:00",0.92
"2018-03-05 02:05",0.93
"2018-03-05 02:10",0.93
"2018-03-05 02:15",0.94
"2018-03-05 02:20",0.95
"2018-03-05 02:25",0.96
"2018-03-05 02:30",0.96
"2018-03-05 02:35",0.96
"2018-03-05 02:40",0.97
"2018-03-05 02:45",0.97
"2018-03-05 02:50",0.97
"2018-03-05 02:55",0.97
"2018-03-05 03:00",0.97
"2018-03-05 03:05",0.98
"2018-03-05 03:10",0.98
"2018-03-05 03:15",0.98
"2018-03-05 03:20",0.98
"2018-03-05 03:25",0.98
"2018-03-05 03:30",0.98
"2018-03-05 03:35",0.98
"2018-03-05 03:40",0.97
"2018-03-05 03:45",0.97
"2018-03-05 03:50",0.97
"2018-03-05 03:55",0.97
"2018-03-05 04:00",0.97
"2018-03-05 04:05",0.97
"2018-03-05 04:10",0.97
"2018-03-05 04:15",0.97
"2018-03-05 04:20",0.96
"2018-03-05 04:25",0.96
"2018-03-05 04:30",0.96
"2018-03-05 04:35",0.97
"2018-03-05 04:40",0.96
"2018-03-05 05:05",0.95
"2018-03-05 05:10",0.95
"2018-03-05 05:15",0.95
"2018-03-05 05:20",0.95
"2018-03-05 05:25",0.95
"2018-03-05 05:30",0.95
"2018-03-05 05:35",0.95
"2018-03-05 05:50",0.95
"2018-03-05 05:55",0.95
"2018-03-05 06:00",0.94
"2018-03-05 06:05",0.94
"2018-03-05 06:10",0.94
"2018-03-05 06:15",0.94
"2018-03-05 06:20",0.95
"2018-03-05 06:25",0.94
"2018-03-05 06:30",0.94
"2018-03-05 06:35",0.94
"2018-03-05 06:40",0.94
"2018-03-05 07:25",0.94
"2018-03-05 07:40",0.94
"2018-03-05 07:45",0.93
"2018-03-05 07:50",0.94
"2018-03-05 07:55",0.94
"2018-03-05 08:00",0.93
"2018-03-05 08:10",0.94
"2018-03-05 08:15",0.94
"2018-03-05 08:20",0.94
"2018-03-05 08:45",0.94
"2018-03-05 08:50",0.95
"2018-03-05 08:55",0.95
"2018-03-05 09:00",0.95
"2018-03-05 09:05",0.96
"2018-03-05 09:10",0.95
"2018-03-05 09:15",0.96
"2018-03-05 09:20",0.96
"2018-03-05 09:30",0.97
