"2015-05-15 09:10",155.54
"2015-05-15 10:10",155.55
"2015-05-15 11:10",155.54
"2015-05-15 12:10",155.55
"2015-05-15 13:10",155.55
"2015-05-15 14:10",155.54
"2015-05-15 15:10",155.53
"2015-05-15 16:10",155.53
"2015-05-15 17:00",155.52
"2015-05-15 17:30",155.53
"2015-05-15 17:40",155.52
"2015-05-15 17:50",155.53
"2015-05-15 18:50",155.53
"2015-05-15 19:50",155.53
"2015-05-15 20:15",155.52
"2015-05-15 21:15",155.52
"2015-05-15 22:15",155.52
"2015-05-15 23:15",155.52
"2015-05-16 00:15",155.52
"2015-05-16 01:15",155.52
"2015-05-16 02:15",155.51
"2015-05-16 03:15",155.51
"2015-05-16 04:15",155.51
"2015-05-16 05:15",155.51
"2015-05-16 06:15",155.51
"2015-05-16 07:15",155.51
"2015-05-16 07:55",155.50
"2015-05-16 08:55",155.50
"2015-05-16 09:55",155.50
"2015-05-16 10:55",155.50
"2015-05-16 11:55",155.50
"2015-05-16 12:55",155.50
"2015-05-16 13:55",155.50
"2015-05-16 14:55",155.50
"2015-05-16 15:55",155.50
"2015-05-16 16:55",155.50
"2015-05-16 17:55",155.50
"2015-05-16 18:55",155.49
"2015-05-16 19:55",155.49
"2015-05-16 20:55",155.49
"2015-05-16 21:55",155.49
"2015-05-16 22:55",155.49
"2015-05-16 23:55",155.49
"2015-05-17 00:55",155.49
"2015-05-17 01:55",155.49
"2015-05-17 02:55",155.49
"2015-05-17 03:55",155.49
"2015-05-17 04:55",155.49
"2015-05-17 05:55",155.49
"2015-05-17 06:55",155.49
"2015-05-17 07:55",155.49
"2015-05-17 08:55",155.49
"2015-05-17 09:55",155.51
"2015-05-17 10:30",155.52
"2015-05-17 11:00",155.53
"2015-05-17 11:45",155.54
"2015-05-17 12:25",155.56
"2015-05-17 13:25",155.57
"2015-05-17 14:05",155.59
"2015-05-17 14:50",155.60
"2015-05-17 15:50",155.61
"2015-05-17 16:45",155.62
"2015-05-17 17:45",155.63
"2015-05-17 18:45",155.63
"2015-05-17 19:45",155.64
"2015-05-17 20:45",155.64
"2015-05-17 21:45",155.64
"2015-05-17 22:35",155.65
"2015-05-17 23:35",155.65
"2015-05-18 00:35",155.65
"2015-05-18 01:35",155.65
"2015-05-18 02:35",155.65
"2015-05-18 03:35",155.65
"2015-05-18 04:35",155.65
"2015-05-18 05:35",155.65
"2015-05-18 06:35",155.65
"2015-05-18 07:35",155.65
"2015-05-18 08:35",155.65
"2015-05-18 09:35",155.66
"2015-05-18 10:35",155.66
"2015-05-18 11:35",155.66
"2015-05-18 12:35",155.66
"2015-05-18 13:35",155.66
"2015-05-18 14:35",155.66
"2015-05-18 15:35",155.66
"2015-05-18 16:35",155.66
"2015-05-18 17:35",155.66
"2015-05-18 18:35",155.66
"2015-05-18 19:35",155.66
"2015-05-18 20:35",155.66
"2015-05-18 21:35",155.66
"2015-05-18 22:35",155.66
"2015-05-18 23:35",155.66
"2015-05-19 00:35",155.66
"2015-05-19 01:15",155.67
"2015-05-19 02:15",155.67
"2015-05-19 03:15",155.67
"2015-05-19 04:15",155.68
"2015-05-19 05:15",155.68
"2015-05-19 06:15",155.69
"2015-05-19 07:15",155.69
"2015-05-19 08:05",155.70
"2015-05-19 09:05",155.70
"2015-05-19 10:05",155.71
"2015-05-19 11:05",155.71
"2015-05-19 12:05",155.71
"2015-05-19 13:05",155.72
"2015-05-19 14:05",155.72
"2015-05-19 15:05",155.72
"2015-05-19 16:05",155.71
"2015-05-19 17:05",155.71
"2015-05-19 18:05",155.70
"2015-05-19 18:45",155.69
"2015-05-19 19:45",155.69
"2015-05-19 20:45",155.68
"2015-05-19 21:45",155.67
"2015-05-19 22:45",155.66
"2015-05-19 23:45",155.66
"2015-05-20 00:45",155.66
"2015-05-20 01:45",155.65
"2015-05-20 02:45",155.65
"2015-05-20 03:45",155.65
"2015-05-20 03:55",155.64
"2015-05-20 04:55",155.64
"2015-05-20 05:55",155.64
"2015-05-20 06:55",155.63
"2015-05-20 07:55",155.63
"2015-05-20 08:55",155.62
"2015-05-20 09:55",155.62
"2015-05-20 10:25",155.61
"2015-05-20 11:25",155.61
"2015-05-20 12:25",155.61
"2015-05-20 13:25",155.61
"2015-05-20 14:25",155.60
"2015-05-20 15:25",155.60
"2015-05-20 16:25",155.60
"2015-05-20 17:25",155.59
"2015-05-20 18:00",155.58
"2015-05-20 19:00",155.58
"2015-05-20 20:00",155.58
"2015-05-20 21:00",155.58
"2015-05-20 22:00",155.57
"2015-05-20 23:00",155.57
"2015-05-21 00:00",155.57
"2015-05-21 01:00",155.57
"2015-05-21 02:00",155.57
"2015-05-21 03:00",155.57
"2015-05-21 04:00",155.57
"2015-05-21 05:00",155.57
"2015-05-21 06:00",155.57
"2015-05-21 07:00",155.56
"2015-05-21 08:00",155.56
"2015-05-21 09:00",155.57
"2015-05-21 10:00",155.57
"2015-05-21 11:00",155.56
"2015-05-21 11:40",155.55
"2015-05-21 12:40",155.55
"2015-05-21 13:40",155.54
"2015-05-21 14:40",155.54
"2015-05-21 15:40",155.54
"2015-05-21 16:40",155.54
"2015-05-21 17:40",155.54
"2015-05-21 18:40",155.54
"2015-05-21 19:40",155.54
"2015-05-21 20:40",155.54
"2015-05-21 21:40",155.54
"2015-05-21 22:40",155.54
"2015-05-21 23:40",155.54
"2015-05-22 00:40",155.54
"2015-05-22 01:40",155.54
"2015-05-22 02:40",155.54
"2015-05-22 03:40",155.54
"2015-05-22 04:40",155.54
"2015-05-22 05:40",155.54
