"2016-08-05 09:25",0.00
"2016-08-05 10:25",0.00
"2016-08-05 11:25",0.00
"2016-08-05 12:25",0.00
"2016-08-05 13:25",0.00
"2016-08-05 14:25",0.00
"2016-08-05 15:25",0.00
"2016-08-05 16:25",0.00
"2016-08-05 17:25",0.00
"2016-08-05 18:25",0.00
"2016-08-05 19:25",0.00
"2016-08-05 20:25",0.00
"2016-08-05 21:25",0.00
"2016-08-05 22:25",0.00
"2016-08-05 23:25",0.00
"2016-08-06 00:25",0.00
"2016-08-06 01:25",0.00
"2016-08-06 02:25",0.00
"2016-08-06 03:25",0.00
"2016-08-06 04:25",0.00
"2016-08-06 05:25",0.00
"2016-08-06 06:25",0.00
"2016-08-06 07:25",0.00
"2016-08-06 08:25",0.00
"2016-08-06 09:25",0.00
"2016-08-06 10:25",0.00
"2016-08-06 11:25",0.00
"2016-08-06 12:25",0.00
"2016-08-06 13:25",0.00
"2016-08-06 14:25",0.00
"2016-08-06 15:25",0.00
"2016-08-06 16:25",0.00
"2016-08-06 17:25",0.00
"2016-08-06 18:25",0.00
"2016-08-06 19:25",0.00
"2016-08-06 20:25",0.00
"2016-08-06 21:25",0.00
"2016-08-06 22:25",0.00
"2016-08-06 23:25",0.00
"2016-08-07 00:25",0.00
"2016-08-07 01:25",0.00
"2016-08-07 02:25",0.00
"2016-08-07 03:25",0.00
"2016-08-07 04:25",0.00
"2016-08-07 05:25",0.00
"2016-08-07 06:25",0.00
"2016-08-07 07:25",0.00
"2016-08-07 08:25",0.00
"2016-08-07 09:25",0.00
"2016-08-07 10:25",0.00
"2016-08-07 11:25",0.00
"2016-08-07 12:25",0.00
"2016-08-07 13:25",0.00
"2016-08-07 14:25",0.00
"2016-08-07 15:25",0.00
"2016-08-07 16:25",0.00
"2016-08-07 17:25",0.00
"2016-08-07 18:25",0.00
"2016-08-07 19:25",0.00
"2016-08-07 20:25",0.00
"2016-08-07 21:25",0.00
"2016-08-07 22:25",0.00
"2016-08-07 23:25",0.00
"2016-08-08 00:25",0.00
"2016-08-08 01:25",0.00
"2016-08-08 02:25",0.00
"2016-08-08 03:25",0.00
"2016-08-08 04:25",0.00
"2016-08-08 05:25",0.00
"2016-08-08 06:25",0.00
"2016-08-08 07:25",0.00
"2016-08-08 08:25",0.00
"2016-08-08 09:25",0.00
"2016-08-08 10:25",0.00
"2016-08-08 11:25",0.00
"2016-08-08 12:25",0.00
"2016-08-08 13:25",0.00
"2016-08-08 14:25",0.00
"2016-08-08 15:25",0.00
"2016-08-08 16:25",0.00
"2016-08-08 17:25",0.00
"2016-08-08 18:25",0.00
"2016-08-08 19:25",0.00
"2016-08-08 20:25",0.00
"2016-08-08 21:25",0.00
"2016-08-08 22:25",0.00
"2016-08-08 23:25",0.00
"2016-08-09 00:25",0.00
"2016-08-09 01:25",0.00
"2016-08-09 02:25",0.00
"2016-08-09 03:25",0.00
"2016-08-09 04:25",0.00
"2016-08-09 05:25",0.00
"2016-08-09 06:25",0.00
"2016-08-09 07:25",0.00
"2016-08-09 08:25",0.00
"2016-08-09 09:25",0.00
"2016-08-09 10:25",0.00
"2016-08-09 11:25",0.00
"2016-08-09 12:25",0.00
"2016-08-09 13:25",0.00
"2016-08-09 14:25",0.00
"2016-08-09 15:25",0.00
"2016-08-09 16:25",0.00
"2016-08-09 17:25",0.00
"2016-08-09 18:25",0.00
"2016-08-09 19:25",0.00
"2016-08-09 20:25",0.00
"2016-08-09 21:25",0.00
"2016-08-09 22:25",0.00
"2016-08-09 23:25",0.00
"2016-08-10 00:25",0.00
"2016-08-10 01:25",0.00
"2016-08-10 02:25",0.00
"2016-08-10 03:25",0.00
"2016-08-10 04:25",0.00
"2016-08-10 05:25",0.00
"2016-08-10 06:25",0.00
"2016-08-10 07:25",0.00
"2016-08-10 08:25",0.00
"2016-08-10 09:25",0.00
"2016-08-10 10:25",0.00
"2016-08-10 11:25",0.00
"2016-08-10 12:25",0.00
"2016-08-10 13:25",0.00
"2016-08-10 14:25",0.00
"2016-08-10 15:25",0.00
"2016-08-10 16:25",0.00
"2016-08-10 17:25",0.00
"2016-08-10 18:25",0.00
"2016-08-10 19:25",0.00
"2016-08-10 20:25",0.00
"2016-08-10 21:25",0.00
"2016-08-10 22:25",0.00
"2016-08-10 23:25",0.00
"2016-08-11 00:25",0.00
"2016-08-11 01:25",0.00
"2016-08-11 02:25",0.00
"2016-08-11 03:25",0.00
"2016-08-11 04:25",0.00
"2016-08-11 05:25",0.00
"2016-08-11 06:25",0.00
"2016-08-11 07:25",0.00
"2016-08-11 08:25",0.00
"2016-08-11 09:25",0.00
"2016-08-11 10:25",0.00
"2016-08-11 11:25",0.00
"2016-08-11 12:25",0.00
"2016-08-11 13:25",0.00
"2016-08-11 14:25",0.00
"2016-08-11 15:25",0.00
"2016-08-11 16:25",0.00
"2016-08-11 17:25",0.00
"2016-08-11 18:25",0.00
"2016-08-11 19:25",0.00
"2016-08-11 20:25",0.00
"2016-08-11 21:25",0.00
"2016-08-11 22:25",0.00
"2016-08-11 23:25",0.00
"2016-08-12 00:25",0.00
"2016-08-12 01:25",0.00
"2016-08-12 02:25",0.00
"2016-08-12 03:25",0.00
"2016-08-12 04:25",0.00
"2016-08-12 05:25",0.00
"2016-08-12 06:25",0.00
