"2017-03-30 16:55",0.07
"2017-03-30 17:00",0.07
"2017-03-30 17:40",0.07
"2017-03-30 17:50",0.07
"2017-03-30 17:55",0.07
"2017-03-30 18:00",0.07
"2017-03-30 18:15",0.07
"2017-03-30 18:45",0.07
"2017-03-30 19:10",0.07
"2017-03-30 19:35",0.08
"2017-03-30 19:55",0.07
"2017-03-30 20:00",0.08
"2017-03-30 20:30",0.07
"2017-03-30 20:40",0.07
"2017-03-30 20:55",0.07
"2017-03-30 21:05",0.07
"2017-03-30 21:10",0.07
"2017-03-30 21:50",0.08
"2017-03-30 21:55",0.07
"2017-03-30 22:00",0.08
"2017-03-30 22:05",0.07
"2017-03-30 22:10",0.08
"2017-03-30 22:15",0.07
"2017-03-30 22:20",0.08
"2017-03-30 23:00",0.07
"2017-03-30 23:05",0.07
"2017-03-30 23:25",0.08
"2017-03-31 00:00",0.07
"2017-03-31 00:05",0.07
"2017-03-31 00:25",0.07
"2017-03-31 00:30",0.07
"2017-03-31 01:30",0.07
"2017-03-31 01:35",0.08
"2017-03-31 01:40",0.07
"2017-03-31 02:10",0.08
"2017-03-31 02:45",0.08
"2017-03-31 02:55",0.07
"2017-03-31 03:20",0.07
"2017-03-31 03:45",0.07
"2017-03-31 04:45",0.07
"2017-03-31 05:45",0.07
"2017-03-31 06:45",0.07
"2017-03-31 07:20",0.07
"2017-03-31 07:45",0.07
"2017-03-31 08:10",0.07
"2017-03-31 08:20",0.07
"2017-03-31 08:25",0.07
"2017-03-31 08:30",0.07
"2017-03-31 09:00",0.07
"2017-03-31 09:20",0.07
"2017-03-31 09:25",0.07
"2017-03-31 09:40",0.07
"2017-03-31 09:45",0.07
"2017-03-31 09:55",0.07
"2017-03-31 10:10",0.07
"2017-03-31 10:15",0.07
"2017-03-31 10:30",0.07
"2017-03-31 10:55",0.07
"2017-03-31 11:00",0.07
"2017-03-31 11:05",0.07
"2017-03-31 11:10",0.07
"2017-03-31 11:25",0.07
"2017-03-31 11:40",0.07
"2017-03-31 11:45",0.07
"2017-03-31 11:55",0.07
"2017-03-31 12:05",0.07
"2017-03-31 12:15",0.07
"2017-03-31 12:20",0.07
"2017-03-31 12:45",0.07
"2017-03-31 12:55",0.08
"2017-03-31 13:00",0.07
"2017-03-31 13:25",0.08
"2017-03-31 13:40",0.07
"2017-03-31 13:45",0.08
"2017-03-31 13:50",0.08
"2017-03-31 14:20",0.07
"2017-03-31 15:00",0.07
"2017-03-31 15:15",0.07
"2017-03-31 15:20",0.07
"2017-03-31 15:30",0.07
"2017-03-31 15:40",0.07
"2017-03-31 16:00",0.07
"2017-03-31 16:05",0.07
"2017-03-31 17:05",0.08
"2017-03-31 17:10",0.08
"2017-03-31 17:20",0.08
"2017-03-31 17:25",0.08
"2017-03-31 17:35",0.08
"2017-03-31 17:40",0.08
"2017-03-31 18:05",0.08
"2017-03-31 18:10",0.08
"2017-03-31 18:15",0.08
"2017-03-31 18:20",0.08
"2017-03-31 18:25",0.08
"2017-03-31 18:30",0.08
"2017-03-31 18:40",0.08
"2017-03-31 19:20",0.07
"2017-03-31 20:15",0.07
"2017-03-31 20:30",0.07
"2017-03-31 21:05",0.07
"2017-03-31 21:10",0.07
"2017-03-31 21:25",0.07
"2017-03-31 21:40",0.07
"2017-03-31 21:55",0.08
"2017-03-31 22:00",0.07
"2017-03-31 22:05",0.08
"2017-03-31 22:35",0.07
"2017-03-31 22:45",0.07
"2017-03-31 22:55",0.07
"2017-03-31 23:10",0.07
"2017-03-31 23:30",0.07
"2017-04-01 00:30",0.07
"2017-04-01 01:30",0.07
"2017-04-01 02:25",0.07
"2017-04-01 02:35",0.07
"2017-04-01 02:40",0.07
"2017-04-01 02:45",0.07
"2017-04-01 02:50",0.07
"2017-04-01 02:55",0.07
"2017-04-01 03:00",0.07
"2017-04-01 03:05",0.07
"2017-04-01 03:20",0.07
"2017-04-01 03:25",0.07
"2017-04-01 03:30",0.07
"2017-04-01 03:35",0.07
"2017-04-01 03:45",0.07
"2017-04-01 03:50",0.07
"2017-04-01 04:10",0.07
"2017-04-01 04:15",0.07
"2017-04-01 04:20",0.07
"2017-04-01 05:00",0.07
"2017-04-01 05:10",0.07
"2017-04-01 05:15",0.07
"2017-04-01 05:20",0.07
"2017-04-01 05:30",0.07
"2017-04-01 05:50",0.07
"2017-04-01 05:55",0.07
"2017-04-01 06:05",0.07
"2017-04-01 06:10",0.07
"2017-04-01 06:15",0.07
"2017-04-01 06:25",0.07
"2017-04-01 06:30",0.07
"2017-04-01 06:45",0.07
"2017-04-01 06:50",0.07
"2017-04-01 07:10",0.07
"2017-04-01 07:15",0.07
"2017-04-01 08:05",0.07
"2017-04-01 08:10",0.07
"2017-04-01 08:15",0.07
"2017-04-01 08:20",0.07
"2017-04-01 08:30",0.07
"2017-04-01 08:40",0.07
"2017-04-01 08:50",0.07
"2017-04-01 09:00",0.07
"2017-04-01 09:15",0.07
"2017-04-01 09:20",0.07
"2017-04-01 09:30",0.07
"2017-04-01 09:40",0.07
"2017-04-01 09:45",0.07
"2017-04-01 10:20",0.07
"2017-04-01 10:25",0.07
"2017-04-01 10:30",0.07
"2017-04-01 11:00",0.07
"2017-04-01 11:15",0.07
"2017-04-01 11:30",0.07
"2017-04-01 11:40",0.07
"2017-04-01 12:00",0.07
"2017-04-01 12:05",0.07
"2017-04-01 12:10",0.07
"2017-04-01 12:20",0.07
"2017-04-01 12:40",0.07
"2017-04-01 12:50",0.07
"2017-04-01 13:05",0.07
"2017-04-01 13:10",0.07
"2017-04-01 13:15",0.07
"2017-04-01 13:30",0.07
"2017-04-01 13:40",0.07
"2017-04-01 13:55",0.07
"2017-04-01 14:20",0.07
"2017-04-01 14:25",0.07
"2017-04-01 14:30",0.07
"2017-04-01 14:45",0.08
"2017-04-01 15:15",0.08
"2017-04-01 15:20",0.08
"2017-04-01 15:35",0.08
"2017-04-01 16:05",0.08
"2017-04-01 16:10",0.08
"2017-04-01 17:10",0.08
"2017-04-01 17:15",0.08
"2017-04-01 17:20",0.08
"2017-04-01 18:20",0.08
"2017-04-01 18:25",0.08
"2017-04-01 18:50",0.08
"2017-04-01 19:00",0.08
"2017-04-01 19:05",0.08
"2017-04-01 19:15",0.08
"2017-04-01 19:25",0.07
"2017-04-01 19:30",0.08
"2017-04-01 19:40",0.07
"2017-04-01 19:45",0.08
"2017-04-01 20:25",0.08
"2017-04-01 20:35",0.08
"2017-04-01 21:35",0.08
"2017-04-01 21:40",0.08
"2017-04-01 21:50",0.08
"2017-04-01 22:25",0.08
"2017-04-01 22:30",0.08
"2017-04-01 22:55",0.08
"2017-04-01 23:55",0.08
"2017-04-02 00:15",0.08
"2017-04-02 00:30",0.08
"2017-04-02 00:55",0.07
"2017-04-02 01:05",0.08
"2017-04-02 01:55",0.07
"2017-04-02 02:00",0.07
"2017-04-02 02:10",0.07
"2017-04-02 02:30",0.07
"2017-04-02 02:45",0.07
"2017-04-02 02:55",0.07
"2017-04-02 03:40",0.07
"2017-04-02 03:50",0.07
"2017-04-02 04:15",0.07
"2017-04-02 04:25",0.07
"2017-04-02 04:40",0.07
"2017-04-02 04:45",0.07
"2017-04-02 05:30",0.07
"2017-04-02 06:30",0.07
"2017-04-02 07:15",0.07
"2017-04-02 07:25",0.07
"2017-04-02 07:40",0.07
"2017-04-02 07:50",0.07
"2017-04-02 08:05",0.07
"2017-04-02 08:20",0.08
"2017-04-02 08:55",0.08
"2017-04-02 09:15",0.08
"2017-04-02 09:20",0.08
"2017-04-02 09:35",0.08
"2017-04-02 09:45",0.07
"2017-04-02 09:50",0.08
"2017-04-02 09:55",0.07
"2017-04-02 10:10",0.08
"2017-04-02 10:15",0.07
"2017-04-02 10:20",0.07
"2017-04-02 11:00",0.07
"2017-04-02 11:05",0.07
"2017-04-02 11:10",0.06
"2017-04-02 11:15",0.07
"2017-04-02 11:35",0.07
"2017-04-02 11:50",0.07
"2017-04-02 12:50",0.07
"2017-04-02 13:25",0.07
"2017-04-02 13:40",0.07
"2017-04-02 13:50",0.07
"2017-04-02 13:55",0.07
"2017-04-02 14:50",0.07
"2017-04-02 15:40",0.07
"2017-04-02 15:55",0.07
"2017-04-02 16:45",0.07
"2017-04-02 16:50",0.07
"2017-04-02 16:55",0.08
"2017-04-02 17:00",0.08
"2017-04-02 17:45",0.08
"2017-04-02 18:10",0.08
"2017-04-02 18:40",0.08
"2017-04-02 18:45",0.07
"2017-04-02 19:10",0.08
"2017-04-02 19:20",0.07
"2017-04-02 19:25",0.08
"2017-04-02 19:45",0.08
"2017-04-02 19:50",0.08
"2017-04-02 20:05",0.08
"2017-04-02 20:15",0.08
"2017-04-02 20:20",0.08
"2017-04-02 20:25",0.08
"2017-04-02 20:35",0.08
"2017-04-02 20:40",0.08
"2017-04-02 20:50",0.08
"2017-04-02 20:55",0.08
"2017-04-02 21:30",0.08
"2017-04-02 21:50",0.08
"2017-04-02 21:55",0.07
"2017-04-02 22:20",0.08
"2017-04-02 23:15",0.07
"2017-04-02 23:35",0.07
"2017-04-02 23:40",0.07
"2017-04-03 00:05",0.07
"2017-04-03 00:15",0.08
"2017-04-03 00:20",0.07
"2017-04-03 01:10",0.07
"2017-04-03 01:15",0.07
"2017-04-03 01:20",0.07
"2017-04-03 02:15",0.07
"2017-04-03 02:25",0.07
"2017-04-03 02:35",0.08
"2017-04-03 02:40",0.07
"2017-04-03 02:45",0.07
"2017-04-03 02:50",0.08
"2017-04-03 02:55",0.07
"2017-04-03 03:15",0.07
"2017-04-03 03:20",0.08
"2017-04-03 04:20",0.08
"2017-04-03 05:20",0.08
"2017-04-03 06:20",0.08
"2017-04-03 06:35",0.08
"2017-04-03 06:40",0.08
"2017-04-03 06:45",0.08
"2017-04-03 06:50",0.08
"2017-04-03 07:10",0.08
"2017-04-03 07:15",0.07
"2017-04-03 07:20",0.08
"2017-04-03 07:30",0.08
"2017-04-03 07:40",0.07
"2017-04-03 07:45",0.08
"2017-04-03 07:50",0.08
"2017-04-03 08:15",0.08
"2017-04-03 08:20",0.08
"2017-04-03 08:30",0.08
"2017-04-03 08:50",0.07
"2017-04-03 08:55",0.07
"2017-04-03 09:10",0.07
"2017-04-03 09:15",0.07
"2017-04-03 09:30",0.08
"2017-04-03 09:55",0.08
"2017-04-03 10:05",0.08
"2017-04-03 10:10",0.08
"2017-04-03 10:20",0.07
"2017-04-03 10:40",0.08
"2017-04-03 11:30",0.07
"2017-04-03 11:35",0.07
"2017-04-03 11:40",0.07
"2017-04-03 11:45",0.08
"2017-04-03 12:00",0.08
"2017-04-03 12:30",0.08
"2017-04-03 12:35",0.08
"2017-04-03 12:40",0.08
"2017-04-03 12:45",0.08
"2017-04-03 12:55",0.07
"2017-04-03 13:05",0.08
"2017-04-03 13:15",0.08
"2017-04-03 13:45",0.08
"2017-04-03 13:50",0.08
"2017-04-03 14:40",0.08
"2017-04-03 14:50",0.08
"2017-04-03 15:35",0.08
"2017-04-03 15:40",0.08
"2017-04-03 15:45",0.08
"2017-04-03 16:10",0.08
"2017-04-03 16:20",0.08
"2017-04-03 16:30",0.08
"2017-04-03 17:15",0.08
"2017-04-03 17:20",0.08
"2017-04-03 17:50",0.08
"2017-04-03 18:10",0.08
"2017-04-03 18:15",0.08
"2017-04-03 18:20",0.08
"2017-04-03 19:05",0.08
"2017-04-03 19:15",0.08
"2017-04-03 19:20",0.07
"2017-04-03 19:40",0.08
"2017-04-03 19:55",0.08
"2017-04-03 20:25",0.08
"2017-04-03 20:40",0.07
"2017-04-03 20:50",0.08
"2017-04-03 20:55",0.07
"2017-04-03 21:00",0.08
"2017-04-03 22:00",0.07
"2017-04-03 22:15",0.08
"2017-04-03 22:35",0.08
"2017-04-03 22:45",0.08
"2017-04-03 22:50",0.08
"2017-04-03 23:30",0.07
"2017-04-03 23:35",0.08
"2017-04-03 23:55",0.07
"2017-04-04 00:05",0.08
"2017-04-04 00:10",0.07
"2017-04-04 00:35",0.08
"2017-04-04 01:00",0.08
"2017-04-04 01:50",0.07
"2017-04-04 02:25",0.08
"2017-04-04 02:30",0.08
"2017-04-04 02:55",0.08
"2017-04-04 03:10",0.08
"2017-04-04 03:15",0.08
"2017-04-04 04:05",0.08
"2017-04-04 04:15",0.08
"2017-04-04 04:20",0.08
"2017-04-04 04:25",0.08
"2017-04-04 04:35",0.08
"2017-04-04 04:40",0.08
"2017-04-04 05:35",0.07
"2017-04-04 05:45",0.07
"2017-04-04 06:25",0.08
"2017-04-04 06:30",0.07
"2017-04-04 06:35",0.08
"2017-04-04 06:40",0.07
"2017-04-04 06:45",0.07
"2017-04-04 06:55",0.07
"2017-04-04 07:00",0.07
"2017-04-04 07:10",0.07
"2017-04-04 07:15",0.07
"2017-04-04 08:15",0.07
"2017-04-04 08:30",0.07
"2017-04-04 08:50",0.07
"2017-04-04 08:55",0.07
"2017-04-04 09:00",0.07
"2017-04-04 09:05",0.07
"2017-04-04 09:15",0.07
"2017-04-04 09:30",0.07
"2017-04-04 09:35",0.07
"2017-04-04 10:35",0.08
"2017-04-04 10:45",0.08
"2017-04-04 10:50",0.07
"2017-04-04 10:55",0.07
"2017-04-04 11:00",0.07
"2017-04-04 11:05",0.08
"2017-04-04 11:30",0.08
"2017-04-04 11:35",0.08
"2017-04-04 12:00",0.08
"2017-04-04 12:10",0.08
"2017-04-04 12:20",0.08
"2017-04-04 12:25",0.08
"2017-04-04 12:30",0.08
"2017-04-04 12:35",0.08
"2017-04-04 12:40",0.08
"2017-04-04 12:50",0.08
"2017-04-04 13:15",0.08
"2017-04-04 13:35",0.08
"2017-04-04 13:40",0.08
"2017-04-04 14:40",0.08
"2017-04-04 14:45",0.08
"2017-04-04 14:50",0.08
"2017-04-04 14:55",0.08
"2017-04-04 15:15",0.08
"2017-04-04 15:20",0.08
"2017-04-04 15:30",0.08
"2017-04-04 15:55",0.08
"2017-04-04 16:05",0.08
"2017-04-04 16:15",0.08
"2017-04-04 17:15",0.08
"2017-04-04 17:40",0.08
"2017-04-04 17:55",0.07
"2017-04-04 18:45",0.07
"2017-04-04 19:00",0.07
"2017-04-04 19:10",0.08
"2017-04-04 19:15",0.08
"2017-04-04 19:25",0.08
"2017-04-04 19:35",0.08
"2017-04-04 19:45",0.08
"2017-04-04 19:50",0.08
"2017-04-04 19:55",0.08
"2017-04-04 20:05",0.08
"2017-04-04 20:45",0.08
"2017-04-04 20:55",0.08
"2017-04-04 21:00",0.08
"2017-04-04 21:05",0.08
"2017-04-04 21:50",0.08
"2017-04-04 21:55",0.08
"2017-04-04 22:00",0.08
"2017-04-04 22:15",0.08
"2017-04-04 22:55",0.08
"2017-04-04 23:20",0.08
"2017-04-04 23:35",0.08
"2017-04-04 23:40",0.08
"2017-04-05 00:00",0.07
"2017-04-05 00:20",0.08
"2017-04-05 00:35",0.07
"2017-04-05 00:40",0.08
"2017-04-05 00:45",0.08
"2017-04-05 01:00",0.08
"2017-04-05 01:05",0.08
"2017-04-05 01:10",0.08
"2017-04-05 02:10",0.08
"2017-04-05 02:50",0.08
"2017-04-05 03:05",0.07
"2017-04-05 03:30",0.08
"2017-04-05 03:35",0.07
"2017-04-05 03:40",0.08
"2017-04-05 03:55",0.08
"2017-04-05 04:05",0.08
"2017-04-05 04:15",0.08
"2017-04-05 04:25",0.08
"2017-04-05 04:30",0.08
"2017-04-05 04:35",0.08
"2017-04-05 05:05",0.08
"2017-04-05 05:10",0.08
"2017-04-05 05:50",0.08
"2017-04-05 05:55",0.08
"2017-04-05 06:05",0.08
"2017-04-05 06:10",0.08
"2017-04-05 06:55",0.08
"2017-04-05 07:20",0.08
"2017-04-05 07:30",0.08
"2017-04-05 08:00",0.08
"2017-04-05 08:10",0.08
"2017-04-05 08:25",0.08
"2017-04-05 09:05",0.07
"2017-04-05 09:10",0.07
"2017-04-05 09:20",0.08
"2017-04-05 09:25",0.08
"2017-04-05 09:30",0.08
"2017-04-05 09:35",0.08
"2017-04-05 10:00",0.08
"2017-04-05 10:10",0.08
"2017-04-05 10:15",0.08
"2017-04-05 10:20",0.08
"2017-04-05 10:30",0.08
"2017-04-05 10:35",0.08
"2017-04-05 10:45",0.08
"2017-04-05 11:05",0.08
"2017-04-05 11:10",0.08
"2017-04-05 11:15",0.08
"2017-04-05 11:35",0.08
"2017-04-05 11:40",0.08
"2017-04-05 11:45",0.08
"2017-04-05 11:55",0.08
"2017-04-05 12:00",0.08
"2017-04-05 12:05",0.07
"2017-04-05 12:10",0.08
"2017-04-05 12:30",0.08
"2017-04-05 12:45",0.08
"2017-04-05 13:00",0.08
"2017-04-05 13:05",0.08
"2017-04-05 13:10",0.08
"2017-04-05 13:20",0.08
"2017-04-05 14:00",0.08
"2017-04-05 14:20",0.08
"2017-04-05 14:25",0.08
"2017-04-05 14:30",0.08
"2017-04-05 14:35",0.08
"2017-04-05 14:40",0.08
"2017-04-05 15:00",0.08
"2017-04-05 15:05",0.08
"2017-04-05 15:10",0.08
"2017-04-05 15:45",0.08
"2017-04-05 15:50",0.08
"2017-04-05 16:10",0.08
"2017-04-05 16:15",0.08
"2017-04-05 16:20",0.07
"2017-04-05 16:25",0.08
"2017-04-05 16:45",0.08
"2017-04-05 16:50",0.08
"2017-04-05 17:30",0.08
"2017-04-05 17:35",0.08
"2017-04-05 17:40",0.08
"2017-04-05 17:45",0.08
"2017-04-05 18:05",0.07
"2017-04-05 18:15",0.08
"2017-04-05 18:35",0.08
"2017-04-05 19:05",0.08
"2017-04-05 19:10",0.08
"2017-04-05 19:55",0.08
"2017-04-05 20:25",0.07
"2017-04-05 20:30",0.08
"2017-04-05 20:35",0.07
"2017-04-05 21:10",0.07
"2017-04-05 21:20",0.07
"2017-04-05 21:35",0.07
"2017-04-05 21:40",0.07
"2017-04-05 21:45",0.07
"2017-04-05 21:50",0.07
"2017-04-05 22:00",0.07
"2017-04-05 22:10",0.07
"2017-04-05 22:50",0.07
"2017-04-05 23:05",0.07
"2017-04-05 23:10",0.07
"2017-04-05 23:20",0.07
"2017-04-05 23:30",0.07
"2017-04-05 23:35",0.07
"2017-04-05 23:45",0.07
"2017-04-05 23:50",0.07
"2017-04-06 00:10",0.07
"2017-04-06 00:25",0.07
"2017-04-06 00:40",0.07
"2017-04-06 00:50",0.07
"2017-04-06 01:25",0.07
"2017-04-06 01:55",0.07
"2017-04-06 02:00",0.07
"2017-04-06 02:05",0.07
"2017-04-06 02:35",0.07
"2017-04-06 02:40",0.07
"2017-04-06 02:50",0.07
"2017-04-06 03:00",0.07
"2017-04-06 03:05",0.08
"2017-04-06 03:20",0.08
"2017-04-06 03:25",0.08
"2017-04-06 03:40",0.08
"2017-04-06 03:45",0.08
"2017-04-06 04:00",0.08
"2017-04-06 04:05",0.07
"2017-04-06 04:10",0.07
"2017-04-06 04:30",0.08
"2017-04-06 04:35",0.07
"2017-04-06 04:50",0.08
"2017-04-06 05:50",0.08
"2017-04-06 06:25",0.07
"2017-04-06 06:35",0.08
"2017-04-06 06:45",0.07
"2017-04-06 07:15",0.08
"2017-04-06 07:35",0.08
"2017-04-06 08:15",0.07
"2017-04-06 08:25",0.07
"2017-04-06 08:30",0.07
"2017-04-06 09:05",0.07
"2017-04-06 09:25",0.08
"2017-04-06 09:30",0.07
"2017-04-06 09:40",0.07
"2017-04-06 09:50",0.08
"2017-04-06 09:55",0.07
"2017-04-06 10:10",0.07
"2017-04-06 10:15",0.07
"2017-04-06 10:30",0.07
"2017-04-06 10:45",0.08
"2017-04-06 10:50",0.08
"2017-04-06 10:55",0.07
"2017-04-06 11:05",0.08
"2017-04-06 11:10",0.08
"2017-04-06 11:20",0.07
