"2018-03-05 09:00",1.20
"2018-03-05 10:00",1.21
"2018-03-05 11:00",1.21
"2018-03-05 12:00",1.22
"2018-03-05 13:00",1.22
"2018-03-05 14:00",1.22
"2018-03-05 15:00",1.22
"2018-03-05 16:00",1.22
"2018-03-05 17:00",1.22
"2018-03-05 18:00",1.22
"2018-03-05 19:00",1.22
"2018-03-05 20:00",1.22
"2018-03-05 21:00",1.22
"2018-03-05 22:00",1.22
"2018-03-05 23:00",1.22
"2018-03-06 00:00",1.22
"2018-03-06 01:00",1.23
"2018-03-06 02:00",1.23
"2018-03-06 03:00",1.23
"2018-03-06 04:00",1.24
"2018-03-06 05:00",1.24
"2018-03-06 05:40",1.25
"2018-03-06 06:40",1.25
"2018-03-06 07:40",1.26
"2018-03-06 08:40",1.26
"2018-03-06 09:40",1.27
"2018-03-06 10:40",1.27
"2018-03-06 11:25",1.28
"2018-03-06 12:25",1.29
"2018-03-06 13:25",1.29
"2018-03-06 14:25",1.29
"2018-03-06 15:25",1.29
"2018-03-06 16:25",1.30
"2018-03-06 17:25",1.30
"2018-03-06 18:25",1.30
"2018-03-06 19:25",1.30
"2018-03-06 20:25",1.30
"2018-03-06 21:25",1.30
"2018-03-06 22:25",1.30
"2018-03-06 23:25",1.29
"2018-03-07 00:25",1.29
"2018-03-07 01:25",1.29
"2018-03-07 02:20",1.28
"2018-03-07 03:20",1.27
"2018-03-07 04:20",1.27
"2018-03-07 05:20",1.27
"2018-03-07 06:20",1.26
"2018-03-07 07:20",1.26
"2018-03-07 08:20",1.25
"2018-03-07 09:20",1.25
"2018-03-07 10:20",1.24
"2018-03-07 11:20",1.24
"2018-03-07 12:20",1.23
"2018-03-07 13:20",1.23
"2018-03-07 14:20",1.23
"2018-03-07 15:20",1.22
"2018-03-07 16:20",1.22
"2018-03-07 17:20",1.22
"2018-03-07 18:20",1.21
"2018-03-07 19:20",1.21
"2018-03-07 20:20",1.21
"2018-03-07 21:20",1.21
"2018-03-07 22:20",1.21
"2018-03-07 23:20",1.20
"2018-03-08 00:20",1.21
"2018-03-08 01:20",1.21
"2018-03-08 02:20",1.21
"2018-03-08 03:20",1.21
"2018-03-08 04:20",1.22
"2018-03-08 05:20",1.22
"2018-03-08 06:20",1.21
"2018-03-08 07:20",1.21
"2018-03-08 08:20",1.21
"2018-03-08 09:20",1.21
"2018-03-08 10:20",1.21
"2018-03-08 11:20",1.21
"2018-03-08 12:20",1.21
"2018-03-08 13:20",1.21
"2018-03-08 14:20",1.21
"2018-03-08 15:20",1.21
"2018-03-08 16:20",1.21
"2018-03-08 17:20",1.21
"2018-03-08 18:20",1.22
"2018-03-08 19:20",1.22
"2018-03-08 20:20",1.22
"2018-03-08 21:20",1.22
"2018-03-08 22:20",1.22
"2018-03-08 23:20",1.22
"2018-03-09 00:20",1.22
"2018-03-09 01:20",1.22
"2018-03-09 02:20",1.22
"2018-03-09 03:20",1.21
"2018-03-09 04:20",1.21
"2018-03-09 05:20",1.21
"2018-03-09 06:20",1.20
"2018-03-09 07:20",1.20
"2018-03-09 08:20",1.20
"2018-03-09 09:20",1.20
"2018-03-09 10:20",1.20
"2018-03-09 11:20",1.20
"2018-03-09 12:20",1.20
"2018-03-09 13:20",1.20
"2018-03-09 14:20",1.20
"2018-03-09 15:20",1.20
"2018-03-09 16:20",1.20
"2018-03-09 17:20",1.20
"2018-03-09 18:20",1.20
"2018-03-09 19:20",1.21
"2018-03-09 20:20",1.21
"2018-03-09 21:20",1.21
"2018-03-09 22:20",1.21
"2018-03-09 23:20",1.21
"2018-03-10 00:20",1.22
"2018-03-10 01:20",1.22
"2018-03-10 02:20",1.22
"2018-03-10 03:20",1.23
"2018-03-10 04:20",1.23
"2018-03-10 05:10",1.24
"2018-03-10 06:00",1.25
"2018-03-10 07:00",1.27
"2018-03-10 07:30",1.28
"2018-03-10 07:45",1.29
"2018-03-10 08:05",1.30
"2018-03-10 08:15",1.32
"2018-03-10 08:35",1.33
"2018-03-10 08:55",1.34
"2018-03-10 09:15",1.35
"2018-03-10 09:25",1.37
"2018-03-10 09:45",1.38
"2018-03-10 10:05",1.40
"2018-03-10 10:20",1.42
"2018-03-10 10:25",1.43
"2018-03-10 10:35",1.45
"2018-03-10 10:45",1.46
"2018-03-10 10:55",1.48
"2018-03-10 11:00",1.50
"2018-03-10 11:05",1.51
"2018-03-10 11:10",1.52
"2018-03-10 11:15",1.53
"2018-03-10 11:25",1.55
"2018-03-10 11:30",1.56
"2018-03-10 11:40",1.57
"2018-03-10 12:00",1.59
"2018-03-10 12:50",1.57
"2018-03-10 13:50",1.59
"2018-03-10 14:10",1.60
"2018-03-10 14:20",1.61
"2018-03-10 14:35",1.63
"2018-03-10 15:15",1.60
"2018-03-10 15:20",1.58
"2018-03-10 16:10",1.60
"2018-03-10 16:15",1.61
"2018-03-10 16:20",1.62
"2018-03-10 16:30",1.63
"2018-03-10 16:40",1.65
"2018-03-10 17:00",1.67
"2018-03-10 17:05",1.68
"2018-03-10 17:25",1.69
"2018-03-10 17:40",1.68
"2018-03-10 18:00",1.67
"2018-03-10 18:20",1.66
"2018-03-10 18:40",1.67
"2018-03-10 18:55",1.68
"2018-03-10 19:15",1.70
"2018-03-10 19:25",1.71
"2018-03-10 19:50",1.72
"2018-03-10 20:05",1.73
"2018-03-10 20:10",1.74
"2018-03-10 20:30",1.76
"2018-03-10 20:50",1.77
"2018-03-10 21:15",1.78
"2018-03-10 21:45",1.79
"2018-03-10 21:55",1.80
"2018-03-10 22:55",1.80
"2018-03-10 23:55",1.81
"2018-03-11 00:15",1.82
"2018-03-11 00:35",1.83
"2018-03-11 00:55",1.85
"2018-03-11 01:15",1.86
"2018-03-11 01:25",1.87
"2018-03-11 01:40",1.88
"2018-03-11 02:05",1.89
"2018-03-11 02:25",1.91
"2018-03-11 02:45",1.92
"2018-03-11 03:00",1.93
"2018-03-11 03:15",1.94
"2018-03-11 03:35",1.96
"2018-03-11 03:55",1.98
"2018-03-11 04:00",1.99
"2018-03-11 04:30",2.00
"2018-03-11 04:40",2.01
"2018-03-11 05:20",2.02
"2018-03-11 05:40",2.03
"2018-03-11 06:40",2.04
"2018-03-11 07:25",2.06
"2018-03-11 07:30",2.04
"2018-03-11 08:30",2.05
"2018-03-11 09:15",2.04
"2018-03-11 09:25",2.05
"2018-03-11 10:25",2.04
"2018-03-11 11:25",2.03
"2018-03-11 12:25",2.03
"2018-03-11 13:25",2.02
"2018-03-11 14:00",2.01
"2018-03-11 15:00",2.02
"2018-03-11 16:00",2.02
"2018-03-11 16:30",2.03
"2018-03-11 17:25",2.01
"2018-03-11 17:35",2.02
"2018-03-11 18:35",2.03
"2018-03-11 19:35",2.03
"2018-03-11 20:35",2.03
"2018-03-11 21:35",2.02
"2018-03-11 22:35",2.02
"2018-03-11 23:35",2.01
"2018-03-12 00:35",2.01
"2018-03-12 01:35",2.01
"2018-03-12 02:35",1.99
"2018-03-12 03:35",1.99
"2018-03-12 04:05",1.98
"2018-03-12 05:05",1.97
"2018-03-12 05:55",1.96
"2018-03-12 06:55",1.95
