"2018-02-26 11:40",0.13
"2018-02-26 12:40",0.13
"2018-02-26 13:40",0.13
"2018-02-26 14:40",0.13
"2018-02-26 15:40",0.13
"2018-02-26 16:40",0.13
"2018-02-26 17:40",0.13
"2018-02-26 18:40",0.13
"2018-02-26 19:40",0.13
"2018-02-26 20:40",0.13
"2018-02-26 21:40",0.13
"2018-02-26 22:40",0.13
"2018-02-26 23:40",0.13
"2018-02-27 00:40",0.13
"2018-02-27 01:40",0.13
"2018-02-27 02:40",0.13
"2018-02-27 03:40",0.13
"2018-02-27 04:40",0.13
"2018-02-27 05:40",0.13
"2018-02-27 06:40",0.13
"2018-02-27 07:10",0.16
"2018-02-27 08:10",0.16
"2018-02-27 09:10",0.16
"2018-02-27 10:10",0.16
"2018-02-27 10:55",0.16
"2018-02-27 12:00",0.16
"2018-02-27 13:00",0.16
"2018-02-27 14:00",0.16
"2018-02-27 15:00",0.16
"2018-02-27 16:00",0.16
"2018-02-27 17:00",0.16
"2018-02-27 18:00",0.16
"2018-02-27 19:00",0.16
"2018-02-27 20:00",0.16
"2018-02-27 21:00",0.16
"2018-02-27 21:05",0.20
"2018-02-27 21:10",0.22
"2018-02-27 22:10",0.22
"2018-02-27 23:10",0.22
"2018-02-28 00:00",0.22
"2018-02-28 01:00",0.22
"2018-02-28 02:00",0.22
"2018-02-28 03:00",0.22
"2018-02-28 04:00",0.22
"2018-02-28 05:00",0.22
"2018-02-28 06:00",0.22
"2018-02-28 06:25",0.23
"2018-02-28 06:30",0.27
"2018-02-28 07:30",0.28
"2018-02-28 08:30",0.28
"2018-02-28 09:15",0.29
"2018-02-28 09:20",0.34
"2018-02-28 10:00",0.34
"2018-02-28 10:40",0.38
"2018-02-28 10:45",0.40
"2018-02-28 11:35",0.44
"2018-02-28 11:40",0.46
"2018-02-28 12:05",0.51
"2018-02-28 12:10",0.52
"2018-02-28 12:15",0.57
"2018-02-28 12:20",0.65
"2018-02-28 12:25",0.81
"2018-02-28 12:30",1.10
"2018-02-28 12:35",1.58
"2018-02-28 12:40",2.18
"2018-02-28 12:45",2.96
"2018-02-28 12:50",3.92
"2018-02-28 12:55",4.80
"2018-02-28 13:00",5.70
"2018-02-28 13:05",6.55
"2018-02-28 13:10",7.56
"2018-02-28 13:15",8.78
"2018-02-28 13:20",10.24
"2018-02-28 13:25",11.34
"2018-02-28 13:30",12.06
"2018-02-28 13:35",12.75
"2018-02-28 13:40",13.20
"2018-02-28 13:45",13.87
"2018-02-28 13:50",14.31
"2018-02-28 13:55",14.88
"2018-02-28 14:00",15.32
"2018-02-28 14:05",15.93
"2018-02-28 14:10",16.43
"2018-02-28 14:15",17.06
"2018-02-28 14:20",17.81
"2018-02-28 14:25",18.44
"2018-02-28 14:30",18.94
"2018-02-28 14:35",19.69
"2018-02-28 14:40",20.31
"2018-02-28 14:45",20.93
"2018-02-28 14:50",21.69
"2018-02-28 14:55",22.24
"2018-02-28 15:00",22.83
"2018-02-28 15:05",23.53
"2018-02-28 15:10",24.27
"2018-02-28 15:15",25.38
"2018-02-28 15:20",25.98
"2018-02-28 15:25",26.99
"2018-02-28 15:30",27.99
"2018-02-28 15:35",28.87
"2018-02-28 15:40",29.82
"2018-02-28 15:45",30.61
"2018-02-28 15:50",31.61
"2018-02-28 15:55",32.72
"2018-02-28 16:00",34.01
"2018-02-28 16:05",34.82
"2018-02-28 16:10",35.50
"2018-02-28 16:15",36.62
"2018-02-28 16:20",37.83
"2018-02-28 16:25",38.94
"2018-02-28 16:30",39.54
"2018-02-28 16:35",40.28
"2018-02-28 16:40",41.17
"2018-02-28 16:45",41.88
"2018-02-28 16:50",42.63
"2018-02-28 16:55",43.00
"2018-02-28 17:00",43.37
"2018-02-28 17:05",43.71
"2018-02-28 17:10",43.74
"2018-02-28 17:15",43.79
"2018-02-28 17:20",44.45
"2018-02-28 17:25",44.46
"2018-02-28 17:30",44.50
"2018-02-28 17:35",44.34
"2018-02-28 17:40",44.50
"2018-02-28 17:45",44.53
"2018-02-28 17:50",44.66
"2018-02-28 17:55",44.68
"2018-02-28 18:00",44.85
"2018-02-28 18:05",45.25
"2018-02-28 18:10",45.62
"2018-02-28 18:15",45.64
"2018-02-28 18:20",46.16
"2018-02-28 18:25",45.46
"2018-02-28 18:30",45.79
"2018-02-28 18:35",45.81
"2018-02-28 18:40",45.76
"2018-02-28 18:45",45.26
"2018-02-28 18:50",45.04
"2018-02-28 18:55",44.70
"2018-02-28 19:05",44.35
"2018-02-28 19:10",43.93
"2018-02-28 19:15",43.39
"2018-02-28 19:20",43.17
"2018-02-28 19:25",42.13
"2018-02-28 19:30",41.89
"2018-02-28 19:35",40.87
"2018-02-28 19:40",40.60
"2018-02-28 19:45",39.71
"2018-02-28 19:50",38.99
"2018-02-28 19:55",38.59
"2018-02-28 20:00",37.70
"2018-02-28 20:05",37.13
"2018-02-28 20:10",36.43
"2018-02-28 20:15",35.66
"2018-02-28 20:20",35.49
"2018-02-28 20:25",34.71
"2018-02-28 20:30",34.03
"2018-02-28 20:35",33.85
"2018-02-28 20:40",33.06
"2018-02-28 20:45",32.59
"2018-02-28 20:50",32.54
"2018-02-28 20:55",31.81
"2018-02-28 21:00",31.44
"2018-02-28 21:15",31.61
"2018-02-28 21:20",32.39
"2018-02-28 21:25",33.08
"2018-02-28 21:30",34.66
"2018-02-28 21:35",36.92
"2018-02-28 21:40",39.47
"2018-02-28 21:45",43.13
"2018-02-28 21:50",46.11
"2018-02-28 21:55",49.25
"2018-02-28 22:00",51.18
"2018-02-28 22:05",53.06
"2018-02-28 22:10",55.19
"2018-02-28 22:15",56.67
"2018-02-28 22:20",57.58
"2018-02-28 22:25",57.99
"2018-02-28 22:30",58.83
"2018-02-28 22:35",59.65
"2018-02-28 22:40",59.49
"2018-02-28 22:45",59.47
"2018-02-28 22:50",58.86
"2018-02-28 22:55",58.03
"2018-02-28 23:00",57.74
"2018-02-28 23:05",56.93
"2018-02-28 23:10",56.08
"2018-02-28 23:15",55.66
"2018-02-28 23:20",54.59
"2018-02-28 23:25",53.51
"2018-02-28 23:30",52.07
"2018-02-28 23:35",51.01
"2018-02-28 23:40",50.21
"2018-02-28 23:45",48.97
"2018-02-28 23:50",48.01
"2018-02-28 23:55",46.38
"2018-03-01 00:00",45.63
"2018-03-01 00:05",44.52
"2018-03-01 00:10",43.58
"2018-03-01 00:15",42.67
"2018-03-01 00:20",41.53
"2018-03-01 00:25",40.62
"2018-03-01 00:30",39.71
"2018-03-01 00:35",38.44
"2018-03-01 00:40",38.01
"2018-03-01 00:45",36.80
"2018-03-01 00:50",36.31
"2018-03-01 00:55",35.65
"2018-03-01 01:00",35.16
"2018-03-01 01:05",34.50
"2018-03-01 01:10",33.72
"2018-03-01 01:15",33.37
"2018-03-01 01:20",32.75
"2018-03-01 01:25",32.41
"2018-03-01 01:30",31.93
"2018-03-01 01:35",31.44
"2018-03-01 01:40",30.97
"2018-03-01 01:45",30.63
"2018-03-01 01:50",29.98
"2018-03-01 01:55",29.80
"2018-03-01 02:00",29.48
"2018-03-01 02:05",29.01
"2018-03-01 02:10",29.00
"2018-03-01 02:15",28.30
"2018-03-01 02:20",28.29
"2018-03-01 02:25",27.99
"2018-03-01 02:30",27.59
"2018-03-01 02:35",27.55
"2018-03-01 02:40",27.13
"2018-03-01 02:45",26.85
"2018-03-01 02:55",26.71
"2018-03-01 03:00",26.42
"2018-03-01 03:05",26.14
"2018-03-01 03:25",25.86
"2018-03-01 03:30",25.42
"2018-03-01 03:35",25.68
"2018-03-01 03:40",25.42
"2018-03-01 04:10",25.29
"2018-03-01 04:15",25.42
"2018-03-01 04:20",25.01
"2018-03-01 04:25",25.26
"2018-03-01 04:30",25.25
"2018-03-01 04:35",25.12
"2018-03-01 04:40",24.70
"2018-03-01 05:40",24.70
"2018-03-01 05:45",24.71
"2018-03-01 05:50",24.83
"2018-03-01 05:55",25.12
"2018-03-01 06:00",25.26
"2018-03-01 06:05",25.42
"2018-03-01 06:20",25.55
"2018-03-01 06:25",25.99
"2018-03-01 06:30",26.15
"2018-03-01 06:35",26.70
"2018-03-01 06:40",26.85
"2018-03-01 06:45",27.17
"2018-03-01 06:50",27.59
"2018-03-01 06:55",28.28
"2018-03-01 07:00",28.71
"2018-03-01 07:05",29.17
"2018-03-01 07:10",29.80
"2018-03-01 07:15",30.45
"2018-03-01 07:20",30.64
"2018-03-01 07:25",31.44
"2018-03-01 07:30",32.07
"2018-03-01 07:35",32.42
"2018-03-01 07:40",32.89
"2018-03-01 07:45",33.53
"2018-03-01 07:50",33.54
"2018-03-01 07:55",34.03
"2018-03-01 08:00",34.67
"2018-03-01 08:05",34.69
"2018-03-01 08:10",35.15
"2018-03-01 08:15",35.31
"2018-03-01 08:20",35.49
"2018-03-01 08:25",35.82
"2018-03-01 08:30",35.99
"2018-03-01 08:35",36.30
"2018-03-01 08:40",36.60
"2018-03-01 08:45",36.96
"2018-03-01 08:50",37.48
"2018-03-01 08:55",37.83
"2018-03-01 09:00",38.38
"2018-03-01 09:05",38.95
"2018-03-01 09:10",39.46
"2018-03-01 09:15",39.88
"2018-03-01 09:20",40.28
"2018-03-01 09:25",41.35
"2018-03-01 09:30",42.10
"2018-03-01 09:35",43.35
"2018-03-01 09:40",44.09
"2018-03-01 09:45",45.05
"2018-03-01 09:50",45.94
"2018-03-01 09:55",47.27
"2018-03-01 10:00",48.17
"2018-03-01 10:05",49.49
"2018-03-01 10:10",50.75
"2018-03-01 10:15",51.60
"2018-03-01 10:20",53.30
"2018-03-01 10:25",54.59
"2018-03-01 10:30",56.65
"2018-03-01 10:35",57.99
"2018-03-01 10:40",59.45
"2018-03-01 10:45",61.15
"2018-03-01 10:50",62.58
"2018-03-01 10:55",64.12
"2018-03-01 11:00",65.16
"2018-03-01 11:05",66.72
"2018-03-01 11:10",68.05
"2018-03-01 11:15",69.78
"2018-03-01 11:20",70.06
"2018-03-01 11:25",71.23
"2018-03-01 11:30",72.56
"2018-03-01 11:35",73.52
"2018-03-01 11:40",73.42
"2018-03-01 11:45",75.68
"2018-03-01 11:50",75.35
"2018-03-01 11:55",77.16
"2018-03-01 12:00",78.34
"2018-03-01 12:05",78.86
"2018-03-01 12:10",80.25
"2018-03-01 12:15",82.37
"2018-03-01 12:20",82.93
"2018-03-01 12:25",83.48
"2018-03-01 12:30",85.42
"2018-03-01 12:35",86.06
"2018-03-01 12:40",89.02
"2018-03-01 12:45",89.50
"2018-03-01 12:50",90.82
"2018-03-01 12:55",92.43
"2018-03-01 13:00",93.99
"2018-03-01 13:05",94.90
"2018-03-01 13:10",95.52
"2018-03-01 13:15",97.10
"2018-03-01 13:20",98.73
"2018-03-01 13:25",100.08
"2018-03-01 13:30",101.93
"2018-03-01 13:35",103.22
"2018-03-01 13:40",104.75
"2018-03-01 13:45",107.12
"2018-03-01 13:50",108.97
"2018-03-01 13:55",109.62
"2018-03-01 14:00",111.56
"2018-03-01 14:05",112.62
"2018-03-01 14:10",114.47
"2018-03-01 14:15",116.52
"2018-03-01 14:20",116.33
"2018-03-01 14:25",118.42
"2018-03-01 14:30",119.96
"2018-03-01 14:35",122.90
"2018-03-01 14:40",122.80
"2018-03-01 14:45",124.45
"2018-03-01 14:50",126.43
"2018-03-01 14:55",128.96
"2018-03-01 15:00",129.88
"2018-03-01 15:05",130.53
"2018-03-01 15:10",130.50
"2018-03-01 15:15",131.40
"2018-03-01 15:20",26.85
"2018-03-01 15:25",0.00
"2018-03-01 15:30",151.05
"2018-03-01 15:35",75.53
"2018-03-01 15:45",0.00
"2018-03-01 16:00",0.00
"2018-03-01 17:00",0.00
"2018-03-01 18:00",0.00
"2018-03-01 19:00",0.00
"2018-03-01 19:30",151.05
"2018-03-01 19:35",302.11
"2018-03-01 19:40",226.58
"2018-03-01 19:45",75.53
"2018-03-01 19:50",0.00
"2018-03-01 20:50",0.00
"2018-03-01 21:50",0.00
"2018-03-01 22:50",0.00
"2018-03-01 23:50",0.00
"2018-03-02 00:50",0.00
"2018-03-02 01:50",0.00
"2018-03-02 02:50",0.00
"2018-03-02 03:50",0.00
"2018-03-02 04:50",0.00
"2018-03-02 05:50",0.00
"2018-03-02 06:50",0.00
"2018-03-02 07:50",0.00
"2018-03-02 08:50",0.00
"2018-03-02 09:05",87.61
"2018-03-02 09:10",21.82
"2018-03-02 09:15",21.97
"2018-03-02 09:20",22.24
"2018-03-02 09:25",22.54
"2018-03-02 09:35",22.67
"2018-03-02 09:40",22.96
"2018-03-02 09:45",23.13
"2018-03-02 09:50",23.26
"2018-03-02 09:55",23.67
"2018-03-02 10:00",23.97
"2018-03-02 10:05",23.98
"2018-03-02 10:15",24.50
"2018-03-02 10:20",24.70
"2018-03-02 10:40",24.71
"2018-03-02 10:45",24.83
"2018-03-02 10:50",24.88
"2018-03-02 10:55",25.12
"2018-03-02 11:00",24.99
"2018-03-02 11:05",25.38
"2018-03-02 11:10",25.27
"2018-03-02 11:15",25.40
"2018-03-02 11:20",25.42
"2018-03-02 11:30",25.43
"2018-03-02 11:35",25.55
"2018-03-02 11:40",25.43
"2018-03-02 11:45",25.83
"2018-03-02 11:50",26.12
"2018-03-02 11:55",26.14
"2018-03-02 12:05",26.15
"2018-03-02 12:10",26.26
"2018-03-02 12:15",26.44
"2018-03-02 12:20",26.41
"2018-03-02 12:25",26.42
"2018-03-02 12:30",26.54
"2018-03-02 12:35",26.32
"2018-03-02 12:40",26.84
"2018-03-02 12:45",26.85
"2018-03-02 13:05",26.98
"2018-03-02 13:10",26.87
"2018-03-02 13:15",27.41
"2018-03-02 13:20",27.56
"2018-03-02 13:25",27.57
"2018-03-02 13:30",27.59
"2018-03-02 13:35",28.01
"2018-03-02 13:40",28.29
"2018-03-02 13:45",28.45
"2018-03-02 13:50",28.86
"2018-03-02 13:55",29.01
"2018-03-02 14:00",29.17
"2018-03-02 14:05",29.61
"2018-03-02 14:10",29.96
"2018-03-02 14:15",30.14
"2018-03-02 14:20",30.63
"2018-03-02 14:25",30.79
"2018-03-02 14:30",31.11
"2018-03-02 14:35",31.60
"2018-03-02 14:40",32.23
"2018-03-02 14:45",32.57
"2018-03-02 14:50",33.04
"2018-03-02 14:55",33.72
"2018-03-02 15:00",34.34
"2018-03-02 15:05",34.98
"2018-03-02 15:10",35.50
"2018-03-02 15:15",36.44
"2018-03-02 15:20",36.94
"2018-03-02 15:25",37.84
"2018-03-02 15:30",38.77
"2018-03-02 15:35",39.12
"2018-03-02 15:40",40.09
"2018-03-02 15:45",41.15
"2018-03-02 15:50",42.08
"2018-03-02 15:55",42.80
"2018-03-02 16:00",43.39
"2018-03-02 16:05",44.28
"2018-03-02 16:10",44.51
"2018-03-02 16:15",45.42
"2018-03-02 16:20",45.77
"2018-03-02 16:25",46.70
"2018-03-02 16:30",47.62
"2018-03-02 16:35",48.23
"2018-03-02 16:40",49.13
"2018-03-02 16:45",49.91
"2018-03-02 16:50",50.78
"2018-03-02 16:55",51.79
"2018-03-02 17:00",52.61
"2018-03-02 17:05",53.03
"2018-03-02 17:10",53.90
"2018-03-02 17:15",54.32
"2018-03-02 17:20",54.73
"2018-03-02 17:25",54.81
"2018-03-02 17:30",55.23
"2018-03-02 17:35",55.00
"2018-03-02 17:40",55.17
"2018-03-02 17:45",55.42
"2018-03-02 17:50",55.40
"2018-03-02 17:55",55.00
"2018-03-02 18:00",55.21
"2018-03-02 18:05",55.19
"2018-03-02 18:10",55.02
"2018-03-02 18:15",55.06
"2018-03-02 18:20",55.40
"2018-03-02 18:30",55.04
"2018-03-02 18:35",55.38
"2018-03-02 18:40",55.00
"2018-03-02 18:45",54.81
"2018-03-02 19:00",54.20
"2018-03-02 19:05",54.76
"2018-03-02 19:15",53.98
"2018-03-02 19:20",53.57
"2018-03-02 19:25",53.51
"2018-03-02 19:30",53.11
"2018-03-02 19:35",52.89
"2018-03-02 19:40",52.45
"2018-03-02 19:45",51.81
"2018-03-02 19:50",51.03
"2018-03-02 19:55",50.41
"2018-03-02 20:00",49.62
"2018-03-02 20:05",49.34
"2018-03-02 20:10",48.45
"2018-03-02 20:15",48.36
"2018-03-02 20:20",47.96
"2018-03-02 20:25",47.25
"2018-03-02 20:30",46.70
"2018-03-02 20:35",45.84
"2018-03-02 20:40",45.44
"2018-03-02 20:45",44.72
"2018-03-02 20:50",44.53
"2018-03-02 20:55",43.96
"2018-03-02 21:00",43.57
"2018-03-02 21:05",43.22
"2018-03-02 21:10",42.67
"2018-03-02 21:15",42.65
"2018-03-02 21:20",42.30
"2018-03-02 21:25",41.93
"2018-03-02 21:30",42.11
"2018-03-02 21:35",42.28
"2018-03-02 21:40",42.31
"2018-03-02 21:45",42.62
"2018-03-02 21:50",42.67
"2018-03-02 21:55",43.07
"2018-03-02 22:00",44.46
"2018-03-02 22:05",44.15
"2018-03-02 22:10",45.05
"2018-03-02 22:15",45.94
"2018-03-02 22:20",47.05
"2018-03-02 22:25",47.82
"2018-03-02 22:30",48.93
"2018-03-02 22:35",50.02
"2018-03-02 22:40",50.99
"2018-03-02 22:45",52.22
"2018-03-02 22:50",52.68
"2018-03-02 22:55",53.66
"2018-03-02 23:00",53.67
"2018-03-02 23:05",54.55
"2018-03-02 23:10",54.13
"2018-03-02 23:15",54.11
"2018-03-02 23:20",53.11
"2018-03-02 23:25",53.05
"2018-03-02 23:30",52.24
"2018-03-02 23:35",51.95
"2018-03-02 23:40",50.82
"2018-03-02 23:45",50.23
"2018-03-02 23:50",49.32
"2018-03-02 23:55",48.77
"2018-03-03 00:00",48.19
"2018-03-03 00:05",47.45
"2018-03-03 00:10",47.05
"2018-03-03 00:15",46.34
"2018-03-03 00:20",46.00
"2018-03-03 00:25",45.42
"2018-03-03 00:30",44.85
"2018-03-03 00:35",44.32
"2018-03-03 00:40",43.80
"2018-03-03 00:45",43.59
"2018-03-03 00:50",43.22
"2018-03-03 00:55",42.50
"2018-03-03 01:00",42.19
"2018-03-03 01:05",41.89
"2018-03-03 01:10",41.73
"2018-03-03 01:15",41.01
"2018-03-03 01:20",40.80
"2018-03-03 01:30",39.88
"2018-03-03 01:35",39.53
"2018-03-03 01:40",39.32
"2018-03-03 01:45",38.96
"2018-03-03 01:50",38.77
"2018-03-03 01:55",38.20
"2018-03-03 02:00",37.95
"2018-03-03 02:05",37.14
"2018-03-03 02:10",36.96
"2018-03-03 02:15",36.95
"2018-03-03 02:20",36.31
"2018-03-03 02:25",36.30
"2018-03-03 02:30",35.96
"2018-03-03 02:35",35.50
"2018-03-03 02:40",35.49
"2018-03-03 02:45",35.03
"2018-03-03 02:50",34.84
"2018-03-03 02:55",34.68
"2018-03-03 03:00",34.68
"2018-03-03 03:05",34.49
"2018-03-03 03:10",33.87
"2018-03-03 03:15",33.85
"2018-03-03 03:25",33.69
"2018-03-03 03:30",33.41
"2018-03-03 03:35",33.06
"2018-03-03 03:40",32.91
"2018-03-03 03:45",32.74
"2018-03-03 03:50",32.56
"2018-03-03 03:55",32.42
"2018-03-03 04:00",32.25
"2018-03-03 04:05",32.20
"2018-03-03 04:10",31.76
"2018-03-03 04:15",31.44
"2018-03-03 04:20",31.59
"2018-03-03 04:25",31.12
"2018-03-03 04:30",30.78
"2018-03-03 04:40",30.61
"2018-03-03 04:45",30.58
"2018-03-03 04:50",29.97
"2018-03-03 05:00",29.82
"2018-03-03 05:05",29.66
"2018-03-03 05:10",29.50
"2018-03-03 05:15",29.17
"2018-03-03 05:20",29.01
"2018-03-03 05:30",28.85
"2018-03-03 05:35",28.71
"2018-03-03 05:40",28.42
"2018-03-03 05:45",28.29
"2018-03-03 05:55",28.16
"2018-03-03 06:00",27.64
"2018-03-03 06:05",27.87
"2018-03-03 06:10",27.72
"2018-03-03 06:15",27.57
"2018-03-03 06:30",27.43
"2018-03-03 06:35",27.44
"2018-03-03 06:40",27.13
"2018-03-03 06:45",27.00
"2018-03-03 06:50",26.85
"2018-03-03 07:00",26.85
"2018-03-03 07:05",26.81
"2018-03-03 07:10",26.42
"2018-03-03 07:15",26.17
"2018-03-03 07:20",26.14
"2018-03-03 07:35",26.01
"2018-03-03 07:40",25.59
"2018-03-03 07:45",25.43
"2018-03-03 07:50",25.55
"2018-03-03 07:55",25.42
"2018-03-03 08:00",24.70
"2018-03-03 08:05",25.26
"2018-03-03 08:10",24.84
"2018-03-03 08:15",24.70
"2018-03-03 08:30",24.57
"2018-03-03 08:35",24.43
"2018-03-03 08:40",23.98
"2018-03-03 08:55",23.85
"2018-03-03 09:00",23.98
"2018-03-03 09:05",23.26
"2018-03-03 09:30",22.73
"2018-03-03 09:35",22.54
"2018-03-03 09:55",22.27
"2018-03-03 10:00",21.82
"2018-03-03 10:25",21.59
"2018-03-03 10:30",21.33
"2018-03-03 10:35",21.20
"2018-03-03 10:55",21.07
"2018-03-03 11:00",20.94
"2018-03-03 11:05",20.69
"2018-03-03 11:10",20.57
"2018-03-03 11:25",20.46
"2018-03-03 11:30",20.33
"2018-03-03 11:35",20.07
"2018-03-03 11:40",19.94
"2018-03-03 12:05",19.58
"2018-03-03 12:10",19.43
"2018-03-03 12:15",19.32
"2018-03-03 12:55",19.19
"2018-03-03 13:00",18.95
"2018-03-03 13:05",18.69
"2018-03-03 13:10",18.81
"2018-03-03 13:15",18.69
"2018-03-03 13:55",18.80
"2018-03-03 14:00",19.05
"2018-03-03 14:05",19.31
"2018-03-03 14:10",19.32
"2018-03-03 14:20",19.83
"2018-03-03 14:25",20.17
"2018-03-03 14:30",20.57
"2018-03-03 14:35",21.32
"2018-03-03 14:40",22.10
"2018-03-03 14:45",22.83
"2018-03-03 14:50",24.25
"2018-03-03 14:55",25.27
"2018-03-03 15:00",26.84
"2018-03-03 15:05",28.14
"2018-03-03 15:10",29.95
"2018-03-03 15:15",31.45
"2018-03-03 15:20",33.19
"2018-03-03 15:25",35.11
"2018-03-03 15:30",36.75
"2018-03-03 15:35",38.23
"2018-03-03 15:40",39.67
"2018-03-03 15:45",41.12
"2018-03-03 15:50",42.06
"2018-03-03 15:55",42.98
"2018-03-03 16:00",43.56
"2018-03-03 16:05",43.91
"2018-03-03 16:10",44.15
"2018-03-03 16:15",44.30
"2018-03-03 16:20",44.31
"2018-03-03 16:25",44.10
"2018-03-03 16:30",43.78
"2018-03-03 16:35",43.59
"2018-03-03 16:40",43.56
"2018-03-03 16:45",43.09
"2018-03-03 16:50",42.70
"2018-03-03 16:55",42.67
"2018-03-03 17:00",42.65
"2018-03-03 17:05",42.47
"2018-03-03 17:10",42.67
"2018-03-03 17:15",42.82
"2018-03-03 17:20",42.67
"2018-03-03 17:25",42.99
"2018-03-03 17:30",43.39
"2018-03-03 17:35",43.57
"2018-03-03 17:40",43.59
"2018-03-03 17:45",43.92
"2018-03-03 17:50",44.30
"2018-03-03 17:55",44.50
"2018-03-03 18:05",45.03
"2018-03-03 18:10",45.42
"2018-03-03 18:20",45.79
"2018-03-03 18:25",46.16
"2018-03-03 18:30",46.73
"2018-03-03 18:35",46.93
"2018-03-03 18:40",47.08
"2018-03-03 18:45",47.79
"2018-03-03 18:50",47.81
"2018-03-03 18:55",48.56
"2018-03-03 19:00",49.10
"2018-03-03 19:05",49.65
"2018-03-03 19:10",50.21
"2018-03-03 19:15",50.60
"2018-03-03 19:20",51.39
"2018-03-03 19:25",52.39
"2018-03-03 19:30",52.86
"2018-03-03 19:35",53.30
"2018-03-03 19:40",54.19
"2018-03-03 19:45",55.40
"2018-03-03 19:50",55.62
"2018-03-03 19:55",56.27
"2018-03-03 20:00",56.48
"2018-03-03 20:05",56.68
"2018-03-03 20:10",56.70
"2018-03-03 20:15",56.48
"2018-03-03 20:20",56.85
"2018-03-03 20:25",56.52
"2018-03-03 20:30",56.23
"2018-03-03 20:35",55.90
"2018-03-03 20:40",55.44
"2018-03-03 20:45",54.82
"2018-03-03 20:50",55.02
"2018-03-03 20:55",54.36
"2018-03-03 21:00",54.15
"2018-03-03 21:05",53.34
"2018-03-03 21:10",52.90
"2018-03-03 21:15",52.68
"2018-03-03 21:20",52.47
"2018-03-03 21:25",51.85
"2018-03-03 21:30",51.66
"2018-03-03 21:35",51.41
"2018-03-03 21:40",50.82
"2018-03-03 21:45",51.33
"2018-03-03 21:50",50.82
"2018-03-03 21:55",50.76
"2018-03-03 22:00",50.78
"2018-03-03 22:05",50.58
"2018-03-03 22:10",50.61
"2018-03-03 22:20",50.41
"2018-03-03 22:25",50.91
"2018-03-03 22:30",50.76
"2018-03-03 22:35",50.95
"2018-03-03 22:40",51.39
"2018-03-03 22:45",51.81
"2018-03-03 22:50",52.43
"2018-03-03 22:55",53.45
"2018-03-03 23:00",53.71
"2018-03-03 23:05",54.61
"2018-03-03 23:10",56.44
"2018-03-03 23:15",57.12
"2018-03-03 23:20",59.37
"2018-03-03 23:25",60.72
"2018-03-03 23:30",61.96
"2018-03-03 23:35",63.46
"2018-03-03 23:40",65.57
"2018-03-03 23:45",67.81
"2018-03-03 23:50",69.05
"2018-03-03 23:55",70.71
"2018-03-04 00:00",71.67
"2018-03-04 00:05",72.85
"2018-03-04 00:10",74.09
"2018-03-04 00:15",74.75
"2018-03-04 00:20",75.31
"2018-03-04 00:25",74.83
"2018-03-04 00:30",75.75
"2018-03-04 00:35",75.27
"2018-03-04 00:40",75.50
"2018-03-04 00:45",75.29
"2018-03-04 00:50",75.49
"2018-03-04 00:55",75.27
"2018-03-04 01:00",75.50
"2018-03-04 01:05",74.53
"2018-03-04 01:10",74.48
"2018-03-04 01:15",74.02
"2018-03-04 01:20",74.22
"2018-03-04 01:25",72.94
"2018-03-04 01:35",72.79
"2018-03-04 01:40",72.83
"2018-03-04 01:45",72.41
"2018-03-04 01:50",71.37
"2018-03-04 01:55",71.45
"2018-03-04 02:00",71.37
"2018-03-04 02:05",71.41
"2018-03-04 02:10",70.76
"2018-03-04 02:15",70.45
"2018-03-04 02:20",69.30
"2018-03-04 02:25",69.82
"2018-03-04 02:30",69.78
"2018-03-04 02:35",70.00
"2018-03-04 02:40",69.50
"2018-03-04 02:45",69.41
"2018-03-04 02:50",68.58
"2018-03-04 02:55",68.65
"2018-03-04 03:00",68.28
"2018-03-04 03:05",68.30
"2018-03-04 03:10",67.65
"2018-03-04 03:15",67.60
"2018-03-04 03:20",68.06
"2018-03-04 03:25",67.34
"2018-03-04 03:30",67.86
"2018-03-04 03:35",67.58
"2018-03-04 03:40",66.93
"2018-03-04 03:45",67.04
"2018-03-04 03:50",67.08
"2018-03-04 03:55",66.54
"2018-03-04 04:00",67.09
"2018-03-04 04:05",66.22
"2018-03-04 04:10",65.67
"2018-03-04 04:15",65.86
"2018-03-04 04:20",65.88
"2018-03-04 04:25",65.63
"2018-03-04 04:30",66.03
"2018-03-04 04:35",66.47
"2018-03-04 04:40",65.76
"2018-03-04 04:45",66.13
"2018-03-04 04:50",66.75
"2018-03-04 04:55",66.85
"2018-03-04 05:00",67.56
"2018-03-04 05:05",68.03
"2018-03-04 05:10",68.36
"2018-03-04 05:15",69.71
"2018-03-04 05:20",69.95
"2018-03-04 05:25",71.15
"2018-03-04 05:30",72.00
"2018-03-04 05:35",74.50
"2018-03-04 05:40",75.74
"2018-03-04 05:45",78.38
"2018-03-04 05:50",80.34
"2018-03-04 05:55",83.84
"2018-03-04 06:00",85.42
"2018-03-04 06:05",89.43
"2018-03-04 06:10",93.17
"2018-03-04 06:15",97.49
"2018-03-04 06:20",100.64
"2018-03-04 06:25",106.64
"2018-03-04 06:30",109.29
"2018-03-04 06:35",113.23
"2018-03-04 06:40",117.61
"2018-03-04 06:45",122.20
"2018-03-04 06:50",127.41
"2018-03-04 06:55",130.46
"2018-03-04 07:00",133.86
"2018-03-04 07:05",137.27
"2018-03-04 07:10",139.71
"2018-03-04 07:15",139.64
"2018-03-04 07:20",142.86
"2018-03-04 07:25",144.37
"2018-03-04 07:30",144.86
"2018-03-04 07:35",145.89
"2018-03-04 07:40",147.28
"2018-03-04 07:45",147.35
"2018-03-04 07:50",147.24
"2018-03-04 07:55",145.84
"2018-03-04 08:00",144.89
"2018-03-04 08:05",144.87
"2018-03-04 08:10",142.90
"2018-03-04 08:15",142.08
"2018-03-04 08:20",142.27
"2018-03-04 08:25",141.38
"2018-03-04 08:30",139.44
"2018-03-04 08:35",137.68
"2018-03-04 08:40",137.00
"2018-03-04 08:45",134.66
"2018-03-04 08:50",134.34
"2018-03-04 08:55",133.58
"2018-03-04 09:00",132.07
"2018-03-04 09:05",129.39
"2018-03-04 09:10",128.93
"2018-03-04 09:15",127.18
"2018-03-04 09:20",125.29
"2018-03-04 09:25",122.08
"2018-03-04 09:30",120.45
"2018-03-04 09:35",118.54
"2018-03-04 09:40",117.26
"2018-03-04 09:45",115.70
"2018-03-04 09:50",113.84
"2018-03-04 09:55",110.78
"2018-03-04 10:00",109.10
"2018-03-04 10:05",108.01
"2018-03-04 10:10",106.22
"2018-03-04 10:15",105.12
"2018-03-04 10:20",102.51
"2018-03-04 10:25",100.61
"2018-03-04 10:30",99.20
"2018-03-04 10:35",97.30
"2018-03-04 10:40",95.52
"2018-03-04 10:45",93.57
"2018-03-04 10:50",91.60
"2018-03-04 10:55",90.12
"2018-03-04 11:00",88.93
"2018-03-04 11:05",86.81
"2018-03-04 11:10",85.16
"2018-03-04 11:15",83.48
"2018-03-04 11:20",82.22
"2018-03-04 11:25",81.44
"2018-03-04 11:30",78.91
"2018-03-04 11:35",77.97
"2018-03-04 11:40",77.43
"2018-03-04 11:45",75.53
"2018-03-04 11:50",74.46
"2018-03-04 11:55",73.18
"2018-03-04 12:00",71.96
"2018-03-04 12:05",70.46
"2018-03-04 12:10",69.95
"2018-03-04 12:15",68.13
"2018-03-04 12:20",67.40
"2018-03-04 12:25",66.91
"2018-03-04 12:30",65.19
"2018-03-04 12:35",64.33
"2018-03-04 12:40",63.30
"2018-03-04 12:45",62.66
"2018-03-04 12:50",62.17
"2018-03-04 12:55",61.33
"2018-03-04 13:00",60.09
"2018-03-04 13:05",59.05
"2018-03-04 13:10",58.61
"2018-03-04 13:15",57.37
"2018-03-04 13:20",56.91
"2018-03-04 13:25",55.89
"2018-03-04 13:30",55.42
"2018-03-04 13:35",54.25
"2018-03-04 13:40",53.77
"2018-03-04 13:45",52.66
"2018-03-04 13:50",52.43
"2018-03-04 13:55",51.39
"2018-03-04 14:00",51.16
"2018-03-04 14:05",50.08
"2018-03-04 14:10",49.88
"2018-03-04 14:15",48.95
"2018-03-04 14:20",48.55
"2018-03-04 14:25",48.03
"2018-03-04 14:30",47.47
"2018-03-04 14:35",47.09
"2018-03-04 14:40",46.52
"2018-03-04 14:45",45.62
"2018-03-04 14:55",45.09
"2018-03-04 15:00",44.48
"2018-03-04 15:05",43.78
"2018-03-04 15:10",43.57
"2018-03-04 15:15",42.87
"2018-03-04 15:20",42.50
"2018-03-04 15:25",42.30
"2018-03-04 15:30",41.71
"2018-03-04 15:35",41.01
"2018-03-04 15:40",40.80
"2018-03-04 15:45",39.93
"2018-03-04 15:50",40.06
"2018-03-04 15:55",39.53
"2018-03-04 16:00",38.99
"2018-03-04 16:05",38.77
"2018-03-04 16:10",38.08
"2018-03-04 16:15",38.01
"2018-03-04 16:20",37.66
"2018-03-04 16:25",37.12
"2018-03-04 16:30",36.95
"2018-03-04 16:35",36.60
"2018-03-04 16:40",36.28
"2018-03-04 16:45",35.68
"2018-03-04 16:50",35.35
"2018-03-04 16:55",35.49
"2018-03-04 17:00",34.84
"2018-03-04 17:05",34.68
"2018-03-04 17:10",34.35
"2018-03-04 17:15",34.18
"2018-03-04 17:20",33.87
"2018-03-04 17:25",33.41
"2018-03-04 17:30",33.07
"2018-03-04 17:35",33.06
"2018-03-04 17:40",32.90
"2018-03-04 17:45",32.43
"2018-03-04 17:50",32.25
"2018-03-04 17:55",32.07
"2018-03-04 18:00",31.44
"2018-03-04 18:05",31.45
"2018-03-04 18:10",31.28
"2018-03-04 18:15",31.07
"2018-03-04 18:20",30.63
"2018-03-04 18:30",30.26
"2018-03-04 18:35",29.82
"2018-03-04 18:50",29.48
"2018-03-04 18:55",29.33
"2018-03-04 19:00",29.01
"2018-03-04 19:10",28.57
"2018-03-04 19:15",28.43
"2018-03-04 19:20",28.29
"2018-03-04 19:25",28.16
"2018-03-04 19:30",28.13
"2018-03-04 19:35",27.87
"2018-03-04 19:40",27.70
"2018-03-04 19:45",27.57
"2018-03-04 19:50",27.44
"2018-03-04 19:55",27.16
"2018-03-04 20:00",26.87
"2018-03-04 20:05",26.85
"2018-03-04 20:10",26.72
"2018-03-04 20:20",26.58
"2018-03-04 20:25",26.42
"2018-03-04 20:30",26.28
"2018-03-04 20:35",26.14
"2018-03-04 20:45",26.12
"2018-03-04 20:50",25.73
"2018-03-04 20:55",25.58
"2018-03-04 21:00",25.42
"2018-03-04 21:15",25.14
"2018-03-04 21:20",25.03
"2018-03-04 21:25",24.99
"2018-03-04 21:30",24.70
"2018-03-04 21:50",24.56
"2018-03-04 21:55",24.53
"2018-03-04 22:00",23.98
"2018-03-04 22:30",23.54
"2018-03-04 22:35",23.55
"2018-03-04 22:40",23.41
"2018-03-04 22:45",23.26
"2018-03-04 23:10",23.13
"2018-03-04 23:20",23.25
"2018-03-04 23:25",23.13
"2018-03-04 23:30",22.83
"2018-03-04 23:35",22.96
"2018-03-04 23:40",22.56
"2018-03-04 23:45",22.54
"2018-03-05 00:15",22.57
"2018-03-05 00:20",22.67
"2018-03-05 00:25",22.96
"2018-03-05 00:30",23.12
"2018-03-05 00:35",23.26
"2018-03-05 00:55",23.54
"2018-03-05 01:00",23.44
"2018-03-05 01:05",23.82
"2018-03-05 01:10",23.98
"2018-03-05 01:20",24.12
"2018-03-05 01:25",24.69
"2018-03-05 01:30",24.70
"2018-03-05 01:35",24.84
"2018-03-05 01:40",25.27
"2018-03-05 01:45",25.42
"2018-03-05 01:50",25.86
"2018-03-05 01:55",26.15
"2018-03-05 02:00",26.84
"2018-03-05 02:05",27.11
"2018-03-05 02:10",27.57
"2018-03-05 02:15",28.28
"2018-03-05 02:20",28.55
"2018-03-05 02:25",29.02
"2018-03-05 02:30",29.16
"2018-03-05 02:35",29.82
"2018-03-05 02:40",30.13
"2018-03-05 02:45",30.44
"2018-03-05 02:50",30.63
"2018-03-05 02:55",30.77
"2018-03-05 03:00",31.11
"2018-03-05 03:05",31.14
"2018-03-05 03:10",31.44
"2018-03-05 03:15",31.42
"2018-03-05 03:20",31.44
"2018-03-05 03:25",31.28
"2018-03-05 03:30",31.44
"2018-03-05 03:35",31.28
"2018-03-05 03:40",30.92
"2018-03-05 03:45",31.13
"2018-03-05 03:50",30.79
"2018-03-05 03:55",30.64
"2018-03-05 04:00",30.48
"2018-03-05 04:05",30.61
"2018-03-05 04:10",30.63
"2018-03-05 04:15",30.61
"2018-03-05 04:20",30.01
"2018-03-05 04:25",30.00
"2018-03-05 04:30",29.83
"2018-03-05 04:35",30.26
"2018-03-05 04:40",29.82
"2018-03-05 05:05",29.53
"2018-03-05 05:10",29.33
"2018-03-05 05:15",29.04
"2018-03-05 05:20",29.17
"2018-03-05 05:25",29.01
"2018-03-05 05:30",29.16
"2018-03-05 05:35",29.01
"2018-03-05 05:50",29.00
"2018-03-05 05:55",29.01
"2018-03-05 06:00",28.88
"2018-03-05 06:05",28.60
"2018-03-05 06:10",28.71
"2018-03-05 06:15",28.32
"2018-03-05 06:20",28.69
"2018-03-05 06:25",28.32
"2018-03-05 06:30",28.30
"2018-03-05 06:35",28.42
"2018-03-05 06:40",28.29
"2018-03-05 07:25",28.28
"2018-03-05 07:40",28.16
"2018-03-05 07:45",28.14
"2018-03-05 07:50",27.99
"2018-03-05 07:55",28.26
"2018-03-05 08:00",28.00
"2018-03-05 08:10",28.28
"2018-03-05 08:15",28.26
"2018-03-05 08:20",28.29
"2018-03-05 08:45",28.43
"2018-03-05 08:50",28.84
"2018-03-05 08:55",29.00
"2018-03-05 09:00",29.01
"2018-03-05 09:05",29.30
"2018-03-05 09:10",29.32
"2018-03-05 09:15",29.80
"2018-03-05 09:20",29.82
"2018-03-05 09:30",29.98
