"2016-08-09 13:45",0.03
"2016-08-09 14:45",0.03
"2016-08-09 15:45",0.03
"2016-08-09 16:45",0.03
"2016-08-09 17:45",0.03
"2016-08-09 18:45",0.03
"2016-08-09 19:45",0.03
"2016-08-09 20:45",0.03
"2016-08-09 21:45",0.03
"2016-08-09 22:45",0.03
"2016-08-09 23:45",0.03
"2016-08-10 00:45",0.03
"2016-08-10 01:45",0.03
"2016-08-10 02:45",0.03
"2016-08-10 03:45",0.03
"2016-08-10 04:45",0.03
"2016-08-10 05:45",0.03
"2016-08-10 06:45",0.03
"2016-08-10 07:45",0.03
"2016-08-10 08:45",0.03
"2016-08-10 09:45",0.03
"2016-08-10 10:45",0.03
"2016-08-10 11:45",0.03
"2016-08-10 12:45",0.03
"2016-08-10 13:45",0.03
"2016-08-10 14:45",0.03
"2016-08-10 15:45",0.03
"2016-08-10 16:45",0.03
"2016-08-10 17:45",0.03
"2016-08-10 18:45",0.03
"2016-08-10 19:45",0.03
"2016-08-10 20:45",0.03
"2016-08-10 21:45",0.03
"2016-08-10 22:45",0.03
"2016-08-10 23:45",0.03
"2016-08-11 00:45",0.03
"2016-08-11 01:45",0.03
"2016-08-11 02:45",0.03
"2016-08-11 03:45",0.03
"2016-08-11 04:45",0.03
"2016-08-11 05:45",0.03
"2016-08-11 06:45",0.03
"2016-08-11 07:45",0.03
"2016-08-11 08:45",0.03
"2016-08-11 09:45",0.03
"2016-08-11 10:45",0.03
"2016-08-11 11:45",0.03
"2016-08-11 12:45",0.03
"2016-08-11 13:45",0.03
"2016-08-11 14:45",0.03
"2016-08-11 15:45",0.03
"2016-08-11 16:45",0.03
"2016-08-11 17:45",0.03
"2016-08-11 18:45",0.03
"2016-08-11 19:45",0.03
"2016-08-11 20:45",0.03
"2016-08-11 21:45",0.03
"2016-08-11 22:45",0.03
"2016-08-11 23:45",0.03
"2016-08-12 00:45",0.03
"2016-08-12 01:45",0.03
"2016-08-12 02:45",0.03
"2016-08-12 03:45",0.03
"2016-08-12 04:45",0.03
"2016-08-12 05:45",0.03
"2016-08-12 06:45",0.03
"2016-08-12 07:45",0.03
"2016-08-12 08:45",0.03
"2016-08-12 09:45",0.03
"2016-08-12 10:45",0.03
"2016-08-12 11:45",0.03
"2016-08-12 12:45",0.03
"2016-08-12 13:45",0.03
"2016-08-12 14:45",0.03
"2016-08-12 15:45",0.03
"2016-08-12 16:45",0.03
"2016-08-12 17:45",0.03
"2016-08-12 18:45",0.03
"2016-08-12 19:45",0.03
"2016-08-12 20:45",0.03
"2016-08-12 21:45",0.03
"2016-08-12 22:45",0.03
"2016-08-12 23:45",0.03
"2016-08-13 00:45",0.03
"2016-08-13 01:45",0.03
"2016-08-13 02:45",0.03
"2016-08-13 03:45",0.03
"2016-08-13 04:45",0.03
"2016-08-13 05:45",0.03
"2016-08-13 06:45",0.03
"2016-08-13 07:45",0.03
"2016-08-13 08:45",0.03
"2016-08-13 09:45",0.03
"2016-08-13 10:45",0.03
"2016-08-13 11:45",0.03
"2016-08-13 12:45",0.03
"2016-08-13 13:45",0.03
"2016-08-13 14:45",0.03
"2016-08-13 15:45",0.03
"2016-08-13 16:45",0.03
"2016-08-13 17:45",0.03
"2016-08-13 18:45",0.03
"2016-08-13 19:45",0.03
"2016-08-13 20:45",0.03
"2016-08-13 21:45",0.03
"2016-08-13 22:45",0.03
"2016-08-13 23:45",0.03
"2016-08-14 00:45",0.03
"2016-08-14 01:45",0.03
"2016-08-14 02:45",0.03
"2016-08-14 03:45",0.03
"2016-08-14 04:45",0.03
"2016-08-14 05:45",0.03
"2016-08-14 06:45",0.03
"2016-08-14 07:45",0.03
"2016-08-14 08:45",0.03
"2016-08-14 09:45",0.03
"2016-08-14 10:45",0.03
"2016-08-14 11:45",0.03
"2016-08-14 12:45",0.03
"2016-08-14 13:45",0.03
"2016-08-14 14:45",0.03
"2016-08-14 15:45",0.03
"2016-08-14 16:45",0.03
"2016-08-14 17:45",0.03
"2016-08-14 18:45",0.03
"2016-08-14 19:45",0.03
"2016-08-14 20:45",0.03
"2016-08-14 21:45",0.03
"2016-08-14 22:45",0.03
"2016-08-14 23:45",0.03
"2016-08-15 00:45",0.03
"2016-08-15 01:45",0.03
"2016-08-15 02:45",0.03
"2016-08-15 03:45",0.03
"2016-08-15 04:45",0.03
"2016-08-15 05:45",0.03
"2016-08-15 06:45",0.03
"2016-08-15 07:45",0.03
"2016-08-15 08:45",0.03
"2016-08-15 09:45",0.03
"2016-08-15 10:45",0.03
"2016-08-15 11:45",0.03
"2016-08-15 12:45",0.03
"2016-08-15 13:45",0.03
"2016-08-15 14:45",0.03
"2016-08-15 15:45",0.03
"2016-08-15 16:45",0.03
"2016-08-15 17:45",0.03
"2016-08-15 18:45",0.03
"2016-08-15 19:45",0.03
