"2017-07-27 14:00",0.30
"2017-07-27 14:05",0.00
"2017-07-27 15:05",0.00
"2017-07-27 16:05",0.00
"2017-07-27 17:05",0.00
"2017-07-27 18:05",0.00
"2017-07-27 19:05",0.00
"2017-07-27 20:05",0.00
"2017-07-27 21:05",0.00
"2017-07-27 22:05",0.00
"2017-07-27 23:05",0.00
"2017-07-28 00:05",0.00
"2017-07-28 01:05",0.00
"2017-07-28 02:05",0.00
"2017-07-28 03:05",0.00
"2017-07-28 04:05",0.00
"2017-07-28 05:05",0.00
"2017-07-28 06:05",0.00
"2017-07-28 07:05",0.00
"2017-07-28 08:05",0.00
"2017-07-28 09:05",0.00
"2017-07-28 10:05",0.00
"2017-07-28 11:05",0.00
"2017-07-28 12:05",0.00
"2017-07-28 13:05",0.00
"2017-07-28 14:05",0.00
"2017-07-28 15:05",0.00
"2017-07-28 16:05",0.00
"2017-07-28 17:05",0.00
"2017-07-28 18:05",0.00
"2017-07-28 19:05",0.00
"2017-07-28 20:05",0.00
"2017-07-28 21:05",0.00
"2017-07-28 22:05",0.00
"2017-07-28 23:05",0.00
"2017-07-29 00:05",0.00
"2017-07-29 01:05",0.00
"2017-07-29 02:05",0.00
"2017-07-29 03:05",0.00
"2017-07-29 04:05",0.00
"2017-07-29 05:05",0.00
"2017-07-29 06:05",0.00
"2017-07-29 07:05",0.00
"2017-07-29 08:05",0.00
"2017-07-29 08:35",0.00
"2017-07-29 09:15",0.00
"2017-07-29 10:15",0.00
"2017-07-29 11:15",0.00
"2017-07-29 12:15",0.00
"2017-07-29 13:15",0.00
"2017-07-29 14:15",0.00
"2017-07-29 15:15",0.00
"2017-07-29 16:15",0.00
"2017-07-29 17:15",0.00
"2017-07-29 18:15",0.00
"2017-07-29 19:15",0.00
"2017-07-29 20:15",0.00
"2017-07-29 21:15",0.00
"2017-07-29 22:15",0.00
"2017-07-29 23:15",0.00
"2017-07-30 00:15",0.00
"2017-07-30 01:15",0.00
"2017-07-30 02:15",0.00
"2017-07-30 03:15",0.00
"2017-07-30 04:15",0.00
"2017-07-30 05:15",0.00
"2017-07-30 06:15",0.00
"2017-07-30 07:15",0.00
"2017-07-30 08:15",0.00
"2017-07-30 09:15",0.00
"2017-07-30 10:15",0.00
"2017-07-30 11:15",0.00
"2017-07-30 12:15",0.00
"2017-07-30 13:15",0.00
"2017-07-30 14:15",0.00
"2017-07-30 15:15",0.00
"2017-07-30 16:15",0.00
"2017-07-30 17:15",0.00
"2017-07-30 18:15",0.00
"2017-07-30 19:15",0.00
"2017-07-30 20:15",0.00
"2017-07-30 21:15",0.00
"2017-07-30 22:15",0.00
"2017-07-30 23:15",0.00
"2017-07-31 00:15",0.00
"2017-07-31 01:15",0.00
"2017-07-31 02:15",0.00
"2017-07-31 03:15",0.00
"2017-07-31 04:15",0.00
"2017-07-31 05:15",0.00
"2017-07-31 05:55",0.00
"2017-07-31 06:55",0.81
"2017-07-31 07:55",0.82
"2017-07-31 08:35",0.80
"2017-07-31 09:35",0.81
"2017-07-31 10:35",0.81
"2017-07-31 10:50",0.83
"2017-07-31 11:50",0.83
"2017-07-31 12:05",0.85
"2017-07-31 13:05",0.85
"2017-07-31 13:25",0.86
"2017-07-31 14:20",0.85
"2017-07-31 14:35",0.86
"2017-07-31 14:40",0.85
"2017-07-31 14:45",0.86
"2017-07-31 15:00",0.87
"2017-07-31 15:05",0.86
"2017-07-31 15:10",0.87
"2017-07-31 16:10",0.86
"2017-07-31 17:10",0.87
"2017-07-31 17:25",0.85
"2017-07-31 17:30",0.88
"2017-07-31 17:50",0.86
"2017-07-31 17:55",0.88
"2017-07-31 18:30",0.89
"2017-07-31 19:25",0.90
"2017-07-31 20:20",0.88
"2017-07-31 20:45",0.89
"2017-07-31 21:45",0.90
"2017-07-31 22:35",0.89
"2017-07-31 23:05",0.88
"2017-07-31 23:30",0.86
"2017-08-01 00:10",0.87
"2017-08-01 01:10",0.88
"2017-08-01 01:40",0.86
"2017-08-01 01:55",0.88
"2017-08-01 02:10",0.86
"2017-08-01 02:20",0.85
"2017-08-01 03:20",0.86
"2017-08-01 03:40",0.87
"2017-08-01 04:15",0.88
"2017-08-01 04:50",0.89
"2017-08-01 05:00",0.88
"2017-08-01 05:10",0.89
"2017-08-01 06:00",0.88
"2017-08-01 06:10",0.89
"2017-08-01 06:15",0.88
"2017-08-01 06:40",0.89
"2017-08-01 07:40",0.88
"2017-08-01 07:45",0.90
"2017-08-01 08:45",0.90
"2017-08-01 09:00",0.91
"2017-08-01 10:00",0.91
"2017-08-01 11:00",0.91
"2017-08-01 12:00",0.90
"2017-08-01 12:35",0.91
"2017-08-01 13:35",0.91
"2017-08-01 14:00",0.90
"2017-08-01 14:05",0.91
"2017-08-01 15:05",0.90
"2017-08-01 15:10",0.92
"2017-08-01 16:10",0.91
"2017-08-01 16:25",0.90
"2017-08-01 17:00",0.91
"2017-08-01 18:00",0.91
"2017-08-01 18:25",0.90
"2017-08-01 18:40",0.88
"2017-08-01 18:45",0.90
"2017-08-01 19:00",0.89
"2017-08-01 19:05",0.90
"2017-08-01 19:45",0.88
"2017-08-01 19:50",0.89
"2017-08-01 20:10",0.88
"2017-08-01 20:25",0.89
"2017-08-01 20:45",0.88
"2017-08-01 20:50",0.90
"2017-08-01 21:10",0.88
"2017-08-01 21:15",0.90
"2017-08-01 21:25",0.89
"2017-08-01 21:50",0.90
"2017-08-01 22:40",0.88
"2017-08-01 22:45",0.89
"2017-08-01 22:50",0.88
"2017-08-01 23:15",0.89
"2017-08-02 00:15",0.89
"2017-08-02 00:20",0.88
"2017-08-02 01:15",0.89
"2017-08-02 01:45",0.88
"2017-08-02 02:45",0.89
"2017-08-02 03:10",0.88
"2017-08-02 03:30",0.89
"2017-08-02 04:30",0.89
"2017-08-02 04:55",0.90
"2017-08-02 05:15",0.89
"2017-08-02 05:20",0.90
"2017-08-02 06:20",0.91
"2017-08-02 07:10",0.92
"2017-08-02 07:50",0.93
"2017-08-02 08:50",0.93
"2017-08-02 09:50",0.93
"2017-08-02 10:30",0.92
"2017-08-02 10:45",0.94
"2017-08-02 11:45",0.93
"2017-08-02 12:20",0.94
"2017-08-02 13:20",0.95
"2017-08-02 13:30",0.94
"2017-08-02 13:35",0.95
"2017-08-02 14:20",0.96
"2017-08-02 15:00",0.97
"2017-08-02 15:45",0.98
"2017-08-02 16:15",0.99
"2017-08-02 17:15",1.00
"2017-08-02 17:25",0.99
"2017-08-02 17:50",1.01
"2017-08-02 18:35",1.00
"2017-08-02 19:00",1.01
"2017-08-02 19:20",0.99
"2017-08-02 19:25",1.01
"2017-08-02 19:35",1.00
"2017-08-02 19:45",1.01
"2017-08-02 20:00",1.00
"2017-08-02 20:10",1.02
"2017-08-02 20:25",0.99
"2017-08-02 20:30",1.00
"2017-08-02 20:45",0.99
"2017-08-02 20:50",1.00
"2017-08-02 21:10",0.99
"2017-08-02 22:10",0.98
"2017-08-02 23:00",0.97
"2017-08-02 23:20",0.98
"2017-08-03 00:10",0.97
"2017-08-03 01:10",0.97
"2017-08-03 02:10",0.96
"2017-08-03 02:50",0.97
"2017-08-03 03:50",0.97
"2017-08-03 04:35",0.98
