"2018-03-08 13:55",6.13
"2018-03-08 14:55",6.13
"2018-03-08 15:20",5.94
"2018-03-08 16:20",5.94
"2018-03-08 17:20",5.94
"2018-03-08 18:20",5.94
"2018-03-08 19:20",5.94
"2018-03-08 20:20",5.94
"2018-03-08 21:20",5.94
"2018-03-08 22:20",5.94
"2018-03-08 23:20",5.94
"2018-03-09 00:10",6.13
"2018-03-09 01:10",6.13
"2018-03-09 02:10",6.13
"2018-03-09 02:15",6.31
"2018-03-09 03:15",6.31
"2018-03-09 04:15",6.31
"2018-03-09 05:15",6.31
"2018-03-09 05:45",6.50
"2018-03-09 06:45",6.50
"2018-03-09 07:45",6.50
"2018-03-09 08:45",6.50
"2018-03-09 09:45",6.50
"2018-03-09 10:45",6.50
"2018-03-09 11:45",6.50
"2018-03-09 11:50",6.68
"2018-03-09 12:50",6.68
"2018-03-09 12:55",6.86
"2018-03-09 13:30",7.05
"2018-03-09 14:05",7.26
"2018-03-09 14:30",7.47
"2018-03-09 14:50",7.68
"2018-03-09 15:10",7.90
"2018-03-09 15:30",8.09
"2018-03-09 15:35",8.11
"2018-03-09 15:50",8.32
"2018-03-09 16:05",8.53
"2018-03-09 16:20",8.74
"2018-03-09 16:35",8.95
"2018-03-09 16:50",9.16
"2018-03-09 17:00",9.38
"2018-03-09 17:05",9.40
"2018-03-09 17:15",9.63
"2018-03-09 17:25",9.87
"2018-03-09 17:40",10.11
"2018-03-09 17:50",10.34
"2018-03-09 18:00",10.58
"2018-03-09 18:10",10.81
"2018-03-09 18:20",11.05
"2018-03-09 18:30",11.29
"2018-03-09 18:40",11.52
"2018-03-09 18:45",11.77
"2018-03-09 18:50",11.79
"2018-03-09 18:55",12.06
"2018-03-09 19:05",12.33
"2018-03-09 19:15",12.60
"2018-03-09 19:20",12.87
"2018-03-09 19:25",13.14
"2018-03-09 19:30",13.41
"2018-03-09 19:35",13.68
"2018-03-09 19:45",14.19
"2018-03-09 19:50",14.21
"2018-03-09 19:55",14.48
"2018-03-09 20:05",14.73
"2018-03-09 20:10",14.75
"2018-03-09 20:15",15.02
"2018-03-09 20:25",15.26
"2018-03-09 20:30",15.29
"2018-03-09 20:35",15.31
"2018-03-09 20:40",15.56
"2018-03-09 20:45",15.84
"2018-03-09 20:50",15.87
"2018-03-09 21:00",16.18
"2018-03-09 21:05",16.49
"2018-03-09 21:15",16.79
"2018-03-09 21:25",17.10
"2018-03-09 21:35",17.41
"2018-03-09 21:50",17.72
"2018-03-09 21:55",18.03
"2018-03-09 22:05",18.06
"2018-03-09 22:10",18.34
"2018-03-09 22:20",18.65
"2018-03-09 22:35",18.95
"2018-03-09 22:40",19.23
"2018-03-09 22:50",19.26
"2018-03-09 23:00",19.29
"2018-03-09 23:05",19.57
"2018-03-09 23:35",19.88
"2018-03-09 23:40",19.57
"2018-03-09 23:45",19.60
"2018-03-10 00:00",19.85
"2018-03-10 00:05",19.88
"2018-03-10 00:10",19.85
"2018-03-10 00:15",19.88
"2018-03-10 00:40",19.60
"2018-03-10 00:45",19.85
"2018-03-10 00:50",19.88
"2018-03-10 00:55",19.60
"2018-03-10 01:05",19.88
"2018-03-10 01:20",19.85
"2018-03-10 01:25",19.88
"2018-03-10 02:00",19.60
"2018-03-10 02:05",19.88
"2018-03-10 02:20",19.85
"2018-03-10 02:25",19.88
"2018-03-10 02:30",19.57
"2018-03-10 03:30",19.29
"2018-03-10 03:35",19.57
"2018-03-10 03:50",19.29
"2018-03-10 03:55",19.57
"2018-03-10 04:05",19.26
"2018-03-10 04:15",19.29
"2018-03-10 04:20",19.26
"2018-03-10 04:40",19.24
"2018-03-10 04:50",18.96
"2018-03-10 05:05",18.98
"2018-03-10 05:10",18.95
"2018-03-10 05:45",18.68
"2018-03-10 05:50",18.95
"2018-03-10 06:10",18.65
"2018-03-10 06:20",18.92
"2018-03-10 06:25",18.68
"2018-03-10 06:30",18.65
"2018-03-10 06:40",18.95
"2018-03-10 06:45",18.93
"2018-03-10 06:50",18.95
"2018-03-10 06:55",19.26
"2018-03-10 07:05",19.57
"2018-03-10 07:10",19.91
"2018-03-10 07:15",20.85
"2018-03-10 07:20",21.58
"2018-03-10 07:25",22.62
"2018-03-10 07:30",24.02
"2018-03-10 07:35",26.15
"2018-03-10 07:40",27.70
"2018-03-10 07:45",28.86
"2018-03-10 07:50",29.29
"2018-03-10 07:55",30.06
"2018-03-10 08:00",31.19
"2018-03-10 08:05",31.69
"2018-03-10 08:10",32.93
"2018-03-10 08:15",33.75
"2018-03-10 08:20",35.06
"2018-03-10 08:25",36.77
"2018-03-10 08:30",39.00
"2018-03-10 08:35",42.36
"2018-03-10 08:40",45.63
"2018-03-10 08:45",49.14
"2018-03-10 08:50",52.93
"2018-03-10 08:55",56.98
"2018-03-10 09:00",59.40
"2018-03-10 09:05",62.24
"2018-03-10 09:10",63.92
"2018-03-10 09:15",64.61
"2018-03-10 09:20",66.82
"2018-03-10 09:25",67.97
"2018-03-10 09:30",69.24
"2018-03-10 09:35",71.63
"2018-03-10 09:40",74.81
"2018-03-10 09:45",78.51
"2018-03-10 09:50",79.21
"2018-03-10 10:50",79.21
"2018-03-10 11:50",79.21
"2018-03-10 12:15",78.57
"2018-03-10 12:20",75.58
"2018-03-10 12:25",74.27
"2018-03-10 12:30",73.01
"2018-03-10 12:35",71.75
"2018-03-10 12:40",70.95
"2018-03-10 12:45",68.67
"2018-03-10 12:50",68.03
"2018-03-10 12:55",67.45
"2018-03-10 13:00",65.77
"2018-03-10 13:05",64.61
"2018-03-10 13:10",63.47
"2018-03-10 13:15",62.88
"2018-03-10 13:20",62.25
"2018-03-10 13:25",61.67
"2018-03-10 13:30",60.51
"2018-03-10 13:35",59.99
"2018-03-10 13:40",59.36
"2018-03-10 13:45",58.25
"2018-03-10 13:50",58.20
"2018-03-10 13:55",58.13
"2018-03-10 14:00",57.09
"2018-03-10 14:05",56.05
"2018-03-10 14:10",55.46
"2018-03-10 14:15",54.94
"2018-03-10 14:20",54.45
"2018-03-10 14:25",53.97
"2018-03-10 14:30",52.89
"2018-03-10 14:35",51.93
"2018-03-10 14:40",51.83
"2018-03-10 14:45",51.26
"2018-03-10 14:50",49.83
"2018-03-10 14:55",50.63
"2018-03-10 15:00",49.29
"2018-03-10 15:05",48.73
"2018-03-10 15:10",48.10
"2018-03-10 15:15",48.14
"2018-03-10 15:20",47.14
"2018-03-10 15:25",46.67
"2018-03-10 15:30",46.62
"2018-03-10 15:35",47.00
"2018-03-10 15:40",46.11
"2018-03-10 15:45",45.69
"2018-03-10 15:50",46.11
"2018-03-10 15:55",45.25
"2018-03-10 16:00",45.20
"2018-03-10 16:05",44.35
"2018-03-10 16:10",44.73
"2018-03-10 16:15",44.26
"2018-03-10 16:20",43.79
"2018-03-10 16:25",43.74
"2018-03-10 16:30",43.31
"2018-03-10 16:35",43.27
"2018-03-10 16:40",42.41
"2018-03-10 16:45",41.51
"2018-03-10 16:50",41.90
"2018-03-10 16:55",42.31
"2018-03-10 17:00",41.41
"2018-03-10 17:05",40.94
"2018-03-10 17:10",40.48
"2018-03-10 17:15",40.00
"2018-03-10 17:20",40.04
"2018-03-10 17:25",40.00
"2018-03-10 17:30",39.56
"2018-03-10 17:35",39.05
"2018-03-10 17:45",38.62
"2018-03-10 17:50",38.58
"2018-03-10 17:55",38.06
"2018-03-10 18:00",37.60
"2018-03-10 18:05",37.20
"2018-03-10 18:10",36.82
"2018-03-10 18:20",36.39
"2018-03-10 18:25",36.69
"2018-03-10 18:30",35.53
"2018-03-10 18:35",35.88
"2018-03-10 18:40",35.07
"2018-03-10 18:45",34.64
"2018-03-10 18:55",34.60
"2018-03-10 19:00",33.79
"2018-03-10 19:10",32.98
"2018-03-10 19:15",33.32
"2018-03-10 19:20",32.51
"2018-03-10 19:25",32.08
"2018-03-10 19:35",31.66
"2018-03-10 19:45",31.22
"2018-03-10 19:50",30.84
"2018-03-10 19:55",30.87
"2018-03-10 20:00",30.80
"2018-03-10 20:05",30.45
"2018-03-10 20:10",30.10
"2018-03-10 20:15",29.71
"2018-03-10 20:30",28.93
"2018-03-10 20:35",28.90
"2018-03-10 20:45",28.86
"2018-03-10 20:50",28.51
"2018-03-10 20:55",28.12
"2018-03-10 21:15",27.70
"2018-03-10 21:20",27.73
"2018-03-10 21:25",27.35
"2018-03-10 21:40",27.00
"2018-03-10 21:45",26.96
"2018-03-10 22:00",26.92
"2018-03-10 22:05",26.61
"2018-03-10 22:10",26.92
"2018-03-10 22:15",26.22
"2018-03-10 22:20",26.92
"2018-03-10 22:25",26.57
"2018-03-10 22:40",26.96
"2018-03-10 23:20",27.00
"2018-03-10 23:25",26.96
"2018-03-10 23:30",27.34
"2018-03-10 23:45",27.73
"2018-03-10 23:50",27.35
"2018-03-10 23:55",27.38
"2018-03-11 00:05",27.74
"2018-03-11 00:25",27.77
"2018-03-11 00:30",27.74
"2018-03-11 00:45",27.70
"2018-03-11 00:50",27.38
"2018-03-11 01:00",27.35
"2018-03-11 01:10",27.32
"2018-03-11 01:15",27.35
"2018-03-11 01:20",27.00
"2018-03-11 01:25",26.97
"2018-03-11 01:30",26.61
"2018-03-11 01:35",26.96
"2018-03-11 01:40",26.22
"2018-03-11 01:45",26.19
"2018-03-11 01:55",26.15
"2018-03-11 02:00",25.76
"2018-03-11 02:05",25.41
"2018-03-11 02:15",25.10
"2018-03-11 02:20",25.06
"2018-03-11 02:25",25.03
"2018-03-11 02:30",24.71
"2018-03-11 02:45",24.37
"2018-03-11 03:05",24.33
"2018-03-11 03:10",23.70
"2018-03-11 03:15",24.02
"2018-03-11 03:25",23.67
"2018-03-11 03:55",23.32
"2018-03-11 04:10",23.01
"2018-03-11 04:15",23.32
"2018-03-11 04:20",23.00
"2018-03-11 04:25",22.97
"2018-03-11 04:40",22.63
"2018-03-11 05:15",22.28
"2018-03-11 05:20",22.31
"2018-03-11 05:25",22.63
"2018-03-11 05:30",22.31
"2018-03-11 05:35",22.59
"2018-03-11 05:40",22.62
"2018-03-11 05:45",22.59
"2018-03-11 05:50",22.62
"2018-03-11 05:55",22.31
"2018-03-11 06:00",22.63
"2018-03-11 06:05",22.28
"2018-03-11 06:10",22.31
"2018-03-11 06:15",22.59
"2018-03-11 06:20",22.66
"2018-03-11 06:25",22.28
"2018-03-11 06:30",22.31
"2018-03-11 06:35",22.28
"2018-03-11 07:05",21.96
"2018-03-11 07:10",22.28
"2018-03-11 07:20",21.96
"2018-03-11 07:25",21.93
"2018-03-11 07:45",21.58
"2018-03-11 08:00",21.55
"2018-03-11 08:10",21.23
"2018-03-11 08:15",21.20
"2018-03-11 08:20",20.92
"2018-03-11 08:25",21.23
"2018-03-11 08:30",20.88
"2018-03-11 08:45",20.57
"2018-03-11 08:50",20.88
"2018-03-11 08:55",20.57
"2018-03-11 09:00",20.54
"2018-03-11 09:30",20.19
"2018-03-11 09:40",20.16
"2018-03-11 09:45",19.88
"2018-03-11 09:50",19.91
"2018-03-11 09:55",19.88
"2018-03-11 10:10",19.85
"2018-03-11 10:25",19.57
"2018-03-11 10:40",19.54
"2018-03-11 10:50",19.26
"2018-03-11 11:10",18.99
"2018-03-11 11:15",19.23
"2018-03-11 11:20",18.95
"2018-03-11 11:25",19.23
"2018-03-11 11:30",18.95
"2018-03-11 11:35",18.93
"2018-03-11 11:45",18.65
"2018-03-11 12:15",18.36
"2018-03-11 12:20",18.61
"2018-03-11 12:35",18.64
"2018-03-11 12:40",18.61
"2018-03-11 12:45",18.34
"2018-03-11 13:05",18.36
"2018-03-11 13:10",18.61
"2018-03-11 13:15",18.34
"2018-03-11 13:30",18.31
"2018-03-11 13:35",18.34
"2018-03-11 14:00",18.31
"2018-03-11 14:05",18.34
"2018-03-11 14:25",18.61
"2018-03-11 14:30",18.65
"2018-03-11 14:35",18.62
"2018-03-11 14:40",18.65
"2018-03-11 15:00",18.34
"2018-03-11 15:05",18.64
"2018-03-11 15:10",18.61
"2018-03-11 15:15",18.36
"2018-03-11 15:30",18.34
"2018-03-11 16:30",18.34
"2018-03-11 17:30",18.33
"2018-03-11 18:05",18.03
"2018-03-11 18:40",18.00
"2018-03-11 18:50",17.72
"2018-03-11 19:25",17.69
"2018-03-11 19:30",17.44
"2018-03-11 19:45",17.41
"2018-03-11 20:15",17.38
"2018-03-11 20:20",17.13
"2018-03-11 20:25",17.10
"2018-03-11 20:40",17.38
"2018-03-11 20:50",17.10
"2018-03-11 21:45",16.80
"2018-03-11 21:50",17.07
"2018-03-11 21:55",16.79
"2018-03-11 22:55",16.79
"2018-03-11 23:00",16.51
"2018-03-11 23:05",16.49
"2018-03-11 23:35",16.21
"2018-03-11 23:40",16.18
"2018-03-12 00:10",16.15
"2018-03-12 00:15",16.18
"2018-03-12 00:25",15.87
"2018-03-12 00:35",15.90
"2018-03-12 00:40",16.15
"2018-03-12 00:45",15.87
"2018-03-12 01:30",15.56
"2018-03-12 01:35",15.84
"2018-03-12 01:40",15.56
"2018-03-12 02:40",15.56
"2018-03-12 03:35",15.29
"2018-03-12 04:00",15.32
"2018-03-12 04:05",15.29
"2018-03-12 04:50",15.27
"2018-03-12 04:55",15.29
"2018-03-12 05:00",15.05
"2018-03-12 05:05",15.02
"2018-03-12 05:50",14.99
"2018-03-12 05:55",14.75
"2018-03-12 06:30",14.48
"2018-03-12 07:15",14.21
"2018-03-12 07:50",13.95
"2018-03-12 08:25",13.70
"2018-03-12 08:35",13.68
"2018-03-12 09:10",13.43
"2018-03-12 09:15",13.68
"2018-03-12 09:20",13.41
"2018-03-12 09:25",13.43
"2018-03-12 09:30",13.41
"2018-03-12 10:00",13.14
"2018-03-12 10:45",12.90
"2018-03-12 10:55",12.87
"2018-03-12 11:40",12.85
"2018-03-12 11:45",12.60
"2018-03-12 12:25",12.58
"2018-03-12 12:35",12.33
"2018-03-12 13:15",12.31
"2018-03-12 13:20",12.09
"2018-03-12 13:25",12.06
"2018-03-12 14:10",11.82
"2018-03-12 14:15",11.79
"2018-03-12 15:05",11.53
"2018-03-12 16:00",11.29
"2018-03-12 16:45",11.07
"2018-03-12 16:50",11.05
"2018-03-12 17:30",10.84
"2018-03-12 17:35",11.05
"2018-03-12 17:40",10.81
"2018-03-12 18:35",10.58
"2018-03-12 19:25",10.37
"2018-03-12 19:30",10.34
"2018-03-12 20:30",10.32
"2018-03-12 20:35",10.11
"2018-03-12 21:30",9.89
"2018-03-12 21:35",9.87
"2018-03-12 22:35",9.87
"2018-03-12 22:40",9.64
"2018-03-12 23:40",9.63
"2018-03-12 23:50",9.42
"2018-03-12 23:55",9.40
"2018-03-13 00:55",9.40
"2018-03-13 01:10",9.16
"2018-03-13 02:10",9.16
"2018-03-13 02:25",8.95
"2018-03-13 03:25",8.95
"2018-03-13 04:25",8.95
"2018-03-13 05:25",8.95
"2018-03-13 05:55",9.14
"2018-03-13 06:00",9.16
"2018-03-13 07:00",9.16
"2018-03-13 07:50",9.40
"2018-03-13 07:55",9.38
"2018-03-13 08:00",9.40
"2018-03-13 08:20",9.16
"2018-03-13 09:10",8.95
"2018-03-13 09:55",8.74
"2018-03-13 10:55",8.74
"2018-03-13 11:00",8.53
"2018-03-13 12:00",8.53
"2018-03-13 12:05",8.32
"2018-03-13 13:05",8.32
"2018-03-13 13:15",8.11
"2018-03-13 14:15",8.11
"2018-03-13 14:30",7.90
"2018-03-13 15:30",7.90
"2018-03-13 15:45",7.68
"2018-03-13 16:45",7.68
"2018-03-13 17:00",7.48
"2018-03-13 18:00",7.47
"2018-03-13 18:20",7.26
"2018-03-13 19:20",7.26
"2018-03-13 19:50",7.05
"2018-03-13 20:50",7.05
"2018-03-13 21:40",6.87
"2018-03-13 22:40",6.87
"2018-03-13 23:40",6.87
"2018-03-13 23:55",6.68
"2018-03-14 00:55",6.68
"2018-03-14 01:55",6.68
"2018-03-14 02:20",6.50
"2018-03-14 03:20",6.50
"2018-03-14 04:20",6.50
"2018-03-14 05:10",6.31
"2018-03-14 05:30",6.50
"2018-03-14 06:30",6.50
"2018-03-14 07:30",6.50
"2018-03-14 08:00",6.68
"2018-03-14 09:00",6.68
"2018-03-14 09:10",6.87
"2018-03-14 09:55",7.05
"2018-03-14 10:45",7.26
"2018-03-14 11:30",7.28
"2018-03-14 11:35",7.47
"2018-03-14 12:20",7.68
"2018-03-14 13:20",7.68
"2018-03-14 13:35",7.90
"2018-03-14 14:35",8.10
"2018-03-14 15:35",8.11
"2018-03-14 15:40",8.32
"2018-03-14 16:10",8.53
"2018-03-14 16:25",8.74
"2018-03-14 16:35",8.95
"2018-03-14 16:45",9.16
"2018-03-14 16:55",9.40
"2018-03-14 17:00",9.63
"2018-03-14 17:05",10.11
"2018-03-14 17:10",10.34
"2018-03-14 17:15",10.79
"2018-03-14 17:20",11.05
"2018-03-14 17:25",11.29
"2018-03-14 17:30",11.50
"2018-03-14 17:35",11.52
"2018-03-14 17:40",11.79
"2018-03-14 17:45",12.06
"2018-03-14 17:50",12.33
"2018-03-14 17:55",12.60
"2018-03-14 18:00",12.87
"2018-03-14 18:05",13.14
"2018-03-14 18:10",13.65
"2018-03-14 18:15",13.95
"2018-03-14 18:20",14.48
"2018-03-14 18:25",14.99
"2018-03-14 18:30",15.53
"2018-03-14 18:35",15.87
"2018-03-14 18:40",16.76
"2018-03-14 18:45",17.41
"2018-03-14 18:50",18.03
"2018-03-14 18:55",18.65
"2018-03-14 19:00",19.26
"2018-03-14 19:05",19.88
"2018-03-14 19:10",20.54
"2018-03-14 19:15",21.55
"2018-03-14 19:20",21.93
"2018-03-14 19:25",22.97
"2018-03-14 19:30",24.33
"2018-03-14 19:35",25.37
"2018-03-14 19:40",26.18
"2018-03-14 19:45",27.70
"2018-03-14 19:50",28.51
"2018-03-14 19:55",28.94
"2018-03-14 20:00",30.44
"2018-03-14 20:05",31.26
"2018-03-14 20:10",32.50
"2018-03-14 20:15",34.17
"2018-03-14 20:20",35.44
"2018-03-14 20:25",35.92
"2018-03-14 20:30",37.24
"2018-03-14 20:35",38.10
"2018-03-14 20:40",39.48
"2018-03-14 20:45",39.96
"2018-03-14 20:50",41.37
"2018-03-14 20:55",42.40
"2018-03-14 21:00",43.82
"2018-03-14 21:05",44.72
"2018-03-14 21:10",45.68
"2018-03-14 21:15",46.62
"2018-03-14 21:20",47.67
"2018-03-14 21:25",49.15
"2018-03-14 21:30",49.29
"2018-03-14 21:35",51.25
"2018-03-14 21:40",51.36
"2018-03-14 21:45",51.88
"2018-03-14 21:50",52.41
"2018-03-14 21:55",52.83
"2018-03-14 22:00",52.93
"2018-03-14 22:05",53.41
"2018-03-14 22:10",53.88
"2018-03-14 22:15",53.93
"2018-03-14 22:30",53.90
"2018-03-14 22:35",54.46
"2018-03-14 22:50",53.89
"2018-03-14 22:55",53.93
"2018-03-14 23:00",53.89
"2018-03-14 23:05",53.42
"2018-03-14 23:10",53.92
"2018-03-14 23:15",53.88
"2018-03-14 23:20",52.98
"2018-03-14 23:25",52.88
"2018-03-14 23:35",51.88
"2018-03-14 23:40",52.78
"2018-03-14 23:45",52.30
"2018-03-14 23:50",51.30
"2018-03-14 23:55",50.83
"2018-03-15 00:00",50.30
"2018-03-15 00:05",49.73
"2018-03-15 00:10",49.77
"2018-03-15 00:15",49.20
"2018-03-15 00:20",48.72
"2018-03-15 00:25",48.67
"2018-03-15 00:30",48.15
"2018-03-15 00:35",47.67
"2018-03-15 00:40",47.15
"2018-03-15 00:45",47.05
"2018-03-15 00:50",46.66
"2018-03-15 00:55",45.77
"2018-03-15 01:00",45.68
"2018-03-15 01:05",45.19
"2018-03-15 01:10",44.73
"2018-03-15 01:15",44.21
"2018-03-15 01:20",43.79
"2018-03-15 01:25",43.31
"2018-03-15 01:30",42.84
"2018-03-15 01:35",42.37
"2018-03-15 01:40",41.94
"2018-03-15 01:45",41.89
"2018-03-15 01:50",41.46
"2018-03-15 01:55",40.99
"2018-03-15 02:00",41.41
"2018-03-15 02:05",40.47
"2018-03-15 02:10",40.04
"2018-03-15 02:15",40.00
"2018-03-15 02:20",39.52
"2018-03-15 02:30",39.01
"2018-03-15 02:40",38.57
"2018-03-15 02:45",38.15
"2018-03-15 02:50",38.11
"2018-03-15 02:55",37.63
"2018-03-15 03:05",37.21
"2018-03-15 03:20",36.35
"2018-03-15 03:25",36.31
"2018-03-15 03:35",35.54
"2018-03-15 03:40",35.88
"2018-03-15 03:45",35.11
"2018-03-15 03:50",35.03
"2018-03-15 04:00",34.99
"2018-03-15 04:05",34.64
"2018-03-15 04:10",34.17
"2018-03-15 04:15",33.41
"2018-03-15 04:20",33.78
"2018-03-15 04:25",33.36
"2018-03-15 04:30",32.97
"2018-03-15 04:35",32.93
"2018-03-15 04:40",32.54
"2018-03-15 04:45",32.47
"2018-03-15 04:50",32.04
"2018-03-15 04:55",32.08
"2018-03-15 05:00",31.65
"2018-03-15 05:05",31.26
"2018-03-15 05:15",31.23
"2018-03-15 05:20",31.18
"2018-03-15 05:25",30.83
"2018-03-15 05:30",30.45
"2018-03-15 05:35",30.10
"2018-03-15 05:45",30.06
"2018-03-15 05:50",29.67
"2018-03-15 05:55",29.64
"2018-03-15 06:00",29.32
"2018-03-15 06:05",28.93
"2018-03-15 06:10",28.90
"2018-03-15 06:20",28.55
"2018-03-15 06:25",28.48
"2018-03-15 06:30",28.12
"2018-03-15 06:40",27.77
"2018-03-15 06:45",27.74
"2018-03-15 06:50",27.38
"2018-03-15 06:55",27.35
"2018-03-15 07:00",27.31
"2018-03-15 07:05",27.34
"2018-03-15 07:10",26.96
"2018-03-15 07:15",26.61
"2018-03-15 07:20",26.96
"2018-03-15 07:25",26.22
"2018-03-15 07:30",26.54
"2018-03-15 07:35",26.19
"2018-03-15 07:40",25.80
"2018-03-15 07:50",25.83
"2018-03-15 07:55",25.45
"2018-03-15 08:00",25.41
"2018-03-15 08:05",25.38
"2018-03-15 08:10",25.06
"2018-03-15 08:20",24.75
"2018-03-15 08:30",24.71
"2018-03-15 08:35",24.40
"2018-03-15 08:40",24.36
"2018-03-15 08:50",24.33
"2018-03-15 08:55",24.02
"2018-03-15 09:05",23.99
"2018-03-15 09:10",23.67
"2018-03-15 09:25",23.35
"2018-03-15 09:30",23.32
"2018-03-15 09:40",22.98
"2018-03-15 09:55",22.94
"2018-03-15 10:00",22.63
"2018-03-15 10:05",22.94
"2018-03-15 10:10",22.63
"2018-03-15 10:20",22.28
"2018-03-15 10:25",22.31
"2018-03-15 10:30",22.28
"2018-03-15 10:35",21.93
"2018-03-15 10:55",21.58
"2018-03-15 11:15",21.55
"2018-03-15 11:20",21.27
"2018-03-15 11:25",21.23
"2018-03-15 11:35",21.20
"2018-03-15 11:40",20.88
"2018-03-15 11:55",20.54
"2018-03-15 12:00",20.57
"2018-03-15 12:05",20.54
"2018-03-15 12:15",20.19
