"2017-05-09 11:10",3.47
"2017-05-09 11:15",5.77
"2017-05-09 11:20",4.11
"2017-05-09 11:25",4.17
"2017-05-09 11:30",4.34
"2017-05-09 11:40",4.93
"2017-05-09 11:45",3.92
"2017-05-09 11:50",5.52
"2017-05-09 11:55",5.23
"2017-05-09 12:00",6.26
"2017-05-09 12:05",4.30
"2017-05-09 12:10",4.95
"2017-05-09 12:15",4.18
"2017-05-09 12:20",4.80
"2017-05-09 12:25",5.01
"2017-05-09 12:30",3.99
"2017-05-09 12:35",4.15
"2017-05-09 12:40",3.94
"2017-05-09 12:45",3.69
"2017-05-09 12:50",3.74
"2017-05-09 12:55",3.64
"2017-05-09 13:00",3.93
"2017-05-09 13:05",3.53
"2017-05-09 13:10",4.71
"2017-05-09 13:15",4.97
"2017-05-09 13:20",3.65
"2017-05-09 13:25",3.97
"2017-05-09 13:30",3.42
"2017-05-09 13:35",3.61
"2017-05-09 13:40",5.16
"2017-05-09 13:45",9.73
"2017-05-09 13:50",5.08
"2017-05-09 13:55",4.43
"2017-05-09 14:00",4.18
"2017-05-09 14:05",5.61
"2017-05-09 14:10",4.17
"2017-05-09 14:15",4.01
"2017-05-09 14:20",3.69
"2017-05-09 14:25",3.65
"2017-05-09 14:30",4.53
"2017-05-09 14:35",4.01
"2017-05-09 14:40",3.70
"2017-05-09 14:45",3.55
"2017-05-09 14:50",3.84
"2017-05-09 14:55",3.49
"2017-05-09 15:00",3.61
"2017-05-09 15:05",3.79
"2017-05-09 15:10",5.47
"2017-05-09 15:15",3.88
"2017-05-09 15:20",5.04
"2017-05-09 15:25",4.14
"2017-05-09 15:30",6.10
"2017-05-09 15:35",7.74
"2017-05-09 15:40",3.98
"2017-05-09 15:45",4.01
"2017-05-09 15:50",5.68
"2017-05-09 15:55",4.03
"2017-05-09 16:00",3.69
"2017-05-09 16:05",3.43
"2017-05-09 16:10",3.73
"2017-05-09 16:15",3.67
"2017-05-09 16:20",4.02
"2017-05-09 16:25",3.79
"2017-05-09 16:30",4.58
"2017-05-09 16:35",4.03
"2017-05-09 16:40",4.80
"2017-05-09 16:45",4.94
"2017-05-09 16:50",3.78
"2017-05-09 16:55",3.85
"2017-05-09 17:00",4.00
"2017-05-09 17:05",3.88
"2017-05-09 17:10",3.70
"2017-05-09 17:15",3.84
"2017-05-09 17:20",3.91
"2017-05-09 17:25",3.75
"2017-05-09 17:30",3.91
"2017-05-09 17:35",3.84
"2017-05-09 17:40",3.71
"2017-05-09 17:45",5.33
"2017-05-09 17:50",3.81
"2017-05-09 17:55",3.95
"2017-05-09 18:00",3.90
"2017-05-09 18:05",4.57
"2017-05-09 18:10",4.10
"2017-05-09 18:15",3.99
"2017-05-09 18:20",3.84
"2017-05-09 18:25",4.03
"2017-05-09 18:30",3.91
"2017-05-09 18:35",4.35
"2017-05-09 18:40",3.95
"2017-05-09 18:45",5.54
"2017-05-09 18:50",4.96
"2017-05-09 18:55",3.80
"2017-05-09 19:00",5.63
"2017-05-09 19:05",4.63
"2017-05-09 19:10",3.93
"2017-05-09 19:15",5.20
"2017-05-09 19:20",6.96
"2017-05-09 19:25",5.59
"2017-05-09 19:30",3.66
"2017-05-09 19:35",3.29
"2017-05-09 19:40",4.54
"2017-05-09 19:45",3.73
"2017-05-09 19:50",4.83
"2017-05-09 19:55",5.49
"2017-05-09 20:00",4.48
"2017-05-09 20:05",3.74
"2017-05-09 20:10",3.69
"2017-05-09 20:15",3.61
"2017-05-09 20:20",5.85
"2017-05-09 20:25",6.28
"2017-05-09 20:30",4.06
"2017-05-09 20:35",6.53
"2017-05-09 20:40",4.17
"2017-05-09 20:45",4.90
"2017-05-09 20:50",3.94
"2017-05-09 20:55",5.49
"2017-05-09 21:00",4.53
"2017-05-09 21:05",6.70
"2017-05-09 21:10",17.71
"2017-05-09 21:15",14.44
"2017-05-09 21:20",8.43
"2017-05-09 21:25",6.65
"2017-05-09 21:30",16.34
"2017-05-09 21:35",4.07
"2017-05-09 21:40",10.09
"2017-05-09 21:45",5.85
"2017-05-09 21:50",5.45
"2017-05-09 21:55",3.98
"2017-05-09 22:00",3.54
"2017-05-09 22:05",5.85
"2017-05-09 22:10",4.87
"2017-05-09 22:15",5.06
"2017-05-09 22:20",4.87
"2017-05-09 22:25",4.33
"2017-05-09 22:30",17.13
"2017-05-09 22:35",19.88
"2017-05-09 22:40",16.05
"2017-05-09 22:45",5.29
"2017-05-09 22:50",7.67
"2017-05-09 22:55",13.29
"2017-05-09 23:00",5.62
"2017-05-09 23:05",3.72
"2017-05-09 23:10",7.37
"2017-05-09 23:15",8.16
"2017-05-09 23:20",7.01
"2017-05-09 23:25",6.20
"2017-05-09 23:30",12.34
"2017-05-09 23:35",17.31
"2017-05-09 23:40",8.90
"2017-05-09 23:45",10.67
"2017-05-09 23:50",8.12
"2017-05-09 23:55",3.70
"2017-05-10 00:00",3.54
"2017-05-10 00:05",3.62
"2017-05-10 00:10",8.71
"2017-05-10 00:15",4.32
"2017-05-10 00:20",3.46
"2017-05-10 00:30",3.57
"2017-05-10 00:35",3.52
"2017-05-10 00:40",9.07
"2017-05-10 00:45",6.30
"2017-05-10 00:50",5.05
"2017-05-10 00:55",4.42
"2017-05-10 01:00",9.51
"2017-05-10 01:05",6.03
"2017-05-10 01:10",10.01
"2017-05-10 01:15",10.69
"2017-05-10 01:20",5.86
"2017-05-10 01:25",8.73
"2017-05-10 01:30",7.25
"2017-05-10 01:35",11.29
"2017-05-10 01:40",10.15
"2017-05-10 01:45",13.98
"2017-05-10 01:50",3.97
"2017-05-10 01:55",3.47
"2017-05-10 02:00",3.44
"2017-05-10 02:05",4.17
"2017-05-10 02:10",3.68
"2017-05-10 02:20",3.43
"2017-05-10 02:25",5.06
"2017-05-10 02:30",7.05
"2017-05-10 02:35",4.47
"2017-05-10 02:40",3.66
"2017-05-10 02:45",10.05
"2017-05-10 02:50",6.32
"2017-05-10 02:55",3.68
"2017-05-10 03:00",3.52
"2017-05-10 03:05",3.50
"2017-05-10 03:10",10.18
"2017-05-10 03:15",3.68
"2017-05-10 03:20",4.20
"2017-05-10 03:25",3.61
"2017-05-10 03:30",3.49
"2017-05-10 03:35",3.71
"2017-05-10 03:40",3.46
"2017-05-10 03:45",4.30
"2017-05-10 03:50",3.51
"2017-05-10 03:55",3.53
"2017-05-10 04:05",3.45
"2017-05-10 04:10",3.82
"2017-05-10 04:15",4.14
"2017-05-10 04:20",4.71
"2017-05-10 04:25",5.12
"2017-05-10 04:30",4.21
"2017-05-10 04:35",5.84
"2017-05-10 04:40",3.64
"2017-05-10 04:45",5.44
"2017-05-10 04:50",5.41
"2017-05-10 04:55",8.53
"2017-05-10 05:00",26.22
"2017-05-10 05:05",17.92
"2017-05-10 05:10",15.93
"2017-05-10 05:15",18.84
"2017-05-10 05:20",9.98
"2017-05-10 05:25",12.48
"2017-05-10 05:30",10.60
"2017-05-10 05:35",11.67
"2017-05-10 05:40",12.21
"2017-05-10 05:45",9.87
"2017-05-10 05:50",11.06
"2017-05-10 05:55",5.67
"2017-05-10 06:00",5.48
"2017-05-10 06:05",6.64
"2017-05-10 06:10",5.92
"2017-05-10 06:15",5.44
"2017-05-10 06:20",4.29
"2017-05-10 06:25",3.62
"2017-05-10 06:30",10.20
"2017-05-10 06:35",5.47
"2017-05-10 06:40",10.71
"2017-05-10 06:45",7.62
"2017-05-10 06:50",5.00
"2017-05-10 06:55",4.28
"2017-05-10 07:00",4.42
"2017-05-10 07:10",4.84
"2017-05-10 07:15",6.63
"2017-05-10 07:20",6.48
"2017-05-10 07:25",5.31
"2017-05-10 07:30",5.22
"2017-05-10 07:35",5.05
"2017-05-10 07:40",4.02
"2017-05-10 07:45",4.74
"2017-05-10 07:50",4.99
"2017-05-10 07:55",4.30
"2017-05-10 08:00",5.84
"2017-05-10 08:05",16.54
"2017-05-10 08:10",4.36
"2017-05-10 08:15",5.00
"2017-05-10 08:20",3.57
"2017-05-10 08:25",4.13
"2017-05-10 08:30",7.65
"2017-05-10 08:35",5.70
"2017-05-10 08:40",4.30
"2017-05-10 08:45",3.76
"2017-05-10 08:50",4.76
"2017-05-10 08:55",4.64
"2017-05-10 09:00",3.97
"2017-05-10 09:05",6.51
"2017-05-10 09:10",5.06
"2017-05-10 09:15",5.35
"2017-05-10 09:20",5.50
"2017-05-10 09:25",5.11
"2017-05-10 09:30",6.83
"2017-05-10 09:35",10.60
"2017-05-10 09:40",3.99
"2017-05-10 09:45",4.17
"2017-05-10 09:50",7.71
"2017-05-10 09:55",6.78
"2017-05-10 10:00",4.59
"2017-05-10 10:05",4.22
"2017-05-10 10:10",3.63
"2017-05-10 10:15",3.52
"2017-05-10 10:20",7.45
"2017-05-10 10:25",3.58
"2017-05-10 10:30",5.85
"2017-05-10 10:35",3.59
"2017-05-10 10:40",3.22
"2017-05-10 10:45",3.41
"2017-05-10 10:50",6.18
"2017-05-10 10:55",3.56
"2017-05-10 11:00",3.98
"2017-05-10 11:05",4.22
"2017-05-10 11:10",4.90
"2017-05-10 11:15",5.43
"2017-05-10 11:20",3.61
"2017-05-10 11:25",4.50
"2017-05-10 11:30",4.68
"2017-05-10 11:35",4.00
"2017-05-10 11:40",4.32
"2017-05-10 11:45",3.35
"2017-05-10 11:50",3.58
"2017-05-10 11:55",3.49
"2017-05-10 12:00",3.67
"2017-05-10 12:05",4.08
"2017-05-10 12:10",3.84
"2017-05-10 12:15",3.61
"2017-05-10 12:20",4.82
"2017-05-10 12:25",3.76
"2017-05-10 12:30",16.53
"2017-05-10 12:35",4.92
"2017-05-10 12:40",5.30
"2017-05-10 12:45",4.54
"2017-05-10 12:50",8.39
"2017-05-10 12:55",3.60
"2017-05-10 13:00",4.39
"2017-05-10 13:05",3.55
"2017-05-10 13:10",3.48
"2017-05-10 13:15",3.51
"2017-05-10 13:20",3.49
"2017-05-10 13:25",3.43
"2017-05-10 13:30",3.88
"2017-05-10 13:35",3.53
"2017-05-10 13:40",3.87
"2017-05-10 13:45",4.41
"2017-05-10 13:50",3.96
"2017-05-10 13:55",5.25
"2017-05-10 14:00",4.28
"2017-05-10 14:05",3.53
"2017-05-10 14:10",3.43
"2017-05-10 14:15",3.41
"2017-05-10 14:20",3.84
"2017-05-10 14:25",3.47
"2017-05-10 14:30",3.67
"2017-05-10 14:35",5.26
"2017-05-10 14:45",4.29
"2017-05-10 14:50",3.77
"2017-05-10 14:55",3.32
"2017-05-10 15:00",16.75
"2017-05-10 15:05",6.83
"2017-05-10 15:10",5.57
"2017-05-10 15:15",6.44
"2017-05-10 15:20",42.59
"2017-05-10 15:25",12.12
"2017-05-10 15:30",4.31
"2017-05-10 15:35",6.71
"2017-05-10 15:40",10.44
"2017-05-10 15:45",31.36
"2017-05-10 15:50",19.73
"2017-05-10 15:55",5.53
"2017-05-10 16:00",11.14
"2017-05-10 16:05",32.74
"2017-05-10 16:10",9.52
"2017-05-10 16:15",12.11
"2017-05-10 16:20",5.21
"2017-05-10 16:25",5.78
"2017-05-10 16:30",4.95
"2017-05-10 16:35",5.21
"2017-05-10 16:40",3.93
"2017-05-10 16:45",13.12
"2017-05-10 16:50",11.31
"2017-05-10 16:55",4.26
"2017-05-10 17:00",4.19
"2017-05-10 17:05",3.98
"2017-05-10 17:10",8.09
"2017-05-10 17:15",8.63
"2017-05-10 17:20",27.29
"2017-05-10 17:25",20.38
"2017-05-10 17:30",23.71
"2017-05-10 17:35",40.14
"2017-05-10 17:40",41.15
"2017-05-10 17:45",81.76
"2017-05-10 17:50",80.79
"2017-05-10 17:55",32.45
"2017-05-10 18:00",32.48
"2017-05-10 18:05",51.45
"2017-05-10 18:10",57.39
"2017-05-10 18:15",43.20
"2017-05-10 18:20",91.99
"2017-05-10 18:25",115.36
"2017-05-10 18:30",85.42
"2017-05-10 18:35",69.43
"2017-05-10 18:40",99.11
"2017-05-10 18:45",98.17
"2017-05-10 18:50",52.88
"2017-05-10 18:55",24.82
"2017-05-10 19:00",30.09
"2017-05-10 19:05",14.65
"2017-05-10 19:10",23.10
"2017-05-10 19:15",12.72
"2017-05-10 19:20",25.96
"2017-05-10 19:25",70.90
"2017-05-10 19:30",120.21
"2017-05-10 19:35",132.12
"2017-05-10 19:40",138.07
"2017-05-10 19:45",138.29
"2017-05-10 19:50",136.93
"2017-05-10 19:55",137.72
"2017-05-10 20:00",137.14
"2017-05-10 20:05",136.95
"2017-05-10 20:10",131.59
"2017-05-10 20:15",137.65
"2017-05-10 20:20",133.69
"2017-05-10 20:25",128.32
"2017-05-10 20:30",123.68
"2017-05-10 20:35",89.29
"2017-05-10 20:40",43.73
"2017-05-10 20:45",20.51
"2017-05-10 20:50",9.38
"2017-05-10 20:55",8.15
"2017-05-10 21:00",5.61
"2017-05-10 21:05",6.17
"2017-05-10 21:10",26.94
"2017-05-10 21:15",34.97
"2017-05-10 21:20",54.60
"2017-05-10 21:25",91.15
"2017-05-10 21:30",96.56
"2017-05-10 21:35",118.30
"2017-05-10 21:40",103.27
"2017-05-10 21:45",84.76
"2017-05-10 21:50",54.57
"2017-05-10 21:55",15.70
"2017-05-10 22:00",12.78
"2017-05-10 22:05",7.79
"2017-05-10 22:10",8.43
"2017-05-10 22:15",10.21
"2017-05-10 22:20",10.62
"2017-05-10 22:25",5.82
"2017-05-10 22:30",11.32
"2017-05-10 22:35",6.53
"2017-05-10 22:40",10.15
"2017-05-10 22:45",19.96
"2017-05-10 22:50",32.75
"2017-05-10 22:55",49.59
"2017-05-10 23:00",75.00
"2017-05-10 23:05",83.28
"2017-05-10 23:10",20.83
"2017-05-10 23:15",9.83
"2017-05-10 23:20",6.38
"2017-05-10 23:25",17.90
"2017-05-10 23:30",5.71
"2017-05-10 23:35",4.98
"2017-05-10 23:40",5.00
"2017-05-10 23:45",5.57
"2017-05-10 23:50",4.70
"2017-05-10 23:55",9.12
"2017-05-11 00:00",11.16
"2017-05-11 00:05",10.85
"2017-05-11 00:10",17.40
"2017-05-11 00:15",16.80
"2017-05-11 00:20",26.00
"2017-05-11 00:25",51.51
"2017-05-11 00:30",36.32
"2017-05-11 00:35",51.00
"2017-05-11 00:40",43.54
"2017-05-11 00:45",61.28
"2017-05-11 00:50",59.80
"2017-05-11 00:55",42.47
"2017-05-11 01:00",27.67
"2017-05-11 01:05",15.23
"2017-05-11 01:10",10.18
"2017-05-11 01:15",33.49
"2017-05-11 01:20",71.41
"2017-05-11 01:25",52.75
"2017-05-11 01:30",68.52
"2017-05-11 01:35",57.98
"2017-05-11 01:40",97.06
"2017-05-11 01:45",93.64
"2017-05-11 01:50",62.95
"2017-05-11 01:55",45.02
"2017-05-11 02:00",12.14
"2017-05-11 02:05",16.47
"2017-05-11 02:10",29.06
"2017-05-11 02:15",41.71
"2017-05-11 02:20",29.26
"2017-05-11 02:30",21.63
"2017-05-11 02:35",11.85
"2017-05-11 02:40",12.16
"2017-05-11 02:45",9.55
"2017-05-11 02:50",6.80
"2017-05-11 02:55",7.39
"2017-05-11 03:00",8.23
"2017-05-11 03:05",5.23
"2017-05-11 03:10",7.49
"2017-05-11 03:15",7.53
"2017-05-11 03:20",5.21
"2017-05-11 03:25",5.12
"2017-05-11 03:30",6.07
"2017-05-11 03:35",5.15
"2017-05-11 03:40",8.20
"2017-05-11 03:45",6.17
"2017-05-11 03:50",7.12
"2017-05-11 03:55",5.95
"2017-05-11 04:00",5.47
"2017-05-11 04:05",14.07
"2017-05-11 04:10",6.96
"2017-05-11 04:15",5.13
"2017-05-11 04:20",5.38
"2017-05-11 04:25",7.47
"2017-05-11 04:30",8.00
"2017-05-11 04:35",5.61
"2017-05-11 04:40",4.93
"2017-05-11 04:45",5.08
"2017-05-11 04:55",7.02
"2017-05-11 05:00",5.06
"2017-05-11 05:05",4.71
"2017-05-11 05:10",6.06
"2017-05-11 05:15",4.99
"2017-05-11 05:20",5.94
"2017-05-11 05:25",20.98
"2017-05-11 05:30",21.80
"2017-05-11 05:35",19.84
"2017-05-11 05:40",12.39
"2017-05-11 05:45",23.11
"2017-05-11 05:50",32.76
"2017-05-11 05:55",55.83
"2017-05-11 06:00",98.96
"2017-05-11 06:05",76.61
"2017-05-11 06:10",54.67
"2017-05-11 06:15",23.42
"2017-05-11 06:20",22.16
"2017-05-11 06:25",12.31
"2017-05-11 06:30",10.84
"2017-05-11 06:35",6.92
"2017-05-11 06:40",13.06
"2017-05-11 06:45",13.69
"2017-05-11 06:50",14.97
"2017-05-11 06:55",13.66
"2017-05-11 07:00",27.28
"2017-05-11 07:05",35.46
"2017-05-11 07:10",34.65
"2017-05-11 07:15",17.82
"2017-05-11 07:20",10.36
"2017-05-11 07:25",10.43
"2017-05-11 07:30",8.32
"2017-05-11 07:35",12.33
"2017-05-11 07:40",7.26
"2017-05-11 07:45",6.67
"2017-05-11 07:50",5.92
"2017-05-11 07:55",11.83
"2017-05-11 08:00",8.01
"2017-05-11 08:05",6.16
"2017-05-11 08:10",6.42
"2017-05-11 08:15",8.75
"2017-05-11 08:20",7.06
"2017-05-11 08:25",7.91
"2017-05-11 08:30",8.09
"2017-05-11 08:35",8.16
"2017-05-11 08:40",6.45
"2017-05-11 08:45",4.89
"2017-05-11 08:50",6.95
"2017-05-11 08:55",6.39
"2017-05-11 09:00",16.31
"2017-05-11 09:05",10.72
"2017-05-11 09:10",7.67
"2017-05-11 09:15",6.90
"2017-05-11 09:20",5.98
"2017-05-11 09:25",5.66
"2017-05-11 09:30",5.86
"2017-05-11 09:35",5.00
"2017-05-11 09:40",8.85
"2017-05-11 09:45",6.86
"2017-05-11 09:50",13.91
"2017-05-11 09:55",15.49
"2017-05-11 10:00",14.62
"2017-05-11 10:05",8.22
"2017-05-11 10:10",5.41
"2017-05-11 10:15",5.29
"2017-05-11 10:20",5.16
"2017-05-11 10:25",7.25
"2017-05-11 10:30",10.82
"2017-05-11 10:35",10.24
"2017-05-11 10:40",8.16
"2017-05-11 10:45",6.16
"2017-05-11 10:50",8.72
"2017-05-11 10:55",12.14
"2017-05-11 11:00",10.58
"2017-05-11 11:05",7.07
"2017-05-11 11:10",3.21
"2017-05-11 11:15",5.47
"2017-05-11 11:20",18.53
"2017-05-11 11:25",21.37
"2017-05-11 11:30",30.02
"2017-05-11 11:35",88.67
"2017-05-11 11:40",47.76
"2017-05-11 11:45",71.68
"2017-05-11 11:50",98.63
"2017-05-11 11:55",94.06
"2017-05-11 12:00",108.94
"2017-05-11 12:05",63.23
"2017-05-11 12:10",91.43
"2017-05-11 12:15",105.52
"2017-05-11 12:20",38.47
"2017-05-11 12:25",8.73
"2017-05-11 12:30",11.81
"2017-05-11 12:35",13.43
"2017-05-11 12:40",50.46
"2017-05-11 12:45",82.17
"2017-05-11 12:50",26.68
"2017-05-11 12:55",32.56
"2017-05-11 13:00",54.29
"2017-05-11 13:05",80.13
"2017-05-11 13:10",80.97
"2017-05-11 13:15",34.49
"2017-05-11 13:20",12.43
"2017-05-11 13:25",5.95
"2017-05-11 13:30",5.82
"2017-05-11 13:35",8.15
"2017-05-11 13:40",3.45
"2017-05-11 13:45",3.61
"2017-05-11 13:50",5.45
"2017-05-11 13:55",9.33
"2017-05-11 14:00",57.62
"2017-05-11 14:05",76.24
"2017-05-11 14:10",46.92
"2017-05-11 14:15",37.88
"2017-05-11 14:20",21.99
"2017-05-11 14:25",32.67
"2017-05-11 14:30",43.68
"2017-05-11 14:35",11.40
"2017-05-11 14:40",7.64
"2017-05-11 14:45",6.56
"2017-05-11 14:50",5.70
"2017-05-11 14:55",5.26
"2017-05-11 15:00",5.41
"2017-05-11 15:05",5.13
"2017-05-11 15:10",5.00
"2017-05-11 15:15",5.40
"2017-05-11 15:20",5.20
"2017-05-11 15:30",5.32
"2017-05-11 15:35",5.27
"2017-05-11 15:40",5.40
"2017-05-11 15:45",5.34
"2017-05-11 15:50",5.40
"2017-05-11 15:55",5.64
"2017-05-11 16:00",5.51
"2017-05-11 16:05",5.52
"2017-05-11 16:10",5.45
"2017-05-11 16:15",5.58
"2017-05-11 16:20",5.55
"2017-05-11 16:25",6.00
"2017-05-11 16:30",6.18
"2017-05-11 16:35",5.99
"2017-05-11 16:40",6.18
"2017-05-11 16:45",6.34
"2017-05-11 16:50",6.38
"2017-05-11 16:55",5.87
"2017-05-11 17:00",6.14
"2017-05-11 17:05",6.44
"2017-05-11 17:10",6.62
"2017-05-11 17:15",6.68
"2017-05-11 17:20",6.82
"2017-05-11 17:25",7.56
"2017-05-11 17:30",9.65
"2017-05-11 17:35",8.31
"2017-05-11 17:40",7.45
"2017-05-11 17:45",6.74
"2017-05-11 17:50",9.38
"2017-05-11 17:55",7.79
"2017-05-11 18:00",7.60
"2017-05-11 18:05",6.79
"2017-05-11 18:10",6.99
"2017-05-11 18:15",7.11
"2017-05-11 18:20",7.49
"2017-05-11 18:25",7.64
"2017-05-11 18:30",6.94
"2017-05-11 18:35",8.66
"2017-05-11 18:40",7.26
"2017-05-11 18:45",7.06
"2017-05-11 18:50",6.79
"2017-05-11 18:55",7.12
"2017-05-11 19:00",6.91
"2017-05-11 19:05",7.68
"2017-05-11 19:10",9.71
"2017-05-11 19:15",7.23
"2017-05-11 19:20",6.58
"2017-05-11 19:25",6.60
"2017-05-11 19:30",7.15
"2017-05-11 19:35",9.66
"2017-05-11 19:40",8.62
"2017-05-11 19:45",8.35
"2017-05-11 19:50",6.91
"2017-05-11 19:55",6.33
"2017-05-11 20:00",6.08
"2017-05-11 20:05",6.22
"2017-05-11 20:10",6.30
"2017-05-11 20:15",6.20
"2017-05-11 20:20",6.30
"2017-05-11 20:25",6.35
"2017-05-11 20:35",6.35
"2017-05-11 20:40",6.20
"2017-05-11 20:45",6.68
"2017-05-11 20:50",6.95
"2017-05-11 20:55",14.55
"2017-05-11 21:00",11.35
"2017-05-11 21:05",12.75
"2017-05-11 21:10",20.02
"2017-05-11 21:15",26.64
"2017-05-11 21:20",30.64
"2017-05-11 21:25",36.19
"2017-05-11 21:30",31.53
"2017-05-11 21:35",23.97
"2017-05-11 21:40",44.96
"2017-05-11 21:45",65.41
"2017-05-11 21:50",54.07
"2017-05-11 21:55",37.55
"2017-05-11 22:00",32.82
"2017-05-11 22:05",33.90
"2017-05-11 22:10",29.21
"2017-05-11 22:15",24.63
"2017-05-11 22:20",26.78
"2017-05-11 22:25",21.57
"2017-05-11 22:30",20.07
"2017-05-11 22:35",21.00
"2017-05-11 22:40",27.94
"2017-05-11 22:45",18.64
"2017-05-11 22:50",11.67
"2017-05-11 22:55",8.82
"2017-05-11 23:00",16.70
"2017-05-11 23:05",14.37
"2017-05-11 23:10",9.86
"2017-05-11 23:15",6.63
"2017-05-11 23:20",8.28
"2017-05-11 23:25",13.26
"2017-05-11 23:30",6.51
"2017-05-11 23:35",11.33
"2017-05-11 23:40",8.47
"2017-05-11 23:45",5.79
"2017-05-11 23:50",6.24
"2017-05-11 23:55",5.88
"2017-05-12 00:00",5.09
"2017-05-12 00:05",10.75
"2017-05-12 00:10",9.91
"2017-05-12 00:15",9.53
"2017-05-12 00:20",5.41
"2017-05-12 00:25",7.58
"2017-05-12 00:30",10.17
"2017-05-12 00:35",9.49
"2017-05-12 00:40",5.91
"2017-05-12 00:45",7.38
"2017-05-12 00:50",5.02
"2017-05-12 00:55",7.38
"2017-05-12 01:00",11.90
"2017-05-12 01:05",16.88
"2017-05-12 01:10",10.58
"2017-05-12 01:15",20.94
"2017-05-12 01:20",10.01
"2017-05-12 01:25",6.07
"2017-05-12 01:30",5.35
"2017-05-12 01:35",4.83
"2017-05-12 01:40",5.69
"2017-05-12 01:45",5.16
"2017-05-12 01:50",5.23
"2017-05-12 01:55",5.45
"2017-05-12 02:00",4.68
"2017-05-12 02:05",4.49
"2017-05-12 02:10",5.68
"2017-05-12 02:15",5.25
"2017-05-12 02:20",6.91
"2017-05-12 02:25",6.29
"2017-05-12 02:30",6.87
"2017-05-12 02:35",5.16
"2017-05-12 02:40",4.64
"2017-05-12 02:45",4.74
"2017-05-12 02:50",4.88
"2017-05-12 02:55",5.66
"2017-05-12 03:00",8.70
"2017-05-12 03:05",15.19
"2017-05-12 03:10",13.84
"2017-05-12 03:15",11.61
"2017-05-12 03:20",9.86
"2017-05-12 03:25",13.95
"2017-05-12 03:30",25.17
"2017-05-12 03:35",41.15
"2017-05-12 03:40",58.15
"2017-05-12 03:45",27.13
"2017-05-12 03:50",46.22
"2017-05-12 03:55",45.63
"2017-05-12 04:00",42.75
"2017-05-12 04:05",37.37
"2017-05-12 04:10",46.82
"2017-05-12 04:15",33.70
"2017-05-12 04:20",34.03
"2017-05-12 04:25",31.90
"2017-05-12 04:30",49.21
"2017-05-12 04:35",56.36
"2017-05-12 04:40",66.64
"2017-05-12 04:45",71.97
"2017-05-12 04:50",95.25
"2017-05-12 04:55",89.16
"2017-05-12 05:00",88.16
"2017-05-12 05:05",117.21
"2017-05-12 05:10",128.96
"2017-05-12 05:15",98.94
"2017-05-12 05:20",98.90
"2017-05-12 05:25",91.17
"2017-05-12 05:30",98.28
"2017-05-12 05:35",66.31
"2017-05-12 05:40",81.06
"2017-05-12 05:45",74.56
"2017-05-12 05:50",77.12
"2017-05-12 05:55",81.58
"2017-05-12 06:00",61.77
"2017-05-12 06:05",26.60
"2017-05-12 06:10",30.93
"2017-05-12 06:15",21.49
"2017-05-12 06:20",10.46
"2017-05-12 06:25",15.58
"2017-05-12 06:30",17.11
"2017-05-12 06:35",14.87
"2017-05-12 06:40",11.65
"2017-05-12 06:45",5.15
"2017-05-12 06:50",10.83
"2017-05-12 06:55",4.70
"2017-05-12 07:00",15.41
"2017-05-12 07:05",28.58
"2017-05-12 07:10",15.31
"2017-05-12 07:15",14.60
"2017-05-12 07:20",18.86
"2017-05-12 07:25",20.73
"2017-05-12 07:30",16.03
"2017-05-12 07:35",8.90
"2017-05-12 07:40",6.84
"2017-05-12 07:45",15.85
"2017-05-12 07:50",16.51
"2017-05-12 07:55",17.38
"2017-05-12 08:00",6.49
"2017-05-12 08:05",9.54
"2017-05-12 08:10",16.36
"2017-05-12 08:15",26.46
"2017-05-12 08:20",14.29
"2017-05-12 08:25",29.86
"2017-05-12 08:30",19.39
"2017-05-12 08:35",6.51
"2017-05-12 08:40",5.14
"2017-05-12 08:45",6.78
"2017-05-12 08:50",10.24
"2017-05-12 08:55",6.33
"2017-05-12 09:00",8.99
"2017-05-12 09:05",5.09
"2017-05-12 09:10",4.44
"2017-05-12 09:15",5.85
"2017-05-12 09:20",5.43
"2017-05-12 09:25",4.82
"2017-05-12 09:30",5.10
"2017-05-12 09:35",4.92
"2017-05-12 09:40",4.46
"2017-05-12 09:45",4.47
"2017-05-12 09:50",4.62
"2017-05-12 09:55",4.81
"2017-05-12 10:00",4.71
"2017-05-12 10:05",4.63
"2017-05-12 10:10",4.80
"2017-05-12 10:15",4.71
"2017-05-12 10:20",18.67
"2017-05-12 10:25",61.67
"2017-05-12 10:30",75.53
"2017-05-12 10:35",42.56
"2017-05-12 10:40",30.96
"2017-05-12 10:45",46.39
"2017-05-12 10:50",25.39
"2017-05-12 10:55",16.88
"2017-05-12 11:00",49.53
"2017-05-12 11:05",104.29
"2017-05-12 11:10",92.97
"2017-05-12 11:15",84.18
"2017-05-12 11:20",75.03
"2017-05-12 11:25",77.98
"2017-05-12 11:30",69.90
"2017-05-12 11:35",82.71
"2017-05-12 11:40",98.73
"2017-05-12 11:45",108.51
"2017-05-12 11:50",127.14
"2017-05-12 11:55",132.09
"2017-05-12 12:00",120.86
"2017-05-12 12:05",101.88
"2017-05-12 12:10",93.46
"2017-05-12 12:15",100.81
"2017-05-12 12:20",70.77
"2017-05-12 12:25",80.72
"2017-05-12 12:30",92.95
"2017-05-12 12:35",103.87
"2017-05-12 12:40",102.64
"2017-05-12 12:45",115.19
"2017-05-12 12:50",114.18
"2017-05-12 12:55",129.26
"2017-05-12 13:00",114.03
"2017-05-12 13:05",81.83
"2017-05-12 13:10",89.01
"2017-05-12 13:15",126.80
"2017-05-12 13:20",124.11
"2017-05-12 13:25",102.23
"2017-05-12 13:30",60.42
"2017-05-12 13:35",36.44
"2017-05-12 13:40",51.44
"2017-05-12 13:45",52.13
"2017-05-12 13:50",58.05
"2017-05-12 13:55",40.63
"2017-05-12 14:00",35.56
"2017-05-12 14:05",29.45
"2017-05-12 14:10",33.19
"2017-05-12 14:15",56.08
"2017-05-12 14:20",79.30
"2017-05-12 14:25",66.79
"2017-05-12 14:30",52.61
"2017-05-12 14:35",23.04
"2017-05-12 14:40",11.00
"2017-05-12 14:45",20.37
"2017-05-12 14:50",38.14
"2017-05-12 14:55",45.71
"2017-05-12 15:00",20.47
"2017-05-12 15:05",16.60
"2017-05-12 15:10",12.28
"2017-05-12 15:15",9.64
"2017-05-12 15:20",7.25
"2017-05-12 15:25",8.15
"2017-05-12 15:30",9.73
"2017-05-12 15:35",12.78
"2017-05-12 15:40",14.69
"2017-05-12 15:45",36.16
"2017-05-12 15:50",23.23
"2017-05-12 15:55",13.55
"2017-05-12 16:00",12.11
"2017-05-12 16:05",13.76
"2017-05-12 16:10",15.56
"2017-05-12 16:15",13.86
"2017-05-12 16:20",20.56
"2017-05-12 16:25",24.81
"2017-05-12 16:30",17.64
"2017-05-12 16:35",16.23
"2017-05-12 16:40",13.85
"2017-05-12 16:45",10.29
"2017-05-12 16:50",6.76
"2017-05-12 16:55",16.52
"2017-05-12 17:00",14.27
"2017-05-12 17:05",16.36
"2017-05-12 17:10",23.76
"2017-05-12 17:15",33.10
"2017-05-12 17:20",12.35
"2017-05-12 17:25",22.13
"2017-05-12 17:30",18.71
"2017-05-12 17:35",26.54
"2017-05-12 17:40",20.71
"2017-05-12 17:45",39.33
"2017-05-12 17:50",45.80
"2017-05-12 17:55",43.16
"2017-05-12 18:00",34.52
"2017-05-12 18:05",57.00
"2017-05-12 18:10",92.11
"2017-05-12 18:15",57.77
"2017-05-12 18:20",45.80
"2017-05-12 18:25",73.66
"2017-05-12 18:30",93.07
"2017-05-12 18:35",101.50
"2017-05-12 18:40",115.60
"2017-05-12 18:45",116.55
"2017-05-12 18:50",97.85
"2017-05-12 18:55",88.84
"2017-05-12 19:00",111.11
"2017-05-12 19:05",115.58
"2017-05-12 19:10",85.28
"2017-05-12 19:15",98.30
"2017-05-12 19:20",69.71
"2017-05-12 19:25",57.88
"2017-05-12 19:30",74.77
"2017-05-12 19:35",109.91
"2017-05-12 19:40",116.21
"2017-05-12 19:45",118.84
"2017-05-12 19:50",118.71
"2017-05-12 19:55",102.22
"2017-05-12 20:00",110.32
"2017-05-12 20:05",114.13
"2017-05-12 20:10",123.79
"2017-05-12 20:15",113.68
"2017-05-12 20:20",99.99
"2017-05-12 20:25",119.06
"2017-05-12 20:30",122.35
"2017-05-12 20:35",136.12
"2017-05-12 20:40",115.96
"2017-05-12 20:45",116.41
"2017-05-12 20:50",100.94
"2017-05-12 20:55",108.61
"2017-05-12 21:00",121.60
"2017-05-12 21:05",97.04
"2017-05-12 21:10",103.00
"2017-05-12 21:15",126.67
"2017-05-12 21:20",112.03
"2017-05-12 21:25",90.28
"2017-05-12 21:30",128.24
"2017-05-12 21:35",117.54
"2017-05-12 21:40",132.65
"2017-05-12 21:45",131.51
"2017-05-12 21:50",117.86
"2017-05-12 21:55",122.93
"2017-05-12 22:00",124.10
"2017-05-12 22:05",132.33
"2017-05-12 22:10",141.46
"2017-05-12 22:15",137.75
"2017-05-12 22:20",136.23
"2017-05-12 22:25",124.98
"2017-05-12 22:30",133.19
"2017-05-12 22:35",139.35
"2017-05-12 22:40",140.74
"2017-05-12 22:45",138.68
"2017-05-12 22:50",143.19
"2017-05-12 22:55",142.91
"2017-05-12 23:00",141.69
"2017-05-12 23:05",142.53
"2017-05-12 23:10",136.02
"2017-05-12 23:15",140.47
"2017-05-12 23:20",137.20
"2017-05-12 23:25",145.62
"2017-05-12 23:30",137.69
"2017-05-12 23:35",132.98
"2017-05-12 23:40",128.49
"2017-05-12 23:45",99.17
"2017-05-12 23:50",96.07
"2017-05-12 23:55",108.37
"2017-05-13 00:00",92.99
"2017-05-13 00:05",105.60
"2017-05-13 00:10",109.57
"2017-05-13 00:15",93.97
"2017-05-13 00:20",95.23
"2017-05-13 00:25",77.36
"2017-05-13 00:30",81.67
"2017-05-13 00:35",96.39
"2017-05-13 00:40",75.92
"2017-05-13 00:45",91.25
"2017-05-13 00:50",107.18
"2017-05-13 00:55",106.21
"2017-05-13 01:00",115.22
"2017-05-13 01:05",73.18
"2017-05-13 01:10",115.93
"2017-05-13 01:15",137.90
"2017-05-13 01:20",121.46
"2017-05-13 01:25",126.80
"2017-05-13 01:30",136.34
"2017-05-13 01:35",107.84
"2017-05-13 01:40",103.03
"2017-05-13 01:45",94.19
"2017-05-13 01:50",97.11
"2017-05-13 01:55",98.21
"2017-05-13 02:00",101.41
"2017-05-13 02:05",115.17
"2017-05-13 02:10",94.52
"2017-05-13 02:15",108.89
"2017-05-13 02:20",97.51
"2017-05-13 02:25",92.00
"2017-05-13 02:30",110.26
"2017-05-13 02:35",101.10
"2017-05-13 02:40",100.22
"2017-05-13 02:45",109.55
"2017-05-13 02:50",127.66
"2017-05-13 02:55",123.00
"2017-05-13 03:00",127.85
"2017-05-13 03:05",131.28
"2017-05-13 03:10",132.54
"2017-05-13 03:15",119.95
"2017-05-13 03:20",130.19
"2017-05-13 03:25",120.37
"2017-05-13 03:30",129.56
"2017-05-13 03:35",128.00
"2017-05-13 03:40",129.78
"2017-05-13 03:45",136.12
"2017-05-13 03:55",136.80
"2017-05-13 04:00",135.30
"2017-05-13 04:05",129.74
"2017-05-13 04:10",122.20
"2017-05-13 04:15",109.23
"2017-05-13 04:20",106.70
"2017-05-13 04:25",103.13
"2017-05-13 04:30",98.50
"2017-05-13 04:35",86.40
"2017-05-13 04:40",76.05
"2017-05-13 04:45",78.71
"2017-05-13 04:50",63.92
"2017-05-13 04:55",67.08
"2017-05-13 05:00",45.31
"2017-05-13 05:05",47.94
"2017-05-13 05:10",57.05
"2017-05-13 05:15",56.09
"2017-05-13 05:20",48.78
"2017-05-13 05:25",61.83
"2017-05-13 05:30",51.35
"2017-05-13 05:35",61.94
"2017-05-13 05:40",74.61
"2017-05-13 05:45",64.37
"2017-05-13 05:50",57.23
"2017-05-13 05:55",45.67
"2017-05-13 06:00",41.20
"2017-05-13 06:05",44.45
"2017-05-13 06:10",28.25
"2017-05-13 06:15",37.35
"2017-05-13 06:20",30.78
"2017-05-13 06:25",19.42
"2017-05-13 06:30",16.90
"2017-05-13 06:35",22.19
"2017-05-13 06:40",38.14
"2017-05-13 06:45",37.27
"2017-05-13 06:50",41.25
"2017-05-13 06:55",29.67
"2017-05-13 07:00",45.43
"2017-05-13 07:05",29.12
"2017-05-13 07:10",30.58
"2017-05-13 07:15",41.97
"2017-05-13 07:20",53.65
"2017-05-13 07:25",55.82
"2017-05-13 07:30",72.12
"2017-05-13 07:35",91.62
"2017-05-13 07:40",87.19
"2017-05-13 07:45",66.97
"2017-05-13 07:50",61.84
"2017-05-13 07:55",112.80
"2017-05-13 08:00",68.88
"2017-05-13 08:05",38.94
"2017-05-13 08:10",58.62
"2017-05-13 08:15",30.13
"2017-05-13 08:20",29.88
"2017-05-13 08:25",54.16
"2017-05-13 08:30",22.27
"2017-05-13 08:35",41.61
"2017-05-13 08:40",33.43
"2017-05-13 08:45",31.95
"2017-05-13 08:50",15.73
"2017-05-13 08:55",26.34
"2017-05-13 09:00",34.54
"2017-05-13 09:05",37.72
"2017-05-13 09:10",36.98
"2017-05-13 09:15",67.01
"2017-05-13 09:20",53.14
"2017-05-13 09:25",47.08
"2017-05-13 09:30",41.74
"2017-05-13 09:35",51.69
"2017-05-13 09:40",63.24
"2017-05-13 09:45",61.03
"2017-05-13 09:50",74.85
"2017-05-13 09:55",70.20
"2017-05-13 10:00",53.86
"2017-05-13 10:05",89.24
"2017-05-13 10:10",99.36
"2017-05-13 10:15",86.41
"2017-05-13 10:20",65.55
"2017-05-13 10:25",75.10
"2017-05-13 10:30",69.32
"2017-05-13 10:35",60.49
"2017-05-13 10:40",43.53
"2017-05-13 10:45",50.27
"2017-05-13 10:50",62.83
"2017-05-13 10:55",62.50
"2017-05-13 11:00",78.07
"2017-05-13 11:05",78.58
"2017-05-13 11:10",96.48
"2017-05-13 11:15",115.18
"2017-05-13 11:20",91.79
"2017-05-13 11:25",80.49
"2017-05-13 11:30",112.94
"2017-05-13 11:35",107.26
"2017-05-13 11:40",75.57
"2017-05-13 11:45",95.12
"2017-05-13 11:50",103.13
"2017-05-13 11:55",90.89
"2017-05-13 12:00",87.56
"2017-05-13 12:05",91.37
"2017-05-13 12:10",103.60
"2017-05-13 12:15",86.04
"2017-05-13 12:20",98.05
"2017-05-13 12:25",104.69
"2017-05-13 12:30",132.42
"2017-05-13 12:35",119.42
"2017-05-13 12:40",113.01
"2017-05-13 12:45",130.49
"2017-05-13 12:50",126.97
"2017-05-13 12:55",103.45
"2017-05-13 13:00",116.14
"2017-05-13 13:05",129.45
"2017-05-13 13:10",132.79
"2017-05-13 13:15",130.32
"2017-05-13 13:20",140.03
"2017-05-13 13:25",135.18
"2017-05-13 13:30",114.97
"2017-05-13 13:35",98.09
"2017-05-13 13:40",106.61
"2017-05-13 13:45",131.42
"2017-05-13 13:50",127.01
"2017-05-13 13:55",130.41
"2017-05-13 14:00",118.86
"2017-05-13 14:05",124.61
"2017-05-13 14:10",130.18
"2017-05-13 14:15",129.82
"2017-05-13 14:20",131.54
"2017-05-13 14:25",122.87
"2017-05-13 14:30",94.87
"2017-05-13 14:35",123.07
"2017-05-13 14:40",116.46
"2017-05-13 14:45",130.57
"2017-05-13 14:50",87.52
"2017-05-13 14:55",99.56
"2017-05-13 15:00",84.69
"2017-05-13 15:05",95.29
"2017-05-13 15:10",132.25
"2017-05-13 15:15",119.98
"2017-05-13 15:20",124.24
"2017-05-13 15:25",124.51
"2017-05-13 15:30",131.78
"2017-05-13 15:35",117.58
"2017-05-13 15:40",127.43
"2017-05-13 15:45",134.02
"2017-05-13 15:50",121.29
"2017-05-13 15:55",135.02
"2017-05-13 16:00",129.07
"2017-05-13 16:05",133.37
"2017-05-13 16:10",138.59
"2017-05-13 16:15",143.06
"2017-05-13 16:20",132.40
"2017-05-13 16:25",139.72
"2017-05-13 16:30",137.80
"2017-05-13 16:35",137.37
"2017-05-13 16:40",137.16
"2017-05-13 16:45",138.43
"2017-05-13 16:50",137.41
"2017-05-13 16:55",138.17
"2017-05-13 17:00",136.47
"2017-05-13 17:05",140.68
"2017-05-13 17:10",138.94
"2017-05-13 17:15",135.82
"2017-05-13 17:20",136.95
"2017-05-13 17:25",140.74
"2017-05-13 17:30",143.79
"2017-05-13 17:35",139.67
"2017-05-13 17:40",140.69
"2017-05-13 17:45",137.54
"2017-05-13 17:50",137.70
"2017-05-13 17:55",132.91
"2017-05-13 18:05",133.89
"2017-05-13 18:10",134.33
"2017-05-13 18:15",137.38
"2017-05-13 18:20",142.69
"2017-05-13 18:25",140.71
"2017-05-13 18:30",140.90
"2017-05-13 18:35",141.20
"2017-05-13 18:40",128.79
"2017-05-13 18:45",124.88
"2017-05-13 18:50",124.64
"2017-05-13 18:55",135.58
"2017-05-13 19:00",133.14
"2017-05-13 19:05",133.37
"2017-05-13 19:10",129.18
"2017-05-13 19:15",114.79
"2017-05-13 19:20",146.75
"2017-05-13 19:25",150.73
"2017-05-13 19:30",139.93
"2017-05-13 19:35",148.40
"2017-05-13 19:40",134.85
"2017-05-13 19:45",136.33
"2017-05-13 19:50",137.93
"2017-05-13 19:55",113.17
"2017-05-13 20:00",64.22
"2017-05-13 20:05",66.56
"2017-05-13 20:10",97.59
"2017-05-13 20:15",66.68
"2017-05-13 20:20",69.83
"2017-05-13 20:25",90.77
"2017-05-13 20:30",82.72
"2017-05-13 20:35",107.52
"2017-05-13 20:40",92.45
"2017-05-13 20:45",107.99
"2017-05-13 20:50",66.11
"2017-05-13 20:55",69.47
"2017-05-13 21:00",88.43
"2017-05-13 21:05",96.21
"2017-05-13 21:10",99.86
"2017-05-13 21:15",81.67
"2017-05-13 21:20",94.60
"2017-05-13 21:25",82.63
"2017-05-13 21:30",55.95
"2017-05-13 21:35",22.93
"2017-05-13 21:40",30.65
"2017-05-13 21:45",30.47
"2017-05-13 21:50",25.02
"2017-05-13 21:55",18.31
"2017-05-13 22:00",19.84
"2017-05-13 22:05",56.08
"2017-05-13 22:10",21.02
"2017-05-13 22:15",14.50
"2017-05-13 22:20",25.65
"2017-05-13 22:25",44.15
"2017-05-13 22:30",39.91
"2017-05-13 22:35",71.17
"2017-05-13 22:40",138.27
"2017-05-13 22:45",147.84
"2017-05-13 22:50",143.16
"2017-05-13 22:55",140.40
"2017-05-13 23:00",139.49
"2017-05-13 23:05",94.75
"2017-05-13 23:10",57.20
"2017-05-13 23:15",121.54
"2017-05-13 23:20",142.24
"2017-05-13 23:25",145.17
"2017-05-13 23:30",145.24
"2017-05-13 23:35",143.35
"2017-05-13 23:40",142.88
"2017-05-13 23:45",145.25
"2017-05-13 23:50",145.38
"2017-05-13 23:55",146.26
"2017-05-14 00:00",146.10
"2017-05-14 00:05",145.34
"2017-05-14 00:10",146.33
"2017-05-14 00:15",145.24
"2017-05-14 00:20",144.29
"2017-05-14 00:25",145.01
"2017-05-14 00:35",144.99
"2017-05-14 00:40",145.02
"2017-05-14 00:45",144.02
"2017-05-14 00:50",142.82
"2017-05-14 00:55",144.86
"2017-05-14 01:00",145.54
"2017-05-14 01:05",144.16
"2017-05-14 01:10",142.71
"2017-05-14 01:15",142.46
"2017-05-14 01:20",141.73
"2017-05-14 01:25",142.80
"2017-05-14 01:30",141.26
"2017-05-14 01:35",142.79
"2017-05-14 01:40",143.88
"2017-05-14 01:45",137.91
"2017-05-14 01:50",141.35
"2017-05-14 01:55",141.85
"2017-05-14 02:00",140.19
"2017-05-14 02:05",140.70
"2017-05-14 02:10",139.25
"2017-05-14 02:15",117.56
"2017-05-14 02:20",130.31
"2017-05-14 02:25",138.52
"2017-05-14 02:30",107.88
"2017-05-14 02:35",118.23
"2017-05-14 02:40",126.03
"2017-05-14 02:45",112.81
"2017-05-14 02:50",113.12
"2017-05-14 02:55",103.44
"2017-05-14 03:00",66.61
"2017-05-14 03:05",67.99
"2017-05-14 03:10",85.15
"2017-05-14 03:15",78.62
"2017-05-14 03:20",107.18
"2017-05-14 03:25",118.99
"2017-05-14 03:30",110.84
"2017-05-14 03:35",108.07
"2017-05-14 03:40",91.63
"2017-05-14 03:45",62.18
"2017-05-14 03:50",85.17
"2017-05-14 03:55",78.46
"2017-05-14 04:00",57.70
"2017-05-14 04:05",82.19
"2017-05-14 04:10",78.28
"2017-05-14 04:15",72.20
"2017-05-14 04:20",83.86
"2017-05-14 04:25",80.78
"2017-05-14 04:30",95.92
"2017-05-14 04:35",60.90
"2017-05-14 04:40",43.13
"2017-05-14 04:45",51.01
"2017-05-14 04:50",33.48
"2017-05-14 04:55",60.36
"2017-05-14 05:00",77.85
"2017-05-14 05:05",73.64
"2017-05-14 05:10",81.96
"2017-05-14 05:15",69.16
"2017-05-14 05:20",77.21
"2017-05-14 05:25",52.99
"2017-05-14 05:30",97.70
"2017-05-14 05:35",85.89
"2017-05-14 05:40",93.97
"2017-05-14 05:45",91.67
"2017-05-14 05:50",96.04
"2017-05-14 05:55",117.38
"2017-05-14 06:00",111.45
"2017-05-14 06:05",119.61
"2017-05-14 06:10",134.50
"2017-05-14 06:15",129.95
"2017-05-14 06:20",128.93
"2017-05-14 06:25",135.75
"2017-05-14 06:30",133.25
"2017-05-14 06:35",133.84
"2017-05-14 06:40",129.35
"2017-05-14 06:45",113.36
"2017-05-14 06:50",118.61
"2017-05-14 06:55",130.43
"2017-05-14 07:00",112.50
"2017-05-14 07:05",118.79
"2017-05-14 07:10",138.04
"2017-05-14 07:15",135.58
"2017-05-14 07:20",143.81
"2017-05-14 07:25",144.72
"2017-05-14 07:30",140.19
"2017-05-14 07:35",146.50
"2017-05-14 07:40",148.11
"2017-05-14 07:45",146.05
"2017-05-14 07:50",141.93
"2017-05-14 07:55",139.93
"2017-05-14 08:00",133.94
"2017-05-14 08:05",129.57
"2017-05-14 08:10",133.33
"2017-05-14 08:15",121.85
"2017-05-14 08:20",129.76
"2017-05-14 08:25",124.14
"2017-05-14 08:30",123.10
"2017-05-14 08:35",112.52
"2017-05-14 08:40",124.61
"2017-05-14 08:45",111.83
"2017-05-14 08:50",96.52
"2017-05-14 08:55",84.76
"2017-05-14 09:00",74.50
"2017-05-14 09:05",71.63
"2017-05-14 09:10",52.33
"2017-05-14 09:15",60.16
"2017-05-14 09:20",58.03
"2017-05-14 09:25",62.07
"2017-05-14 09:30",45.64
"2017-05-14 09:35",41.88
"2017-05-14 09:40",47.51
"2017-05-14 09:45",20.94
"2017-05-14 09:50",39.24
"2017-05-14 09:55",79.99
"2017-05-14 10:00",80.98
"2017-05-14 10:05",49.60
"2017-05-14 10:10",73.69
"2017-05-14 10:15",39.93
"2017-05-14 10:20",40.21
"2017-05-14 10:25",36.42
"2017-05-14 10:30",41.96
"2017-05-14 10:35",45.42
"2017-05-14 10:40",61.08
"2017-05-14 10:45",42.66
"2017-05-14 10:50",31.30
"2017-05-14 10:55",41.18
"2017-05-14 11:00",67.24
"2017-05-14 11:05",80.22
"2017-05-14 11:10",58.68
"2017-05-14 11:15",54.55
"2017-05-14 11:20",77.57
"2017-05-14 11:25",68.11
"2017-05-14 11:30",100.45
"2017-05-14 11:35",98.07
"2017-05-14 11:40",83.64
"2017-05-14 11:45",75.63
"2017-05-14 11:50",66.22
"2017-05-14 11:55",41.24
"2017-05-14 12:00",73.24
"2017-05-14 12:05",103.51
"2017-05-14 12:10",125.78
"2017-05-14 12:15",117.03
"2017-05-14 12:20",105.55
"2017-05-14 12:25",115.28
"2017-05-14 12:30",112.31
"2017-05-14 12:35",102.83
"2017-05-14 12:40",101.82
"2017-05-14 12:45",104.38
"2017-05-14 12:50",81.22
"2017-05-14 12:55",75.31
"2017-05-14 13:00",97.22
"2017-05-14 13:05",93.59
"2017-05-14 13:10",92.05
"2017-05-14 13:15",103.73
"2017-05-14 13:20",123.68
"2017-05-14 13:25",68.59
"2017-05-14 13:30",98.72
"2017-05-14 13:35",120.36
"2017-05-14 13:40",131.31
"2017-05-14 13:45",115.60
"2017-05-14 13:50",111.10
"2017-05-14 13:55",105.19
"2017-05-14 14:00",100.75
"2017-05-14 14:05",113.47
"2017-05-14 14:10",130.13
"2017-05-14 14:15",133.46
"2017-05-14 14:20",138.53
"2017-05-14 14:25",123.30
"2017-05-14 14:30",132.72
"2017-05-14 14:35",126.67
"2017-05-14 14:40",136.19
"2017-05-14 14:45",131.74
"2017-05-14 14:50",137.25
"2017-05-14 14:55",139.90
"2017-05-14 15:05",104.54
"2017-05-14 15:10",94.32
"2017-05-14 15:15",98.79
"2017-05-14 15:20",102.36
"2017-05-14 15:25",97.48
"2017-05-14 15:30",84.76
"2017-05-14 15:35",93.99
"2017-05-14 15:40",105.10
"2017-05-14 15:45",83.29
"2017-05-14 15:50",39.60
"2017-05-14 15:55",40.85
"2017-05-14 16:00",60.43
"2017-05-14 16:05",60.11
"2017-05-14 16:10",84.32
"2017-05-14 16:15",96.51
"2017-05-14 16:20",119.38
"2017-05-14 16:25",95.04
"2017-05-14 16:30",108.79
"2017-05-14 16:35",104.98
"2017-05-14 16:40",99.91
"2017-05-14 16:45",109.41
"2017-05-14 16:50",115.74
"2017-05-14 16:55",93.28
"2017-05-14 17:00",100.95
"2017-05-14 17:05",114.73
"2017-05-14 17:10",126.31
"2017-05-14 17:15",133.36
"2017-05-14 17:20",118.35
"2017-05-14 17:25",101.56
"2017-05-14 17:30",127.95
"2017-05-14 17:35",136.84
"2017-05-14 17:40",140.28
"2017-05-14 17:45",139.96
"2017-05-14 17:50",128.02
"2017-05-14 17:55",64.18
"2017-05-14 18:00",50.97
"2017-05-14 18:05",124.93
"2017-05-14 18:10",115.78
"2017-05-14 18:15",115.23
"2017-05-14 18:20",140.84
"2017-05-14 18:25",138.74
"2017-05-14 18:30",137.51
"2017-05-14 18:35",136.41
"2017-05-14 18:40",135.49
"2017-05-14 18:45",134.98
"2017-05-14 18:50",134.19
"2017-05-14 18:55",134.01
"2017-05-14 19:00",133.99
"2017-05-14 19:05",132.61
"2017-05-14 19:10",134.35
"2017-05-14 19:15",134.45
"2017-05-14 19:20",134.21
"2017-05-14 19:25",133.83
"2017-05-14 19:30",134.36
"2017-05-14 19:35",134.03
"2017-05-14 19:40",134.98
"2017-05-14 19:45",134.96
"2017-05-14 19:50",140.01
"2017-05-14 19:55",140.93
"2017-05-14 20:00",150.86
"2017-05-14 20:05",154.96
"2017-05-14 20:10",151.93
"2017-05-14 20:15",155.24
"2017-05-14 20:20",155.38
"2017-05-14 20:25",155.83
"2017-05-14 20:30",155.54
"2017-05-14 20:35",156.26
"2017-05-14 20:40",154.74
"2017-05-14 20:45",155.36
"2017-05-14 20:50",154.88
"2017-05-14 20:55",155.46
"2017-05-14 21:00",155.60
"2017-05-14 21:05",155.21
"2017-05-14 21:10",155.40
"2017-05-14 21:15",155.56
"2017-05-14 21:20",155.60
"2017-05-14 21:25",155.49
"2017-05-14 21:30",155.27
"2017-05-14 21:35",155.68
"2017-05-14 21:40",154.75
"2017-05-14 21:45",154.10
"2017-05-14 21:50",147.67
"2017-05-14 21:55",153.90
"2017-05-14 22:00",154.77
"2017-05-14 22:05",151.49
"2017-05-14 22:10",154.77
"2017-05-14 22:15",152.70
"2017-05-14 22:20",153.58
"2017-05-14 22:25",155.40
"2017-05-14 22:30",153.92
"2017-05-14 22:35",146.21
"2017-05-14 22:40",138.36
"2017-05-14 22:45",151.12
"2017-05-14 22:50",139.75
"2017-05-14 22:55",132.09
"2017-05-14 23:00",138.98
"2017-05-14 23:05",135.85
"2017-05-14 23:10",132.01
"2017-05-14 23:15",131.38
"2017-05-14 23:20",131.54
"2017-05-14 23:25",130.78
"2017-05-14 23:30",130.28
"2017-05-14 23:35",125.31
"2017-05-14 23:40",128.99
"2017-05-14 23:45",130.71
"2017-05-14 23:50",130.14
"2017-05-14 23:55",129.66
"2017-05-15 00:00",130.45
"2017-05-15 00:05",129.60
"2017-05-15 00:10",130.01
"2017-05-15 00:15",133.33
"2017-05-15 00:20",130.52
"2017-05-15 00:25",129.43
"2017-05-15 00:30",129.73
"2017-05-15 00:35",130.81
"2017-05-15 00:40",133.09
"2017-05-15 00:45",131.16
"2017-05-15 00:50",130.46
"2017-05-15 00:55",131.05
"2017-05-15 01:00",131.10
"2017-05-15 01:05",130.62
"2017-05-15 01:10",130.67
"2017-05-15 01:15",130.68
"2017-05-15 01:20",129.78
"2017-05-15 01:25",129.97
"2017-05-15 01:30",129.03
"2017-05-15 01:35",127.43
"2017-05-15 01:40",129.38
"2017-05-15 01:45",128.38
"2017-05-15 01:50",126.60
"2017-05-15 01:55",130.21
"2017-05-15 02:00",130.31
"2017-05-15 02:05",133.43
"2017-05-15 02:10",133.87
"2017-05-15 02:15",149.44
"2017-05-15 02:20",151.66
"2017-05-15 02:25",152.76
"2017-05-15 02:30",152.59
"2017-05-15 02:35",150.23
"2017-05-15 02:40",145.18
"2017-05-15 02:45",149.45
"2017-05-15 02:50",145.76
"2017-05-15 02:55",141.54
"2017-05-15 03:00",141.70
"2017-05-15 03:05",150.76
"2017-05-15 03:10",148.12
"2017-05-15 03:15",147.37
"2017-05-15 03:20",150.93
"2017-05-15 03:25",149.79
"2017-05-15 03:30",142.85
"2017-05-15 03:35",142.30
"2017-05-15 03:40",124.58
"2017-05-15 03:45",138.47
"2017-05-15 03:50",130.27
"2017-05-15 03:55",131.01
"2017-05-15 04:00",132.70
"2017-05-15 04:05",144.84
"2017-05-15 04:10",146.56
"2017-05-15 04:15",152.84
"2017-05-15 04:20",147.63
"2017-05-15 04:25",136.13
"2017-05-15 04:30",151.89
"2017-05-15 04:35",151.84
"2017-05-15 04:40",141.49
"2017-05-15 04:45",146.94
"2017-05-15 04:50",147.92
"2017-05-15 04:55",133.12
"2017-05-15 05:00",139.35
"2017-05-15 05:05",146.56
"2017-05-15 05:10",143.42
"2017-05-15 05:15",149.85
"2017-05-15 05:20",136.81
"2017-05-15 05:25",137.40
"2017-05-15 05:30",134.84
"2017-05-15 05:35",144.19
"2017-05-15 05:40",148.71
"2017-05-15 05:45",151.76
"2017-05-15 05:50",151.07
"2017-05-15 05:55",148.73
"2017-05-15 06:00",149.11
"2017-05-15 06:05",144.61
"2017-05-15 06:10",135.86
"2017-05-15 06:15",143.02
"2017-05-15 06:20",145.49
"2017-05-15 06:25",132.99
"2017-05-15 06:30",131.79
"2017-05-15 06:35",130.12
"2017-05-15 06:40",147.27
"2017-05-15 06:45",150.26
"2017-05-15 06:50",134.03
"2017-05-15 06:55",129.03
"2017-05-15 07:00",129.65
"2017-05-15 07:05",131.63
"2017-05-15 07:10",123.80
"2017-05-15 07:15",125.57
"2017-05-15 07:20",134.11
"2017-05-15 07:25",131.26
"2017-05-15 07:30",128.02
"2017-05-15 07:35",133.15
"2017-05-15 07:40",131.96
"2017-05-15 07:45",131.25
"2017-05-15 07:50",131.76
"2017-05-15 07:55",129.98
"2017-05-15 08:00",130.10
"2017-05-15 08:05",131.18
"2017-05-15 08:10",134.05
"2017-05-15 08:15",126.06
"2017-05-15 08:20",127.59
"2017-05-15 08:25",123.76
"2017-05-15 08:30",119.17
"2017-05-15 08:35",127.20
"2017-05-15 08:40",122.54
"2017-05-15 08:45",118.32
"2017-05-15 08:50",114.86
"2017-05-15 08:55",122.48
"2017-05-15 09:00",110.50
"2017-05-15 09:05",98.17
"2017-05-15 09:10",115.00
"2017-05-15 09:15",76.61
"2017-05-15 09:20",117.69
"2017-05-15 09:25",107.05
"2017-05-15 09:30",117.55
"2017-05-15 09:35",85.98
"2017-05-15 09:40",93.85
"2017-05-15 09:45",87.99
"2017-05-15 09:50",91.60
"2017-05-15 09:55",85.50
"2017-05-15 10:00",62.66
"2017-05-15 10:05",63.81
"2017-05-15 10:10",65.20
"2017-05-15 10:15",88.57
"2017-05-15 10:20",78.18
"2017-05-15 10:25",75.91
"2017-05-15 10:30",39.12
"2017-05-15 10:35",52.65
"2017-05-15 10:40",75.79
"2017-05-15 10:45",61.98
"2017-05-15 10:50",73.19
"2017-05-15 10:55",74.71
"2017-05-15 11:00",70.01
"2017-05-15 11:05",63.07
"2017-05-15 11:10",69.10
"2017-05-15 11:15",54.40
"2017-05-15 11:20",58.97
"2017-05-15 11:25",71.60
"2017-05-15 11:30",72.69
"2017-05-15 11:35",62.49
"2017-05-15 11:40",86.30
"2017-05-15 11:45",89.85
"2017-05-15 11:50",48.31
"2017-05-15 11:55",81.07
"2017-05-15 12:00",62.61
"2017-05-15 12:05",82.09
"2017-05-15 12:10",83.00
"2017-05-15 12:15",101.55
"2017-05-15 12:20",94.34
"2017-05-15 12:25",87.11
"2017-05-15 12:30",120.28
"2017-05-15 12:35",87.25
"2017-05-15 12:40",95.32
"2017-05-15 12:45",85.44
"2017-05-15 12:50",69.74
"2017-05-15 12:55",84.94
"2017-05-15 13:00",102.12
"2017-05-15 13:05",77.26
"2017-05-15 13:10",133.95
"2017-05-15 13:15",130.40
"2017-05-15 13:20",93.08
"2017-05-15 13:25",117.68
"2017-05-15 13:30",107.97
"2017-05-15 13:35",75.45
"2017-05-15 13:40",89.67
"2017-05-15 13:45",91.92
"2017-05-15 13:50",86.49
"2017-05-15 13:55",76.69
"2017-05-15 14:00",88.00
"2017-05-15 14:05",93.06
"2017-05-15 14:10",70.92
"2017-05-15 14:15",88.38
"2017-05-15 14:20",86.08
"2017-05-15 14:25",78.49
"2017-05-15 14:30",101.03
"2017-05-15 14:35",82.46
"2017-05-15 14:40",85.12
"2017-05-15 14:45",107.69
"2017-05-15 14:50",78.65
"2017-05-15 14:55",88.08
"2017-05-15 15:00",94.44
"2017-05-15 15:05",90.40
"2017-05-15 15:10",99.54
"2017-05-15 15:15",84.55
"2017-05-15 15:20",66.15
"2017-05-15 15:25",82.75
"2017-05-15 15:30",71.56
"2017-05-15 15:35",88.25
"2017-05-15 15:40",72.24
"2017-05-15 15:45",76.39
"2017-05-15 15:50",94.39
"2017-05-15 15:55",92.94
"2017-05-15 16:00",129.62
"2017-05-15 16:05",142.65
"2017-05-15 16:10",128.32
"2017-05-15 16:15",132.96
"2017-05-15 16:20",147.59
"2017-05-15 16:25",130.06
"2017-05-15 16:30",78.59
"2017-05-15 16:35",93.13
"2017-05-15 16:40",60.49
"2017-05-15 16:45",61.99
"2017-05-15 16:50",86.56
"2017-05-15 16:55",82.52
"2017-05-15 17:00",85.03
"2017-05-15 17:05",111.19
"2017-05-15 17:10",136.22
"2017-05-15 17:15",112.25
"2017-05-15 17:20",110.05
"2017-05-15 17:25",129.41
"2017-05-15 17:30",133.23
"2017-05-15 17:35",135.04
"2017-05-15 17:40",112.76
"2017-05-15 17:45",143.70
"2017-05-15 17:50",137.60
"2017-05-15 17:55",139.34
"2017-05-15 18:00",145.49
"2017-05-15 18:05",149.56
"2017-05-15 18:10",132.42
"2017-05-15 18:15",99.84
"2017-05-15 18:20",101.22
"2017-05-15 18:25",91.10
"2017-05-15 18:30",64.61
"2017-05-15 18:35",77.26
"2017-05-15 18:40",90.77
"2017-05-15 18:45",100.38
"2017-05-15 18:50",108.70
"2017-05-15 18:55",121.64
"2017-05-15 19:00",145.10
"2017-05-15 19:05",151.15
"2017-05-15 19:10",151.36
"2017-05-15 19:15",154.52
"2017-05-15 19:20",144.60
"2017-05-15 19:25",145.63
"2017-05-15 19:30",98.82
"2017-05-15 19:35",93.18
"2017-05-15 19:40",124.23
"2017-05-15 19:45",109.04
"2017-05-15 19:50",113.69
"2017-05-15 19:55",90.50
"2017-05-15 20:00",109.89
"2017-05-15 20:05",91.53
"2017-05-15 20:10",95.99
"2017-05-15 20:15",94.95
"2017-05-15 20:20",72.32
"2017-05-15 20:25",70.55
"2017-05-15 20:30",77.25
"2017-05-15 20:35",66.36
"2017-05-15 20:40",97.54
"2017-05-15 20:45",79.80
"2017-05-15 20:50",90.91
"2017-05-15 20:55",67.32
"2017-05-15 21:00",56.65
"2017-05-15 21:05",55.77
"2017-05-15 21:10",67.62
"2017-05-15 21:15",64.84
"2017-05-15 21:20",51.85
"2017-05-15 21:25",42.56
"2017-05-15 21:30",51.10
"2017-05-15 21:35",45.15
"2017-05-15 21:40",60.78
"2017-05-15 21:45",64.50
"2017-05-15 21:50",53.64
"2017-05-15 21:55",49.95
"2017-05-15 22:00",31.51
"2017-05-15 22:05",35.13
"2017-05-15 22:10",35.14
"2017-05-15 22:15",38.07
"2017-05-15 22:20",34.17
"2017-05-15 22:25",36.16
"2017-05-15 22:30",46.32
"2017-05-15 22:35",35.78
"2017-05-15 22:40",33.59
"2017-05-15 22:45",48.47
"2017-05-15 22:50",44.80
"2017-05-15 22:55",51.60
"2017-05-15 23:00",45.70
"2017-05-15 23:05",58.99
"2017-05-15 23:10",45.30
"2017-05-15 23:15",65.50
"2017-05-15 23:20",43.66
"2017-05-15 23:25",43.47
"2017-05-15 23:30",65.46
"2017-05-15 23:35",55.96
"2017-05-15 23:40",72.64
"2017-05-15 23:45",89.13
"2017-05-15 23:50",68.17
"2017-05-15 23:55",72.05
"2017-05-16 00:00",74.74
"2017-05-16 00:05",73.86
"2017-05-16 00:10",82.61
"2017-05-16 00:15",79.63
"2017-05-16 00:20",76.88
"2017-05-16 00:25",76.41
"2017-05-16 00:30",63.69
"2017-05-16 00:35",65.44
"2017-05-16 00:40",75.46
"2017-05-16 00:45",62.21
"2017-05-16 00:50",58.77
"2017-05-16 00:55",38.94
"2017-05-16 01:00",46.97
"2017-05-16 01:05",55.95
"2017-05-16 01:10",54.43
"2017-05-16 01:15",84.56
"2017-05-16 01:20",68.68
"2017-05-16 01:25",48.63
"2017-05-16 01:30",60.46
"2017-05-16 01:35",61.87
"2017-05-16 01:40",54.06
"2017-05-16 01:45",57.10
"2017-05-16 01:50",43.19
"2017-05-16 01:55",63.86
"2017-05-16 02:00",47.91
"2017-05-16 02:05",39.29
"2017-05-16 02:10",53.35
"2017-05-16 02:15",55.62
"2017-05-16 02:20",75.21
"2017-05-16 02:25",56.70
"2017-05-16 02:30",88.51
"2017-05-16 02:35",76.29
"2017-05-16 02:40",135.84
"2017-05-16 02:45",111.94
"2017-05-16 02:50",93.17
"2017-05-16 02:55",85.11
"2017-05-16 03:00",96.14
"2017-05-16 03:05",93.46
"2017-05-16 03:10",129.53
"2017-05-16 03:15",141.86
"2017-05-16 03:20",125.74
"2017-05-16 03:25",128.72
"2017-05-16 03:30",147.90
"2017-05-16 03:35",131.38
"2017-05-16 03:40",142.01
"2017-05-16 03:45",152.99
"2017-05-16 03:50",152.71
"2017-05-16 03:55",123.31
"2017-05-16 04:00",116.09
"2017-05-16 04:05",89.70
"2017-05-16 04:10",107.52
"2017-05-16 04:15",123.47
"2017-05-16 04:20",142.41
"2017-05-16 04:25",118.78
"2017-05-16 04:30",87.24
"2017-05-16 04:35",76.26
"2017-05-16 04:40",80.68
"2017-05-16 04:45",75.18
"2017-05-16 04:50",66.99
"2017-05-16 04:55",65.69
"2017-05-16 05:00",36.35
"2017-05-16 05:05",35.64
"2017-05-16 05:10",32.67
"2017-05-16 05:15",23.33
"2017-05-16 05:20",45.53
"2017-05-16 05:25",75.47
"2017-05-16 05:30",43.11
"2017-05-16 05:35",22.04
"2017-05-16 05:40",21.12
"2017-05-16 05:45",23.61
"2017-05-16 05:50",5.37
"2017-05-16 05:55",15.43
"2017-05-16 06:00",15.23
"2017-05-16 06:05",24.25
"2017-05-16 06:10",10.55
"2017-05-16 06:15",13.17
"2017-05-16 06:20",17.25
"2017-05-16 06:25",14.29
"2017-05-16 06:30",19.80
"2017-05-16 06:35",16.78
"2017-05-16 06:40",27.45
"2017-05-16 06:45",12.43
"2017-05-16 06:50",74.10
"2017-05-16 06:55",78.23
"2017-05-16 07:00",43.93
"2017-05-16 07:05",85.05
"2017-05-16 07:10",106.28
"2017-05-16 07:15",90.48
"2017-05-16 07:20",68.84
"2017-05-16 07:25",47.19
"2017-05-16 07:30",22.50
"2017-05-16 07:35",21.17
"2017-05-16 07:40",30.27
"2017-05-16 07:45",30.32
"2017-05-16 07:50",39.61
"2017-05-16 07:55",81.71
"2017-05-16 08:00",71.76
"2017-05-16 08:05",75.72
"2017-05-16 08:10",72.04
"2017-05-16 08:15",102.61
"2017-05-16 08:20",123.24
"2017-05-16 08:25",106.78
"2017-05-16 08:30",110.86
"2017-05-16 08:35",119.21
"2017-05-16 08:40",143.31
"2017-05-16 08:45",116.16
"2017-05-16 08:50",121.01
"2017-05-16 08:55",136.05
"2017-05-16 09:00",130.11
"2017-05-16 09:05",144.21
