"2017-07-20 12:35",0.70
"2017-07-20 12:45",0.71
"2017-07-20 12:50",0.70
"2017-07-20 12:55",0.67
"2017-07-20 13:00",0.69
"2017-07-20 13:10",0.65
"2017-07-20 13:15",0.64
"2017-07-20 13:20",0.60
"2017-07-20 13:25",0.59
"2017-07-20 13:30",0.65
"2017-07-20 13:35",0.62
"2017-07-20 13:40",0.59
"2017-07-20 13:45",0.61
"2017-07-20 13:55",0.58
"2017-07-20 14:05",0.57
"2017-07-20 14:10",0.55
"2017-07-20 14:25",0.56
"2017-07-20 14:30",0.58
"2017-07-20 14:35",0.61
"2017-07-20 14:50",0.62
"2017-07-20 14:55",0.59
"2017-07-20 15:10",0.55
"2017-07-20 15:15",0.53
"2017-07-20 15:25",0.54
"2017-07-20 15:40",0.56
"2017-07-20 15:55",0.54
"2017-07-20 16:10",0.56
"2017-07-20 16:15",0.54
"2017-07-20 16:20",0.52
"2017-07-20 16:35",0.54
"2017-07-20 16:50",0.52
"2017-07-20 17:15",0.50
"2017-07-20 17:20",0.48
"2017-07-20 17:30",0.47
"2017-07-20 17:45",0.51
"2017-07-20 17:50",0.48
"2017-07-20 18:10",0.46
"2017-07-20 18:25",0.43
"2017-07-20 18:30",0.40
"2017-07-20 18:50",0.42
"2017-07-20 19:10",0.40
"2017-07-20 19:15",0.39
"2017-07-20 19:40",0.40
"2017-07-20 20:10",0.37
"2017-07-20 20:20",0.35
"2017-07-20 20:30",0.36
"2017-07-20 20:50",0.38
"2017-07-20 20:55",0.37
"2017-07-20 21:10",0.35
"2017-07-20 21:20",0.37
"2017-07-20 22:10",0.35
"2017-07-20 22:20",0.34
"2017-07-20 22:25",0.31
"2017-07-20 22:35",0.29
"2017-07-20 22:50",0.31
"2017-07-20 23:10",0.33
"2017-07-20 23:15",0.32
"2017-07-20 23:20",0.33
"2017-07-20 23:35",0.35
"2017-07-20 23:40",0.34
"2017-07-20 23:45",0.35
"2017-07-20 23:55",0.37
"2017-07-21 00:25",0.36
"2017-07-21 00:35",0.34
"2017-07-21 00:40",0.32
"2017-07-21 00:45",0.34
"2017-07-21 01:05",0.33
"2017-07-21 01:10",0.31
"2017-07-21 01:35",0.30
"2017-07-21 02:00",0.28
"2017-07-21 02:25",0.27
"2017-07-21 02:50",0.28
"2017-07-21 03:00",0.27
"2017-07-21 03:10",0.28
"2017-07-21 03:25",0.30
"2017-07-21 03:40",0.29
"2017-07-21 03:55",0.30
"2017-07-21 04:00",0.29
"2017-07-21 04:30",0.30
"2017-07-21 04:35",0.28
"2017-07-21 04:45",0.30
"2017-07-21 05:30",0.31
"2017-07-21 05:50",0.29
"2017-07-21 05:55",0.31
"2017-07-21 06:00",0.34
"2017-07-21 06:10",0.30
"2017-07-21 06:15",0.33
"2017-07-21 06:20",0.31
"2017-07-21 06:25",0.33
"2017-07-21 06:30",0.31
"2017-07-21 06:40",0.33
"2017-07-21 07:15",0.34
"2017-07-21 07:20",0.33
"2017-07-21 07:25",0.30
"2017-07-21 07:35",0.32
"2017-07-21 07:40",0.33
"2017-07-21 07:45",0.29
"2017-07-21 07:55",0.32
"2017-07-21 08:00",0.31
"2017-07-21 08:15",0.29
"2017-07-21 08:25",0.31
"2017-07-21 08:35",0.29
"2017-07-21 08:45",0.28
"2017-07-21 09:05",0.44
"2017-07-21 09:10",0.94
"2017-07-21 09:15",1.51
"2017-07-21 09:20",2.11
"2017-07-21 09:25",2.67
"2017-07-21 09:30",3.20
"2017-07-21 09:35",3.66
"2017-07-21 09:40",3.94
"2017-07-21 09:45",4.18
"2017-07-21 09:50",4.41
"2017-07-21 09:55",4.64
"2017-07-21 10:00",4.75
"2017-07-21 10:05",4.79
"2017-07-21 10:10",4.81
"2017-07-21 10:15",4.83
"2017-07-21 10:20",4.85
"2017-07-21 10:30",4.93
"2017-07-21 10:35",4.97
"2017-07-21 10:40",5.02
"2017-07-21 10:50",4.39
"2017-07-21 10:55",3.53
"2017-07-21 11:00",2.70
"2017-07-21 11:05",2.26
"2017-07-21 11:10",1.98
"2017-07-21 11:15",1.77
"2017-07-21 11:20",1.54
"2017-07-21 11:25",1.38
"2017-07-21 11:30",1.29
"2017-07-21 11:35",1.20
"2017-07-21 11:40",1.10
"2017-07-21 11:45",1.02
"2017-07-21 11:50",0.97
"2017-07-21 11:55",0.91
"2017-07-21 12:05",0.89
"2017-07-21 12:10",0.85
"2017-07-21 12:15",0.82
"2017-07-21 12:20",0.80
"2017-07-21 12:25",0.79
"2017-07-21 12:30",0.76
"2017-07-21 12:35",0.75
"2017-07-21 12:40",0.73
"2017-07-21 12:45",0.72
"2017-07-21 12:50",0.69
"2017-07-21 13:00",0.66
"2017-07-21 13:25",0.67
"2017-07-21 13:40",0.65
"2017-07-21 13:50",0.61
"2017-07-21 14:00",0.65
"2017-07-21 14:10",0.61
"2017-07-21 14:30",0.58
"2017-07-21 14:35",0.57
"2017-07-21 14:40",0.58
"2017-07-21 14:45",0.62
"2017-07-21 15:10",0.64
"2017-07-21 15:20",0.57
"2017-07-21 15:25",0.55
"2017-07-21 15:30",0.58
"2017-07-21 15:35",0.60
"2017-07-21 15:40",0.62
"2017-07-21 15:45",0.61
"2017-07-21 15:55",0.59
"2017-07-21 16:05",0.56
"2017-07-21 16:10",0.54
"2017-07-21 16:15",0.55
"2017-07-21 16:25",0.53
"2017-07-21 16:45",0.58
"2017-07-21 16:55",0.55
"2017-07-21 17:05",0.52
"2017-07-21 17:10",0.54
"2017-07-21 17:15",0.52
"2017-07-21 17:35",0.50
"2017-07-21 17:55",0.49
"2017-07-21 18:05",0.47
"2017-07-21 18:10",0.45
"2017-07-21 18:30",0.46
"2017-07-21 18:40",0.45
"2017-07-21 19:00",0.43
"2017-07-21 19:05",0.41
"2017-07-21 19:15",0.39
"2017-07-21 19:35",0.40
"2017-07-21 20:00",0.38
"2017-07-21 20:05",0.37
"2017-07-21 20:10",0.38
"2017-07-21 20:20",0.40
"2017-07-21 21:05",0.37
"2017-07-21 21:20",0.36
"2017-07-21 21:40",0.37
"2017-07-21 21:50",0.38
"2017-07-21 21:55",0.37
"2017-07-21 22:55",0.37
"2017-07-21 23:10",0.36
"2017-07-21 23:30",0.33
"2017-07-21 23:50",0.31
"2017-07-22 00:15",0.32
"2017-07-22 00:45",0.35
"2017-07-22 00:55",0.33
"2017-07-22 01:00",0.35
"2017-07-22 01:20",0.37
"2017-07-22 01:40",0.36
"2017-07-22 02:00",0.34
"2017-07-22 02:35",0.32
"2017-07-22 03:05",0.31
"2017-07-22 03:10",0.30
"2017-07-22 03:15",0.31
"2017-07-22 03:35",0.30
"2017-07-22 04:10",0.28
"2017-07-22 04:35",0.27
"2017-07-22 05:25",0.29
"2017-07-22 05:30",0.28
"2017-07-22 05:50",0.29
"2017-07-22 06:10",0.27
"2017-07-22 06:15",0.29
"2017-07-22 07:10",0.28
"2017-07-22 07:20",0.29
"2017-07-22 07:45",0.28
"2017-07-22 08:05",0.34
"2017-07-22 08:10",0.84
"2017-07-22 08:15",1.39
"2017-07-22 08:20",2.01
"2017-07-22 08:25",2.56
"2017-07-22 08:30",3.13
"2017-07-22 08:35",3.56
"2017-07-22 08:40",3.87
"2017-07-22 08:45",4.11
"2017-07-22 08:50",4.37
"2017-07-22 08:55",4.58
"2017-07-22 09:00",4.69
"2017-07-22 09:05",4.74
"2017-07-22 09:10",4.76
"2017-07-22 09:15",4.82
"2017-07-22 09:20",4.84
"2017-07-22 09:25",4.91
"2017-07-22 09:30",4.97
"2017-07-22 09:35",4.93
"2017-07-22 09:40",4.91
"2017-07-22 09:45",4.98
"2017-07-22 09:50",4.42
"2017-07-22 09:55",3.44
"2017-07-22 10:00",2.63
"2017-07-22 10:05",2.23
"2017-07-22 10:10",1.96
"2017-07-22 10:15",1.67
"2017-07-22 10:20",1.47
"2017-07-22 10:25",1.33
"2017-07-22 10:30",1.25
"2017-07-22 10:35",1.13
"2017-07-22 10:40",1.04
"2017-07-22 10:45",0.96
"2017-07-22 10:50",0.91
"2017-07-22 10:55",0.89
"2017-07-22 11:00",0.83
"2017-07-22 11:05",0.79
"2017-07-22 11:15",0.74
"2017-07-22 11:20",0.70
"2017-07-22 11:25",0.69
"2017-07-22 11:30",0.65
"2017-07-22 11:35",0.64
"2017-07-22 11:45",0.61
"2017-07-22 11:55",0.57
"2017-07-22 12:00",0.56
"2017-07-22 12:10",0.54
"2017-07-22 12:15",0.52
"2017-07-22 12:40",0.50
"2017-07-22 12:55",0.49
"2017-07-22 13:00",0.47
"2017-07-22 13:05",0.48
"2017-07-22 13:10",0.47
"2017-07-22 13:35",0.44
"2017-07-22 13:40",0.43
"2017-07-22 13:45",0.41
"2017-07-22 14:05",0.42
"2017-07-22 14:40",0.41
"2017-07-22 14:45",0.39
"2017-07-22 14:50",0.41
"2017-07-22 15:15",0.39
"2017-07-22 15:25",0.40
"2017-07-22 15:55",0.38
"2017-07-22 16:10",0.39
"2017-07-22 16:30",0.39
"2017-07-22 17:30",0.38
"2017-07-22 17:35",0.35
"2017-07-22 18:00",0.37
"2017-07-22 18:25",0.34
"2017-07-22 18:35",0.32
"2017-07-22 18:40",0.33
"2017-07-22 19:05",0.36
"2017-07-22 19:15",0.35
"2017-07-22 19:20",0.33
"2017-07-22 19:25",0.31
"2017-07-22 19:40",0.33
"2017-07-22 19:45",0.35
"2017-07-22 19:55",0.34
"2017-07-22 20:10",0.35
"2017-07-22 20:15",0.34
"2017-07-22 20:20",0.32
"2017-07-22 20:50",0.30
"2017-07-22 20:55",0.32
"2017-07-22 21:10",0.30
"2017-07-22 21:20",0.31
"2017-07-22 21:25",0.32
"2017-07-22 21:30",0.34
"2017-07-22 21:40",0.36
"2017-07-22 22:00",0.34
"2017-07-22 22:05",0.36
"2017-07-22 22:10",0.34
"2017-07-22 22:15",0.33
"2017-07-22 22:20",0.32
"2017-07-22 22:25",0.30
"2017-07-22 22:30",0.27
"2017-07-22 22:40",0.26
"2017-07-22 22:45",0.28
"2017-07-22 22:50",0.27
"2017-07-22 22:55",0.28
"2017-07-22 23:05",0.30
"2017-07-22 23:10",0.33
"2017-07-22 23:40",0.34
"2017-07-22 23:45",0.32
"2017-07-22 23:50",0.31
"2017-07-23 00:05",0.29
"2017-07-23 00:25",0.30
"2017-07-23 01:20",0.29
"2017-07-23 01:40",0.31
"2017-07-23 01:50",0.30
"2017-07-23 02:35",0.32
"2017-07-23 03:00",0.31
"2017-07-23 03:25",0.32
"2017-07-23 03:45",0.30
"2017-07-23 03:50",0.32
"2017-07-23 03:55",0.31
"2017-07-23 04:15",0.29
"2017-07-23 04:25",0.30
"2017-07-23 05:25",0.30
"2017-07-23 05:45",0.29
"2017-07-23 05:50",0.31
"2017-07-23 06:00",0.29
"2017-07-23 06:15",0.28
"2017-07-23 06:25",0.29
"2017-07-23 07:25",0.29
"2017-07-23 07:40",0.30
"2017-07-23 07:50",0.31
"2017-07-23 08:00",0.34
"2017-07-23 08:05",0.71
"2017-07-23 08:10",1.24
"2017-07-23 08:15",1.86
"2017-07-23 08:20",2.43
"2017-07-23 08:25",2.98
"2017-07-23 08:30",3.43
"2017-07-23 08:35",3.84
"2017-07-23 08:40",4.07
"2017-07-23 08:45",4.36
"2017-07-23 08:50",4.59
"2017-07-23 08:55",4.67
"2017-07-23 09:00",4.72
"2017-07-23 09:10",4.78
"2017-07-23 09:15",4.82
"2017-07-23 09:20",4.83
"2017-07-23 09:25",4.80
"2017-07-23 09:30",4.84
"2017-07-23 09:35",4.81
"2017-07-23 09:45",4.83
"2017-07-23 09:50",3.86
"2017-07-23 09:55",3.23
"2017-07-23 10:00",2.55
"2017-07-23 10:05",2.12
"2017-07-23 10:10",1.87
"2017-07-23 10:15",1.65
"2017-07-23 10:20",1.42
"2017-07-23 10:25",1.28
"2017-07-23 10:30",1.19
"2017-07-23 10:35",1.06
"2017-07-23 10:40",1.00
"2017-07-23 10:45",0.97
"2017-07-23 10:50",0.91
"2017-07-23 10:55",0.87
"2017-07-23 11:00",0.83
"2017-07-23 11:05",0.79
"2017-07-23 11:10",0.77
"2017-07-23 11:15",0.69
"2017-07-23 11:20",0.67
"2017-07-23 11:30",0.64
"2017-07-23 11:35",0.63
"2017-07-23 11:40",0.65
"2017-07-23 11:45",0.61
"2017-07-23 11:55",0.60
"2017-07-23 12:00",0.58
"2017-07-23 12:05",0.56
"2017-07-23 12:10",0.55
"2017-07-23 12:20",0.53
"2017-07-23 12:30",0.50
"2017-07-23 12:35",0.49
"2017-07-23 12:50",0.47
"2017-07-23 12:55",0.46
"2017-07-23 13:05",0.48
"2017-07-23 13:25",0.44
"2017-07-23 13:30",0.43
"2017-07-23 13:50",0.45
"2017-07-23 14:00",0.43
"2017-07-23 14:10",0.41
"2017-07-23 14:30",0.43
"2017-07-23 14:35",0.42
"2017-07-23 14:50",0.41
"2017-07-23 15:25",0.39
"2017-07-23 15:45",0.38
"2017-07-23 15:55",0.40
"2017-07-23 16:00",0.39
"2017-07-23 16:05",0.40
"2017-07-23 16:30",0.38
"2017-07-23 16:40",0.37
"2017-07-23 16:50",0.39
"2017-07-23 16:55",0.37
"2017-07-23 17:00",0.38
"2017-07-23 17:05",0.37
"2017-07-23 17:35",0.36
"2017-07-23 17:50",0.37
"2017-07-23 17:55",0.39
"2017-07-23 18:05",0.38
"2017-07-23 18:10",0.36
"2017-07-23 18:20",0.38
"2017-07-23 18:30",0.36
"2017-07-23 18:45",0.38
"2017-07-23 18:55",0.34
"2017-07-23 19:00",0.32
"2017-07-23 19:05",0.34
"2017-07-23 19:10",0.33
"2017-07-23 19:15",0.34
"2017-07-23 19:20",0.36
"2017-07-23 19:40",0.34
"2017-07-23 19:45",0.32
"2017-07-23 20:05",0.34
"2017-07-23 20:15",0.35
"2017-07-23 20:20",0.34
"2017-07-23 20:30",0.30
"2017-07-23 20:35",0.31
"2017-07-23 20:50",0.36
"2017-07-23 21:00",0.34
"2017-07-23 21:20",0.36
"2017-07-23 21:35",0.34
"2017-07-23 21:40",0.32
"2017-07-23 22:00",0.31
"2017-07-23 22:10",0.32
"2017-07-23 22:15",0.31
"2017-07-23 22:55",0.29
"2017-07-23 23:00",0.27
"2017-07-23 23:05",0.29
"2017-07-23 23:10",0.32
"2017-07-23 23:20",0.34
"2017-07-23 23:25",0.35
"2017-07-23 23:55",0.34
"2017-07-24 00:00",0.35
"2017-07-24 00:10",0.36
"2017-07-24 00:15",0.34
"2017-07-24 00:20",0.35
"2017-07-24 00:25",0.33
"2017-07-24 00:30",0.31
"2017-07-24 00:50",0.28
"2017-07-24 01:10",0.30
"2017-07-24 01:45",0.32
"2017-07-24 02:05",0.34
"2017-07-24 02:30",0.33
"2017-07-24 02:40",0.36
"2017-07-24 02:45",0.37
"2017-07-24 02:50",0.33
"2017-07-24 02:55",0.32
"2017-07-24 03:00",0.35
"2017-07-24 03:15",0.33
"2017-07-24 03:30",0.31
"2017-07-24 04:05",0.30
"2017-07-24 04:35",0.31
"2017-07-24 05:05",0.32
"2017-07-24 05:10",0.26
"2017-07-24 05:15",0.32
"2017-07-24 05:45",0.33
"2017-07-24 05:50",0.31
"2017-07-24 06:00",0.34
"2017-07-24 06:40",0.33
"2017-07-24 06:50",0.34
"2017-07-24 07:05",0.32
"2017-07-24 07:25",0.34
"2017-07-24 08:10",0.60
"2017-07-24 08:15",1.09
"2017-07-24 08:20",1.70
"2017-07-24 08:25",2.31
"2017-07-24 08:30",2.87
"2017-07-24 08:35",3.32
"2017-07-24 08:40",3.70
"2017-07-24 08:45",3.93
"2017-07-24 08:50",4.20
"2017-07-24 08:55",4.44
"2017-07-24 09:00",4.66
"2017-07-24 09:05",4.74
"2017-07-24 09:10",4.79
"2017-07-24 09:15",4.77
"2017-07-24 09:20",4.72
"2017-07-24 09:25",4.79
"2017-07-24 09:30",4.81
"2017-07-24 09:35",4.86
"2017-07-24 09:40",4.91
"2017-07-24 09:45",4.88
"2017-07-24 09:50",4.56
"2017-07-24 09:55",3.53
"2017-07-24 10:00",2.75
"2017-07-24 10:05",2.31
"2017-07-24 10:10",2.00
"2017-07-24 10:15",1.72
"2017-07-24 10:20",1.57
"2017-07-24 10:25",1.38
"2017-07-24 10:30",1.28
"2017-07-24 10:35",1.19
"2017-07-24 10:40",1.13
"2017-07-24 10:45",1.07
"2017-07-24 10:50",0.98
"2017-07-24 10:55",0.96
"2017-07-24 11:00",0.95
"2017-07-24 11:05",0.91
"2017-07-24 11:10",0.87
"2017-07-24 11:15",0.85
"2017-07-24 11:20",0.83
"2017-07-24 11:25",0.81
"2017-07-24 11:30",0.79
"2017-07-24 11:35",0.77
"2017-07-24 11:40",0.75
"2017-07-24 11:45",0.73
"2017-07-24 11:50",0.70
"2017-07-24 12:05",0.69
"2017-07-24 12:10",0.67
"2017-07-24 12:15",0.65
"2017-07-24 12:20",0.68
"2017-07-24 12:30",0.66
"2017-07-24 12:45",0.64
"2017-07-24 12:50",0.59
"2017-07-24 12:55",0.62
"2017-07-24 13:00",0.64
"2017-07-24 13:05",0.66
"2017-07-24 13:10",0.68
"2017-07-24 13:15",0.65
"2017-07-24 13:25",0.66
"2017-07-24 13:30",0.67
"2017-07-24 13:35",0.59
"2017-07-24 13:45",0.61
"2017-07-24 13:50",0.64
"2017-07-24 13:55",0.61
"2017-07-24 14:00",0.63
"2017-07-24 14:15",0.60
"2017-07-24 14:20",0.57
"2017-07-24 14:30",0.61
"2017-07-24 14:35",0.62
"2017-07-24 14:40",0.61
"2017-07-24 14:45",0.62
"2017-07-24 14:50",0.60
"2017-07-24 14:55",0.59
"2017-07-24 15:00",0.55
"2017-07-24 15:10",0.59
"2017-07-24 15:20",0.59
"2017-07-24 15:30",0.57
"2017-07-24 15:40",0.55
"2017-07-24 15:45",0.60
"2017-07-24 15:50",0.61
"2017-07-24 16:05",0.57
"2017-07-24 16:15",0.55
"2017-07-24 16:30",0.56
"2017-07-24 16:35",0.61
"2017-07-24 16:45",0.57
"2017-07-24 16:50",0.61
"2017-07-24 16:55",0.56
"2017-07-24 17:05",0.59
"2017-07-24 17:10",0.55
"2017-07-24 17:20",0.52
"2017-07-24 17:30",0.54
"2017-07-24 17:40",0.55
"2017-07-24 17:55",0.59
"2017-07-24 18:05",0.56
"2017-07-24 18:10",0.54
"2017-07-24 18:20",0.53
"2017-07-24 18:25",0.52
"2017-07-24 18:30",0.51
"2017-07-24 18:40",0.49
"2017-07-24 18:55",0.47
"2017-07-24 19:05",0.45
"2017-07-24 19:15",0.44
"2017-07-24 19:30",0.45
"2017-07-24 19:50",0.42
"2017-07-24 19:55",0.41
"2017-07-24 20:35",0.39
"2017-07-24 20:45",0.41
"2017-07-24 21:20",0.39
"2017-07-24 21:25",0.36
"2017-07-24 21:30",0.38
"2017-07-24 21:45",0.39
"2017-07-24 22:00",0.37
"2017-07-24 23:00",0.36
"2017-07-24 23:30",0.35
"2017-07-24 23:45",0.33
"2017-07-24 23:50",0.35
"2017-07-24 23:55",0.33
"2017-07-25 00:00",0.34
"2017-07-25 00:50",0.36
"2017-07-25 01:50",0.36
"2017-07-25 02:00",0.35
"2017-07-25 02:45",0.34
"2017-07-25 02:50",0.32
"2017-07-25 03:00",0.33
"2017-07-25 03:05",0.32
"2017-07-25 03:10",0.34
"2017-07-25 03:15",0.33
"2017-07-25 03:20",0.32
"2017-07-25 03:35",0.31
"2017-07-25 03:45",0.33
"2017-07-25 03:50",0.35
"2017-07-25 03:55",0.32
"2017-07-25 04:00",0.34
"2017-07-25 04:05",0.32
"2017-07-25 04:10",0.31
"2017-07-25 04:35",0.30
"2017-07-25 04:45",0.31
"2017-07-25 04:50",0.29
"2017-07-25 04:55",0.31
"2017-07-25 05:10",0.32
"2017-07-25 05:35",0.33
"2017-07-25 06:35",0.33
"2017-07-25 06:40",0.31
"2017-07-25 06:45",0.33
"2017-07-25 06:50",0.31
"2017-07-25 07:15",0.30
"2017-07-25 07:20",0.31
"2017-07-25 07:35",0.33
"2017-07-25 07:40",0.31
"2017-07-25 07:50",0.34
"2017-07-25 07:55",0.31
"2017-07-25 08:05",0.42
"2017-07-25 08:10",0.88
"2017-07-25 08:15",1.49
"2017-07-25 08:20",2.10
"2017-07-25 08:25",2.58
"2017-07-25 08:30",3.11
"2017-07-25 08:35",3.53
"2017-07-25 08:40",3.88
"2017-07-25 08:45",4.14
"2017-07-25 08:50",4.44
"2017-07-25 08:55",4.57
"2017-07-25 09:00",4.68
"2017-07-25 09:05",4.74
"2017-07-25 09:10",4.81
"2017-07-25 09:15",4.79
"2017-07-25 09:25",4.78
"2017-07-25 09:30",4.75
"2017-07-25 09:35",4.78
"2017-07-25 09:40",4.80
"2017-07-25 09:45",4.87
"2017-07-25 09:50",4.58
"2017-07-25 09:55",3.58
"2017-07-25 10:00",2.84
"2017-07-25 10:05",2.39
"2017-07-25 10:10",2.07
"2017-07-25 10:15",1.79
"2017-07-25 10:20",1.57
"2017-07-25 10:25",1.44
"2017-07-25 10:30",1.31
"2017-07-25 10:35",1.23
"2017-07-25 10:40",1.12
"2017-07-25 10:45",1.05
"2017-07-25 10:50",0.97
"2017-07-25 10:55",0.95
"2017-07-25 11:00",0.87
"2017-07-25 11:05",0.90
"2017-07-25 11:10",0.88
"2017-07-25 11:15",0.84
"2017-07-25 11:20",0.81
"2017-07-25 11:25",0.79
"2017-07-25 11:30",0.77
"2017-07-25 11:35",0.73
"2017-07-25 11:45",0.72
"2017-07-25 11:50",0.69
"2017-07-25 12:00",0.66
"2017-07-25 12:05",0.65
"2017-07-25 12:10",0.62
"2017-07-25 12:15",0.65
"2017-07-25 12:50",0.60
"2017-07-25 13:05",0.62
"2017-07-25 13:10",0.65
"2017-07-25 13:15",0.63
"2017-07-25 13:20",0.61
"2017-07-25 13:35",0.59
"2017-07-25 13:40",0.57
"2017-07-25 13:45",0.61
"2017-07-25 13:55",0.62
"2017-07-25 14:05",0.60
"2017-07-25 14:20",0.59
"2017-07-25 14:25",0.60
"2017-07-25 14:30",0.57
"2017-07-25 14:40",0.61
"2017-07-25 14:45",0.62
"2017-07-25 14:50",0.59
"2017-07-25 14:55",0.61
"2017-07-25 15:00",0.57
"2017-07-25 15:10",0.56
"2017-07-25 15:25",0.60
"2017-07-25 15:30",0.62
"2017-07-25 15:45",0.59
"2017-07-25 15:50",0.57
"2017-07-25 15:55",0.55
"2017-07-25 16:05",0.51
"2017-07-25 16:25",0.53
"2017-07-25 16:35",0.54
"2017-07-25 16:40",0.51
"2017-07-25 16:50",0.49
"2017-07-25 16:55",0.51
"2017-07-25 17:00",0.49
"2017-07-25 17:20",0.48
"2017-07-25 17:25",0.47
"2017-07-25 17:50",0.48
"2017-07-25 18:05",0.45
"2017-07-25 18:10",0.44
"2017-07-25 19:00",0.43
"2017-07-25 19:05",0.41
"2017-07-25 19:10",0.40
"2017-07-25 19:55",0.39
"2017-07-25 20:00",0.37
"2017-07-25 20:30",0.38
"2017-07-25 20:50",0.36
"2017-07-25 21:00",0.34
"2017-07-25 21:05",0.32
"2017-07-25 21:10",0.36
"2017-07-25 21:15",0.37
"2017-07-25 21:45",0.38
"2017-07-25 22:00",0.37
"2017-07-25 22:05",0.34
"2017-07-25 22:10",0.31
"2017-07-25 22:15",0.33
"2017-07-25 22:20",0.32
"2017-07-25 22:35",0.34
"2017-07-25 22:40",0.33
"2017-07-25 22:45",0.34
"2017-07-25 23:00",0.33
"2017-07-25 23:05",0.32
"2017-07-25 23:10",0.34
"2017-07-25 23:45",0.32
"2017-07-25 23:50",0.31
"2017-07-25 23:55",0.32
"2017-07-26 00:15",0.35
"2017-07-26 00:25",0.33
"2017-07-26 00:30",0.36
"2017-07-26 00:35",0.34
"2017-07-26 00:40",0.36
"2017-07-26 01:00",0.34
"2017-07-26 01:05",0.35
"2017-07-26 01:20",0.34
"2017-07-26 01:50",0.36
"2017-07-26 02:10",0.34
"2017-07-26 02:45",0.33
"2017-07-26 02:50",0.34
"2017-07-26 03:00",0.32
"2017-07-26 03:15",0.29
"2017-07-26 03:30",0.27
"2017-07-26 03:35",0.29
"2017-07-26 03:45",0.30
"2017-07-26 04:15",0.31
"2017-07-26 04:45",0.33
"2017-07-26 04:55",0.32
"2017-07-26 05:00",0.31
"2017-07-26 05:15",0.30
"2017-07-26 05:20",0.33
"2017-07-26 05:25",0.29
"2017-07-26 05:30",0.31
"2017-07-26 05:35",0.32
"2017-07-26 05:45",0.31
"2017-07-26 05:50",0.30
"2017-07-26 06:00",0.32
"2017-07-26 06:05",0.31
"2017-07-26 06:20",0.32
"2017-07-26 06:25",0.30
"2017-07-26 06:35",0.31
"2017-07-26 06:45",0.30
"2017-07-26 07:05",0.33
"2017-07-26 07:10",0.31
"2017-07-26 07:20",0.30
"2017-07-26 07:35",0.31
"2017-07-26 07:40",0.29
"2017-07-26 07:45",0.30
"2017-07-26 07:50",0.32
"2017-07-26 07:55",0.30
"2017-07-26 08:05",0.54
"2017-07-26 08:10",1.03
"2017-07-26 08:15",1.61
"2017-07-26 08:20",2.27
"2017-07-26 08:25",2.81
"2017-07-26 08:30",3.27
"2017-07-26 08:35",3.67
"2017-07-26 08:40",3.95
"2017-07-26 08:45",4.22
"2017-07-26 08:50",4.47
"2017-07-26 08:55",4.59
"2017-07-26 09:00",4.68
"2017-07-26 09:05",4.73
"2017-07-26 09:10",4.72
"2017-07-26 09:20",4.78
"2017-07-26 09:25",4.81
"2017-07-26 09:30",4.83
"2017-07-26 09:35",4.87
"2017-07-26 09:40",4.89
"2017-07-26 09:50",4.81
"2017-07-26 09:55",3.66
"2017-07-26 10:00",2.98
"2017-07-26 10:05",2.46
"2017-07-26 10:10",2.08
"2017-07-26 10:15",1.76
"2017-07-26 10:20",1.56
"2017-07-26 10:25",1.40
"2017-07-26 10:30",1.26
"2017-07-26 10:35",1.15
"2017-07-26 10:40",1.08
"2017-07-26 10:45",1.02
"2017-07-26 10:50",0.94
"2017-07-26 10:55",0.87
"2017-07-26 11:00",0.84
"2017-07-26 11:10",0.80
"2017-07-26 11:15",0.76
"2017-07-26 11:20",0.72
"2017-07-26 11:25",0.70
"2017-07-26 11:30",0.67
"2017-07-26 11:35",0.63
"2017-07-26 11:40",0.61
"2017-07-26 11:45",0.58
"2017-07-26 11:50",0.56
"2017-07-26 12:00",0.54
"2017-07-26 12:05",0.60
"2017-07-26 12:10",0.57
"2017-07-26 12:15",0.56
"2017-07-26 12:25",0.52
"2017-07-26 12:30",0.54
"2017-07-26 12:40",0.48
"2017-07-26 12:50",0.51
"2017-07-26 12:55",0.50
"2017-07-26 13:00",0.48
"2017-07-26 13:10",0.46
"2017-07-26 13:15",0.44
"2017-07-26 13:20",0.47
"2017-07-26 13:35",0.44
"2017-07-26 13:55",0.43
"2017-07-26 14:00",0.41
"2017-07-26 14:10",0.43
"2017-07-26 14:15",0.44
"2017-07-26 14:25",0.42
"2017-07-26 14:30",0.40
"2017-07-26 14:40",0.39
"2017-07-26 14:50",0.41
"2017-07-26 15:15",0.39
"2017-07-26 15:40",0.40
"2017-07-26 15:50",0.39
"2017-07-26 16:10",0.40
"2017-07-26 16:25",0.38
"2017-07-26 16:30",0.35
"2017-07-26 16:35",0.37
"2017-07-26 16:45",0.35
"2017-07-26 16:50",0.37
"2017-07-26 17:10",0.35
"2017-07-26 17:15",0.34
"2017-07-26 17:20",0.35
"2017-07-26 17:25",0.38
"2017-07-26 17:40",0.36
"2017-07-26 17:55",0.35
"2017-07-26 18:10",0.33
"2017-07-26 18:15",0.34
"2017-07-26 18:30",0.35
"2017-07-26 18:40",0.37
"2017-07-26 18:50",0.36
"2017-07-26 18:55",0.38
"2017-07-26 19:00",0.34
"2017-07-26 19:10",0.36
"2017-07-26 19:35",0.32
"2017-07-26 19:50",0.35
"2017-07-26 19:55",0.36
"2017-07-26 20:15",0.31
"2017-07-26 20:30",0.33
"2017-07-26 20:50",0.30
"2017-07-26 21:05",0.34
"2017-07-26 21:10",0.36
"2017-07-26 21:30",0.32
"2017-07-26 22:00",0.29
"2017-07-26 22:35",0.31
"2017-07-26 23:05",0.28
"2017-07-26 23:10",0.29
"2017-07-26 23:20",0.31
"2017-07-26 23:30",0.32
"2017-07-26 23:40",0.33
"2017-07-27 00:00",0.32
"2017-07-27 00:05",0.30
"2017-07-27 00:20",0.27
"2017-07-27 00:35",0.26
"2017-07-27 00:55",0.27
"2017-07-27 01:05",0.28
"2017-07-27 01:20",0.30
"2017-07-27 01:25",0.28
"2017-07-27 01:30",0.29
"2017-07-27 01:35",0.30
"2017-07-27 01:40",0.31
"2017-07-27 01:45",0.30
"2017-07-27 01:55",0.31
"2017-07-27 02:00",0.33
"2017-07-27 02:05",0.31
"2017-07-27 02:10",0.32
"2017-07-27 02:15",0.34
"2017-07-27 02:25",0.32
"2017-07-27 02:40",0.31
"2017-07-27 03:05",0.29
"2017-07-27 03:50",0.28
"2017-07-27 04:05",0.27
"2017-07-27 04:20",0.28
"2017-07-27 04:25",0.26
"2017-07-27 04:30",0.28
"2017-07-27 04:55",0.30
"2017-07-27 05:00",0.27
"2017-07-27 05:10",0.28
"2017-07-27 05:25",0.27
"2017-07-27 05:40",0.29
"2017-07-27 05:55",0.30
"2017-07-27 06:55",0.31
"2017-07-27 07:50",0.29
"2017-07-27 08:00",0.26
"2017-07-27 08:05",0.38
"2017-07-27 08:10",0.81
"2017-07-27 08:15",1.43
"2017-07-27 08:20",2.04
"2017-07-27 08:25",2.59
"2017-07-27 08:30",3.15
"2017-07-27 08:35",3.58
"2017-07-27 08:40",3.90
"2017-07-27 08:45",4.12
"2017-07-27 08:50",4.37
"2017-07-27 08:55",4.57
"2017-07-27 09:00",4.60
"2017-07-27 09:05",4.66
"2017-07-27 09:10",4.67
"2017-07-27 09:15",4.73
"2017-07-27 09:20",4.81
"2017-07-27 09:25",4.84
"2017-07-27 09:40",4.86
"2017-07-27 09:45",4.88
"2017-07-27 09:50",4.40
"2017-07-27 09:55",3.41
"2017-07-27 10:00",2.69
"2017-07-27 10:05",2.26
"2017-07-27 10:10",1.95
"2017-07-27 10:15",1.73
"2017-07-27 10:20",1.51
"2017-07-27 10:25",1.43
"2017-07-27 10:30",1.31
