"2016-07-27 11:15",0.00
"2016-07-27 12:15",0.00
"2016-07-27 13:15",0.00
"2016-07-27 14:15",0.00
"2016-07-27 15:15",0.00
"2016-07-27 16:15",0.00
"2016-07-27 17:15",0.00
"2016-07-27 18:15",0.00
"2016-07-27 19:15",0.00
"2016-07-27 20:15",0.00
"2016-07-27 21:15",0.00
"2016-07-27 22:15",0.00
"2016-07-27 23:15",0.00
"2016-07-28 00:15",0.00
"2016-07-28 01:15",0.00
"2016-07-28 02:15",0.00
"2016-07-28 03:15",0.00
"2016-07-28 04:15",0.00
"2016-07-28 05:15",0.00
"2016-07-28 06:15",0.00
"2016-07-28 07:15",0.00
"2016-07-28 08:15",0.00
"2016-07-28 09:15",0.00
"2016-07-28 10:15",0.00
"2016-07-28 11:15",0.00
"2016-07-28 12:15",0.00
"2016-07-28 13:15",0.00
"2016-07-28 14:15",0.00
"2016-07-28 15:15",0.00
"2016-07-28 16:15",0.00
"2016-07-28 17:15",0.00
"2016-07-28 18:15",0.00
"2016-07-28 19:15",0.00
"2016-07-28 20:15",0.00
"2016-07-28 21:15",0.00
"2016-07-28 22:15",0.00
"2016-07-28 23:15",0.00
"2016-07-29 00:15",0.00
"2016-07-29 01:15",0.00
"2016-07-29 02:15",0.00
"2016-07-29 03:15",0.00
"2016-07-29 04:15",0.00
"2016-07-29 05:15",0.00
"2016-07-29 06:15",0.00
"2016-07-29 07:15",0.00
"2016-07-29 08:15",0.00
"2016-07-29 09:15",0.00
"2016-07-29 10:15",0.00
"2016-07-29 11:15",0.00
"2016-07-29 12:15",0.00
"2016-07-29 13:15",0.00
"2016-07-29 14:15",0.00
"2016-07-29 15:15",0.00
"2016-07-29 16:15",0.00
"2016-07-29 17:15",0.00
"2016-07-29 18:15",0.00
"2016-07-29 19:15",0.00
"2016-07-29 20:15",0.00
"2016-07-29 21:15",0.00
"2016-07-29 22:15",0.00
"2016-07-29 23:15",0.00
"2016-07-30 00:15",0.00
"2016-07-30 01:15",0.00
"2016-07-30 02:15",0.00
"2016-07-30 03:15",0.00
"2016-07-30 04:15",0.00
"2016-07-30 05:15",0.00
"2016-07-30 06:15",0.00
"2016-07-30 07:15",0.00
"2016-07-30 08:15",0.00
"2016-07-30 09:15",0.00
"2016-07-30 10:15",0.00
"2016-07-30 11:15",0.00
"2016-07-30 12:15",0.00
"2016-07-30 13:15",0.00
"2016-07-30 14:15",0.00
"2016-07-30 15:15",0.00
"2016-07-30 16:15",0.00
"2016-07-30 17:15",0.00
"2016-07-30 18:15",0.00
"2016-07-30 19:15",0.00
"2016-07-30 20:15",0.00
"2016-07-30 21:15",0.00
"2016-07-30 22:15",0.00
"2016-07-30 23:15",0.00
"2016-07-31 00:15",0.00
"2016-07-31 01:15",0.00
"2016-07-31 02:15",0.00
"2016-07-31 03:15",0.00
"2016-07-31 04:15",0.00
"2016-07-31 05:15",0.00
"2016-07-31 06:15",0.00
"2016-07-31 07:15",0.00
"2016-07-31 08:15",0.00
"2016-07-31 09:15",0.00
"2016-07-31 10:15",0.00
"2016-07-31 11:15",0.00
"2016-07-31 12:15",0.00
"2016-07-31 13:15",0.00
"2016-07-31 14:15",0.00
"2016-07-31 15:15",0.00
"2016-07-31 16:15",0.00
"2016-07-31 17:15",0.00
"2016-07-31 18:15",0.00
"2016-07-31 19:15",0.00
"2016-07-31 20:15",0.00
"2016-07-31 21:15",0.00
"2016-07-31 22:15",0.00
"2016-07-31 23:15",0.00
"2016-08-01 00:15",0.00
"2016-08-01 01:15",0.00
"2016-08-01 02:15",0.00
"2016-08-01 03:15",0.00
"2016-08-01 04:15",0.00
"2016-08-01 05:15",0.00
"2016-08-01 06:15",0.00
"2016-08-01 07:15",0.00
"2016-08-01 08:15",0.00
"2016-08-01 09:15",0.00
"2016-08-01 10:15",0.00
"2016-08-01 11:15",0.00
"2016-08-01 12:15",0.00
"2016-08-01 13:15",0.00
"2016-08-01 14:15",0.00
"2016-08-01 15:15",0.00
"2016-08-01 16:15",0.00
"2016-08-01 17:15",0.00
"2016-08-01 18:15",0.00
"2016-08-01 19:15",0.00
"2016-08-01 20:15",0.00
"2016-08-01 21:15",0.00
"2016-08-01 22:15",0.00
"2016-08-01 23:15",0.00
"2016-08-02 00:15",0.00
"2016-08-02 01:15",0.00
"2016-08-02 02:15",0.00
"2016-08-02 03:15",0.00
"2016-08-02 04:15",0.00
"2016-08-02 05:15",0.00
"2016-08-02 06:15",0.00
"2016-08-02 07:15",0.00
"2016-08-02 08:15",0.00
"2016-08-02 09:15",0.00
"2016-08-02 10:15",0.00
"2016-08-02 11:15",0.00
"2016-08-02 12:15",0.00
"2016-08-02 13:15",0.00
"2016-08-02 14:15",0.00
"2016-08-02 15:15",0.00
"2016-08-02 16:15",0.00
"2016-08-02 17:15",0.00
"2016-08-02 18:15",0.00
"2016-08-02 19:15",0.00
"2016-08-02 20:15",0.00
"2016-08-02 21:15",0.00
"2016-08-02 22:15",0.00
"2016-08-02 23:15",0.00
"2016-08-03 00:15",0.00
"2016-08-03 01:15",0.00
"2016-08-03 02:15",0.00
"2016-08-03 03:15",0.00
"2016-08-03 04:15",0.00
"2016-08-03 05:15",0.00
"2016-08-03 06:15",0.00
"2016-08-03 07:15",0.00
