"2016-05-11 16:25",12.75
"2016-05-11 16:30",13.08
"2016-05-11 16:35",13.31
"2016-05-11 16:40",13.42
"2016-05-11 16:45",13.35
"2016-05-11 16:50",13.26
"2016-05-11 17:05",13.34
"2016-05-11 17:10",13.37
"2016-05-11 17:15",13.40
"2016-05-11 17:20",13.39
"2016-05-11 17:30",13.36
"2016-05-11 17:35",13.40
"2016-05-11 17:40",13.45
"2016-05-11 17:45",13.57
"2016-05-11 18:00",13.56
"2016-05-11 18:05",13.46
"2016-05-11 18:10",13.45
"2016-05-11 18:15",13.44
"2016-05-11 18:25",13.48
"2016-05-11 18:30",13.62
"2016-05-11 18:35",13.74
"2016-05-11 18:40",13.85
"2016-05-11 18:45",13.95
"2016-05-11 18:50",14.05
"2016-05-11 18:55",14.07
"2016-05-11 19:05",14.11
"2016-05-11 19:10",14.06
"2016-05-11 19:15",13.97
"2016-05-11 19:20",13.88
"2016-05-11 19:25",13.84
"2016-05-11 19:30",13.77
"2016-05-11 19:35",13.72
"2016-05-11 19:40",13.69
"2016-05-11 19:45",13.60
"2016-05-11 19:50",13.41
"2016-05-11 19:55",13.34
"2016-05-11 20:00",13.25
"2016-05-11 20:05",13.18
"2016-05-11 20:10",13.20
"2016-05-11 20:15",13.18
"2016-05-11 20:25",13.16
"2016-05-11 20:30",13.15
"2016-05-11 20:35",13.08
"2016-05-11 20:40",13.00
"2016-05-11 20:45",12.96
"2016-05-11 20:50",12.85
"2016-05-11 20:55",12.78
"2016-05-11 21:00",12.74
"2016-05-11 21:05",12.66
"2016-05-11 21:10",12.59
"2016-05-11 21:15",12.54
"2016-05-11 21:20",12.49
"2016-05-11 21:25",12.47
"2016-05-11 21:35",12.45
"2016-05-11 21:40",12.43
"2016-05-11 21:45",12.38
"2016-05-11 21:50",12.34
"2016-05-11 21:55",12.25
"2016-05-11 22:00",12.17
"2016-05-11 22:05",12.11
"2016-05-11 22:10",12.07
"2016-05-11 22:15",12.01
"2016-05-11 22:20",12.00
"2016-05-11 22:25",11.95
"2016-05-11 22:30",11.91
"2016-05-11 22:35",11.88
"2016-05-11 22:40",11.86
"2016-05-11 22:45",11.83
"2016-05-11 22:50",11.76
"2016-05-11 22:55",11.70
"2016-05-11 23:00",11.66
"2016-05-11 23:05",11.62
"2016-05-11 23:10",11.59
"2016-05-11 23:15",11.54
"2016-05-11 23:20",11.50
"2016-05-11 23:25",11.48
"2016-05-11 23:30",11.44
"2016-05-11 23:35",11.38
"2016-05-11 23:40",11.33
"2016-05-11 23:45",11.22
"2016-05-11 23:50",11.18
"2016-05-11 23:55",11.11
"2016-05-12 00:00",11.07
"2016-05-12 00:05",11.01
"2016-05-12 00:10",10.97
"2016-05-12 00:15",10.93
"2016-05-12 00:20",10.87
"2016-05-12 00:25",10.79
"2016-05-12 00:35",10.63
"2016-05-12 00:40",10.57
"2016-05-12 00:45",10.51
"2016-05-12 00:50",10.44
"2016-05-12 00:55",10.39
"2016-05-12 01:00",10.37
"2016-05-12 01:05",10.28
"2016-05-12 01:10",10.23
"2016-05-12 01:15",10.17
"2016-05-12 01:20",10.09
"2016-05-12 01:25",10.03
"2016-05-12 01:30",9.97
"2016-05-12 01:35",9.94
"2016-05-12 01:40",9.87
"2016-05-12 01:45",9.82
"2016-05-12 01:50",9.77
"2016-05-12 01:55",9.72
"2016-05-12 02:00",9.67
"2016-05-12 02:05",9.63
"2016-05-12 02:10",9.56
"2016-05-12 02:15",9.49
"2016-05-12 02:20",9.42
"2016-05-12 02:25",9.39
"2016-05-12 02:30",9.34
"2016-05-12 02:35",9.31
"2016-05-12 02:40",9.25
"2016-05-12 02:45",9.21
"2016-05-12 02:50",9.17
"2016-05-12 02:55",9.14
"2016-05-12 03:00",9.08
"2016-05-12 03:05",9.03
"2016-05-12 03:10",8.99
"2016-05-12 03:15",8.95
"2016-05-12 03:20",8.89
"2016-05-12 03:25",8.88
"2016-05-12 03:30",8.83
"2016-05-12 03:35",8.80
"2016-05-12 03:40",8.76
"2016-05-12 03:45",8.71
"2016-05-12 03:50",8.66
"2016-05-12 03:55",8.59
"2016-05-12 04:00",8.57
"2016-05-12 04:05",8.53
"2016-05-12 04:10",8.48
"2016-05-12 04:15",8.46
"2016-05-12 04:20",8.41
"2016-05-12 04:25",8.39
"2016-05-12 04:30",8.35
"2016-05-12 04:35",8.32
"2016-05-12 04:40",8.26
"2016-05-12 04:45",8.21
"2016-05-12 04:50",8.17
"2016-05-12 04:55",8.15
"2016-05-12 05:00",8.11
"2016-05-12 05:05",8.08
"2016-05-12 05:10",8.05
"2016-05-12 05:15",8.02
"2016-05-12 05:20",7.97
"2016-05-12 05:25",7.96
"2016-05-12 05:30",7.90
"2016-05-12 05:35",7.86
"2016-05-12 05:40",7.83
"2016-05-12 05:45",7.80
"2016-05-12 05:50",7.78
"2016-05-12 05:55",7.75
"2016-05-12 06:00",7.71
"2016-05-12 06:05",7.70
"2016-05-12 06:10",7.69
"2016-05-12 06:15",7.64
"2016-05-12 06:20",7.62
"2016-05-12 06:30",7.56
"2016-05-12 06:35",7.54
"2016-05-12 06:40",7.52
"2016-05-12 06:50",7.48
"2016-05-12 06:55",7.46
"2016-05-12 07:05",7.41
"2016-05-12 07:10",7.39
"2016-05-12 07:15",7.38
"2016-05-12 07:20",7.34
"2016-05-12 07:25",7.31
"2016-05-12 07:30",7.30
"2016-05-12 07:40",7.28
"2016-05-12 07:45",7.24
"2016-05-12 07:50",7.21
"2016-05-12 07:55",7.18
"2016-05-12 08:00",7.15
"2016-05-12 08:05",7.13
"2016-05-12 08:10",7.11
"2016-05-12 08:15",7.08
"2016-05-12 08:20",7.06
"2016-05-12 08:25",7.03
"2016-05-12 08:30",7.01
"2016-05-12 08:35",6.98
"2016-05-12 08:40",6.95
"2016-05-12 08:45",6.89
"2016-05-12 08:50",6.86
"2016-05-12 09:05",6.83
"2016-05-12 09:10",6.79
"2016-05-12 09:15",6.74
"2016-05-12 09:20",6.73
"2016-05-12 09:25",6.76
"2016-05-12 09:30",6.78
"2016-05-12 09:35",6.82
"2016-05-12 09:40",6.86
"2016-05-12 09:45",6.87
"2016-05-12 10:00",6.86
"2016-05-12 10:05",6.84
"2016-05-12 10:15",6.81
"2016-05-12 10:20",6.80
"2016-05-12 10:25",6.79
"2016-05-12 10:30",6.76
"2016-05-12 10:35",6.75
"2016-05-12 10:40",6.73
"2016-05-12 10:45",6.71
"2016-05-12 10:50",6.68
"2016-05-12 10:55",6.66
"2016-05-12 11:00",6.63
"2016-05-12 11:10",6.61
"2016-05-12 11:15",6.58
"2016-05-12 11:20",6.53
"2016-05-12 11:25",6.51
"2016-05-12 11:40",6.49
"2016-05-12 11:45",6.48
"2016-05-12 11:50",6.44
"2016-05-12 11:55",6.42
"2016-05-12 12:15",6.44
"2016-05-12 12:25",6.47
"2016-05-12 12:45",6.49
"2016-05-12 13:00",6.50
"2016-05-12 13:05",6.52
"2016-05-12 13:20",6.51
"2016-05-12 13:35",6.53
"2016-05-12 13:40",6.60
"2016-05-12 13:45",6.65
"2016-05-12 13:50",6.71
"2016-05-12 13:55",6.77
"2016-05-12 14:00",6.81
"2016-05-12 14:05",6.87
"2016-05-12 14:10",6.90
"2016-05-12 14:15",6.95
"2016-05-12 14:20",6.98
"2016-05-12 14:30",7.01
"2016-05-12 14:35",7.03
"2016-05-12 14:50",7.00
"2016-05-12 14:55",6.98
"2016-05-12 15:00",6.94
"2016-05-12 15:05",6.88
"2016-05-12 15:10",6.83
"2016-05-12 15:15",6.80
"2016-05-12 15:20",6.77
"2016-05-12 15:25",6.73
"2016-05-12 15:30",6.72
"2016-05-12 15:35",6.70
"2016-05-12 15:40",6.66
"2016-05-12 15:45",6.63
"2016-05-12 16:05",6.65
"2016-05-12 16:10",6.63
"2016-05-12 16:20",6.61
"2016-05-12 16:45",6.64
"2016-05-12 16:50",6.66
"2016-05-12 17:00",6.70
"2016-05-12 17:05",6.72
"2016-05-12 17:10",6.76
"2016-05-12 17:15",6.79
"2016-05-12 17:20",6.77
"2016-05-12 17:25",6.79
"2016-05-12 17:30",6.84
"2016-05-12 17:35",6.86
"2016-05-12 17:50",6.87
"2016-05-12 18:00",6.91
"2016-05-12 18:05",6.93
"2016-05-12 18:25",6.90
"2016-05-12 18:30",6.88
"2016-05-12 18:45",6.84
"2016-05-12 18:50",6.80
"2016-05-12 19:05",6.79
"2016-05-12 19:10",6.81
"2016-05-12 19:15",6.83
"2016-05-12 19:20",6.86
"2016-05-12 19:25",6.87
"2016-05-12 19:30",6.91
"2016-05-12 19:35",6.99
"2016-05-12 19:40",7.02
"2016-05-12 19:50",6.99
"2016-05-12 20:00",6.93
"2016-05-12 20:05",6.88
"2016-05-12 20:15",6.84
"2016-05-12 20:20",6.83
"2016-05-12 20:30",6.80
"2016-05-12 20:35",6.79
"2016-05-12 20:45",6.76
"2016-05-12 20:50",6.73
"2016-05-12 21:00",6.72
"2016-05-12 21:20",6.70
"2016-05-12 21:25",6.68
"2016-05-12 21:35",6.67
"2016-05-12 21:40",6.66
"2016-05-12 21:55",6.65
"2016-05-12 22:10",6.62
"2016-05-12 22:25",6.57
"2016-05-12 22:35",6.55
"2016-05-12 22:45",6.54
"2016-05-12 23:00",6.51
"2016-05-12 23:15",6.50
"2016-05-12 23:20",6.47
"2016-05-12 23:25",6.46
"2016-05-12 23:55",6.48
"2016-05-13 00:00",6.52
"2016-05-13 00:10",6.53
"2016-05-13 00:15",6.55
"2016-05-13 00:20",6.60
"2016-05-13 00:25",6.61
"2016-05-13 00:35",6.59
"2016-05-13 00:40",6.57
"2016-05-13 00:45",6.54
"2016-05-13 00:50",6.51
"2016-05-13 00:55",6.50
"2016-05-13 01:00",6.48
"2016-05-13 01:05",6.46
"2016-05-13 01:15",6.44
"2016-05-13 01:20",6.42
"2016-05-13 01:30",6.40
"2016-05-13 01:35",6.38
"2016-05-13 01:45",6.37
"2016-05-13 02:05",6.35
"2016-05-13 02:10",6.36
"2016-05-13 02:15",6.35
"2016-05-13 02:35",6.36
"2016-05-13 02:55",6.37
"2016-05-13 03:20",6.39
"2016-05-13 03:30",6.41
"2016-05-13 03:40",6.42
"2016-05-13 04:00",6.44
"2016-05-13 04:05",6.45
"2016-05-13 04:30",6.43
"2016-05-13 04:40",6.42
"2016-05-13 04:45",6.41
"2016-05-13 04:55",6.40
"2016-05-13 05:00",6.41
"2016-05-13 05:15",6.42
"2016-05-13 05:30",6.44
"2016-05-13 05:35",6.45
"2016-05-13 05:50",6.47
"2016-05-13 06:05",6.48
"2016-05-13 06:10",6.49
"2016-05-13 06:15",6.52
"2016-05-13 06:20",6.53
"2016-05-13 06:25",6.56
"2016-05-13 06:30",6.57
"2016-05-13 06:35",6.60
"2016-05-13 06:40",6.62
"2016-05-13 06:45",6.65
"2016-05-13 06:50",6.67
"2016-05-13 06:55",6.68
"2016-05-13 07:00",6.69
"2016-05-13 07:05",6.71
"2016-05-13 07:15",6.73
"2016-05-13 07:20",6.76
"2016-05-13 07:35",6.78
"2016-05-13 07:40",6.80
"2016-05-13 07:45",6.83
"2016-05-13 07:55",6.85
"2016-05-13 08:10",6.88
"2016-05-13 08:20",6.93
"2016-05-13 08:25",6.95
"2016-05-13 08:35",6.96
"2016-05-13 08:40",6.97
"2016-05-13 08:50",7.05
"2016-05-13 08:55",7.07
"2016-05-13 09:00",7.08
"2016-05-13 09:05",7.07
"2016-05-13 09:10",7.08
"2016-05-13 09:25",7.11
"2016-05-13 09:30",7.12
"2016-05-13 09:35",7.13
"2016-05-13 09:45",7.16
"2016-05-13 09:50",7.18
"2016-05-13 09:55",7.20
"2016-05-13 10:05",7.22
"2016-05-13 10:10",7.24
"2016-05-13 10:15",7.28
"2016-05-13 10:20",7.29
"2016-05-13 10:25",7.31
"2016-05-13 10:30",7.33
"2016-05-13 10:40",7.35
"2016-05-13 10:45",7.38
"2016-05-13 10:50",7.40
"2016-05-13 11:05",7.41
"2016-05-13 11:10",7.45
"2016-05-13 11:15",7.50
"2016-05-13 11:25",7.51
"2016-05-13 11:50",7.55
"2016-05-13 11:55",7.59
"2016-05-13 12:00",7.61
"2016-05-13 12:05",7.62
"2016-05-13 12:10",7.64
"2016-05-13 12:15",7.66
"2016-05-13 12:20",7.71
"2016-05-13 12:25",7.73
"2016-05-13 12:30",7.75
"2016-05-13 12:35",7.77
"2016-05-13 12:40",7.79
"2016-05-13 12:45",7.82
"2016-05-13 12:50",7.84
"2016-05-13 12:55",7.86
"2016-05-13 13:10",7.93
"2016-05-13 13:20",7.95
"2016-05-13 13:45",7.94
"2016-05-13 13:50",7.96
"2016-05-13 13:55",7.98
"2016-05-13 14:00",8.00
"2016-05-13 14:05",8.01
"2016-05-13 14:10",8.05
"2016-05-13 14:15",8.09
"2016-05-13 14:20",8.13
"2016-05-13 14:25",8.15
"2016-05-13 14:40",8.13
"2016-05-13 14:55",8.11
"2016-05-13 15:00",8.09
"2016-05-13 15:10",8.05
"2016-05-13 15:15",8.03
"2016-05-13 15:20",8.02
"2016-05-13 15:25",8.00
"2016-05-13 15:30",7.86
"2016-05-13 15:35",7.81
"2016-05-13 15:40",7.77
"2016-05-13 15:50",7.76
"2016-05-13 15:55",7.73
"2016-05-13 16:05",7.70
"2016-05-13 16:10",7.69
"2016-05-13 16:15",7.66
"2016-05-13 16:25",7.64
"2016-05-13 16:40",7.62
"2016-05-13 16:55",7.65
"2016-05-13 17:00",7.70
"2016-05-13 17:05",7.74
"2016-05-13 17:10",7.76
"2016-05-13 17:15",7.79
"2016-05-13 17:20",7.83
"2016-05-13 17:25",7.90
"2016-05-13 17:30",7.95
"2016-05-13 17:35",7.96
"2016-05-13 17:40",7.97
"2016-05-13 17:50",7.94
"2016-05-13 18:00",7.83
"2016-05-13 18:05",7.78
"2016-05-13 18:10",7.73
"2016-05-13 18:15",7.67
"2016-05-13 18:20",7.59
"2016-05-13 18:25",7.52
"2016-05-13 18:30",7.48
"2016-05-13 18:35",7.44
"2016-05-13 18:40",7.39
"2016-05-13 18:45",7.35
"2016-05-13 18:50",7.30
"2016-05-13 18:55",7.29
"2016-05-13 19:00",7.21
"2016-05-13 19:05",7.19
"2016-05-13 19:10",7.14
"2016-05-13 19:15",7.11
"2016-05-13 19:20",7.10
"2016-05-13 19:35",7.09
"2016-05-13 19:50",7.07
"2016-05-13 20:05",7.08
"2016-05-13 20:10",7.12
"2016-05-13 20:15",7.13
"2016-05-13 20:20",7.14
"2016-05-13 20:25",7.18
"2016-05-13 20:30",7.20
"2016-05-13 20:45",7.19
"2016-05-13 20:50",7.18
"2016-05-13 21:00",7.14
"2016-05-13 21:05",7.13
"2016-05-13 21:10",7.11
"2016-05-13 21:15",7.08
"2016-05-13 21:20",7.05
"2016-05-13 21:25",7.03
"2016-05-13 21:30",6.99
"2016-05-13 21:35",6.95
"2016-05-13 21:40",6.89
"2016-05-13 21:45",6.86
"2016-05-13 21:50",6.82
"2016-05-13 21:55",6.79
"2016-05-13 22:00",6.75
"2016-05-13 22:05",6.72
"2016-05-13 22:10",6.68
"2016-05-13 22:15",6.65
"2016-05-13 22:20",6.62
"2016-05-13 22:25",6.59
"2016-05-13 22:30",6.51
"2016-05-13 22:40",6.48
"2016-05-13 22:45",6.45
"2016-05-13 22:55",6.43
"2016-05-13 23:05",6.39
"2016-05-13 23:10",6.38
"2016-05-13 23:30",6.36
"2016-05-13 23:35",6.34
"2016-05-13 23:40",6.31
"2016-05-13 23:45",6.29
"2016-05-13 23:50",6.28
"2016-05-13 23:55",6.24
"2016-05-14 00:05",6.22
"2016-05-14 00:10",6.20
"2016-05-14 00:15",6.19
"2016-05-14 00:20",6.17
"2016-05-14 00:25",6.16
"2016-05-14 00:35",6.14
"2016-05-14 00:40",6.12
"2016-05-14 00:45",6.10
"2016-05-14 00:55",6.09
"2016-05-14 01:00",6.08
"2016-05-14 01:10",6.06
"2016-05-14 01:15",6.05
"2016-05-14 01:20",6.04
"2016-05-14 01:25",6.02
"2016-05-14 01:35",5.97
"2016-05-14 01:45",5.95
"2016-05-14 01:50",5.94
"2016-05-14 02:00",5.91
"2016-05-14 02:10",5.90
"2016-05-14 02:20",5.88
"2016-05-14 02:25",5.87
"2016-05-14 02:30",5.85
"2016-05-14 02:35",5.83
"2016-05-14 02:40",5.80
"2016-05-14 02:45",5.77
"2016-05-14 02:50",5.74
"2016-05-14 02:55",5.71
"2016-05-14 03:00",5.68
"2016-05-14 03:05",5.65
"2016-05-14 03:10",5.61
"2016-05-14 03:20",5.59
"2016-05-14 03:25",5.57
"2016-05-14 03:30",5.53
"2016-05-14 03:35",5.52
"2016-05-14 03:45",5.50
"2016-05-14 03:50",5.48
"2016-05-14 03:55",5.46
"2016-05-14 04:10",5.43
"2016-05-14 04:15",5.41
"2016-05-14 04:20",5.38
"2016-05-14 04:25",5.37
"2016-05-14 04:30",5.35
"2016-05-14 04:40",5.33
"2016-05-14 04:50",5.31
"2016-05-14 04:55",5.30
"2016-05-14 05:20",5.29
"2016-05-14 05:30",5.26
"2016-05-14 05:40",5.25
"2016-05-14 05:45",5.24
"2016-05-14 06:00",5.22
"2016-05-14 06:10",5.20
"2016-05-14 06:25",5.18
"2016-05-14 06:30",5.17
"2016-05-14 06:45",5.16
"2016-05-14 07:00",5.13
"2016-05-14 07:05",5.11
"2016-05-14 07:10",5.10
"2016-05-14 07:15",5.08
"2016-05-14 07:20",5.12
"2016-05-14 07:25",5.08
"2016-05-14 07:30",5.06
"2016-05-14 07:35",5.03
"2016-05-14 07:45",5.01
"2016-05-14 08:00",5.00
"2016-05-14 08:15",4.99
"2016-05-14 08:30",4.97
"2016-05-14 08:50",4.95
"2016-05-14 08:55",4.93
"2016-05-14 09:10",4.90
"2016-05-14 09:25",4.89
"2016-05-14 09:35",4.88
"2016-05-14 09:45",4.83
"2016-05-14 09:50",4.86
"2016-05-14 09:55",4.87
"2016-05-14 10:10",4.85
"2016-05-14 10:25",4.82
"2016-05-14 10:35",4.80
"2016-05-14 10:40",4.78
"2016-05-14 10:55",4.77
"2016-05-14 11:10",4.76
"2016-05-14 11:15",4.73
"2016-05-14 11:35",4.75
"2016-05-14 11:40",4.74
"2016-05-14 11:45",4.72
"2016-05-14 12:00",4.70
"2016-05-14 12:15",4.68
"2016-05-14 12:25",4.66
"2016-05-14 12:35",4.63
"2016-05-14 12:50",4.61
"2016-05-14 13:25",4.59
"2016-05-14 13:35",4.57
"2016-05-14 13:55",4.56
"2016-05-14 14:00",4.54
"2016-05-14 14:05",4.55
"2016-05-14 14:10",4.54
"2016-05-14 14:50",4.52
"2016-05-14 15:05",4.50
"2016-05-14 15:10",4.48
"2016-05-14 15:35",4.47
"2016-05-14 15:55",4.45
"2016-05-14 16:00",4.47
"2016-05-14 16:05",4.45
"2016-05-14 16:20",4.43
"2016-05-14 16:30",4.45
"2016-05-14 16:35",4.43
"2016-05-14 16:40",4.41
"2016-05-14 16:55",4.40
"2016-05-14 17:10",4.39
"2016-05-14 17:20",4.35
"2016-05-14 17:25",4.31
"2016-05-14 17:30",4.30
"2016-05-14 17:45",4.27
"2016-05-14 17:55",4.25
"2016-05-14 18:05",4.28
"2016-05-14 18:10",4.24
"2016-05-14 18:25",4.22
"2016-05-14 18:30",4.20
"2016-05-14 18:35",4.18
"2016-05-14 18:45",4.18
"2016-05-14 19:05",4.16
"2016-05-14 19:15",4.13
"2016-05-14 19:35",4.14
"2016-05-14 19:40",4.12
"2016-05-14 19:45",4.10
"2016-05-14 20:15",4.07
"2016-05-14 20:20",4.05
"2016-05-14 20:30",4.03
"2016-05-14 20:45",4.06
"2016-05-14 20:55",4.04
"2016-05-14 21:00",4.01
"2016-05-14 21:05",4.04
"2016-05-14 21:15",4.05
"2016-05-14 21:20",4.03
"2016-05-14 21:25",4.01
"2016-05-14 21:40",4.03
"2016-05-14 21:45",4.04
"2016-05-14 21:50",4.09
"2016-05-14 22:00",4.12
"2016-05-14 22:05",4.14
"2016-05-14 22:15",4.17
"2016-05-14 22:25",4.18
"2016-05-14 22:35",4.22
"2016-05-14 22:45",4.23
"2016-05-14 22:50",4.26
"2016-05-14 22:55",4.24
"2016-05-14 23:05",4.21
"2016-05-14 23:10",4.23
"2016-05-14 23:25",4.25
"2016-05-14 23:30",4.23
"2016-05-14 23:35",4.21
"2016-05-14 23:40",4.20
"2016-05-14 23:45",4.16
"2016-05-14 23:50",4.13
"2016-05-14 23:55",4.08
"2016-05-15 00:00",4.04
"2016-05-15 00:05",4.00
"2016-05-15 00:10",3.97
"2016-05-15 00:15",3.93
"2016-05-15 00:25",3.90
"2016-05-15 00:35",3.91
"2016-05-15 00:40",3.88
"2016-05-15 00:45",3.86
"2016-05-15 00:50",3.81
"2016-05-15 00:55",3.77
"2016-05-15 01:05",3.76
"2016-05-15 01:10",3.74
"2016-05-15 01:15",3.78
"2016-05-15 01:35",3.75
"2016-05-15 01:40",3.74
"2016-05-15 01:45",3.73
"2016-05-15 01:50",3.70
"2016-05-15 02:05",3.69
"2016-05-15 02:15",3.70
"2016-05-15 02:20",3.68
"2016-05-15 02:55",3.66
"2016-05-15 03:00",3.64
"2016-05-15 03:05",3.65
"2016-05-15 03:10",3.69
"2016-05-15 03:15",3.66
"2016-05-15 03:30",3.65
"2016-05-15 03:35",3.68
"2016-05-15 03:40",3.63
"2016-05-15 03:45",3.65
"2016-05-15 03:50",3.67
"2016-05-15 03:55",3.64
"2016-05-15 04:00",3.63
"2016-05-15 04:05",3.64
"2016-05-15 04:15",3.62
"2016-05-15 04:20",3.64
"2016-05-15 04:35",3.65
"2016-05-15 04:40",3.63
"2016-05-15 04:45",3.59
"2016-05-15 04:50",3.60
"2016-05-15 04:55",3.63
"2016-05-15 05:00",3.61
"2016-05-15 05:25",3.59
"2016-05-15 05:30",3.56
"2016-05-15 05:35",3.55
"2016-05-15 05:50",3.53
"2016-05-15 05:55",3.55
"2016-05-15 06:05",3.53
"2016-05-15 06:15",3.51
"2016-05-15 06:20",3.53
"2016-05-15 06:25",3.50
"2016-05-15 06:35",3.53
"2016-05-15 06:40",3.49
"2016-05-15 06:45",3.48
"2016-05-15 07:05",3.45
"2016-05-15 07:25",3.43
"2016-05-15 07:30",3.45
"2016-05-15 07:35",3.44
"2016-05-15 07:40",3.43
"2016-05-15 08:15",3.41
"2016-05-15 08:20",3.40
"2016-05-15 08:25",3.41
"2016-05-15 08:30",3.40
"2016-05-15 08:35",3.41
"2016-05-15 08:45",3.39
"2016-05-15 08:55",3.43
"2016-05-15 09:15",3.41
"2016-05-15 09:30",3.39
"2016-05-15 09:50",3.40
"2016-05-15 09:55",3.39
"2016-05-15 10:15",3.40
"2016-05-15 10:30",3.41
"2016-05-15 10:35",3.38
"2016-05-15 10:40",3.40
"2016-05-15 10:45",3.38
"2016-05-15 10:50",3.40
"2016-05-15 11:05",3.37
"2016-05-15 11:15",3.30
"2016-05-15 11:20",3.36
"2016-05-15 11:35",3.38
"2016-05-15 11:45",3.36
"2016-05-15 11:50",3.39
"2016-05-15 12:00",3.37
"2016-05-15 12:05",3.33
"2016-05-15 12:10",3.31
"2016-05-15 12:15",3.34
"2016-05-15 12:20",3.31
"2016-05-15 12:25",3.32
"2016-05-15 12:35",3.28
"2016-05-15 12:40",3.29
"2016-05-15 12:45",3.27
"2016-05-15 12:55",3.29
"2016-05-15 13:00",3.27
"2016-05-15 13:10",3.25
"2016-05-15 13:15",3.22
"2016-05-15 13:20",3.23
"2016-05-15 13:35",3.21
"2016-05-15 13:40",3.22
"2016-05-15 13:50",3.20
"2016-05-15 14:00",3.14
"2016-05-15 14:05",3.15
"2016-05-15 14:10",3.14
"2016-05-15 14:15",3.12
"2016-05-15 14:20",3.10
"2016-05-15 14:30",3.08
"2016-05-15 14:40",3.13
"2016-05-15 14:45",3.11
"2016-05-15 14:50",3.09
"2016-05-15 15:00",3.07
"2016-05-15 15:05",3.06
"2016-05-15 15:10",3.07
"2016-05-15 15:15",3.05
"2016-05-15 15:20",3.07
"2016-05-15 15:30",3.05
"2016-05-15 15:35",3.07
"2016-05-15 15:40",3.02
"2016-05-15 16:05",3.00
"2016-05-15 16:15",2.99
"2016-05-15 16:30",2.97
"2016-05-15 16:35",2.95
"2016-05-15 16:50",2.97
"2016-05-15 16:55",2.96
"2016-05-15 17:00",2.95
"2016-05-15 17:50",2.93
"2016-05-15 17:55",2.91
"2016-05-15 18:05",2.93
"2016-05-15 18:20",2.90
"2016-05-15 18:25",2.92
"2016-05-15 18:30",2.90
"2016-05-15 18:35",2.93
"2016-05-15 18:40",2.90
"2016-05-15 18:45",2.91
"2016-05-15 18:50",2.89
"2016-05-15 18:55",2.91
"2016-05-15 19:00",2.88
"2016-05-15 19:10",2.90
"2016-05-15 19:15",2.92
"2016-05-15 19:25",2.93
"2016-05-15 19:30",2.92
"2016-05-15 19:35",2.94
"2016-05-15 19:45",2.90
"2016-05-15 19:50",2.93
"2016-05-15 20:10",2.91
"2016-05-15 20:15",2.93
"2016-05-15 20:20",2.89
"2016-05-15 20:25",2.90
"2016-05-15 20:35",2.91
"2016-05-15 20:40",2.93
"2016-05-15 20:45",2.91
"2016-05-15 20:50",2.89
"2016-05-15 21:10",2.92
"2016-05-15 21:15",2.88
"2016-05-15 21:25",2.87
"2016-05-15 21:30",2.91
"2016-05-15 21:35",2.89
"2016-05-15 21:50",2.91
"2016-05-15 21:55",2.89
"2016-05-15 22:00",2.88
"2016-05-15 22:20",2.89
"2016-05-15 22:30",2.87
"2016-05-15 22:45",2.88
"2016-05-15 23:00",2.87
"2016-05-15 23:10",2.88
"2016-05-15 23:15",2.86
"2016-05-15 23:40",2.85
"2016-05-15 23:50",2.83
"2016-05-16 00:00",2.84
"2016-05-16 00:05",2.83
"2016-05-16 00:15",2.81
"2016-05-16 00:50",2.82
"2016-05-16 00:55",2.80
"2016-05-16 01:15",2.79
"2016-05-16 01:20",2.80
"2016-05-16 01:25",2.79
"2016-05-16 01:55",2.78
"2016-05-16 02:05",2.79
"2016-05-16 02:10",2.78
"2016-05-16 02:20",2.76
"2016-05-16 02:50",2.74
"2016-05-16 03:15",2.75
"2016-05-16 03:20",2.74
"2016-05-16 03:35",2.72
"2016-05-16 03:40",2.70
"2016-05-16 04:05",2.71
"2016-05-16 04:10",2.69
"2016-05-16 04:15",2.68
"2016-05-16 04:30",2.66
"2016-05-16 04:35",2.68
"2016-05-16 05:00",2.66
"2016-05-16 05:40",2.67
"2016-05-16 05:45",2.65
"2016-05-16 06:15",2.67
"2016-05-16 06:25",2.68
"2016-05-16 06:30",2.70
"2016-05-16 06:40",2.72
"2016-05-16 06:45",2.75
"2016-05-16 06:50",2.78
"2016-05-16 06:55",2.81
"2016-05-16 07:00",2.83
"2016-05-16 07:05",2.86
"2016-05-16 07:10",2.88
"2016-05-16 07:30",2.89
"2016-05-16 07:40",2.88
"2016-05-16 07:55",2.89
"2016-05-16 08:10",2.93
"2016-05-16 08:15",2.89
"2016-05-16 08:25",2.87
"2016-05-16 08:45",2.84
"2016-05-16 08:50",2.85
"2016-05-16 09:10",2.82
"2016-05-16 09:15",2.81
"2016-05-16 09:25",2.77
"2016-05-16 09:30",2.74
"2016-05-16 09:35",2.72
"2016-05-16 09:40",2.69
"2016-05-16 10:00",2.70
"2016-05-16 10:05",2.69
"2016-05-16 10:25",2.76
"2016-05-16 10:30",2.79
"2016-05-16 10:45",2.78
"2016-05-16 10:55",2.79
"2016-05-16 11:00",2.76
"2016-05-16 11:10",2.70
"2016-05-16 11:20",2.68
"2016-05-16 11:25",2.67
"2016-05-16 11:35",2.64
"2016-05-16 11:45",2.68
"2016-05-16 11:50",2.70
"2016-05-16 11:55",2.68
"2016-05-16 12:05",2.69
"2016-05-16 12:15",2.71
"2016-05-16 12:25",2.69
"2016-05-16 12:30",2.70
"2016-05-16 12:45",2.69
"2016-05-16 13:00",2.67
"2016-05-16 13:10",2.65
"2016-05-16 13:25",2.66
"2016-05-16 13:30",2.68
"2016-05-16 13:35",2.66
"2016-05-16 13:40",2.67
"2016-05-16 13:50",2.69
"2016-05-16 14:05",2.68
"2016-05-16 14:15",2.66
"2016-05-16 14:20",2.68
"2016-05-16 14:25",2.66
"2016-05-16 14:40",2.68
"2016-05-16 14:45",2.66
"2016-05-16 14:50",2.68
"2016-05-16 15:10",2.65
"2016-05-16 15:15",2.67
"2016-05-16 16:00",2.69
"2016-05-16 16:40",2.67
"2016-05-16 16:55",2.68
"2016-05-16 17:10",2.67
"2016-05-16 17:20",2.68
"2016-05-16 17:25",2.67
"2016-05-16 17:30",2.68
"2016-05-16 17:45",2.66
"2016-05-16 17:50",2.67
"2016-05-16 18:00",2.66
"2016-05-16 18:25",2.64
"2016-05-16 18:50",2.63
"2016-05-16 19:05",2.65
"2016-05-16 19:15",2.66
"2016-05-16 19:25",2.68
"2016-05-16 19:45",2.66
"2016-05-16 19:50",2.67
"2016-05-16 19:55",2.65
"2016-05-16 20:00",2.67
"2016-05-16 20:10",2.69
"2016-05-16 20:15",2.67
"2016-05-16 20:20",2.66
"2016-05-16 20:25",2.68
"2016-05-16 20:30",2.66
"2016-05-16 20:35",2.64
"2016-05-16 20:40",2.66
"2016-05-16 21:05",2.62
"2016-05-16 21:10",2.64
"2016-05-16 21:15",2.63
"2016-05-16 21:20",2.64
"2016-05-16 21:50",2.67
"2016-05-16 21:55",2.64
"2016-05-16 22:05",2.62
"2016-05-16 22:15",2.64
"2016-05-16 22:25",2.65
"2016-05-16 22:30",2.64
"2016-05-16 22:45",2.63
"2016-05-16 22:50",2.64
"2016-05-16 22:55",2.66
"2016-05-16 23:00",2.63
"2016-05-16 23:05",2.66
"2016-05-16 23:15",2.64
"2016-05-16 23:25",2.63
"2016-05-16 23:30",2.64
"2016-05-16 23:40",2.65
"2016-05-16 23:50",2.63
"2016-05-17 00:00",2.62
"2016-05-17 00:05",2.63
"2016-05-17 00:10",2.62
"2016-05-17 00:45",2.64
"2016-05-17 00:50",2.65
"2016-05-17 00:55",2.64
"2016-05-17 01:00",2.62
"2016-05-17 01:10",2.64
"2016-05-17 01:25",2.65
"2016-05-17 01:30",2.63
"2016-05-17 02:00",2.64
"2016-05-17 02:05",2.61
"2016-05-17 02:15",2.65
"2016-05-17 02:20",2.62
"2016-05-17 02:25",2.63
"2016-05-17 02:40",2.62
"2016-05-17 02:45",2.65
"2016-05-17 03:00",2.63
"2016-05-17 03:30",2.65
"2016-05-17 03:35",2.64
"2016-05-17 03:40",2.62
"2016-05-17 03:45",2.64
"2016-05-17 03:50",2.63
"2016-05-17 04:00",2.65
"2016-05-17 04:05",2.63
"2016-05-17 04:15",2.62
"2016-05-17 04:35",2.65
"2016-05-17 04:40",2.62
"2016-05-17 04:45",2.64
"2016-05-17 04:55",2.65
"2016-05-17 05:05",2.64
"2016-05-17 05:10",2.63
"2016-05-17 05:30",2.65
"2016-05-17 05:35",2.63
"2016-05-17 05:45",2.64
"2016-05-17 05:50",2.63
"2016-05-17 05:55",2.62
"2016-05-17 06:00",2.65
"2016-05-17 06:05",2.62
"2016-05-17 06:10",2.65
"2016-05-17 06:15",2.63
"2016-05-17 06:20",2.66
"2016-05-17 06:25",2.63
"2016-05-17 06:35",2.62
"2016-05-17 06:40",2.61
"2016-05-17 06:45",2.62
"2016-05-17 07:00",2.59
"2016-05-17 07:05",2.61
"2016-05-17 07:15",2.59
"2016-05-17 07:35",2.55
"2016-05-17 07:45",2.52
"2016-05-17 07:50",2.54
"2016-05-17 07:55",2.58
"2016-05-17 08:05",2.59
"2016-05-17 08:10",2.61
"2016-05-17 08:15",2.59
"2016-05-17 08:20",2.61
"2016-05-17 08:35",2.63
"2016-05-17 08:50",2.65
"2016-05-17 08:55",2.62
"2016-05-17 09:00",2.64
"2016-05-17 09:05",2.65
"2016-05-17 09:10",2.64
"2016-05-17 09:15",2.66
"2016-05-17 09:20",2.68
"2016-05-17 09:30",2.66
"2016-05-17 09:45",2.68
"2016-05-17 09:50",2.64
"2016-05-17 10:00",2.63
"2016-05-17 10:05",2.62
"2016-05-17 10:10",2.65
"2016-05-17 10:20",2.63
"2016-05-17 10:30",2.61
"2016-05-17 10:40",2.56
"2016-05-17 10:50",2.52
"2016-05-17 10:55",2.50
"2016-05-17 11:00",2.42
"2016-05-17 11:05",2.40
"2016-05-17 11:15",2.36
"2016-05-17 11:20",2.38
"2016-05-17 11:25",2.36
"2016-05-17 11:30",2.34
"2016-05-17 11:40",2.33
"2016-05-17 11:45",2.27
"2016-05-17 11:50",2.31
"2016-05-17 11:55",2.28
"2016-05-17 12:05",2.25
"2016-05-17 12:10",2.24
"2016-05-17 12:15",2.22
"2016-05-17 12:20",2.21
"2016-05-17 12:40",2.24
"2016-05-17 12:45",2.20
"2016-05-17 12:50",2.18
"2016-05-17 12:55",2.17
"2016-05-17 13:00",2.20
"2016-05-17 13:05",2.15
"2016-05-17 13:10",2.18
"2016-05-17 13:20",2.15
"2016-05-17 13:25",2.16
"2016-05-17 13:30",2.13
"2016-05-17 13:35",2.18
"2016-05-17 13:45",2.20
"2016-05-17 13:55",2.18
"2016-05-17 14:10",2.21
"2016-05-17 14:15",2.17
"2016-05-17 14:25",2.16
"2016-05-17 14:30",2.18
"2016-05-17 14:35",2.20
"2016-05-17 14:40",2.18
"2016-05-17 14:45",2.17
"2016-05-17 14:55",2.15
"2016-05-17 15:00",2.14
"2016-05-17 15:05",2.15
"2016-05-17 15:15",2.13
"2016-05-17 15:20",2.18
"2016-05-17 15:25",2.16
"2016-05-17 15:35",2.19
"2016-05-17 15:40",2.16
"2016-05-17 15:50",2.14
"2016-05-17 15:55",2.21
"2016-05-17 16:00",2.19
"2016-05-17 16:05",2.15
"2016-05-17 16:20",2.14
"2016-05-17 16:30",2.18
"2016-05-17 16:40",2.17
"2016-05-17 16:50",2.21
"2016-05-17 16:55",2.19
"2016-05-17 17:15",2.22
"2016-05-17 17:25",2.23
"2016-05-17 17:30",2.25
"2016-05-17 17:35",2.28
"2016-05-17 17:40",2.26
"2016-05-17 17:45",2.30
"2016-05-17 17:55",2.32
"2016-05-17 18:05",2.30
"2016-05-17 18:10",2.36
"2016-05-17 18:15",2.35
"2016-05-17 18:30",2.36
"2016-05-17 18:35",2.35
"2016-05-17 18:45",2.32
"2016-05-17 18:50",2.28
"2016-05-17 18:55",2.31
"2016-05-17 19:00",2.28
"2016-05-17 19:10",2.22
"2016-05-17 19:15",2.24
"2016-05-17 19:35",2.22
"2016-05-17 19:40",2.24
"2016-05-17 19:45",2.22
"2016-05-17 19:50",2.24
"2016-05-17 19:55",2.17
"2016-05-17 20:05",2.23
"2016-05-17 20:20",2.25
"2016-05-17 20:25",2.28
"2016-05-17 20:35",2.30
"2016-05-17 20:40",2.31
"2016-05-17 20:45",2.32
"2016-05-17 20:50",2.37
"2016-05-17 21:00",2.40
"2016-05-17 21:10",2.39
"2016-05-17 21:25",2.36
"2016-05-17 21:30",2.33
"2016-05-17 21:45",2.32
"2016-05-17 21:55",2.26
"2016-05-17 22:15",2.25
"2016-05-17 22:20",2.28
"2016-05-17 22:25",2.32
"2016-05-17 22:30",2.28
"2016-05-17 22:35",2.25
"2016-05-17 22:45",2.27
"2016-05-17 22:55",2.25
"2016-05-17 23:00",2.24
"2016-05-17 23:05",2.20
"2016-05-17 23:10",2.23
"2016-05-17 23:25",2.21
"2016-05-17 23:35",2.22
"2016-05-17 23:45",2.21
"2016-05-17 23:50",2.23
"2016-05-17 23:55",2.26
"2016-05-18 00:00",2.23
"2016-05-18 00:05",2.21
"2016-05-18 00:10",2.23
"2016-05-18 00:15",2.22
"2016-05-18 00:20",2.23
"2016-05-18 00:25",2.26
"2016-05-18 00:35",2.31
"2016-05-18 00:40",2.37
"2016-05-18 00:45",2.39
"2016-05-18 00:50",2.44
"2016-05-18 00:55",2.48
"2016-05-18 01:05",2.52
"2016-05-18 01:10",2.55
"2016-05-18 01:20",2.56
"2016-05-18 01:25",2.57
"2016-05-18 01:30",2.59
"2016-05-18 01:40",2.61
"2016-05-18 01:45",2.59
"2016-05-18 02:00",2.58
"2016-05-18 02:10",2.56
"2016-05-18 02:20",2.54
"2016-05-18 02:25",2.49
"2016-05-18 02:30",2.51
"2016-05-18 02:35",2.45
"2016-05-18 02:40",2.43
"2016-05-18 02:45",2.41
"2016-05-18 02:50",2.40
"2016-05-18 02:55",2.38
"2016-05-18 03:00",2.37
"2016-05-18 03:05",2.33
"2016-05-18 03:10",2.34
"2016-05-18 03:15",2.32
"2016-05-18 03:25",2.29
"2016-05-18 03:40",2.28
"2016-05-18 03:45",2.26
"2016-05-18 03:55",2.22
"2016-05-18 04:00",2.24
"2016-05-18 04:15",2.27
"2016-05-18 04:20",2.24
"2016-05-18 04:30",2.25
"2016-05-18 04:50",2.19
"2016-05-18 04:55",2.23
"2016-05-18 05:00",2.21
"2016-05-18 05:10",2.23
"2016-05-18 05:20",2.17
"2016-05-18 05:25",2.26
"2016-05-18 05:30",2.22
"2016-05-18 05:40",2.17
"2016-05-18 06:00",2.15
"2016-05-18 06:05",2.13
"2016-05-18 06:20",2.10
"2016-05-18 06:25",2.13
"2016-05-18 06:35",2.10
"2016-05-18 06:40",2.09
"2016-05-18 06:45",2.10
"2016-05-18 06:50",2.08
"2016-05-18 06:55",2.07
"2016-05-18 07:00",2.08
"2016-05-18 07:15",2.06
"2016-05-18 07:20",2.08
"2016-05-18 07:25",2.07
"2016-05-18 07:30",2.08
"2016-05-18 07:55",2.06
"2016-05-18 08:00",2.09
"2016-05-18 08:15",2.07
"2016-05-18 08:25",2.08
"2016-05-18 08:35",2.13
"2016-05-18 08:50",2.14
"2016-05-18 08:55",2.12
"2016-05-18 09:00",2.19
"2016-05-18 09:05",2.16
"2016-05-18 09:15",2.20
"2016-05-18 09:20",2.17
"2016-05-18 09:30",2.15
"2016-05-18 09:35",2.17
"2016-05-18 09:40",2.15
"2016-05-18 09:45",2.18
"2016-05-18 09:50",2.17
"2016-05-18 09:55",2.15
"2016-05-18 10:05",2.11
"2016-05-18 10:10",2.13
"2016-05-18 10:35",2.10
"2016-05-18 10:40",2.14
"2016-05-18 10:50",2.13
"2016-05-18 11:00",2.14
"2016-05-18 11:05",2.13
"2016-05-18 11:10",2.12
"2016-05-18 11:15",2.14
"2016-05-18 11:20",2.10
"2016-05-18 11:25",2.12
"2016-05-18 11:30",2.09
"2016-05-18 11:35",2.11
"2016-05-18 11:45",2.12
"2016-05-18 12:00",2.11
"2016-05-18 12:05",2.13
"2016-05-18 12:10",2.11
"2016-05-18 12:35",2.15
"2016-05-18 12:45",2.12
"2016-05-18 12:55",2.14
"2016-05-18 13:00",2.13
"2016-05-18 13:10",2.11
"2016-05-18 13:20",2.13
"2016-05-18 13:30",2.11
"2016-05-18 13:40",2.10
"2016-05-18 13:45",2.08
"2016-05-18 14:00",2.06
"2016-05-18 14:05",2.08
