"2016-08-15 13:40",274.48
"2016-08-15 13:50",274.46
"2016-08-15 14:00",274.45
"2016-08-15 14:10",274.44
"2016-08-15 14:20",274.43
"2016-08-15 14:30",274.41
"2016-08-15 14:40",274.40
"2016-08-15 14:55",274.39
"2016-08-15 15:05",274.38
"2016-08-15 15:15",274.37
"2016-08-15 15:35",274.35
"2016-08-15 15:50",274.34
"2016-08-15 16:25",274.39
"2016-08-15 16:30",274.45
"2016-08-15 16:35",274.53
"2016-08-15 16:40",274.62
"2016-08-15 16:45",274.72
"2016-08-15 16:50",274.80
"2016-08-15 16:55",274.88
"2016-08-15 17:00",274.95
"2016-08-15 17:05",275.01
"2016-08-15 17:10",275.05
"2016-08-15 17:15",275.09
"2016-08-15 17:20",275.13
"2016-08-15 17:25",275.16
"2016-08-15 17:30",275.18
"2016-08-15 17:35",275.20
"2016-08-15 17:40",275.23
"2016-08-15 17:45",275.24
"2016-08-15 17:50",275.26
"2016-08-15 17:55",275.27
"2016-08-15 18:00",275.28
"2016-08-15 18:10",275.30
"2016-08-15 18:20",275.31
"2016-08-15 18:30",275.32
"2016-08-15 18:40",275.33
"2016-08-15 19:15",275.35
"2016-08-15 20:15",275.35
"2016-08-15 20:40",275.36
"2016-08-15 21:40",275.36
"2016-08-15 22:40",275.36
"2016-08-15 23:40",275.36
"2016-08-16 00:15",275.33
"2016-08-16 00:20",275.28
"2016-08-16 00:25",275.22
"2016-08-16 00:30",275.17
"2016-08-16 00:35",275.13
"2016-08-16 00:40",275.09
"2016-08-16 00:45",275.05
"2016-08-16 00:50",275.01
"2016-08-16 00:55",274.97
"2016-08-16 01:00",274.94
"2016-08-16 01:05",274.91
"2016-08-16 01:10",274.88
"2016-08-16 01:15",274.86
"2016-08-16 01:20",274.83
"2016-08-16 01:25",274.81
"2016-08-16 01:30",274.79
"2016-08-16 01:35",274.77
"2016-08-16 01:40",274.75
"2016-08-16 01:45",274.73
"2016-08-16 01:50",274.71
"2016-08-16 01:55",274.69
"2016-08-16 02:00",274.68
"2016-08-16 02:05",274.67
"2016-08-16 02:10",274.65
"2016-08-16 02:15",274.64
"2016-08-16 02:20",274.62
"2016-08-16 02:25",274.61
"2016-08-16 02:30",274.60
"2016-08-16 02:35",274.59
"2016-08-16 02:40",274.58
"2016-08-16 02:50",274.55
"2016-08-16 03:00",274.54
"2016-08-16 03:05",274.53
"2016-08-16 03:15",274.51
"2016-08-16 03:25",274.49
"2016-08-16 03:35",274.48
"2016-08-16 03:45",274.46
"2016-08-16 03:55",274.45
"2016-08-16 04:05",274.44
"2016-08-16 04:15",274.43
"2016-08-16 04:25",274.41
"2016-08-16 04:35",274.40
"2016-08-16 04:50",274.39
"2016-08-16 05:00",274.38
"2016-08-16 05:10",274.37
"2016-08-16 05:30",274.35
"2016-08-16 05:45",274.34
"2016-08-16 06:10",274.33
"2016-08-16 06:30",274.31
"2016-08-16 06:55",274.30
"2016-08-16 07:25",274.29
"2016-08-16 07:55",274.27
"2016-08-16 08:20",274.26
"2016-08-16 08:50",274.25
"2016-08-16 09:25",274.24
"2016-08-16 10:25",274.23
"2016-08-16 10:35",274.22
"2016-08-16 11:20",274.21
"2016-08-16 12:20",274.20
"2016-08-16 13:20",274.20
"2016-08-16 13:30",274.19
"2016-08-16 14:30",274.19
"2016-08-16 15:00",274.18
"2016-08-16 16:00",274.18
"2016-08-16 17:00",274.17
"2016-08-16 17:35",274.21
"2016-08-16 17:40",274.27
"2016-08-16 17:45",274.35
"2016-08-16 17:50",274.45
"2016-08-16 17:55",274.55
"2016-08-16 18:00",274.66
"2016-08-16 18:05",274.75
"2016-08-16 18:10",274.84
"2016-08-16 18:15",274.91
"2016-08-16 18:20",274.97
"2016-08-16 18:25",275.03
"2016-08-16 18:30",275.07
"2016-08-16 18:35",275.11
"2016-08-16 18:40",275.14
"2016-08-16 18:45",275.17
"2016-08-16 18:50",275.19
"2016-08-16 18:55",275.21
"2016-08-16 19:00",275.23
"2016-08-16 19:05",275.25
"2016-08-16 19:10",275.26
"2016-08-16 19:15",275.27
"2016-08-16 19:20",275.28
"2016-08-16 19:30",275.30
"2016-08-16 19:40",275.31
"2016-08-16 19:55",275.33
"2016-08-16 20:05",275.34
"2016-08-16 20:30",275.35
"2016-08-16 21:30",275.35
"2016-08-16 21:40",275.36
"2016-08-16 22:20",275.33
"2016-08-16 22:25",275.29
"2016-08-16 22:30",275.23
"2016-08-16 22:35",275.18
"2016-08-16 22:40",275.14
"2016-08-16 22:45",275.09
"2016-08-16 22:50",275.05
"2016-08-16 22:55",275.01
"2016-08-16 23:00",274.98
"2016-08-16 23:05",274.95
"2016-08-16 23:10",274.92
"2016-08-16 23:20",274.86
"2016-08-16 23:25",274.83
"2016-08-16 23:30",274.81
"2016-08-16 23:35",274.79
"2016-08-16 23:40",274.77
"2016-08-16 23:45",274.75
"2016-08-16 23:50",274.73
"2016-08-16 23:55",274.71
"2016-08-17 00:00",274.70
"2016-08-17 00:05",274.68
"2016-08-17 00:10",274.67
"2016-08-17 00:15",274.65
"2016-08-17 00:20",274.64
"2016-08-17 00:25",274.63
"2016-08-17 00:30",274.61
"2016-08-17 00:35",274.60
"2016-08-17 00:40",274.59
"2016-08-17 00:45",274.58
"2016-08-17 00:50",274.57
"2016-08-17 00:55",274.56
"2016-08-17 01:00",274.55
"2016-08-17 01:10",274.53
"2016-08-17 01:20",274.51
"2016-08-17 01:30",274.49
"2016-08-17 01:40",274.48
"2016-08-17 01:45",274.47
"2016-08-17 01:55",274.46
"2016-08-17 02:05",274.44
"2016-08-17 02:15",274.43
"2016-08-17 02:30",274.41
"2016-08-17 02:40",274.40
"2016-08-17 02:55",274.39
"2016-08-17 03:05",274.38
"2016-08-17 03:15",274.37
"2016-08-17 03:30",274.36
"2016-08-17 03:45",274.34
"2016-08-17 04:05",274.33
"2016-08-17 04:20",274.32
"2016-08-17 04:35",274.31
"2016-08-17 04:55",274.30
"2016-08-17 05:30",274.28
"2016-08-17 06:00",274.27
"2016-08-17 06:20",274.29
"2016-08-17 06:25",274.34
"2016-08-17 06:30",274.40
"2016-08-17 06:35",274.49
"2016-08-17 06:40",274.58
"2016-08-17 06:45",274.68
"2016-08-17 06:50",274.77
"2016-08-17 06:55",274.85
"2016-08-17 07:00",274.92
"2016-08-17 07:05",274.98
"2016-08-17 07:10",275.03
"2016-08-17 07:15",275.08
"2016-08-17 07:20",275.11
"2016-08-17 07:25",275.15
"2016-08-17 07:30",275.17
"2016-08-17 07:35",275.20
"2016-08-17 07:40",275.21
"2016-08-17 07:45",275.23
"2016-08-17 07:50",275.25
"2016-08-17 07:55",275.26
"2016-08-17 08:00",275.27
"2016-08-17 08:05",275.29
"2016-08-17 08:15",275.30
"2016-08-17 08:25",275.32
"2016-08-17 08:35",275.33
"2016-08-17 08:50",275.34
"2016-08-17 09:05",275.35
"2016-08-17 10:05",275.36
"2016-08-17 11:05",275.36
"2016-08-17 12:05",275.36
"2016-08-17 13:05",275.37
"2016-08-17 13:15",275.35
"2016-08-17 13:20",275.30
"2016-08-17 13:25",275.25
"2016-08-17 13:30",275.20
"2016-08-17 13:35",275.15
"2016-08-17 13:40",275.11
"2016-08-17 13:45",275.06
"2016-08-17 13:50",275.02
"2016-08-17 13:55",274.99
"2016-08-17 14:00",274.95
"2016-08-17 14:05",274.92
"2016-08-17 14:10",274.89
"2016-08-17 14:15",274.87
"2016-08-17 14:20",274.84
"2016-08-17 14:25",274.82
"2016-08-17 14:30",274.80
"2016-08-17 14:35",274.77
"2016-08-17 14:40",274.75
"2016-08-17 14:45",274.74
"2016-08-17 14:50",274.72
"2016-08-17 14:55",274.70
"2016-08-17 15:00",274.68
"2016-08-17 15:05",274.67
"2016-08-17 15:10",274.66
"2016-08-17 15:15",274.64
"2016-08-17 15:20",274.63
"2016-08-17 15:25",274.61
"2016-08-17 15:30",274.60
"2016-08-17 15:35",274.59
"2016-08-17 15:40",274.58
"2016-08-17 15:45",274.57
"2016-08-17 15:50",274.56
"2016-08-17 16:00",274.54
"2016-08-17 16:05",274.53
"2016-08-17 16:15",274.51
"2016-08-17 16:25",274.49
"2016-08-17 16:35",274.48
"2016-08-17 16:45",274.46
"2016-08-17 16:55",274.45
"2016-08-17 17:05",274.44
"2016-08-17 17:15",274.42
"2016-08-17 17:25",274.41
"2016-08-17 17:35",274.40
"2016-08-17 17:50",274.39
"2016-08-17 18:00",274.38
"2016-08-17 18:15",274.36
"2016-08-17 18:30",274.35
"2016-08-17 18:40",274.34
"2016-08-17 19:05",274.32
"2016-08-17 19:20",274.31
"2016-08-17 19:45",274.30
"2016-08-17 20:10",274.29
"2016-08-17 20:35",274.27
"2016-08-17 21:00",274.26
"2016-08-17 21:25",274.25
"2016-08-17 22:00",274.24
"2016-08-17 23:00",274.23
"2016-08-17 23:05",274.22
"2016-08-17 23:55",274.21
"2016-08-18 00:55",274.20
"2016-08-18 01:50",274.19
"2016-08-18 02:50",274.19
"2016-08-18 03:45",274.18
"2016-08-18 04:45",274.18
"2016-08-18 05:45",274.18
"2016-08-18 06:45",274.18
"2016-08-18 07:20",274.19
"2016-08-18 07:25",274.24
"2016-08-18 07:30",274.31
"2016-08-18 07:35",274.40
"2016-08-18 07:40",274.50
"2016-08-18 07:45",274.61
"2016-08-18 07:50",274.70
"2016-08-18 07:55",274.79
"2016-08-18 08:00",274.87
"2016-08-18 08:05",274.94
"2016-08-18 08:10",275.00
"2016-08-18 08:15",275.05
"2016-08-18 08:20",275.09
"2016-08-18 08:25",275.13
"2016-08-18 08:30",275.16
"2016-08-18 08:35",275.18
"2016-08-18 08:40",275.21
"2016-08-18 08:45",275.23
"2016-08-18 08:50",275.24
"2016-08-18 08:55",275.26
"2016-08-18 09:00",275.27
"2016-08-18 09:05",275.28
"2016-08-18 09:15",275.30
"2016-08-18 09:25",275.31
"2016-08-18 09:40",275.33
"2016-08-18 10:15",275.35
"2016-08-18 11:15",275.35
"2016-08-18 11:30",275.36
"2016-08-18 12:30",275.36
"2016-08-18 13:20",275.32
"2016-08-18 13:25",275.27
"2016-08-18 13:30",275.22
"2016-08-18 13:35",275.17
"2016-08-18 13:40",275.13
"2016-08-18 13:45",275.58
"2016-08-18 13:50",275.04
"2016-08-18 13:55",275.00
"2016-08-18 14:00",274.97
"2016-08-18 14:05",274.94
"2016-08-18 14:10",274.91
"2016-08-18 14:15",274.88
"2016-08-18 14:20",274.85
"2016-08-18 14:25",274.83
"2016-08-18 14:30",274.81
"2016-08-18 14:35",274.78
"2016-08-18 14:40",274.77
"2016-08-18 14:45",274.74
"2016-08-18 14:50",274.73
"2016-08-18 14:55",274.71
"2016-08-18 15:00",274.69
"2016-08-18 15:05",274.68
"2016-08-18 15:10",274.66
"2016-08-18 15:15",274.65
"2016-08-18 15:20",274.63
"2016-08-18 15:25",274.62
"2016-08-18 15:30",274.61
"2016-08-18 15:35",274.60
"2016-08-18 15:40",274.59
"2016-08-18 15:45",274.57
"2016-08-18 15:50",274.56
"2016-08-18 15:55",274.55
"2016-08-18 16:05",274.53
"2016-08-18 16:10",274.52
"2016-08-18 16:20",274.51
"2016-08-18 16:30",274.49
"2016-08-18 16:40",274.47
"2016-08-18 16:50",274.46
"2016-08-18 17:00",274.45
"2016-08-18 17:10",274.43
"2016-08-18 17:20",274.42
"2016-08-18 17:30",274.41
"2016-08-18 17:40",274.40
"2016-08-18 17:55",274.38
"2016-08-18 18:10",274.37
"2016-08-18 18:25",274.36
"2016-08-18 18:40",274.34
"2016-08-18 19:00",274.33
"2016-08-18 19:10",274.32
"2016-08-18 19:25",274.31
"2016-08-18 19:45",274.30
"2016-08-18 20:15",274.29
"2016-08-18 20:40",274.27
"2016-08-18 21:00",274.26
"2016-08-18 21:30",274.25
"2016-08-18 22:05",274.24
"2016-08-18 23:05",274.22
"2016-08-18 23:55",274.21
"2016-08-19 00:55",274.20
"2016-08-19 01:55",274.19
"2016-08-19 02:55",274.19
"2016-08-19 03:45",274.18
"2016-08-19 04:45",274.18
"2016-08-19 05:45",274.18
"2016-08-19 06:45",274.17
"2016-08-19 07:45",274.17
"2016-08-19 08:45",274.17
"2016-08-19 09:45",274.17
"2016-08-19 10:45",274.17
"2016-08-19 11:45",274.17
"2016-08-19 12:15",274.16
"2016-08-19 13:15",274.16
"2016-08-19 14:15",274.16
"2016-08-19 15:15",274.16
"2016-08-19 16:15",274.16
"2016-08-19 16:30",274.15
"2016-08-19 17:30",274.15
"2016-08-19 18:30",274.15
"2016-08-19 19:30",274.14
"2016-08-19 20:30",274.14
"2016-08-19 21:30",274.14
"2016-08-19 22:30",274.14
"2016-08-19 23:30",274.14
"2016-08-20 00:30",274.14
"2016-08-20 01:30",274.14
"2016-08-20 02:30",274.14
"2016-08-20 03:30",274.14
"2016-08-20 04:30",274.14
"2016-08-20 05:30",274.15
"2016-08-20 05:45",274.16
"2016-08-20 05:50",274.19
"2016-08-20 05:55",274.21
"2016-08-20 06:00",274.25
"2016-08-20 06:05",274.29
"2016-08-20 06:10",274.33
"2016-08-20 06:15",274.37
"2016-08-20 06:20",274.42
"2016-08-20 06:25",274.45
"2016-08-20 06:30",274.49
"2016-08-20 06:35",274.53
"2016-08-20 06:40",274.57
"2016-08-20 06:45",274.60
"2016-08-20 06:50",274.63
"2016-08-20 06:55",274.66
"2016-08-20 07:00",274.68
"2016-08-20 07:05",274.71
"2016-08-20 07:10",274.73
"2016-08-20 07:15",274.75
"2016-08-20 07:20",274.77
"2016-08-20 07:25",274.78
"2016-08-20 07:30",274.80
"2016-08-20 07:35",274.81
"2016-08-20 07:40",274.82
"2016-08-20 07:50",274.85
"2016-08-20 07:55",274.86
"2016-08-20 08:05",274.88
"2016-08-20 08:15",274.89
"2016-08-20 08:25",274.91
"2016-08-20 08:35",274.92
"2016-08-20 08:50",274.93
"2016-08-20 09:05",274.94
"2016-08-20 09:25",274.95
"2016-08-20 10:25",274.96
"2016-08-20 10:40",274.94
"2016-08-20 10:45",274.92
"2016-08-20 10:50",274.90
"2016-08-20 10:55",274.88
"2016-08-20 11:00",274.85
"2016-08-20 11:05",274.83
"2016-08-20 11:10",274.81
"2016-08-20 11:15",274.79
"2016-08-20 11:20",274.77
"2016-08-20 11:25",274.75
"2016-08-20 11:30",274.73
"2016-08-20 11:35",274.71
"2016-08-20 11:40",274.70
"2016-08-20 11:45",274.68
"2016-08-20 11:50",274.67
"2016-08-20 11:55",274.65
"2016-08-20 12:00",274.64
"2016-08-20 12:05",274.62
"2016-08-20 12:10",274.61
"2016-08-20 12:15",274.60
"2016-08-20 12:20",274.59
"2016-08-20 12:25",274.58
"2016-08-20 12:35",274.56
"2016-08-20 12:40",274.55
"2016-08-20 12:50",274.52
"2016-08-20 13:00",274.51
"2016-08-20 13:10",274.49
"2016-08-20 13:20",274.48
"2016-08-20 13:30",274.46
"2016-08-20 13:40",274.45
"2016-08-20 13:50",274.43
"2016-08-20 14:00",274.42
"2016-08-20 14:10",274.41
"2016-08-20 14:20",274.40
"2016-08-20 14:35",274.38
"2016-08-20 14:45",274.37
"2016-08-20 15:00",274.36
"2016-08-20 15:10",274.35
"2016-08-20 15:25",274.34
"2016-08-20 15:45",274.32
"2016-08-20 16:00",274.31
"2016-08-20 16:25",274.30
"2016-08-20 16:50",274.29
"2016-08-20 17:15",274.27
"2016-08-20 17:40",274.26
"2016-08-20 18:05",274.25
"2016-08-20 18:35",274.24
"2016-08-20 19:25",274.23
"2016-08-20 20:10",274.21
"2016-08-20 21:10",274.20
"2016-08-20 21:50",274.19
"2016-08-20 22:50",274.19
"2016-08-20 23:15",274.18
"2016-08-21 00:15",274.18
"2016-08-21 01:15",274.17
"2016-08-21 02:15",274.17
"2016-08-21 03:15",274.17
"2016-08-21 04:10",274.16
"2016-08-21 05:10",274.16
"2016-08-21 05:55",274.18
"2016-08-21 06:00",274.21
"2016-08-21 06:05",274.24
"2016-08-21 06:10",274.27
"2016-08-21 06:15",274.31
"2016-08-21 06:20",274.35
"2016-08-21 06:25",274.40
"2016-08-21 06:30",274.44
"2016-08-21 06:35",274.48
"2016-08-21 06:40",274.52
"2016-08-21 06:45",274.55
"2016-08-21 06:50",274.59
"2016-08-21 06:55",274.62
"2016-08-21 07:00",274.65
"2016-08-21 07:05",274.68
"2016-08-21 07:10",274.70
"2016-08-21 07:15",274.72
"2016-08-21 07:20",274.74
"2016-08-21 07:25",274.76
"2016-08-21 07:30",274.77
"2016-08-21 07:35",274.79
"2016-08-21 07:40",274.80
"2016-08-21 07:45",274.82
"2016-08-21 07:50",274.83
"2016-08-21 08:00",274.85
"2016-08-21 08:10",274.86
"2016-08-21 08:20",274.88
"2016-08-21 08:30",274.89
"2016-08-21 08:45",274.90
"2016-08-21 09:05",274.92
"2016-08-21 10:00",274.93
"2016-08-21 11:00",274.91
"2016-08-21 11:05",274.89
"2016-08-21 11:10",274.87
"2016-08-21 11:15",274.85
"2016-08-21 11:20",274.83
"2016-08-21 11:25",274.80
"2016-08-21 11:30",274.78
"2016-08-21 11:35",274.77
"2016-08-21 11:40",274.75
"2016-08-21 11:45",274.73
"2016-08-21 11:50",274.71
"2016-08-21 11:55",274.69
"2016-08-21 12:00",274.68
"2016-08-21 12:05",274.67
"2016-08-21 12:10",274.65
"2016-08-21 12:15",274.64
"2016-08-21 12:20",274.62
"2016-08-21 12:25",274.61
"2016-08-21 12:30",274.60
"2016-08-21 12:35",274.59
"2016-08-21 12:40",274.58
"2016-08-21 12:45",274.57
"2016-08-21 12:50",274.55
"2016-08-21 13:00",274.54
"2016-08-21 13:05",274.52
"2016-08-21 13:15",274.51
"2016-08-21 13:25",274.49
"2016-08-21 13:35",274.48
"2016-08-21 13:45",274.46
"2016-08-21 13:55",274.45
"2016-08-21 14:05",274.43
"2016-08-21 14:15",274.42
"2016-08-21 14:25",274.41
"2016-08-21 14:35",274.40
"2016-08-21 14:50",274.38
"2016-08-21 15:00",274.37
"2016-08-21 15:15",274.36
"2016-08-21 15:25",274.35
"2016-08-21 15:40",274.34
"2016-08-21 16:00",274.33
"2016-08-21 16:15",274.32
"2016-08-21 16:40",274.30
"2016-08-21 17:05",274.29
"2016-08-21 17:30",274.27
"2016-08-21 17:50",274.26
"2016-08-21 18:05",274.06
"2016-08-21 18:15",274.05
"2016-08-21 18:35",274.17
"2016-08-21 18:40",274.25
"2016-08-21 18:50",274.24
"2016-08-21 19:35",274.23
"2016-08-21 20:15",274.21
"2016-08-21 20:55",274.20
"2016-08-21 21:45",274.07
"2016-08-21 21:50",273.99
"2016-08-21 22:35",274.15
"2016-08-21 22:40",274.19
"2016-08-21 22:55",274.18
"2016-08-21 23:55",274.18
"2016-08-22 00:55",274.17
"2016-08-22 01:55",274.17
"2016-08-22 02:10",274.16
"2016-08-22 03:10",274.16
"2016-08-22 04:10",274.16
"2016-08-22 05:10",274.16
"2016-08-22 05:35",274.12
"2016-08-22 05:40",274.16
"2016-08-22 05:55",274.12
"2016-08-22 06:00",274.16
"2016-08-22 07:00",274.16
"2016-08-22 07:30",274.21
"2016-08-22 07:35",274.28
"2016-08-22 07:40",274.36
"2016-08-22 07:45",274.46
"2016-08-22 07:50",274.56
"2016-08-22 07:55",274.67
"2016-08-22 08:00",274.76
"2016-08-22 08:05",274.84
"2016-08-22 08:10",274.91
"2016-08-22 08:15",274.97
"2016-08-22 08:20",275.03
"2016-08-22 08:25",275.08
"2016-08-22 08:30",275.11
"2016-08-22 08:35",275.14
"2016-08-22 08:40",275.17
"2016-08-22 08:45",275.20
"2016-08-22 08:50",275.22
"2016-08-22 08:55",275.23
"2016-08-22 09:00",275.25
"2016-08-22 09:05",275.26
"2016-08-22 09:10",275.27
"2016-08-22 09:20",275.29
"2016-08-22 09:30",275.31
"2016-08-22 09:40",275.32
"2016-08-22 09:55",275.33
"2016-08-22 10:30",275.35
