"2017-06-09 11:10",222.42
"2017-06-09 12:10",222.43
"2017-06-09 12:45",222.44
"2017-06-09 13:20",222.46
"2017-06-09 13:50",222.47
"2017-06-09 14:20",222.48
"2017-06-09 14:50",222.49
"2017-06-09 15:50",222.49
"2017-06-09 16:40",222.51
"2017-06-09 17:30",222.52
"2017-06-09 18:15",222.53
"2017-06-09 19:15",222.53
"2017-06-09 20:15",222.54
"2017-06-09 21:15",222.55
"2017-06-09 22:15",222.55
"2017-06-09 23:15",222.55
"2017-06-10 00:15",222.55
"2017-06-10 01:15",222.55
"2017-06-10 02:15",222.55
"2017-06-10 03:15",222.55
"2017-06-10 04:15",222.55
"2017-06-10 05:15",222.54
"2017-06-10 06:15",222.54
"2017-06-10 06:35",222.53
"2017-06-10 07:35",222.53
"2017-06-10 08:00",222.52
"2017-06-10 09:00",222.52
"2017-06-10 10:00",222.51
"2017-06-10 10:25",222.50
"2017-06-10 11:25",222.50
"2017-06-10 12:25",222.49
"2017-06-10 13:25",222.49
"2017-06-10 13:35",222.48
"2017-06-10 14:35",222.47
"2017-06-10 15:35",222.46
"2017-06-10 16:35",222.45
"2017-06-10 17:35",222.44
"2017-06-10 18:35",222.44
"2017-06-10 19:35",222.43
"2017-06-10 20:35",222.43
"2017-06-10 21:35",222.43
"2017-06-10 22:35",222.42
"2017-06-10 23:35",222.42
"2017-06-11 00:35",222.42
"2017-06-11 01:35",222.42
"2017-06-11 02:35",222.43
"2017-06-11 03:35",222.43
"2017-06-11 04:35",222.43
"2017-06-11 05:35",222.44
"2017-06-11 06:20",222.46
"2017-06-11 07:05",222.47
"2017-06-11 07:50",222.48
"2017-06-11 08:35",222.49
"2017-06-11 09:35",222.49
"2017-06-11 10:35",222.50
"2017-06-11 11:10",222.51
"2017-06-11 12:10",222.51
"2017-06-11 13:10",222.52
"2017-06-11 14:00",222.53
"2017-06-11 15:00",222.53
"2017-06-11 16:00",222.53
"2017-06-11 17:00",222.53
"2017-06-11 18:00",222.53
"2017-06-11 19:00",222.53
"2017-06-11 20:00",222.53
"2017-06-11 21:00",222.53
"2017-06-11 21:45",222.52
"2017-06-11 22:45",222.52
"2017-06-11 23:45",222.52
"2017-06-12 00:45",222.52
"2017-06-12 01:45",222.52
"2017-06-12 02:45",222.52
"2017-06-12 03:45",222.51
"2017-06-12 04:45",222.51
"2017-06-12 05:45",222.51
"2017-06-12 06:45",222.51
"2017-06-12 07:45",222.51
"2017-06-12 08:25",222.50
"2017-06-12 09:25",222.50
"2017-06-12 10:25",222.50
"2017-06-12 11:25",222.49
"2017-06-12 12:25",222.49
"2017-06-12 13:25",222.49
"2017-06-12 14:20",222.48
"2017-06-12 15:20",222.48
"2017-06-12 15:45",222.47
"2017-06-12 16:45",222.46
"2017-06-12 17:45",222.46
"2017-06-12 18:05",222.45
"2017-06-12 19:05",222.45
"2017-06-12 19:20",222.44
"2017-06-12 20:20",222.44
"2017-06-12 21:20",222.43
"2017-06-12 22:20",222.43
"2017-06-12 23:20",222.43
"2017-06-13 00:20",222.42
"2017-06-13 01:05",222.41
"2017-06-13 02:05",222.41
"2017-06-13 03:05",222.41
"2017-06-13 04:05",222.41
"2017-06-13 05:05",222.41
"2017-06-13 06:05",222.41
"2017-06-13 07:05",222.41
"2017-06-13 07:50",222.42
"2017-06-13 08:50",222.43
"2017-06-13 09:50",222.43
"2017-06-13 10:50",222.44
"2017-06-13 11:10",222.45
"2017-06-13 11:50",222.46
"2017-06-13 12:50",222.47
"2017-06-13 13:15",222.48
"2017-06-13 14:00",222.49
"2017-06-13 15:00",222.49
"2017-06-13 16:00",222.50
"2017-06-13 17:00",222.51
"2017-06-13 18:00",222.51
"2017-06-13 19:00",222.52
"2017-06-13 20:00",222.53
"2017-06-13 21:00",222.53
"2017-06-13 22:00",222.53
"2017-06-13 22:20",222.54
"2017-06-13 23:20",222.54
"2017-06-14 00:20",222.54
"2017-06-14 01:20",222.55
"2017-06-14 02:20",222.55
"2017-06-14 03:20",222.55
"2017-06-14 04:20",222.55
"2017-06-14 05:20",222.55
"2017-06-14 06:20",222.55
"2017-06-14 07:20",222.55
"2017-06-14 08:20",222.55
"2017-06-14 09:20",222.55
"2017-06-14 10:20",222.55
"2017-06-14 11:20",222.55
"2017-06-14 12:20",222.55
"2017-06-14 13:20",222.55
"2017-06-14 14:20",222.55
"2017-06-14 15:20",222.54
"2017-06-14 16:20",222.54
"2017-06-14 17:20",222.54
"2017-06-14 18:10",222.53
"2017-06-14 19:10",222.53
"2017-06-14 20:10",222.53
"2017-06-14 21:10",222.53
"2017-06-14 22:10",222.53
"2017-06-14 22:25",222.52
"2017-06-14 23:25",222.52
"2017-06-15 00:25",222.52
"2017-06-15 01:25",222.52
"2017-06-15 02:25",222.51
"2017-06-15 03:25",222.51
"2017-06-15 04:25",222.50
"2017-06-15 05:25",222.50
"2017-06-15 06:25",222.49
"2017-06-15 07:25",222.49
"2017-06-15 08:25",222.49
"2017-06-15 08:55",222.48
"2017-06-15 09:55",222.48
"2017-06-15 10:10",222.47
"2017-06-15 11:10",222.47
"2017-06-15 12:10",222.46
"2017-06-15 12:50",222.45
"2017-06-15 13:50",222.45
"2017-06-15 14:10",222.44
"2017-06-15 15:10",222.44
"2017-06-15 16:10",222.43
"2017-06-15 17:10",222.43
"2017-06-15 18:10",222.42
"2017-06-15 19:10",222.42
"2017-06-15 19:30",222.41
"2017-06-15 20:30",222.41
"2017-06-15 20:55",222.40
"2017-06-15 21:55",222.40
"2017-06-15 22:25",222.39
"2017-06-15 23:25",222.39
"2017-06-16 00:25",222.39
"2017-06-16 01:25",222.38
"2017-06-16 02:25",222.38
"2017-06-16 03:25",222.39
"2017-06-16 03:55",222.40
"2017-06-16 04:35",222.41
"2017-06-16 05:15",222.42
"2017-06-16 06:15",222.43
"2017-06-16 07:15",222.44
"2017-06-16 07:25",222.45
"2017-06-16 08:00",222.46
