"2016-09-08 14:10",234.19
"2016-09-08 15:10",234.19
"2016-09-08 16:10",234.18
"2016-09-08 17:10",234.18
"2016-09-08 18:10",234.18
"2016-09-08 19:10",234.18
"2016-09-08 20:10",234.18
"2016-09-08 20:40",234.17
"2016-09-08 21:40",234.17
"2016-09-08 22:40",234.17
"2016-09-08 23:40",234.17
"2016-09-09 00:40",234.17
"2016-09-09 01:40",234.17
"2016-09-09 02:40",234.17
"2016-09-09 03:05",234.18
"2016-09-09 04:05",234.18
"2016-09-09 05:05",234.18
"2016-09-09 06:05",234.19
"2016-09-09 07:05",234.19
"2016-09-09 08:05",234.19
"2016-09-09 09:05",234.20
"2016-09-09 10:05",234.20
"2016-09-09 11:05",234.20
"2016-09-09 12:05",234.20
"2016-09-09 13:05",234.20
"2016-09-09 14:05",234.20
"2016-09-09 15:05",234.20
"2016-09-09 16:05",234.20
"2016-09-09 17:05",234.20
"2016-09-09 17:40",234.19
"2016-09-09 18:40",234.19
"2016-09-09 19:40",234.19
"2016-09-09 20:40",234.19
"2016-09-09 21:40",234.19
"2016-09-09 22:40",234.18
"2016-09-09 23:40",234.18
"2016-09-10 00:40",234.18
"2016-09-10 01:40",234.18
"2016-09-10 02:40",234.18
"2016-09-10 03:40",234.18
"2016-09-10 04:40",234.18
"2016-09-10 05:40",234.19
"2016-09-10 06:40",234.19
"2016-09-10 07:40",234.19
"2016-09-10 08:40",234.19
"2016-09-10 09:40",234.19
"2016-09-10 10:40",234.19
"2016-09-10 11:20",234.20
"2016-09-10 12:20",234.20
"2016-09-10 13:20",234.20
"2016-09-10 14:05",234.19
"2016-09-10 15:05",234.19
"2016-09-10 16:05",234.19
"2016-09-10 17:05",234.19
"2016-09-10 18:05",234.19
"2016-09-10 19:05",234.19
"2016-09-10 20:05",234.19
"2016-09-10 21:05",234.19
"2016-09-10 22:05",234.19
"2016-09-10 23:05",234.18
"2016-09-11 00:05",234.18
"2016-09-11 01:05",234.18
"2016-09-11 02:05",234.18
"2016-09-11 03:05",234.18
"2016-09-11 04:05",234.18
"2016-09-11 05:05",234.18
"2016-09-11 06:05",234.19
"2016-09-11 07:05",234.19
"2016-09-11 08:05",234.19
"2016-09-11 08:50",234.20
"2016-09-11 09:50",234.20
"2016-09-11 10:50",234.20
"2016-09-11 11:50",234.21
"2016-09-11 12:50",234.21
"2016-09-11 13:50",234.21
"2016-09-11 14:50",234.21
"2016-09-11 15:50",234.21
"2016-09-11 16:50",234.21
"2016-09-11 17:50",234.21
"2016-09-11 18:50",234.21
"2016-09-11 19:50",234.21
"2016-09-11 20:50",234.21
"2016-09-11 21:50",234.21
"2016-09-11 22:50",234.21
"2016-09-11 23:50",234.21
"2016-09-12 00:50",234.20
"2016-09-12 01:50",234.20
"2016-09-12 02:50",234.20
"2016-09-12 03:50",234.20
"2016-09-12 04:50",234.20
"2016-09-12 05:50",234.20
"2016-09-12 06:50",234.20
"2016-09-12 07:50",234.20
"2016-09-12 08:50",234.21
"2016-09-12 09:50",234.21
"2016-09-12 10:50",234.21
"2016-09-12 11:50",234.21
"2016-09-12 12:50",234.22
"2016-09-12 13:50",234.22
"2016-09-12 14:50",234.22
"2016-09-12 15:50",234.22
"2016-09-12 16:50",234.22
"2016-09-12 17:50",234.22
"2016-09-12 18:50",234.22
"2016-09-12 19:50",234.21
"2016-09-12 20:50",234.21
"2016-09-12 21:50",234.21
"2016-09-12 22:50",234.21
"2016-09-12 23:50",234.20
"2016-09-13 00:50",234.20
"2016-09-13 01:50",234.20
"2016-09-13 02:50",234.20
"2016-09-13 03:05",234.21
"2016-09-13 04:05",234.21
"2016-09-13 05:05",234.21
"2016-09-13 06:05",234.21
"2016-09-13 07:05",234.21
"2016-09-13 08:05",234.21
"2016-09-13 09:05",234.21
"2016-09-13 09:20",234.20
"2016-09-13 10:20",234.20
"2016-09-13 11:20",234.20
"2016-09-13 12:20",234.20
"2016-09-13 13:20",234.20
"2016-09-13 14:20",234.20
"2016-09-13 14:30",234.19
"2016-09-13 15:30",234.19
"2016-09-13 16:30",234.19
"2016-09-13 17:30",234.19
"2016-09-13 18:30",234.19
"2016-09-13 19:30",234.18
"2016-09-13 20:30",234.18
"2016-09-13 21:30",234.18
"2016-09-13 22:30",234.18
"2016-09-13 23:30",234.18
"2016-09-14 00:30",234.18
"2016-09-14 01:30",234.18
"2016-09-14 01:55",234.17
"2016-09-14 02:55",234.17
"2016-09-14 03:55",234.17
"2016-09-14 04:55",234.17
"2016-09-14 05:55",234.17
"2016-09-14 06:55",234.17
"2016-09-14 07:55",234.17
"2016-09-14 08:55",234.17
"2016-09-14 09:55",234.17
"2016-09-14 10:45",234.18
"2016-09-14 11:45",234.18
"2016-09-14 12:45",234.18
"2016-09-14 13:15",234.17
"2016-09-14 14:15",234.17
"2016-09-14 15:15",234.17
"2016-09-14 16:15",234.16
"2016-09-14 17:15",234.16
"2016-09-14 18:15",234.16
"2016-09-14 19:15",234.15
"2016-09-14 20:15",234.15
"2016-09-14 20:55",234.14
"2016-09-14 21:55",234.14
"2016-09-14 22:55",234.14
"2016-09-14 23:55",234.14
"2016-09-15 00:55",234.13
"2016-09-15 01:55",234.13
"2016-09-15 02:55",234.13
"2016-09-15 03:55",234.13
"2016-09-15 04:55",234.13
"2016-09-15 05:55",234.13
"2016-09-15 06:55",234.13
"2016-09-15 07:55",234.13
"2016-09-15 08:55",234.13
"2016-09-15 09:55",234.13
"2016-09-15 10:55",234.13
