"2017-06-13 09:25",0.01
"2017-06-13 10:25",0.01
"2017-06-13 11:25",0.01
"2017-06-13 12:25",0.01
"2017-06-13 13:25",0.01
"2017-06-13 14:25",0.01
"2017-06-13 15:25",0.01
"2017-06-13 16:25",0.01
"2017-06-13 17:25",0.01
"2017-06-13 18:25",0.01
"2017-06-13 19:25",0.01
"2017-06-13 20:25",0.01
"2017-06-13 21:25",0.01
"2017-06-13 22:25",0.01
"2017-06-13 23:25",0.01
"2017-06-14 00:25",0.01
"2017-06-14 01:25",0.01
"2017-06-14 02:25",0.01
"2017-06-14 03:25",0.01
"2017-06-14 04:25",0.01
"2017-06-14 05:25",0.01
"2017-06-14 06:25",0.01
"2017-06-14 07:25",0.01
"2017-06-14 08:25",0.01
"2017-06-14 09:25",0.01
"2017-06-14 10:25",0.01
"2017-06-14 11:25",0.01
"2017-06-14 12:25",0.01
"2017-06-14 13:25",0.01
"2017-06-14 14:25",0.01
"2017-06-14 15:25",0.01
"2017-06-14 16:25",0.01
"2017-06-14 17:25",0.01
"2017-06-14 18:25",0.01
"2017-06-14 19:25",0.01
"2017-06-14 20:25",0.01
"2017-06-14 21:25",0.01
"2017-06-14 22:25",0.01
"2017-06-14 23:25",0.01
"2017-06-15 00:25",0.01
"2017-06-15 01:25",0.01
"2017-06-15 02:25",0.01
"2017-06-15 03:25",0.01
"2017-06-15 04:25",0.01
"2017-06-15 05:25",0.01
"2017-06-15 06:25",0.01
"2017-06-15 07:25",0.01
"2017-06-15 08:25",0.01
"2017-06-15 09:25",0.01
"2017-06-15 10:25",0.01
"2017-06-15 11:25",0.01
"2017-06-15 12:25",0.01
"2017-06-15 13:25",0.01
"2017-06-15 14:25",0.01
"2017-06-15 15:25",0.01
"2017-06-15 16:25",0.01
"2017-06-15 17:25",0.01
"2017-06-15 18:25",0.01
"2017-06-15 19:25",0.01
"2017-06-15 20:25",0.01
"2017-06-15 21:25",0.01
"2017-06-15 22:25",0.01
"2017-06-15 23:25",0.01
"2017-06-16 00:25",0.01
"2017-06-16 01:25",0.01
"2017-06-16 02:25",0.01
"2017-06-16 03:25",0.01
"2017-06-16 04:25",0.01
"2017-06-16 05:25",0.01
"2017-06-16 06:25",0.01
"2017-06-16 07:25",0.01
"2017-06-16 08:25",0.01
"2017-06-16 09:25",0.01
"2017-06-16 10:25",0.01
"2017-06-16 11:25",0.01
"2017-06-16 12:25",0.01
"2017-06-16 13:25",0.01
"2017-06-16 14:25",0.01
"2017-06-16 15:25",0.01
"2017-06-16 16:25",0.01
"2017-06-16 17:25",0.01
"2017-06-16 18:25",0.01
"2017-06-16 19:25",0.01
"2017-06-16 20:25",0.01
"2017-06-16 21:25",0.01
"2017-06-16 22:25",0.01
"2017-06-16 23:25",0.01
"2017-06-17 00:25",0.01
"2017-06-17 01:25",0.01
"2017-06-17 02:25",0.01
"2017-06-17 03:25",0.01
"2017-06-17 04:25",0.01
"2017-06-17 05:25",0.01
"2017-06-17 06:25",0.01
"2017-06-17 07:25",0.01
"2017-06-17 08:25",0.01
"2017-06-17 09:25",0.01
"2017-06-17 10:25",0.01
"2017-06-17 11:25",0.01
"2017-06-17 12:25",0.01
"2017-06-17 13:25",0.01
"2017-06-17 14:25",0.01
"2017-06-17 15:25",0.01
"2017-06-17 16:25",0.01
"2017-06-17 17:25",0.01
"2017-06-17 18:25",0.01
"2017-06-17 19:25",0.01
"2017-06-17 20:25",0.01
"2017-06-17 21:25",0.01
"2017-06-17 22:25",0.01
"2017-06-17 23:25",0.01
"2017-06-18 00:25",0.01
"2017-06-18 01:25",0.01
"2017-06-18 02:25",0.01
"2017-06-18 03:25",0.01
"2017-06-18 04:25",0.01
"2017-06-18 05:25",0.01
"2017-06-18 06:25",0.01
"2017-06-18 07:25",0.01
"2017-06-18 08:25",0.01
"2017-06-18 09:25",0.01
"2017-06-18 10:25",0.01
"2017-06-18 11:25",0.01
"2017-06-18 12:25",0.01
"2017-06-18 13:25",0.01
"2017-06-18 14:25",0.01
"2017-06-18 15:25",0.01
"2017-06-18 16:25",0.01
"2017-06-18 17:25",0.01
"2017-06-18 18:25",0.01
"2017-06-18 19:25",0.01
"2017-06-18 20:25",0.01
"2017-06-18 21:25",0.01
"2017-06-18 22:25",0.01
"2017-06-18 23:25",0.01
"2017-06-19 00:25",0.01
"2017-06-19 01:25",0.01
"2017-06-19 02:25",0.01
"2017-06-19 03:25",0.01
"2017-06-19 04:25",0.01
"2017-06-19 05:25",0.01
"2017-06-19 06:25",0.01
"2017-06-19 07:25",0.01
"2017-06-19 08:25",0.01
"2017-06-19 09:25",0.01
"2017-06-19 10:25",0.01
"2017-06-19 11:25",0.01
"2017-06-19 12:25",0.01
"2017-06-19 13:25",0.01
"2017-06-19 14:25",0.01
"2017-06-19 15:25",0.01
"2017-06-19 16:25",0.01
"2017-06-19 17:25",0.01
"2017-06-19 18:25",0.01
"2017-06-19 19:25",0.01
"2017-06-19 20:25",0.01
"2017-06-19 21:25",0.01
"2017-06-19 22:25",0.01
"2017-06-19 23:25",0.01
"2017-06-20 00:25",0.01
"2017-06-20 01:25",0.01
"2017-06-20 02:25",0.01
"2017-06-20 03:25",0.01
"2017-06-20 04:25",0.01
"2017-06-20 05:25",0.01
"2017-06-20 06:25",0.01
