"2018-02-26 11:30",0.04
"2018-02-26 12:30",0.04
"2018-02-26 13:30",0.04
"2018-02-26 14:30",0.04
"2018-02-26 15:30",0.04
"2018-02-26 16:30",0.04
"2018-02-26 17:30",0.04
"2018-02-26 18:30",0.04
"2018-02-26 19:30",0.04
"2018-02-26 20:30",0.04
"2018-02-26 21:30",0.04
"2018-02-26 22:30",0.04
"2018-02-26 23:30",0.04
"2018-02-27 00:30",0.04
"2018-02-27 01:30",0.04
"2018-02-27 02:30",0.04
"2018-02-27 03:30",0.04
"2018-02-27 04:30",0.04
"2018-02-27 05:30",0.04
"2018-02-27 06:30",0.04
"2018-02-27 07:30",0.04
"2018-02-27 08:30",0.04
"2018-02-27 09:30",0.04
"2018-02-27 10:30",0.04
"2018-02-27 11:30",0.04
"2018-02-27 12:30",0.04
"2018-02-27 13:30",0.04
"2018-02-27 14:30",0.04
"2018-02-27 15:30",0.04
"2018-02-27 16:30",0.04
"2018-02-27 17:30",0.04
"2018-02-27 18:30",0.04
"2018-02-27 19:30",0.04
"2018-02-27 20:30",0.04
"2018-02-27 21:30",0.04
"2018-02-27 22:30",0.04
"2018-02-27 23:30",0.04
"2018-02-28 00:30",0.04
"2018-02-28 01:30",0.04
"2018-02-28 02:30",0.04
"2018-02-28 03:30",0.04
"2018-02-28 04:30",0.04
"2018-02-28 05:30",0.04
"2018-02-28 06:30",0.04
"2018-02-28 07:30",0.04
"2018-02-28 08:30",0.04
"2018-02-28 09:30",0.04
"2018-02-28 10:30",0.04
"2018-02-28 11:30",0.04
"2018-02-28 12:30",0.04
"2018-02-28 13:30",0.04
"2018-02-28 14:30",0.04
"2018-02-28 15:30",0.04
"2018-02-28 16:30",0.04
"2018-02-28 17:30",0.04
"2018-02-28 18:30",0.04
"2018-02-28 19:30",0.04
"2018-02-28 20:30",0.04
"2018-02-28 21:30",0.04
"2018-02-28 22:30",0.04
"2018-02-28 23:30",0.04
"2018-02-28 23:45",0.05
"2018-03-01 00:45",0.05
"2018-03-01 01:25",0.04
"2018-03-01 02:20",0.04
"2018-03-01 03:20",0.04
"2018-03-01 04:20",0.04
"2018-03-01 05:20",0.04
"2018-03-01 06:20",0.04
"2018-03-01 07:20",0.04
"2018-03-01 08:20",0.04
"2018-03-01 09:20",0.04
"2018-03-01 10:20",0.04
"2018-03-01 11:20",0.04
"2018-03-01 11:55",0.05
"2018-03-01 12:40",0.04
"2018-03-01 13:40",0.04
"2018-03-01 14:40",0.04
"2018-03-01 15:40",0.04
"2018-03-01 16:40",0.04
"2018-03-01 17:40",0.04
"2018-03-01 18:40",0.04
"2018-03-01 19:40",0.04
"2018-03-01 20:40",0.04
"2018-03-01 21:40",0.04
"2018-03-01 22:40",0.04
"2018-03-01 23:40",0.04
"2018-03-02 00:40",0.04
"2018-03-02 01:40",0.04
"2018-03-02 02:40",0.04
"2018-03-02 03:40",0.04
"2018-03-02 04:40",0.04
"2018-03-02 05:40",0.04
"2018-03-02 06:40",0.04
"2018-03-02 07:40",0.04
"2018-03-02 08:40",0.04
"2018-03-02 09:40",0.04
"2018-03-02 10:10",0.05
"2018-03-02 11:10",0.05
"2018-03-02 11:50",0.06
"2018-03-02 12:00",0.07
"2018-03-02 13:00",0.07
"2018-03-02 14:00",0.07
"2018-03-02 15:00",0.07
"2018-03-02 16:00",0.07
"2018-03-02 16:05",0.06
"2018-03-02 17:05",0.06
"2018-03-02 18:05",0.06
"2018-03-02 18:20",0.05
"2018-03-02 19:20",0.05
"2018-03-02 20:20",0.05
"2018-03-02 21:20",0.05
"2018-03-02 22:20",0.05
"2018-03-02 23:20",0.05
"2018-03-03 00:20",0.05
"2018-03-03 00:25",0.06
"2018-03-03 01:25",0.06
"2018-03-03 02:25",0.06
"2018-03-03 03:25",0.05
"2018-03-03 04:25",0.05
"2018-03-03 05:25",0.05
"2018-03-03 06:25",0.05
"2018-03-03 07:25",0.05
"2018-03-03 08:25",0.05
"2018-03-03 09:25",0.05
"2018-03-03 10:25",0.05
"2018-03-03 11:25",0.05
"2018-03-03 12:25",0.05
"2018-03-03 13:25",0.05
"2018-03-03 14:25",0.05
"2018-03-03 15:25",0.05
"2018-03-03 16:25",0.05
"2018-03-03 17:25",0.05
"2018-03-03 18:25",0.05
"2018-03-03 19:25",0.05
"2018-03-03 20:25",0.06
"2018-03-03 20:45",0.06
"2018-03-03 21:45",0.06
"2018-03-03 22:45",0.06
"2018-03-03 22:55",0.05
"2018-03-03 23:55",0.05
"2018-03-04 00:55",0.05
"2018-03-04 01:55",0.05
"2018-03-04 02:55",0.05
"2018-03-04 03:05",0.06
"2018-03-04 03:25",0.07
"2018-03-04 03:30",0.08
"2018-03-04 03:40",0.09
"2018-03-04 03:45",0.10
"2018-03-04 03:55",0.11
"2018-03-04 04:55",0.12
"2018-03-04 05:00",0.11
"2018-03-04 05:20",0.10
"2018-03-04 05:50",0.09
"2018-03-04 06:50",0.09
"2018-03-04 07:50",0.09
"2018-03-04 08:25",0.08
"2018-03-04 09:25",0.08
"2018-03-04 10:25",0.07
"2018-03-04 10:40",0.07
"2018-03-04 11:40",0.07
"2018-03-04 11:55",0.06
"2018-03-04 12:55",0.06
"2018-03-04 13:55",0.06
"2018-03-04 14:55",0.06
"2018-03-04 15:10",0.05
"2018-03-04 16:10",0.05
"2018-03-04 17:10",0.05
"2018-03-04 18:10",0.05
"2018-03-04 19:10",0.05
"2018-03-04 20:10",0.05
"2018-03-04 21:10",0.05
"2018-03-04 22:10",0.05
"2018-03-04 23:10",0.05
"2018-03-04 23:20",0.06
"2018-03-05 00:20",0.06
"2018-03-05 01:15",0.05
"2018-03-05 02:15",0.05
"2018-03-05 02:55",0.08
"2018-03-05 03:00",0.09
"2018-03-05 03:05",0.11
"2018-03-05 03:10",0.13
"2018-03-05 03:15",0.14
"2018-03-05 03:40",0.15
"2018-03-05 04:40",0.15
"2018-03-05 05:40",0.15
"2018-03-05 06:00",0.16
"2018-03-05 06:55",0.16
"2018-03-05 07:55",0.16
"2018-03-05 08:55",0.16
