"2015-05-20 05:55",15.23
"2015-05-20 06:35",14.79
"2015-05-20 06:40",14.68
"2015-05-20 07:40",14.68
"2015-05-20 08:40",14.27
"2015-05-20 08:45",14.37
"2015-05-20 08:50",14.16
"2015-05-20 09:50",14.16
"2015-05-20 10:15",14.06
"2015-05-20 10:20",13.85
"2015-05-20 10:25",13.64
"2015-05-20 11:25",13.64
"2015-05-20 12:25",13.64
"2015-05-20 13:25",13.64
"2015-05-20 13:30",13.43
"2015-05-20 13:35",13.64
"2015-05-20 13:40",13.33
"2015-05-20 13:45",13.54
"2015-05-20 13:50",13.34
"2015-05-20 13:55",13.54
"2015-05-20 14:00",13.43
"2015-05-20 14:05",13.12
"2015-05-20 14:15",13.33
"2015-05-20 14:20",13.12
"2015-05-20 14:45",13.22
"2015-05-20 14:50",13.12
"2015-05-20 15:50",13.12
"2015-05-20 16:40",12.60
"2015-05-20 17:40",12.60
"2015-05-20 17:55",12.20
"2015-05-20 18:00",12.11
"2015-05-20 19:00",12.11
"2015-05-20 20:00",12.11
"2015-05-20 21:00",12.11
"2015-05-20 21:05",11.91
"2015-05-20 21:10",11.61
"2015-05-20 22:10",11.61
"2015-05-20 23:10",11.61
"2015-05-21 00:10",11.61
"2015-05-21 01:10",11.61
"2015-05-21 02:10",11.61
"2015-05-21 03:10",11.61
"2015-05-21 04:10",11.61
"2015-05-21 05:10",11.61
"2015-05-21 06:10",11.52
"2015-05-21 06:15",11.12
"2015-05-21 06:20",11.22
"2015-05-21 06:25",11.12
"2015-05-21 07:25",11.12
"2015-05-21 07:45",11.32
"2015-05-21 07:50",11.12
"2015-05-21 08:25",11.32
"2015-05-21 08:30",11.12
"2015-05-21 08:35",11.22
"2015-05-21 08:40",11.12
"2015-05-21 08:50",11.32
"2015-05-21 08:55",11.12
"2015-05-21 09:00",11.52
"2015-05-21 09:05",11.22
"2015-05-21 09:10",11.61
"2015-05-21 10:10",11.61
"2015-05-21 10:30",11.42
"2015-05-21 10:40",11.22
"2015-05-21 10:45",11.12
"2015-05-21 11:30",10.83
"2015-05-21 11:35",11.02
"2015-05-21 11:40",10.63
"2015-05-21 12:40",10.63
"2015-05-21 13:00",10.26
"2015-05-21 13:05",10.17
"2015-05-21 13:10",10.35
"2015-05-21 13:15",10.45
"2015-05-21 13:20",10.26
"2015-05-21 13:25",10.35
"2015-05-21 13:30",10.17
"2015-05-21 14:10",10.26
"2015-05-21 14:15",10.17
"2015-05-21 15:15",10.17
"2015-05-21 16:15",10.17
"2015-05-21 17:15",10.17
"2015-05-21 18:15",10.17
"2015-05-21 19:15",10.17
"2015-05-21 20:15",10.17
"2015-05-21 21:15",10.17
"2015-05-21 22:15",10.17
"2015-05-21 23:15",10.17
"2015-05-22 00:15",10.17
"2015-05-22 01:15",10.17
"2015-05-22 02:15",10.17
"2015-05-22 03:15",10.17
"2015-05-22 04:15",10.17
"2015-05-22 05:15",10.17
"2015-05-22 06:15",10.17
"2015-05-22 07:15",10.17
"2015-05-22 08:15",10.17
"2015-05-22 08:25",10.35
"2015-05-22 08:30",10.54
"2015-05-22 08:35",10.63
"2015-05-22 09:35",10.63
"2015-05-22 10:15",10.83
"2015-05-22 10:20",10.63
"2015-05-22 10:35",10.73
"2015-05-22 10:40",10.63
"2015-05-22 10:45",10.73
"2015-05-22 10:50",10.63
"2015-05-22 11:05",10.73
"2015-05-22 11:15",10.93
"2015-05-22 11:20",10.63
"2015-05-22 11:45",10.73
"2015-05-22 11:50",10.63
"2015-05-22 11:55",10.93
"2015-05-22 12:00",10.63
"2015-05-22 12:05",10.93
"2015-05-22 12:10",10.63
"2015-05-22 13:10",10.63
"2015-05-22 14:10",10.63
"2015-05-22 14:20",10.35
"2015-05-22 14:25",10.54
"2015-05-22 14:30",10.26
"2015-05-22 14:35",10.54
"2015-05-22 14:40",10.17
"2015-05-22 14:45",10.63
"2015-05-22 14:50",10.25
"2015-05-22 14:55",10.17
"2015-05-22 15:05",10.26
"2015-05-22 15:10",10.17
"2015-05-22 15:20",10.35
"2015-05-22 15:25",10.17
"2015-05-22 16:25",10.17
"2015-05-22 17:20",10.35
"2015-05-22 17:25",10.17
"2015-05-22 17:30",10.63
"2015-05-22 18:30",10.63
"2015-05-22 19:30",10.63
"2015-05-22 20:30",10.63
"2015-05-22 21:30",10.63
"2015-05-22 22:30",10.63
"2015-05-22 22:55",10.44
"2015-05-22 23:00",10.17
"2015-05-23 00:00",10.17
"2015-05-23 01:00",10.17
"2015-05-23 01:05",10.26
"2015-05-23 01:10",10.63
"2015-05-23 02:10",10.63
"2015-05-23 03:00",10.54
"2015-05-23 03:05",10.17
"2015-05-23 04:05",10.17
"2015-05-23 05:05",10.17
"2015-05-23 06:05",10.17
"2015-05-23 07:05",10.17
"2015-05-23 08:05",10.17
"2015-05-23 09:05",10.17
"2015-05-23 09:15",10.54
"2015-05-23 09:20",10.17
"2015-05-23 09:25",10.54
"2015-05-23 09:30",10.26
"2015-05-23 09:35",10.63
"2015-05-23 09:50",10.54
"2015-05-23 09:55",10.63
"2015-05-23 10:00",10.44
"2015-05-23 10:05",10.63
"2015-05-23 10:15",10.54
"2015-05-23 10:20",10.63
"2015-05-23 10:25",10.45
"2015-05-23 10:30",10.35
"2015-05-23 10:35",10.54
"2015-05-23 10:45",10.35
"2015-05-23 10:50",10.17
"2015-05-23 10:55",10.26
"2015-05-23 11:00",10.35
"2015-05-23 11:05",10.17
"2015-05-23 12:05",10.17
"2015-05-23 13:05",10.17
"2015-05-23 14:05",10.17
"2015-05-23 15:05",10.17
"2015-05-23 16:05",10.17
"2015-05-23 16:25",9.89
"2015-05-23 16:30",10.17
"2015-05-23 17:30",10.17
"2015-05-23 18:30",10.17
"2015-05-23 19:30",10.17
"2015-05-23 20:30",10.17
"2015-05-23 21:30",9.80
"2015-05-23 21:35",9.71
"2015-05-23 22:35",9.71
"2015-05-23 23:35",9.71
"2015-05-24 00:35",9.71
"2015-05-24 01:35",9.71
"2015-05-24 02:35",9.71
"2015-05-24 03:00",9.61
"2015-05-24 03:05",9.24
"2015-05-24 04:05",9.24
"2015-05-24 05:05",9.24
"2015-05-24 06:05",9.24
"2015-05-24 07:05",9.24
"2015-05-24 08:05",9.24
"2015-05-24 09:05",9.24
"2015-05-24 10:05",9.24
"2015-05-24 11:05",9.24
"2015-05-24 11:15",9.15
"2015-05-24 11:20",8.78
"2015-05-24 11:25",9.06
"2015-05-24 11:30",9.24
"2015-05-24 11:35",8.88
"2015-05-24 11:40",9.06
"2015-05-24 11:45",8.97
"2015-05-24 11:50",8.88
"2015-05-24 12:00",8.78
"2015-05-24 13:00",8.78
"2015-05-24 14:00",8.78
"2015-05-24 15:00",8.78
"2015-05-24 15:30",8.97
"2015-05-24 15:35",8.78
"2015-05-24 15:50",8.97
"2015-05-24 15:55",8.78
"2015-05-24 16:00",9.15
"2015-05-24 16:05",8.97
"2015-05-24 16:10",9.24
"2015-05-24 16:25",9.15
"2015-05-24 16:50",9.24
"2015-05-24 16:55",8.97
"2015-05-24 17:00",9.24
"2015-05-24 17:15",8.78
"2015-05-24 17:20",8.97
"2015-05-24 17:25",8.88
"2015-05-24 17:30",8.78
"2015-05-24 18:30",8.78
"2015-05-24 19:30",8.78
"2015-05-24 20:30",8.78
"2015-05-24 21:30",8.78
"2015-05-24 22:30",8.78
"2015-05-24 23:15",8.52
"2015-05-24 23:20",8.35
"2015-05-25 00:20",8.35
"2015-05-25 01:20",8.35
"2015-05-25 02:20",8.35
"2015-05-25 03:20",8.35
"2015-05-25 04:20",8.35
"2015-05-25 05:20",8.35
"2015-05-25 06:20",8.35
"2015-05-25 07:20",8.35
"2015-05-25 08:20",8.35
"2015-05-25 09:20",8.35
"2015-05-25 10:20",8.70
"2015-05-25 10:25",8.35
"2015-05-25 10:40",8.52
"2015-05-25 10:45",8.78
"2015-05-25 11:45",8.78
"2015-05-25 12:45",8.78
"2015-05-25 13:25",9.06
"2015-05-25 13:30",8.78
"2015-05-25 13:40",9.24
"2015-05-25 13:45",8.97
"2015-05-25 13:50",9.06
"2015-05-25 13:55",8.88
"2015-05-25 14:00",9.06
"2015-05-25 14:05",8.78
"2015-05-25 14:10",9.06
"2015-05-25 14:15",8.88
"2015-05-25 14:20",8.78
"2015-05-25 14:30",9.06
"2015-05-25 14:35",8.78
"2015-05-25 14:45",8.88
"2015-05-25 14:50",8.78
"2015-05-25 15:15",9.06
"2015-05-25 15:20",8.78
"2015-05-25 16:20",8.78
"2015-05-25 17:20",8.78
"2015-05-25 18:20",8.78
"2015-05-25 18:35",8.35
"2015-05-25 19:35",8.35
"2015-05-25 20:35",8.35
"2015-05-25 21:35",8.35
"2015-05-25 22:35",8.35
"2015-05-25 23:35",8.35
"2015-05-26 00:35",8.35
"2015-05-26 01:35",8.35
"2015-05-26 02:35",8.35
"2015-05-26 03:35",8.35
"2015-05-26 04:35",8.35
"2015-05-26 05:35",8.35
"2015-05-26 06:35",8.35
"2015-05-26 07:35",8.35
"2015-05-26 08:35",8.35
"2015-05-26 09:10",8.44
"2015-05-26 09:15",8.78
"2015-05-26 10:15",8.78
"2015-05-26 11:15",8.78
"2015-05-26 11:30",9.15
"2015-05-26 11:35",8.97
"2015-05-26 11:40",9.24
"2015-05-26 12:40",9.24
"2015-05-26 13:40",9.24
"2015-05-26 14:35",9.06
"2015-05-26 14:40",9.15
"2015-05-26 14:55",8.97
"2015-05-26 15:00",9.15
"2015-05-26 15:05",8.78
"2015-05-26 15:10",8.88
"2015-05-26 15:15",8.78
"2015-05-26 16:15",8.78
"2015-05-26 16:50",8.61
"2015-05-26 16:55",8.35
"2015-05-26 17:55",8.35
"2015-05-26 18:55",8.35
"2015-05-26 19:55",8.35
"2015-05-26 20:55",8.35
"2015-05-26 21:55",8.35
"2015-05-26 22:55",8.35
"2015-05-26 23:55",8.35
"2015-05-27 00:55",8.35
"2015-05-27 01:55",8.35
"2015-05-27 02:55",8.35
