"2018-03-28 09:30",25.11
"2018-03-28 09:45",25.11
"2018-03-28 10:00",25.11
"2018-03-28 10:15",25.11
"2018-03-28 10:30",25.11
"2018-03-28 10:45",25.11
"2018-03-28 11:00",25.11
"2018-03-28 11:15",25.11
"2018-03-28 11:30",25.11
"2018-03-28 11:45",25.11
"2018-03-28 12:00",25.11
"2018-03-28 12:15",25.11
"2018-03-28 12:30",25.11
"2018-03-28 12:45",25.14
"2018-03-28 13:00",25.14
"2018-03-28 13:15",25.14
"2018-03-28 13:30",25.14
"2018-03-28 13:45",25.14
"2018-03-28 14:00",25.14
"2018-03-28 14:15",25.14
"2018-03-28 14:30",25.14
"2018-03-28 14:45",25.14
"2018-03-28 15:00",25.14
"2018-03-28 15:15",25.14
"2018-03-28 15:30",25.14
"2018-03-28 15:45",25.14
"2018-03-28 16:00",25.14
"2018-03-28 16:15",25.14
"2018-03-28 16:30",25.14
"2018-03-28 16:45",25.14
"2018-03-28 17:00",25.14
"2018-03-28 17:15",25.14
"2018-03-28 17:30",25.14
"2018-03-28 17:45",25.14
"2018-03-28 18:00",25.14
"2018-03-28 18:15",25.14
"2018-03-28 18:30",25.14
"2018-03-28 18:45",25.14
"2018-03-28 19:00",25.14
"2018-03-28 19:15",25.14
"2018-03-28 19:30",25.14
"2018-03-28 19:45",25.14
"2018-03-28 20:00",25.14
"2018-03-28 20:15",25.14
"2018-03-28 20:30",25.14
"2018-03-28 20:45",25.14
"2018-03-28 21:00",25.14
"2018-03-28 21:15",25.14
"2018-03-28 21:30",25.14
"2018-03-28 21:45",25.14
"2018-03-28 22:00",25.14
"2018-03-28 22:15",25.14
"2018-03-28 22:30",25.14
"2018-03-28 22:45",25.14
"2018-03-28 23:00",25.14
"2018-03-28 23:15",25.14
"2018-03-28 23:30",25.14
"2018-03-28 23:45",25.14
"2018-03-29 00:00",25.14
"2018-03-29 00:15",25.14
"2018-03-29 00:30",25.14
"2018-03-29 00:45",25.14
"2018-03-29 01:00",25.14
"2018-03-29 01:15",25.14
"2018-03-29 01:30",25.14
"2018-03-29 01:45",25.14
"2018-03-29 02:00",25.14
"2018-03-29 02:15",25.14
"2018-03-29 02:30",25.14
"2018-03-29 02:45",25.14
"2018-03-29 03:00",25.14
"2018-03-29 03:15",25.14
"2018-03-29 03:30",25.14
"2018-03-29 03:45",25.14
"2018-03-29 04:00",25.14
"2018-03-29 04:15",25.14
"2018-03-29 04:30",25.14
"2018-03-29 04:45",25.14
"2018-03-29 05:00",25.14
"2018-03-29 05:15",25.14
"2018-03-29 05:30",25.14
"2018-03-29 05:45",25.15
"2018-03-29 06:00",25.17
"2018-03-29 06:15",25.17
"2018-03-29 06:30",25.17
"2018-03-29 06:45",25.17
"2018-03-29 07:00",25.17
"2018-03-29 07:15",25.17
"2018-03-29 07:30",25.17
"2018-03-29 07:45",25.17
"2018-03-29 08:00",25.17
"2018-03-29 08:15",25.17
"2018-03-29 08:30",25.17
"2018-03-29 08:45",25.17
"2018-03-29 09:00",25.17
"2018-03-29 09:15",25.17
"2018-03-29 09:30",25.17
"2018-03-29 09:45",25.17
"2018-03-29 10:00",25.19
"2018-03-29 10:15",25.20
"2018-03-29 10:30",25.20
"2018-03-29 10:45",25.20
"2018-03-29 11:00",25.20
"2018-03-29 11:15",25.20
"2018-03-29 11:30",25.20
"2018-03-29 11:45",25.20
"2018-03-29 12:00",25.20
"2018-03-29 12:15",25.20
"2018-03-29 12:30",25.20
"2018-03-29 12:45",25.20
"2018-03-29 13:00",25.20
"2018-03-29 13:15",25.20
"2018-03-29 13:30",25.20
"2018-03-29 13:45",25.20
"2018-03-29 14:00",25.20
"2018-03-29 14:15",25.20
"2018-03-29 14:30",25.20
"2018-03-29 14:45",25.20
"2018-03-29 15:00",25.20
"2018-03-29 15:15",25.21
"2018-03-29 15:30",25.20
"2018-03-29 15:45",25.20
"2018-03-29 16:00",25.20
"2018-03-29 16:15",25.21
"2018-03-29 16:30",25.21
"2018-03-29 16:45",25.21
"2018-03-29 17:00",25.22
"2018-03-29 17:15",25.22
"2018-03-29 17:30",25.23
"2018-03-29 17:45",25.21
"2018-03-29 18:00",25.21
"2018-03-29 18:15",25.22
"2018-03-29 18:30",25.21
"2018-03-29 18:45",25.23
"2018-03-29 19:00",25.23
"2018-03-29 19:15",25.23
"2018-03-29 19:30",25.23
"2018-03-29 19:45",25.23
"2018-03-29 20:00",25.23
"2018-03-29 20:15",25.23
"2018-03-29 20:30",25.23
"2018-03-29 20:45",25.21
"2018-03-29 21:00",25.22
"2018-03-29 21:15",25.23
"2018-03-29 21:30",25.23
"2018-03-29 21:45",25.23
"2018-03-29 22:00",25.23
"2018-03-29 22:15",25.23
"2018-03-29 22:30",25.23
"2018-03-29 22:45",25.23
"2018-03-29 23:00",25.23
"2018-03-29 23:15",25.23
"2018-03-29 23:30",25.23
"2018-03-29 23:45",25.23
"2018-03-30 00:00",25.23
"2018-03-30 00:15",25.23
"2018-03-30 00:30",25.23
"2018-03-30 00:45",25.23
"2018-03-30 01:00",25.23
"2018-03-30 01:15",25.23
"2018-03-30 01:30",25.23
"2018-03-30 01:45",25.23
"2018-03-30 02:00",25.23
"2018-03-30 02:15",25.23
"2018-03-30 02:30",25.23
"2018-03-30 02:45",25.23
"2018-03-30 03:00",25.23
"2018-03-30 03:15",25.23
"2018-03-30 03:30",25.23
"2018-03-30 03:45",25.23
"2018-03-30 04:00",25.23
"2018-03-30 04:15",25.23
"2018-03-30 04:30",25.23
"2018-03-30 04:45",25.23
"2018-03-30 05:00",25.23
"2018-03-30 05:15",25.23
"2018-03-30 05:30",25.23
"2018-03-30 05:45",25.23
"2018-03-30 06:00",25.23
"2018-03-30 06:15",25.23
"2018-03-30 06:30",25.23
"2018-03-30 06:45",25.23
"2018-03-30 07:00",25.23
"2018-03-30 07:15",25.23
"2018-03-30 07:30",25.26
"2018-03-30 07:45",25.26
"2018-03-30 08:00",25.26
"2018-03-30 08:15",25.26
"2018-03-30 08:30",25.26
"2018-03-30 08:45",25.26
"2018-03-30 09:00",25.26
"2018-03-30 09:15",25.26
"2018-03-30 09:30",25.26
"2018-03-30 09:45",25.26
"2018-03-30 10:00",25.26
"2018-03-30 10:15",25.26
"2018-03-30 10:30",25.26
"2018-03-30 10:45",25.26
"2018-03-30 11:00",25.27
"2018-03-30 11:15",25.26
"2018-03-30 11:30",25.28
"2018-03-30 11:45",25.27
"2018-03-30 12:00",25.28
"2018-03-30 12:15",25.28
"2018-03-30 12:30",25.28
"2018-03-30 12:45",25.29
"2018-03-30 13:00",25.27
"2018-03-30 13:15",25.29
"2018-03-30 13:30",25.28
"2018-03-30 13:45",25.29
"2018-03-30 14:00",25.29
"2018-03-30 14:15",25.29
"2018-03-30 14:30",25.29
"2018-03-30 14:45",25.29
"2018-03-30 15:00",25.29
"2018-03-30 15:15",25.29
"2018-03-30 15:30",25.29
"2018-03-30 15:45",25.29
"2018-03-30 16:00",25.29
"2018-03-30 16:15",25.29
"2018-03-30 16:30",25.29
"2018-03-30 16:45",25.30
"2018-03-30 17:00",25.29
"2018-03-30 17:15",25.29
"2018-03-30 17:30",25.29
"2018-03-30 17:45",25.29
"2018-03-30 18:00",25.29
"2018-03-30 18:15",25.29
"2018-03-30 18:30",25.29
"2018-03-30 18:45",25.29
"2018-03-30 19:00",25.29
"2018-03-30 19:15",25.29
"2018-03-30 19:30",25.30
"2018-03-30 19:45",25.29
"2018-03-30 20:00",25.29
"2018-03-30 20:15",25.29
"2018-03-30 20:30",25.29
"2018-03-30 20:45",25.29
"2018-03-30 21:00",25.29
"2018-03-30 21:15",25.29
"2018-03-30 21:30",25.29
"2018-03-30 21:45",25.29
"2018-03-30 22:00",25.29
"2018-03-30 22:15",25.29
"2018-03-30 22:30",25.31
"2018-03-30 22:45",25.30
"2018-03-30 23:00",25.29
"2018-03-30 23:15",25.31
"2018-03-30 23:30",25.31
"2018-03-30 23:45",25.31
"2018-03-31 00:00",25.32
"2018-03-31 00:15",25.32
"2018-03-31 00:30",25.32
"2018-03-31 00:45",25.32
"2018-03-31 01:00",25.32
"2018-03-31 01:15",25.32
"2018-03-31 01:30",25.32
"2018-03-31 01:45",25.32
"2018-03-31 02:00",25.32
"2018-03-31 02:15",25.32
"2018-03-31 02:30",25.32
"2018-03-31 02:45",25.32
"2018-03-31 03:00",25.32
"2018-03-31 03:15",25.32
"2018-03-31 03:30",25.32
"2018-03-31 03:45",25.32
"2018-03-31 04:00",25.32
"2018-03-31 04:15",25.32
"2018-03-31 04:30",25.35
"2018-03-31 04:45",25.33
"2018-03-31 05:00",25.33
"2018-03-31 05:15",25.34
"2018-03-31 05:30",25.34
"2018-03-31 05:45",25.33
"2018-03-31 06:00",25.32
"2018-03-31 06:15",25.34
"2018-03-31 06:30",25.32
"2018-03-31 06:45",25.33
"2018-03-31 07:00",25.35
"2018-03-31 07:15",25.35
"2018-03-31 07:30",25.35
"2018-03-31 07:45",25.35
"2018-03-31 08:00",25.35
"2018-03-31 08:15",25.35
"2018-03-31 08:30",25.35
"2018-03-31 08:45",25.35
"2018-03-31 09:00",25.35
"2018-03-31 09:15",25.35
"2018-03-31 09:30",25.35
"2018-03-31 09:45",25.35
"2018-03-31 10:00",25.35
"2018-03-31 10:15",25.35
"2018-03-31 10:30",25.35
"2018-03-31 10:45",25.35
"2018-03-31 11:00",25.35
"2018-03-31 11:15",25.35
"2018-03-31 11:30",25.35
"2018-03-31 11:45",25.35
"2018-03-31 12:00",25.35
"2018-03-31 12:15",25.35
"2018-03-31 12:30",25.35
"2018-03-31 12:45",25.35
"2018-03-31 13:00",25.35
"2018-03-31 13:15",25.35
"2018-03-31 13:30",25.36
"2018-03-31 13:45",25.37
"2018-03-31 14:00",25.37
"2018-03-31 14:15",25.38
"2018-03-31 14:30",25.38
"2018-03-31 14:45",25.37
"2018-03-31 15:00",25.38
"2018-03-31 15:15",25.37
"2018-03-31 15:30",25.37
"2018-03-31 15:45",25.38
"2018-03-31 16:00",25.38
"2018-03-31 16:15",25.38
"2018-03-31 16:30",25.38
"2018-03-31 16:45",25.38
"2018-03-31 17:00",25.38
"2018-03-31 17:15",25.38
"2018-03-31 17:30",25.38
"2018-03-31 17:45",25.38
"2018-03-31 18:00",25.38
"2018-03-31 18:15",25.38
"2018-03-31 18:30",25.38
"2018-03-31 18:45",25.38
"2018-03-31 19:00",25.38
"2018-03-31 19:15",25.38
"2018-03-31 19:30",25.38
"2018-03-31 19:45",25.38
"2018-03-31 20:00",25.38
"2018-03-31 20:15",25.38
"2018-03-31 20:30",25.38
"2018-03-31 20:45",25.38
"2018-03-31 21:00",25.38
"2018-03-31 21:15",25.38
"2018-03-31 21:30",25.38
"2018-03-31 21:45",25.38
"2018-03-31 22:00",25.38
"2018-03-31 22:15",25.38
"2018-03-31 22:30",25.38
"2018-03-31 22:45",25.38
"2018-03-31 23:00",25.38
"2018-03-31 23:15",25.38
"2018-03-31 23:30",25.38
"2018-03-31 23:45",25.38
"2018-04-01 00:00",25.38
"2018-04-01 00:15",25.38
"2018-04-01 00:30",25.38
"2018-04-01 00:45",25.40
"2018-04-01 01:00",25.41
"2018-04-01 01:15",25.39
"2018-04-01 01:30",25.41
"2018-04-01 01:45",25.41
"2018-04-01 02:00",25.41
"2018-04-01 02:15",25.41
"2018-04-01 02:30",25.41
"2018-04-01 02:45",25.41
"2018-04-01 03:00",25.41
"2018-04-01 03:15",25.41
"2018-04-01 03:30",25.41
"2018-04-01 03:45",25.41
"2018-04-01 04:00",25.41
"2018-04-01 04:15",25.41
"2018-04-01 04:30",25.41
"2018-04-01 04:45",25.41
"2018-04-01 05:00",25.41
"2018-04-01 05:15",25.41
"2018-04-01 05:30",25.41
"2018-04-01 05:45",25.41
"2018-04-01 06:00",25.41
"2018-04-01 06:15",25.41
"2018-04-01 06:30",25.41
"2018-04-01 06:45",25.41
"2018-04-01 07:00",25.41
"2018-04-01 07:15",25.41
"2018-04-01 07:30",25.41
"2018-04-01 07:45",25.41
"2018-04-01 08:00",25.41
"2018-04-01 08:15",25.41
"2018-04-01 08:30",25.41
"2018-04-01 08:45",25.41
"2018-04-01 09:00",25.41
"2018-04-01 09:15",25.41
"2018-04-01 09:30",25.42
"2018-04-01 09:45",25.44
"2018-04-01 10:00",25.44
"2018-04-01 10:15",25.44
"2018-04-01 10:30",25.44
"2018-04-01 10:45",25.44
"2018-04-01 11:00",25.44
"2018-04-01 11:15",25.44
"2018-04-01 11:30",25.44
"2018-04-01 11:45",25.44
"2018-04-01 12:00",25.44
"2018-04-01 12:15",25.44
"2018-04-01 12:30",25.44
"2018-04-01 12:45",25.44
"2018-04-01 13:00",25.44
"2018-04-01 13:15",25.44
"2018-04-01 13:30",25.44
"2018-04-01 13:45",25.44
"2018-04-01 14:00",25.44
"2018-04-01 14:15",25.44
"2018-04-01 14:30",25.46
"2018-04-01 14:45",25.47
"2018-04-01 15:00",25.47
"2018-04-01 15:15",25.47
"2018-04-01 15:30",25.47
"2018-04-01 15:45",25.47
"2018-04-01 16:00",25.47
"2018-04-01 16:15",25.47
"2018-04-01 16:30",25.47
"2018-04-01 16:45",25.47
"2018-04-01 17:00",25.47
"2018-04-01 17:15",25.47
"2018-04-01 17:30",25.47
"2018-04-01 17:45",25.47
"2018-04-01 18:00",25.47
"2018-04-01 18:15",25.47
"2018-04-01 18:30",25.47
"2018-04-01 18:45",25.47
"2018-04-01 19:00",25.47
"2018-04-01 19:15",25.47
"2018-04-01 19:30",25.47
"2018-04-01 19:45",25.47
"2018-04-01 20:00",25.47
"2018-04-01 20:15",25.47
"2018-04-01 20:30",25.47
"2018-04-01 20:45",25.47
"2018-04-01 21:00",25.47
"2018-04-01 21:15",25.47
"2018-04-01 21:30",25.47
"2018-04-01 21:45",25.47
"2018-04-01 22:00",25.47
"2018-04-01 22:15",25.48
"2018-04-01 22:30",25.50
"2018-04-01 22:45",25.50
"2018-04-01 23:00",25.50
"2018-04-01 23:15",25.50
"2018-04-01 23:30",25.50
"2018-04-01 23:45",25.50
"2018-04-02 00:00",25.50
"2018-04-02 00:15",25.50
"2018-04-02 00:30",25.50
"2018-04-02 00:45",25.50
"2018-04-02 01:00",25.50
"2018-04-02 01:15",25.50
"2018-04-02 01:30",25.50
"2018-04-02 01:45",25.50
"2018-04-02 02:00",25.50
"2018-04-02 02:15",25.50
"2018-04-02 02:30",25.50
"2018-04-02 02:45",25.50
"2018-04-02 03:00",25.50
"2018-04-02 03:15",25.50
"2018-04-02 03:30",25.50
"2018-04-02 03:45",25.50
"2018-04-02 04:00",25.50
"2018-04-02 04:15",25.50
"2018-04-02 04:30",25.50
"2018-04-02 04:45",25.50
"2018-04-02 05:00",25.50
"2018-04-02 05:15",25.50
"2018-04-02 05:30",25.50
"2018-04-02 05:45",25.50
"2018-04-02 06:00",25.50
"2018-04-02 06:15",25.50
"2018-04-02 06:30",25.50
"2018-04-02 06:45",25.50
"2018-04-02 07:00",25.50
"2018-04-02 07:15",25.50
"2018-04-02 07:30",25.50
"2018-04-02 07:45",25.50
"2018-04-02 08:00",25.50
"2018-04-02 08:15",25.50
"2018-04-02 08:30",25.50
"2018-04-02 08:45",25.50
"2018-04-02 09:00",25.50
"2018-04-02 09:15",25.50
"2018-04-02 09:30",25.50
"2018-04-02 09:45",25.52
"2018-04-02 10:00",25.53
"2018-04-02 10:15",25.53
"2018-04-02 10:30",25.53
"2018-04-02 10:45",25.53
"2018-04-02 11:00",25.53
"2018-04-02 11:15",25.53
"2018-04-02 11:30",25.53
"2018-04-02 11:45",25.53
"2018-04-02 12:00",25.53
"2018-04-02 12:15",25.53
"2018-04-02 12:30",25.53
"2018-04-02 12:45",25.53
"2018-04-02 13:00",25.53
"2018-04-02 13:15",25.55
"2018-04-02 13:30",25.55
"2018-04-02 13:45",25.56
"2018-04-02 14:00",25.56
"2018-04-02 14:15",25.56
"2018-04-02 14:30",25.56
"2018-04-02 14:45",25.56
"2018-04-02 15:00",25.56
"2018-04-02 15:15",25.56
"2018-04-02 15:30",25.56
"2018-04-02 15:45",25.56
"2018-04-02 16:00",25.56
"2018-04-02 16:15",25.56
"2018-04-02 16:30",25.56
"2018-04-02 16:45",25.56
"2018-04-02 17:00",25.56
"2018-04-02 17:15",25.56
"2018-04-02 17:30",25.56
"2018-04-02 17:45",25.56
"2018-04-02 18:00",25.56
"2018-04-02 18:15",25.56
"2018-04-02 18:30",25.56
"2018-04-02 18:45",25.56
"2018-04-02 19:00",25.56
"2018-04-02 19:15",25.56
"2018-04-02 19:30",25.56
"2018-04-02 19:45",25.56
"2018-04-02 20:00",25.56
"2018-04-02 20:15",25.56
"2018-04-02 20:30",25.56
"2018-04-02 20:45",25.56
"2018-04-02 21:00",25.56
"2018-04-02 21:15",25.56
"2018-04-02 21:30",25.56
"2018-04-02 21:45",25.56
"2018-04-02 22:00",25.56
"2018-04-02 22:15",25.56
"2018-04-02 22:30",25.56
"2018-04-02 22:45",25.56
"2018-04-02 23:00",25.56
"2018-04-02 23:15",25.56
"2018-04-02 23:30",25.56
"2018-04-02 23:45",25.56
"2018-04-03 00:00",25.56
"2018-04-03 00:15",25.56
"2018-04-03 00:30",25.56
"2018-04-03 00:45",25.56
"2018-04-03 01:00",25.56
"2018-04-03 01:15",25.56
"2018-04-03 01:30",25.56
"2018-04-03 01:45",25.56
"2018-04-03 02:00",25.56
"2018-04-03 02:15",25.56
"2018-04-03 02:30",25.56
"2018-04-03 02:45",25.56
"2018-04-03 03:00",25.56
"2018-04-03 03:15",25.58
"2018-04-03 03:30",25.59
"2018-04-03 03:45",25.59
"2018-04-03 04:00",25.59
"2018-04-03 04:15",25.59
"2018-04-03 04:30",25.59
"2018-04-03 04:45",25.59
"2018-04-03 05:00",25.59
"2018-04-03 05:15",25.59
"2018-04-03 05:30",25.59
"2018-04-03 05:45",25.59
"2018-04-03 06:00",25.59
"2018-04-03 06:15",25.59
"2018-04-03 06:30",25.59
"2018-04-03 06:45",25.59
"2018-04-03 07:00",25.59
"2018-04-03 07:15",25.59
"2018-04-03 07:30",25.59
"2018-04-03 07:45",25.59
"2018-04-03 08:00",25.59
"2018-04-03 08:15",25.59
"2018-04-03 08:30",25.59
"2018-04-03 08:45",25.61
"2018-04-03 09:00",25.62
"2018-04-03 09:15",25.62
"2018-04-03 09:30",25.62
"2018-04-03 09:45",25.62
"2018-04-03 10:00",25.62
"2018-04-03 10:15",25.62
"2018-04-03 10:30",25.62
"2018-04-03 10:45",25.62
"2018-04-03 11:00",25.62
"2018-04-03 11:15",25.62
"2018-04-03 11:30",25.62
"2018-04-03 11:45",25.62
"2018-04-03 12:00",25.62
"2018-04-03 12:15",25.62
"2018-04-03 12:30",25.62
"2018-04-03 12:45",25.63
"2018-04-03 13:00",25.62
"2018-04-03 13:15",25.62
"2018-04-03 13:30",25.63
"2018-04-03 13:45",25.62
"2018-04-03 14:00",25.64
"2018-04-03 14:15",25.62
"2018-04-03 14:30",25.63
"2018-04-03 14:45",25.63
"2018-04-03 15:00",25.64
"2018-04-03 15:15",25.64
"2018-04-03 15:30",25.64
"2018-04-03 15:45",25.65
"2018-04-03 16:00",25.63
"2018-04-03 16:15",25.64
"2018-04-03 16:30",25.64
"2018-04-03 16:45",25.64
"2018-04-03 17:00",25.65
"2018-04-03 17:15",25.64
"2018-04-03 17:30",25.65
"2018-04-03 17:45",25.65
"2018-04-03 18:00",25.65
"2018-04-03 18:15",25.65
"2018-04-03 18:30",25.65
"2018-04-03 18:45",25.65
"2018-04-03 19:00",25.65
"2018-04-03 19:15",25.65
"2018-04-03 19:30",25.65
"2018-04-03 19:45",25.65
"2018-04-03 20:00",25.65
"2018-04-03 20:15",25.65
"2018-04-03 20:30",25.65
"2018-04-03 20:45",25.65
"2018-04-03 21:00",25.65
"2018-04-03 21:15",25.65
"2018-04-03 21:30",25.65
"2018-04-03 21:45",25.65
"2018-04-03 22:00",25.65
"2018-04-03 22:15",25.65
"2018-04-03 22:30",25.65
"2018-04-03 22:45",25.65
"2018-04-03 23:00",25.65
"2018-04-03 23:15",25.65
"2018-04-03 23:30",25.65
"2018-04-03 23:45",25.65
"2018-04-04 00:00",25.65
"2018-04-04 00:15",25.65
"2018-04-04 00:30",25.65
"2018-04-04 00:45",25.65
"2018-04-04 01:00",25.65
"2018-04-04 01:15",25.65
"2018-04-04 01:30",25.65
"2018-04-04 01:45",25.65
"2018-04-04 02:00",25.65
"2018-04-04 02:15",25.65
"2018-04-04 02:30",25.65
"2018-04-04 02:45",25.65
"2018-04-04 03:00",25.65
"2018-04-04 03:15",25.65
"2018-04-04 03:30",25.65
"2018-04-04 03:45",25.66
"2018-04-04 04:00",25.65
"2018-04-04 04:15",25.65
"2018-04-04 04:30",25.66
"2018-04-04 04:45",25.66
"2018-04-04 05:00",25.68
"2018-04-04 05:15",25.65
"2018-04-04 05:30",25.68
"2018-04-04 05:45",25.68
"2018-04-04 06:00",25.68
"2018-04-04 06:15",25.68
"2018-04-04 06:30",25.68
"2018-04-04 06:45",25.68
"2018-04-04 07:00",25.68
