"2018-03-28 09:45",70.25
"2018-03-28 10:00",70.25
"2018-03-28 10:15",70.25
"2018-03-28 10:30",70.25
"2018-03-28 10:45",70.25
"2018-03-28 11:00",70.25
"2018-03-28 11:15",70.25
"2018-03-28 11:30",70.25
"2018-03-28 11:45",70.28
"2018-03-28 12:00",70.34
"2018-03-28 12:15",70.34
"2018-03-28 12:30",70.34
"2018-03-28 12:45",70.34
"2018-03-28 13:00",70.34
"2018-03-28 13:15",70.34
"2018-03-28 13:30",70.34
"2018-03-28 13:45",70.34
"2018-03-28 14:00",70.34
"2018-03-28 14:15",70.34
"2018-03-28 14:30",70.34
"2018-03-28 14:45",70.34
"2018-03-28 15:00",70.34
"2018-03-28 15:15",70.34
"2018-03-28 15:30",70.34
"2018-03-28 15:45",70.34
"2018-03-28 16:00",70.34
"2018-03-28 16:15",70.34
"2018-03-28 16:30",70.34
"2018-03-28 16:45",70.34
"2018-03-28 17:00",70.34
"2018-03-28 17:15",70.34
"2018-03-28 17:30",70.34
"2018-03-28 17:45",70.34
"2018-03-28 18:00",70.34
"2018-03-28 18:15",70.34
"2018-03-28 18:30",70.34
"2018-03-28 18:45",70.34
"2018-03-28 19:00",70.34
"2018-03-28 19:15",70.34
"2018-03-28 19:30",70.34
"2018-03-28 19:45",70.34
"2018-03-28 20:00",70.34
"2018-03-28 20:15",70.34
"2018-03-28 20:30",70.34
"2018-03-28 20:45",70.34
"2018-03-28 21:00",70.38
"2018-03-28 21:15",70.44
"2018-03-28 21:30",70.44
"2018-03-28 21:45",70.44
"2018-03-28 22:00",70.44
"2018-03-28 22:15",70.44
"2018-03-28 22:30",70.44
"2018-03-28 22:45",70.44
"2018-03-28 23:00",70.44
"2018-03-28 23:15",70.44
"2018-03-28 23:30",70.44
"2018-03-28 23:45",70.44
"2018-03-29 00:00",70.44
"2018-03-29 00:15",70.44
"2018-03-29 00:30",70.44
"2018-03-29 00:45",70.44
"2018-03-29 01:00",70.44
"2018-03-29 01:15",70.44
"2018-03-29 01:30",70.44
"2018-03-29 01:45",70.44
"2018-03-29 02:00",70.44
"2018-03-29 02:15",70.44
"2018-03-29 02:30",70.44
"2018-03-29 02:45",70.44
"2018-03-29 03:00",70.44
"2018-03-29 03:15",70.49
"2018-03-29 03:30",70.54
"2018-03-29 03:45",70.54
"2018-03-29 04:00",70.54
"2018-03-29 04:15",70.54
"2018-03-29 04:30",70.54
"2018-03-29 04:45",70.54
"2018-03-29 05:00",70.54
"2018-03-29 05:15",70.54
"2018-03-29 05:30",70.54
"2018-03-29 05:45",70.54
"2018-03-29 06:00",70.54
"2018-03-29 06:15",70.54
"2018-03-29 06:30",70.54
"2018-03-29 06:45",70.54
"2018-03-29 07:00",70.54
"2018-03-29 07:15",70.54
"2018-03-29 07:30",70.54
"2018-03-29 07:45",70.54
"2018-03-29 08:00",70.54
"2018-03-29 08:15",70.54
"2018-03-29 08:30",70.54
"2018-03-29 08:45",70.54
"2018-03-29 09:00",70.58
"2018-03-29 09:15",70.64
"2018-03-29 09:30",70.64
"2018-03-29 09:45",70.64
"2018-03-29 10:00",70.64
"2018-03-29 10:15",70.64
"2018-03-29 10:30",70.64
"2018-03-29 10:45",70.64
"2018-03-29 11:00",70.64
"2018-03-29 11:15",70.64
"2018-03-29 11:30",70.64
"2018-03-29 11:45",70.64
"2018-03-29 12:00",70.64
"2018-03-29 12:15",70.64
"2018-03-29 12:30",70.64
"2018-03-29 12:45",70.64
"2018-03-29 13:00",70.64
"2018-03-29 13:15",70.64
"2018-03-29 13:30",70.64
"2018-03-29 13:45",70.64
"2018-03-29 14:00",70.64
"2018-03-29 14:15",70.64
"2018-03-29 14:30",70.64
"2018-03-29 14:45",70.64
"2018-03-29 15:00",70.64
"2018-03-29 15:15",70.68
"2018-03-29 15:30",70.68
"2018-03-29 15:45",70.74
"2018-03-29 16:00",70.74
"2018-03-29 16:15",70.74
"2018-03-29 16:30",70.74
"2018-03-29 16:45",70.74
"2018-03-29 17:00",70.74
"2018-03-29 17:15",70.74
"2018-03-29 17:30",70.74
"2018-03-29 17:45",70.74
"2018-03-29 18:00",70.74
"2018-03-29 18:15",70.74
"2018-03-29 18:30",70.74
"2018-03-29 18:45",70.74
"2018-03-29 19:00",70.74
"2018-03-29 19:15",70.74
"2018-03-29 19:30",70.74
"2018-03-29 19:45",70.74
"2018-03-29 20:00",70.74
"2018-03-29 20:15",70.74
"2018-03-29 20:30",70.74
"2018-03-29 20:45",70.74
"2018-03-29 21:00",70.74
"2018-03-29 21:15",70.74
"2018-03-29 21:30",70.74
"2018-03-29 21:45",70.74
"2018-03-29 22:00",70.74
"2018-03-29 22:15",70.74
"2018-03-29 22:30",70.74
"2018-03-29 22:45",70.74
"2018-03-29 23:00",70.74
"2018-03-29 23:15",70.74
"2018-03-29 23:30",70.74
"2018-03-29 23:45",70.74
"2018-03-30 00:00",70.74
"2018-03-30 00:15",70.74
"2018-03-30 00:30",70.74
"2018-03-30 00:45",70.82
"2018-03-30 01:00",70.84
"2018-03-30 01:15",70.84
"2018-03-30 01:30",70.84
"2018-03-30 01:45",70.84
"2018-03-30 02:00",70.84
"2018-03-30 02:15",70.84
"2018-03-30 02:30",70.84
"2018-03-30 02:45",70.84
"2018-03-30 03:00",70.84
"2018-03-30 03:15",70.84
"2018-03-30 03:30",70.84
"2018-03-30 03:45",70.84
"2018-03-30 04:00",70.84
"2018-03-30 04:15",70.84
"2018-03-30 04:30",70.84
"2018-03-30 04:45",70.84
"2018-03-30 05:00",70.84
"2018-03-30 05:15",70.84
"2018-03-30 05:30",70.84
"2018-03-30 05:45",70.84
"2018-03-30 06:00",70.84
"2018-03-30 06:15",70.84
"2018-03-30 06:30",70.84
"2018-03-30 06:45",70.84
"2018-03-30 07:00",70.84
"2018-03-30 07:15",70.84
"2018-03-30 07:30",70.84
"2018-03-30 07:45",70.84
"2018-03-30 08:00",70.84
"2018-03-30 08:15",70.84
"2018-03-30 08:30",70.86
"2018-03-30 08:45",70.94
"2018-03-30 09:00",70.94
"2018-03-30 09:15",70.94
"2018-03-30 09:30",70.94
"2018-03-30 09:45",70.94
"2018-03-30 10:00",70.90
"2018-03-30 10:15",70.94
"2018-03-30 10:30",70.94
"2018-03-30 10:45",70.94
"2018-03-30 11:00",70.94
"2018-03-30 11:15",70.94
"2018-03-30 11:30",70.94
"2018-03-30 11:45",70.94
"2018-03-30 12:00",70.94
"2018-03-30 12:15",70.94
"2018-03-30 12:30",70.94
"2018-03-30 12:45",70.96
"2018-03-30 13:00",70.94
"2018-03-30 13:15",70.95
"2018-03-30 13:30",71.01
"2018-03-30 13:45",70.94
"2018-03-30 14:00",70.94
"2018-03-30 14:15",70.94
"2018-03-30 14:30",70.95
"2018-03-30 14:45",70.94
"2018-03-30 15:00",70.94
"2018-03-30 15:15",70.94
"2018-03-30 15:30",71.01
"2018-03-30 15:45",71.03
"2018-03-30 16:00",71.01
"2018-03-30 16:15",70.97
"2018-03-30 16:30",70.97
"2018-03-30 16:45",71.03
"2018-03-30 17:00",71.03
"2018-03-30 17:15",71.03
"2018-03-30 17:30",71.00
"2018-03-30 17:45",70.94
"2018-03-30 18:00",70.97
"2018-03-30 18:15",71.03
"2018-03-30 18:30",71.03
"2018-03-30 18:45",70.97
"2018-03-30 19:00",70.99
"2018-03-30 19:15",71.03
"2018-03-30 19:30",71.03
"2018-03-30 19:45",71.03
"2018-03-30 20:00",71.03
"2018-03-30 20:15",71.03
"2018-03-30 20:30",71.03
"2018-03-30 20:45",71.03
"2018-03-30 21:00",71.03
"2018-03-30 21:15",71.03
"2018-03-30 21:30",71.03
"2018-03-30 21:45",71.03
"2018-03-30 22:00",71.03
"2018-03-30 22:15",71.03
"2018-03-30 22:30",71.03
"2018-03-30 22:45",71.03
"2018-03-30 23:00",71.03
"2018-03-30 23:15",71.03
"2018-03-30 23:30",71.03
"2018-03-30 23:45",71.03
"2018-03-31 00:00",71.03
"2018-03-31 00:15",71.03
"2018-03-31 00:30",71.03
"2018-03-31 00:45",71.03
"2018-03-31 01:00",71.03
"2018-03-31 01:15",71.03
"2018-03-31 01:30",71.03
"2018-03-31 01:45",71.05
"2018-03-31 02:00",71.08
"2018-03-31 02:15",71.13
"2018-03-31 02:30",71.13
"2018-03-31 02:45",71.13
"2018-03-31 03:00",71.13
"2018-03-31 03:15",71.13
"2018-03-31 03:30",71.13
"2018-03-31 03:45",71.13
"2018-03-31 04:00",71.13
"2018-03-31 04:15",71.13
"2018-03-31 04:30",71.13
"2018-03-31 04:45",71.13
"2018-03-31 05:00",71.13
"2018-03-31 05:15",71.13
"2018-03-31 05:30",71.13
"2018-03-31 05:45",71.13
"2018-03-31 06:00",71.13
"2018-03-31 06:15",71.13
"2018-03-31 06:30",71.13
"2018-03-31 06:45",71.13
"2018-03-31 07:00",71.13
"2018-03-31 07:15",71.13
"2018-03-31 07:30",71.13
"2018-03-31 07:45",71.13
"2018-03-31 08:00",71.22
"2018-03-31 08:15",71.23
"2018-03-31 08:30",71.23
"2018-03-31 08:45",71.23
"2018-03-31 09:00",71.23
"2018-03-31 09:15",71.23
"2018-03-31 09:30",71.23
"2018-03-31 09:45",71.23
"2018-03-31 10:00",71.23
"2018-03-31 10:15",71.23
"2018-03-31 10:30",71.23
"2018-03-31 10:45",71.23
"2018-03-31 11:00",71.23
"2018-03-31 11:15",71.23
"2018-03-31 11:30",71.23
"2018-03-31 11:45",71.23
"2018-03-31 12:00",71.23
"2018-03-31 12:15",71.23
"2018-03-31 12:30",71.31
"2018-03-31 12:45",71.33
"2018-03-31 13:00",71.33
"2018-03-31 13:15",71.33
"2018-03-31 13:30",71.33
"2018-03-31 13:45",71.33
"2018-03-31 14:00",71.33
"2018-03-31 14:15",71.33
"2018-03-31 14:30",71.33
"2018-03-31 14:45",71.33
"2018-03-31 15:00",71.33
"2018-03-31 15:15",71.33
"2018-03-31 15:30",71.33
"2018-03-31 15:45",71.33
"2018-03-31 16:00",71.33
"2018-03-31 16:15",71.33
"2018-03-31 16:30",71.33
"2018-03-31 16:45",71.33
"2018-03-31 17:00",71.33
"2018-03-31 17:15",71.33
"2018-03-31 17:30",71.33
"2018-03-31 17:45",71.33
"2018-03-31 18:00",71.33
"2018-03-31 18:15",71.33
"2018-03-31 18:30",71.33
"2018-03-31 18:45",71.33
"2018-03-31 19:00",71.33
"2018-03-31 19:15",71.33
"2018-03-31 19:30",71.33
"2018-03-31 19:45",71.33
"2018-03-31 20:00",71.33
"2018-03-31 20:15",71.33
"2018-03-31 20:30",71.33
"2018-03-31 20:45",71.33
"2018-03-31 21:00",71.33
"2018-03-31 21:15",71.33
"2018-03-31 21:30",71.33
"2018-03-31 21:45",71.33
"2018-03-31 22:00",71.33
"2018-03-31 22:15",71.33
"2018-03-31 22:30",71.33
"2018-03-31 22:45",71.33
"2018-03-31 23:00",71.33
"2018-03-31 23:15",71.33
"2018-03-31 23:30",71.33
"2018-03-31 23:45",71.33
"2018-04-01 00:00",71.33
"2018-04-01 00:15",71.33
"2018-04-01 00:30",71.33
"2018-04-01 00:45",71.37
"2018-04-01 01:00",71.43
"2018-04-01 01:15",71.43
"2018-04-01 01:30",71.43
"2018-04-01 01:45",71.43
"2018-04-01 02:00",71.43
"2018-04-01 02:15",71.43
"2018-04-01 02:30",71.43
"2018-04-01 02:45",71.43
"2018-04-01 03:00",71.43
"2018-04-01 03:15",71.43
"2018-04-01 03:30",71.43
"2018-04-01 03:45",71.43
"2018-04-01 04:00",71.43
"2018-04-01 04:15",71.43
"2018-04-01 04:30",71.43
"2018-04-01 04:45",71.43
"2018-04-01 05:00",71.43
"2018-04-01 05:15",71.43
"2018-04-01 05:30",71.43
"2018-04-01 05:45",71.43
"2018-04-01 06:00",71.43
"2018-04-01 06:15",71.43
"2018-04-01 06:30",71.43
"2018-04-01 06:45",71.43
"2018-04-01 07:00",71.43
"2018-04-01 07:15",71.43
"2018-04-01 07:30",71.43
"2018-04-01 07:45",71.43
"2018-04-01 08:00",71.43
"2018-04-01 08:15",71.43
"2018-04-01 08:30",71.46
"2018-04-01 08:45",71.53
"2018-04-01 09:00",71.53
"2018-04-01 09:15",71.53
"2018-04-01 09:30",71.53
"2018-04-01 09:45",71.53
"2018-04-01 10:00",71.53
"2018-04-01 10:15",71.53
"2018-04-01 10:30",71.53
"2018-04-01 10:45",71.53
"2018-04-01 11:00",71.53
"2018-04-01 11:15",71.53
"2018-04-01 11:30",71.53
"2018-04-01 11:45",71.53
"2018-04-01 12:00",71.53
"2018-04-01 12:15",71.53
"2018-04-01 12:30",71.57
"2018-04-01 12:45",71.63
"2018-04-01 13:00",71.63
"2018-04-01 13:15",71.63
"2018-04-01 13:30",71.63
"2018-04-01 13:45",71.63
"2018-04-01 14:00",71.63
"2018-04-01 14:15",71.63
"2018-04-01 14:30",71.63
"2018-04-01 14:45",71.63
"2018-04-01 15:00",71.63
"2018-04-01 15:15",71.63
"2018-04-01 15:30",71.63
"2018-04-01 15:45",71.63
"2018-04-01 16:00",71.63
"2018-04-01 16:15",71.63
"2018-04-01 16:30",71.63
"2018-04-01 16:45",71.63
"2018-04-01 17:00",71.63
"2018-04-01 17:15",71.63
"2018-04-01 17:30",71.63
"2018-04-01 17:45",71.63
"2018-04-01 18:00",71.63
"2018-04-01 18:15",71.63
"2018-04-01 18:30",71.63
"2018-04-01 18:45",71.63
"2018-04-01 19:00",71.63
"2018-04-01 19:15",71.63
"2018-04-01 19:30",71.63
"2018-04-01 19:45",71.63
"2018-04-01 20:00",71.63
"2018-04-01 20:15",71.63
"2018-04-01 20:30",71.63
"2018-04-01 20:45",71.63
"2018-04-01 21:00",71.63
"2018-04-01 21:15",71.63
"2018-04-01 21:30",71.63
"2018-04-01 21:45",71.63
"2018-04-01 22:00",71.63
"2018-04-01 22:15",71.63
"2018-04-01 22:30",71.63
"2018-04-01 22:45",71.63
"2018-04-01 23:00",71.63
"2018-04-01 23:15",71.63
"2018-04-01 23:30",71.63
"2018-04-01 23:45",71.66
"2018-04-02 00:00",71.72
"2018-04-02 00:15",71.72
"2018-04-02 00:30",71.72
"2018-04-02 00:45",71.72
"2018-04-02 01:00",71.72
"2018-04-02 01:15",71.72
"2018-04-02 01:30",71.72
"2018-04-02 01:45",71.72
"2018-04-02 02:00",71.72
"2018-04-02 02:15",71.72
"2018-04-02 02:30",71.72
"2018-04-02 02:45",71.72
"2018-04-02 03:00",71.72
"2018-04-02 03:15",71.72
"2018-04-02 03:30",71.72
"2018-04-02 03:45",71.72
"2018-04-02 04:00",71.72
"2018-04-02 04:15",71.72
"2018-04-02 04:30",71.72
"2018-04-02 04:45",71.72
"2018-04-02 05:00",71.72
"2018-04-02 05:15",71.72
"2018-04-02 05:30",71.72
"2018-04-02 05:45",71.72
"2018-04-02 06:00",71.72
"2018-04-02 06:15",71.72
"2018-04-02 06:30",71.72
"2018-04-02 06:45",71.72
"2018-04-02 07:00",71.72
"2018-04-02 07:15",71.72
"2018-04-02 07:30",71.72
"2018-04-02 07:45",71.72
"2018-04-02 08:00",71.72
"2018-04-02 08:15",71.72
"2018-04-02 08:30",71.75
"2018-04-02 08:45",71.82
"2018-04-02 09:00",71.82
"2018-04-02 09:15",71.82
"2018-04-02 09:30",71.82
"2018-04-02 09:45",71.82
"2018-04-02 10:00",71.82
"2018-04-02 10:15",71.82
"2018-04-02 10:30",71.82
"2018-04-02 10:45",71.82
"2018-04-02 11:00",71.82
"2018-04-02 11:15",71.82
"2018-04-02 11:30",71.82
"2018-04-02 11:45",71.82
"2018-04-02 12:00",71.82
"2018-04-02 12:15",71.82
"2018-04-02 12:30",71.82
"2018-04-02 12:45",71.82
"2018-04-02 13:00",71.82
"2018-04-02 13:15",71.82
"2018-04-02 13:30",71.82
"2018-04-02 13:45",71.82
"2018-04-02 14:00",71.82
"2018-04-02 14:15",71.88
"2018-04-02 14:30",71.92
"2018-04-02 14:45",71.92
"2018-04-02 15:00",71.92
"2018-04-02 15:15",71.92
"2018-04-02 15:30",71.92
"2018-04-02 15:45",71.92
"2018-04-02 16:00",71.92
"2018-04-02 16:15",71.92
"2018-04-02 16:30",71.92
"2018-04-02 16:45",71.92
"2018-04-02 17:00",71.92
"2018-04-02 17:15",71.92
"2018-04-02 17:30",71.92
"2018-04-02 17:45",71.92
"2018-04-02 18:00",71.92
"2018-04-02 18:15",71.92
"2018-04-02 18:30",71.92
"2018-04-02 18:45",71.92
"2018-04-02 19:00",71.92
"2018-04-02 19:15",71.92
"2018-04-02 19:30",71.92
"2018-04-02 19:45",71.92
"2018-04-02 20:00",71.92
"2018-04-02 20:15",71.92
"2018-04-02 20:30",71.92
"2018-04-02 20:45",71.92
"2018-04-02 21:00",71.92
"2018-04-02 21:15",71.92
"2018-04-02 21:30",71.92
"2018-04-02 21:45",71.92
"2018-04-02 22:00",71.92
"2018-04-02 22:15",71.92
"2018-04-02 22:30",71.92
"2018-04-02 22:45",71.92
"2018-04-02 23:00",71.92
"2018-04-02 23:15",71.92
"2018-04-02 23:30",71.92
"2018-04-02 23:45",71.92
"2018-04-03 00:00",71.92
"2018-04-03 00:15",71.92
"2018-04-03 00:30",71.92
"2018-04-03 00:45",71.92
"2018-04-03 01:00",71.92
"2018-04-03 01:15",71.92
"2018-04-03 01:30",71.92
"2018-04-03 01:45",71.92
"2018-04-03 02:00",71.92
"2018-04-03 02:15",71.92
"2018-04-03 02:30",71.92
"2018-04-03 02:45",71.92
"2018-04-03 03:00",71.92
"2018-04-03 03:15",71.92
"2018-04-03 03:30",71.92
"2018-04-03 03:45",71.92
"2018-04-03 04:00",71.97
"2018-04-03 04:15",72.02
"2018-04-03 04:30",72.02
"2018-04-03 04:45",72.02
"2018-04-03 05:00",72.02
"2018-04-03 05:15",72.02
"2018-04-03 05:30",72.02
"2018-04-03 05:45",72.02
"2018-04-03 06:00",72.02
"2018-04-03 06:15",72.02
"2018-04-03 06:30",72.02
"2018-04-03 06:45",72.02
"2018-04-03 07:00",72.02
"2018-04-03 07:15",72.02
"2018-04-03 07:30",72.02
"2018-04-03 07:45",72.02
"2018-04-03 08:00",72.02
"2018-04-03 08:15",72.02
"2018-04-03 08:30",72.02
"2018-04-03 08:45",72.02
"2018-04-03 09:00",72.02
"2018-04-03 09:15",72.02
"2018-04-03 09:30",72.02
"2018-04-03 09:45",72.02
"2018-04-03 10:00",72.02
"2018-04-03 10:15",72.12
"2018-04-03 10:30",72.12
"2018-04-03 10:45",72.10
"2018-04-03 11:00",72.07
"2018-04-03 11:15",72.12
"2018-04-03 11:30",72.12
"2018-04-03 11:45",72.12
"2018-04-03 12:00",72.12
"2018-04-03 12:15",72.12
"2018-04-03 12:30",72.12
"2018-04-03 12:45",72.12
"2018-04-03 13:00",72.12
"2018-04-03 13:15",72.12
"2018-04-03 13:30",72.12
"2018-04-03 13:45",72.12
"2018-04-03 14:00",72.12
"2018-04-03 14:15",72.12
"2018-04-03 14:30",72.12
"2018-04-03 14:45",72.12
"2018-04-03 15:00",72.12
"2018-04-03 15:15",72.12
"2018-04-03 15:30",72.12
"2018-04-03 15:45",72.12
"2018-04-03 16:00",72.12
"2018-04-03 16:15",72.12
"2018-04-03 16:30",72.12
"2018-04-03 16:45",72.12
"2018-04-03 17:00",72.12
"2018-04-03 17:15",72.12
"2018-04-03 17:30",72.12
"2018-04-03 17:45",72.12
"2018-04-03 18:00",72.12
"2018-04-03 18:15",72.12
"2018-04-03 18:30",72.12
"2018-04-03 18:45",72.12
"2018-04-03 19:00",72.12
"2018-04-03 19:15",72.12
"2018-04-03 19:30",72.12
"2018-04-03 19:45",72.12
"2018-04-03 20:00",72.12
"2018-04-03 20:15",72.12
"2018-04-03 20:30",72.12
"2018-04-03 20:45",72.12
"2018-04-03 21:00",72.12
"2018-04-03 21:15",72.12
"2018-04-03 21:30",72.12
"2018-04-03 21:45",72.12
"2018-04-03 22:00",72.12
"2018-04-03 22:15",72.12
"2018-04-03 22:30",72.12
"2018-04-03 22:45",72.12
"2018-04-03 23:00",72.12
"2018-04-03 23:15",72.12
"2018-04-03 23:30",72.12
"2018-04-03 23:45",72.12
"2018-04-04 00:00",72.12
"2018-04-04 00:15",72.12
"2018-04-04 00:30",72.12
"2018-04-04 00:45",72.12
"2018-04-04 01:00",72.12
"2018-04-04 01:15",72.12
"2018-04-04 01:30",72.12
"2018-04-04 01:45",72.12
"2018-04-04 02:00",72.12
"2018-04-04 02:15",72.12
"2018-04-04 02:30",72.18
"2018-04-04 02:45",72.22
"2018-04-04 03:00",72.22
"2018-04-04 03:15",72.22
"2018-04-04 03:30",72.22
"2018-04-04 03:45",72.22
"2018-04-04 04:00",72.22
"2018-04-04 04:15",72.22
"2018-04-04 04:30",72.22
"2018-04-04 04:45",72.22
"2018-04-04 05:00",72.22
"2018-04-04 05:15",72.22
"2018-04-04 05:30",72.22
"2018-04-04 05:45",72.22
"2018-04-04 06:00",72.22
"2018-04-04 06:15",72.22
"2018-04-04 06:30",72.22
"2018-04-04 06:45",72.22
"2018-04-04 07:00",72.22
"2018-04-04 07:15",72.22
"2018-04-04 07:30",72.22
