"2018-03-01 13:30",853.70
"2018-03-01 13:45",853.70
"2018-03-01 14:00",853.70
"2018-03-01 14:15",853.70
"2018-03-01 14:30",853.70
"2018-03-01 14:45",853.70
"2018-03-01 15:00",853.70
"2018-03-01 15:15",853.70
"2018-03-01 15:30",853.70
"2018-03-01 15:45",853.70
"2018-03-01 16:00",853.70
"2018-03-01 16:15",853.70
"2018-03-01 16:30",853.70
"2018-03-01 16:45",853.70
"2018-03-01 17:00",853.70
"2018-03-01 17:15",853.70
"2018-03-01 17:30",853.70
"2018-03-01 17:45",853.70
"2018-03-01 18:00",853.70
"2018-03-01 18:15",853.70
"2018-03-01 18:30",853.70
"2018-03-01 18:45",853.70
"2018-03-01 19:00",853.70
"2018-03-01 19:15",853.70
"2018-03-01 19:30",853.70
"2018-03-01 19:45",853.70
"2018-03-01 20:00",853.70
"2018-03-01 20:15",853.70
"2018-03-01 20:30",853.70
"2018-03-01 20:45",853.70
"2018-03-01 21:00",853.70
"2018-03-01 21:15",853.70
"2018-03-01 21:30",853.70
"2018-03-01 21:45",853.70
"2018-03-01 22:00",853.70
"2018-03-01 22:15",853.70
"2018-03-01 22:30",853.70
"2018-03-01 22:45",853.70
"2018-03-01 23:00",853.70
"2018-03-01 23:15",853.70
"2018-03-01 23:30",853.70
"2018-03-01 23:45",853.70
"2018-03-02 00:00",853.70
"2018-03-02 00:15",853.70
"2018-03-02 00:30",853.70
"2018-03-02 00:45",853.70
"2018-03-02 01:00",853.70
"2018-03-02 01:15",853.70
"2018-03-02 01:30",853.70
"2018-03-02 01:45",853.70
"2018-03-02 02:00",853.70
"2018-03-02 02:15",853.70
"2018-03-02 02:30",853.70
"2018-03-02 02:45",853.70
"2018-03-02 03:00",853.70
"2018-03-02 03:15",853.70
"2018-03-02 03:30",853.70
"2018-03-02 03:45",853.70
"2018-03-02 04:00",853.70
"2018-03-02 04:15",853.70
"2018-03-02 04:30",853.70
"2018-03-02 04:45",853.70
"2018-03-02 05:00",853.70
"2018-03-02 05:15",853.70
"2018-03-02 05:30",853.70
"2018-03-02 05:45",853.70
"2018-03-02 06:00",853.70
"2018-03-02 06:15",853.70
"2018-03-02 06:30",853.70
"2018-03-02 06:45",853.70
"2018-03-02 07:00",853.70
"2018-03-02 07:15",853.70
"2018-03-02 07:30",853.70
"2018-03-02 07:45",853.70
"2018-03-02 08:00",853.70
"2018-03-02 08:15",853.70
"2018-03-02 08:30",853.70
"2018-03-02 08:45",853.70
"2018-03-02 09:00",853.70
"2018-03-02 09:15",853.70
"2018-03-02 09:30",853.70
"2018-03-02 09:45",853.70
"2018-03-02 10:00",853.70
"2018-03-02 10:15",853.70
"2018-03-02 10:30",853.70
"2018-03-02 10:45",853.70
"2018-03-02 11:00",853.70
"2018-03-02 11:15",853.70
"2018-03-02 11:30",853.70
"2018-03-02 11:45",853.70
"2018-03-02 12:00",853.70
"2018-03-02 12:15",853.70
"2018-03-02 12:30",853.70
"2018-03-02 12:45",853.70
"2018-03-02 13:00",853.70
"2018-03-02 13:15",853.70
"2018-03-02 13:30",853.70
"2018-03-02 13:45",853.70
"2018-03-02 14:00",853.70
"2018-03-02 14:15",853.70
"2018-03-02 14:30",853.70
"2018-03-02 14:45",853.70
"2018-03-02 15:00",853.70
"2018-03-02 15:15",853.70
"2018-03-02 15:30",853.70
"2018-03-02 15:45",853.70
"2018-03-02 16:00",853.70
"2018-03-02 16:15",853.70
"2018-03-02 16:30",853.70
"2018-03-02 16:45",853.70
"2018-03-02 17:00",853.70
"2018-03-02 17:15",853.70
"2018-03-02 17:30",853.70
"2018-03-02 17:45",853.70
"2018-03-02 18:00",853.70
"2018-03-02 18:15",853.70
"2018-03-02 18:30",853.70
"2018-03-02 18:45",853.70
"2018-03-02 19:00",853.70
"2018-03-02 19:15",853.70
"2018-03-02 19:30",853.70
"2018-03-02 19:45",853.70
"2018-03-02 20:00",853.70
"2018-03-02 20:15",853.70
"2018-03-02 20:30",853.70
"2018-03-02 20:45",853.70
"2018-03-02 21:00",853.70
"2018-03-02 21:15",853.70
"2018-03-02 21:30",853.70
"2018-03-02 21:45",853.70
"2018-03-02 22:00",853.70
"2018-03-02 22:15",853.70
"2018-03-02 22:30",853.70
"2018-03-02 22:45",853.70
"2018-03-02 23:00",853.70
"2018-03-02 23:15",853.70
"2018-03-02 23:30",853.70
"2018-03-02 23:45",853.70
"2018-03-03 00:00",853.70
"2018-03-03 00:15",853.70
"2018-03-03 00:30",853.70
"2018-03-03 00:45",853.70
"2018-03-03 01:00",853.70
"2018-03-03 01:15",853.70
"2018-03-03 01:30",853.70
"2018-03-03 01:45",853.70
"2018-03-03 02:00",853.70
"2018-03-03 02:15",853.70
"2018-03-03 02:30",853.70
"2018-03-03 02:45",853.70
"2018-03-03 03:00",853.70
"2018-03-03 03:15",853.70
"2018-03-03 03:30",853.70
"2018-03-03 03:45",853.70
"2018-03-03 04:00",853.70
"2018-03-03 04:15",853.70
"2018-03-03 04:30",853.70
"2018-03-03 04:45",853.70
"2018-03-03 05:00",853.70
"2018-03-03 05:15",853.70
"2018-03-03 05:30",853.70
"2018-03-03 05:45",853.70
"2018-03-03 06:00",853.70
"2018-03-03 06:15",853.70
"2018-03-03 06:30",853.70
"2018-03-03 06:45",853.70
"2018-03-03 07:00",853.70
"2018-03-03 07:15",853.70
"2018-03-03 07:30",853.70
"2018-03-03 07:45",853.70
"2018-03-03 08:00",853.70
"2018-03-03 08:15",853.70
"2018-03-03 08:30",853.70
"2018-03-03 08:45",853.70
"2018-03-03 09:00",853.70
"2018-03-03 09:15",853.70
"2018-03-03 09:30",853.70
"2018-03-03 09:45",853.70
"2018-03-03 10:00",853.70
"2018-03-03 10:15",853.70
"2018-03-03 10:30",853.70
"2018-03-03 10:45",853.70
"2018-03-03 11:00",853.70
"2018-03-03 11:15",853.70
"2018-03-03 11:30",853.70
"2018-03-03 11:45",853.70
"2018-03-03 12:00",853.70
"2018-03-03 12:15",853.70
"2018-03-03 12:30",853.70
"2018-03-03 12:45",853.70
"2018-03-03 13:00",853.70
"2018-03-03 13:15",853.70
"2018-03-03 13:30",853.70
"2018-03-03 13:45",853.70
"2018-03-03 14:00",853.70
"2018-03-03 14:15",853.70
"2018-03-03 14:30",853.70
"2018-03-03 14:45",853.70
"2018-03-03 15:00",853.70
"2018-03-03 15:15",853.70
"2018-03-03 15:30",853.70
"2018-03-03 15:45",853.70
"2018-03-03 16:00",853.70
"2018-03-03 16:15",853.70
"2018-03-03 16:30",853.70
"2018-03-03 16:45",853.70
"2018-03-03 17:00",853.70
"2018-03-03 17:15",853.70
"2018-03-03 17:30",853.70
"2018-03-03 17:45",853.70
"2018-03-03 18:00",853.70
"2018-03-03 18:15",853.70
"2018-03-03 18:30",853.70
"2018-03-03 18:45",853.70
"2018-03-03 19:00",853.70
"2018-03-03 19:15",853.70
"2018-03-03 19:30",853.70
"2018-03-03 19:45",853.70
"2018-03-03 20:00",853.70
"2018-03-03 20:15",853.70
"2018-03-03 20:30",853.70
"2018-03-03 20:45",853.70
"2018-03-03 21:00",853.70
"2018-03-03 21:15",853.70
"2018-03-03 21:30",853.70
"2018-03-03 21:45",853.70
"2018-03-03 22:00",853.70
"2018-03-03 22:15",853.70
"2018-03-03 22:30",853.70
"2018-03-03 22:45",853.70
"2018-03-03 23:00",853.70
"2018-03-03 23:15",853.70
"2018-03-03 23:30",853.70
"2018-03-03 23:45",853.70
"2018-03-04 00:00",853.70
"2018-03-04 00:15",853.70
"2018-03-04 00:30",853.70
"2018-03-04 00:45",853.70
"2018-03-04 01:00",853.70
"2018-03-04 01:15",853.70
"2018-03-04 01:30",853.70
"2018-03-04 01:45",853.70
"2018-03-04 02:00",853.70
"2018-03-04 02:15",853.70
"2018-03-04 02:30",853.70
"2018-03-04 02:45",853.70
"2018-03-04 03:00",853.70
"2018-03-04 03:15",853.70
"2018-03-04 03:30",853.70
"2018-03-04 03:45",853.70
"2018-03-04 04:00",853.70
"2018-03-04 04:15",853.70
"2018-03-04 04:30",853.70
"2018-03-04 04:45",853.70
"2018-03-04 05:00",853.70
"2018-03-04 05:15",853.70
"2018-03-04 05:30",853.70
"2018-03-04 05:45",853.70
"2018-03-04 06:00",853.70
"2018-03-04 06:15",853.70
"2018-03-04 06:30",853.70
"2018-03-04 06:45",853.70
"2018-03-04 07:00",853.70
"2018-03-04 07:15",853.70
"2018-03-04 07:30",853.70
"2018-03-04 07:45",853.70
"2018-03-04 08:00",853.70
"2018-03-04 08:15",853.70
"2018-03-04 08:30",853.70
"2018-03-04 08:45",853.70
"2018-03-04 09:00",853.70
"2018-03-04 09:15",853.70
"2018-03-04 09:30",853.70
"2018-03-04 09:45",853.70
"2018-03-04 10:00",853.70
"2018-03-04 10:15",853.70
"2018-03-04 10:30",853.70
"2018-03-04 10:45",853.70
"2018-03-04 11:00",853.70
"2018-03-04 11:15",853.70
"2018-03-04 11:30",853.70
"2018-03-04 11:45",853.70
"2018-03-04 12:00",853.70
"2018-03-04 12:15",853.70
"2018-03-04 12:30",853.70
"2018-03-04 12:45",853.70
"2018-03-04 13:00",853.70
"2018-03-04 13:15",853.70
"2018-03-04 13:30",853.70
"2018-03-04 13:45",853.70
"2018-03-04 14:00",853.70
"2018-03-04 14:15",853.70
"2018-03-04 14:30",853.70
"2018-03-04 14:45",853.70
"2018-03-04 15:00",853.70
"2018-03-04 15:15",853.70
"2018-03-04 15:30",853.70
"2018-03-04 15:45",853.70
"2018-03-04 16:00",853.70
"2018-03-04 16:15",853.70
"2018-03-04 16:30",853.70
"2018-03-04 16:45",853.70
"2018-03-04 17:00",853.70
"2018-03-04 17:15",853.70
"2018-03-04 17:30",853.70
"2018-03-04 17:45",853.70
"2018-03-04 18:00",853.70
"2018-03-04 18:15",853.70
"2018-03-04 18:30",853.70
"2018-03-04 18:45",853.70
"2018-03-04 19:00",853.70
"2018-03-04 19:15",853.70
"2018-03-04 19:30",853.70
"2018-03-04 19:45",853.70
"2018-03-04 20:00",853.70
"2018-03-04 20:15",853.70
"2018-03-04 20:30",853.70
"2018-03-04 20:45",853.70
"2018-03-04 21:00",853.70
"2018-03-04 21:15",853.70
"2018-03-04 21:30",853.70
"2018-03-04 21:45",853.70
"2018-03-04 22:00",853.70
"2018-03-04 22:15",853.70
"2018-03-04 22:30",853.70
"2018-03-04 22:45",853.70
"2018-03-04 23:00",853.70
"2018-03-04 23:15",853.70
"2018-03-04 23:30",853.70
"2018-03-04 23:45",853.70
"2018-03-05 00:00",853.70
"2018-03-05 00:15",853.70
"2018-03-05 00:30",853.70
"2018-03-05 00:45",853.70
"2018-03-05 01:00",853.70
"2018-03-05 01:15",853.70
"2018-03-05 01:30",853.70
"2018-03-05 01:45",853.70
"2018-03-05 02:00",853.70
"2018-03-05 02:15",853.70
"2018-03-05 02:30",853.70
"2018-03-05 02:45",853.70
"2018-03-05 03:00",853.70
"2018-03-05 03:15",853.70
"2018-03-05 03:30",853.70
"2018-03-05 03:45",853.70
"2018-03-05 04:00",853.70
"2018-03-05 04:15",853.70
"2018-03-05 04:30",853.70
"2018-03-05 04:45",853.70
"2018-03-05 05:00",853.70
"2018-03-05 05:15",853.70
"2018-03-05 05:30",853.70
"2018-03-05 05:45",853.70
"2018-03-05 06:00",853.70
"2018-03-05 06:15",853.70
"2018-03-05 06:30",853.70
"2018-03-05 06:45",853.70
"2018-03-05 07:00",853.70
"2018-03-05 07:15",853.70
"2018-03-05 07:30",853.70
"2018-03-05 07:45",853.70
"2018-03-05 08:00",853.70
"2018-03-05 08:15",853.70
"2018-03-05 08:30",853.70
"2018-03-05 08:45",853.70
"2018-03-05 09:00",853.70
"2018-03-05 09:15",853.70
"2018-03-05 09:30",853.70
"2018-03-05 09:45",853.70
"2018-03-05 10:00",853.70
"2018-03-05 10:15",853.70
"2018-03-05 10:30",853.70
"2018-03-05 10:45",853.70
"2018-03-05 11:00",853.70
"2018-03-05 11:15",853.70
"2018-03-05 11:30",853.70
"2018-03-05 11:45",853.70
"2018-03-05 12:00",853.70
"2018-03-05 12:15",853.70
"2018-03-05 12:30",853.70
"2018-03-05 12:45",853.70
"2018-03-05 13:00",853.70
"2018-03-05 13:15",853.70
"2018-03-05 13:30",853.70
"2018-03-05 13:45",853.70
"2018-03-05 14:00",853.70
"2018-03-05 14:15",853.70
"2018-03-05 14:30",853.70
"2018-03-05 14:45",853.70
"2018-03-05 15:00",853.70
"2018-03-05 15:15",853.70
"2018-03-05 15:30",853.70
"2018-03-05 15:45",853.70
"2018-03-05 16:00",853.70
"2018-03-05 16:15",853.70
"2018-03-05 16:30",853.70
"2018-03-05 16:45",853.70
"2018-03-05 17:00",853.70
"2018-03-05 17:15",853.70
"2018-03-05 17:30",853.70
"2018-03-05 17:45",853.70
"2018-03-05 18:00",853.70
"2018-03-05 18:15",853.70
"2018-03-05 18:30",853.70
"2018-03-05 18:45",853.70
"2018-03-05 19:00",853.70
"2018-03-05 19:15",853.70
"2018-03-05 19:30",853.70
"2018-03-05 19:45",853.70
"2018-03-05 20:00",853.70
"2018-03-05 20:15",853.70
"2018-03-05 20:30",853.70
"2018-03-05 20:45",853.70
"2018-03-05 21:00",853.70
"2018-03-05 21:15",853.70
"2018-03-05 21:30",853.70
"2018-03-05 21:45",853.70
"2018-03-05 22:00",853.70
"2018-03-05 22:15",853.70
"2018-03-05 22:30",853.70
"2018-03-05 22:45",853.70
"2018-03-05 23:00",853.70
"2018-03-05 23:15",853.70
"2018-03-05 23:30",853.70
"2018-03-05 23:45",853.70
"2018-03-06 00:00",853.70
"2018-03-06 00:15",853.70
"2018-03-06 00:30",853.70
"2018-03-06 00:45",853.70
"2018-03-06 01:00",853.70
"2018-03-06 01:15",853.70
"2018-03-06 01:30",853.70
"2018-03-06 01:45",853.70
"2018-03-06 02:00",853.70
"2018-03-06 02:15",853.70
"2018-03-06 02:30",853.70
"2018-03-06 02:45",853.70
"2018-03-06 03:00",853.70
"2018-03-06 03:15",853.70
"2018-03-06 03:30",853.70
"2018-03-06 03:45",853.70
"2018-03-06 04:00",853.70
"2018-03-06 04:15",853.70
"2018-03-06 04:30",853.70
"2018-03-06 04:45",853.70
"2018-03-06 05:00",853.70
"2018-03-06 05:15",853.70
"2018-03-06 05:30",853.70
"2018-03-06 05:45",853.70
"2018-03-06 06:00",853.70
"2018-03-06 06:15",853.70
"2018-03-06 06:30",853.70
"2018-03-06 06:45",853.70
"2018-03-06 07:00",853.70
"2018-03-06 07:15",853.70
"2018-03-06 07:30",853.70
"2018-03-06 07:45",853.70
"2018-03-06 08:00",853.70
"2018-03-06 08:15",853.70
"2018-03-06 08:30",853.70
"2018-03-06 08:45",853.70
"2018-03-06 09:00",853.70
"2018-03-06 09:15",853.70
"2018-03-06 09:30",853.70
"2018-03-06 09:45",853.70
"2018-03-06 10:00",853.70
"2018-03-06 10:15",853.70
"2018-03-06 10:30",853.70
"2018-03-06 10:45",853.70
"2018-03-06 11:00",853.70
"2018-03-06 11:15",853.70
"2018-03-06 11:30",853.70
"2018-03-06 11:45",853.70
"2018-03-06 12:00",853.70
"2018-03-06 12:15",853.70
"2018-03-06 12:30",853.70
"2018-03-06 12:45",853.70
"2018-03-06 13:00",853.70
"2018-03-06 13:15",853.70
"2018-03-06 13:30",853.70
"2018-03-06 13:45",853.70
"2018-03-06 14:00",853.70
"2018-03-06 14:15",853.70
"2018-03-06 14:30",853.70
"2018-03-06 14:45",853.70
"2018-03-06 15:00",853.70
"2018-03-06 15:15",853.70
"2018-03-06 15:30",853.70
"2018-03-06 15:45",853.70
"2018-03-06 16:00",853.70
"2018-03-06 16:15",853.70
"2018-03-06 16:30",853.70
"2018-03-06 16:45",853.70
"2018-03-06 17:00",853.70
"2018-03-06 17:15",853.70
"2018-03-06 17:30",853.70
"2018-03-06 17:45",853.70
"2018-03-06 18:00",853.70
"2018-03-06 18:15",853.70
"2018-03-06 18:30",853.70
"2018-03-06 18:45",853.70
"2018-03-06 19:00",853.70
"2018-03-06 19:15",853.70
"2018-03-06 19:30",853.70
"2018-03-06 19:45",853.70
"2018-03-06 20:00",853.70
"2018-03-06 20:15",853.70
"2018-03-06 20:30",853.70
"2018-03-06 20:45",853.70
"2018-03-06 21:00",853.70
"2018-03-06 21:15",853.70
"2018-03-06 21:30",853.70
"2018-03-06 21:45",853.70
"2018-03-06 22:00",853.70
"2018-03-06 22:15",853.70
"2018-03-06 22:30",853.70
"2018-03-06 22:45",853.70
"2018-03-06 23:00",853.70
"2018-03-06 23:15",853.70
"2018-03-06 23:30",853.70
"2018-03-06 23:45",853.70
"2018-03-07 00:00",853.70
"2018-03-07 00:15",853.70
"2018-03-07 00:30",853.70
"2018-03-07 00:45",853.70
"2018-03-07 01:00",853.70
"2018-03-07 01:15",853.70
"2018-03-07 01:30",853.70
"2018-03-07 01:45",853.70
"2018-03-07 02:00",853.70
"2018-03-07 02:15",853.70
"2018-03-07 02:30",853.70
"2018-03-07 02:45",853.70
"2018-03-07 03:00",853.70
"2018-03-07 03:15",853.70
"2018-03-07 03:30",853.70
"2018-03-07 03:45",853.70
"2018-03-07 04:00",853.70
"2018-03-07 04:15",853.70
"2018-03-07 04:30",853.70
"2018-03-07 04:45",853.70
"2018-03-07 05:00",853.70
"2018-03-07 05:15",853.70
"2018-03-07 05:30",853.70
"2018-03-07 05:45",853.70
"2018-03-07 06:00",853.70
"2018-03-07 06:15",853.70
"2018-03-07 06:30",853.70
"2018-03-07 06:45",853.70
"2018-03-07 07:00",853.70
"2018-03-07 07:15",853.70
"2018-03-07 07:30",853.70
"2018-03-07 07:45",853.70
"2018-03-07 08:00",853.70
"2018-03-07 08:15",853.70
"2018-03-07 08:30",853.70
"2018-03-07 08:45",853.70
"2018-03-07 09:00",853.70
"2018-03-07 09:15",853.70
"2018-03-07 09:30",853.70
"2018-03-07 09:45",853.70
"2018-03-07 10:00",853.70
"2018-03-07 10:15",853.70
"2018-03-07 10:30",853.70
"2018-03-07 10:45",853.70
"2018-03-07 11:00",853.70
"2018-03-07 11:15",853.70
"2018-03-07 11:30",853.70
"2018-03-07 11:45",853.70
"2018-03-07 12:00",853.70
"2018-03-07 12:15",853.70
"2018-03-07 12:30",853.70
"2018-03-07 12:45",853.70
"2018-03-07 13:00",853.70
"2018-03-07 13:15",853.70
"2018-03-07 13:30",853.70
"2018-03-07 13:45",853.70
"2018-03-07 14:00",853.70
"2018-03-07 14:15",853.70
"2018-03-07 14:30",853.70
"2018-03-07 14:45",853.70
"2018-03-07 15:00",853.70
"2018-03-07 15:15",853.70
"2018-03-07 15:30",853.70
"2018-03-07 15:45",853.70
"2018-03-07 16:00",853.70
"2018-03-07 16:15",853.70
"2018-03-07 16:30",853.70
"2018-03-07 16:45",853.70
"2018-03-07 17:00",853.70
"2018-03-07 17:15",853.70
"2018-03-07 17:30",853.70
"2018-03-07 17:45",853.70
"2018-03-07 18:00",853.70
"2018-03-07 18:15",853.70
"2018-03-07 18:30",853.70
"2018-03-07 18:45",853.70
"2018-03-07 19:00",853.70
"2018-03-07 19:15",853.70
"2018-03-07 19:30",853.70
"2018-03-07 19:45",853.70
"2018-03-07 20:00",853.70
"2018-03-07 20:15",853.70
"2018-03-07 20:30",853.70
"2018-03-07 20:45",853.70
"2018-03-07 21:00",853.70
"2018-03-07 21:15",853.70
"2018-03-07 21:30",853.70
"2018-03-07 21:45",853.70
"2018-03-07 22:00",853.70
"2018-03-07 22:15",853.70
"2018-03-07 22:30",853.70
"2018-03-07 22:45",853.70
"2018-03-07 23:00",853.70
"2018-03-07 23:15",853.70
"2018-03-07 23:30",853.70
"2018-03-07 23:45",853.70
"2018-03-08 00:00",853.70
"2018-03-08 00:15",853.70
"2018-03-08 00:30",853.70
"2018-03-08 00:45",853.70
"2018-03-08 01:00",853.70
"2018-03-08 01:15",853.70
"2018-03-08 01:30",853.70
"2018-03-08 01:45",853.70
"2018-03-08 02:00",853.70
"2018-03-08 02:15",853.70
"2018-03-08 02:30",853.70
"2018-03-08 02:45",853.70
"2018-03-08 03:00",853.70
"2018-03-08 03:15",853.70
"2018-03-08 03:30",853.70
"2018-03-08 03:45",853.70
"2018-03-08 04:00",853.70
"2018-03-08 04:15",853.70
"2018-03-08 04:30",853.70
"2018-03-08 04:45",853.70
"2018-03-08 05:00",853.70
"2018-03-08 05:15",853.70
"2018-03-08 05:30",853.70
"2018-03-08 05:45",853.70
"2018-03-08 06:00",853.70
"2018-03-08 06:15",853.70
"2018-03-08 06:30",853.70
"2018-03-08 06:45",853.70
"2018-03-08 07:00",853.70
"2018-03-08 07:15",853.70
"2018-03-08 07:30",853.70
"2018-03-08 07:45",853.70
"2018-03-08 08:00",853.70
"2018-03-08 08:15",853.70
"2018-03-08 08:30",853.70
"2018-03-08 08:45",853.70
"2018-03-08 09:00",853.70
"2018-03-08 09:15",853.70
"2018-03-08 09:30",853.70
"2018-03-08 09:45",853.70
"2018-03-08 10:00",853.70
"2018-03-08 10:15",853.70
"2018-03-08 10:30",853.70
"2018-03-08 10:45",853.70
"2018-03-08 11:00",853.70
"2018-03-08 11:15",853.70
"2018-03-08 11:30",853.70
"2018-03-08 11:45",853.70
"2018-03-08 12:00",853.70
