"2017-08-30 08:15",0.00
"2017-08-30 09:15",0.00
"2017-08-30 10:15",0.00
"2017-08-30 11:15",0.00
"2017-08-30 12:15",0.00
"2017-08-30 13:15",0.00
"2017-08-30 14:15",0.00
"2017-08-30 15:15",0.00
"2017-08-30 16:15",0.00
"2017-08-30 17:15",0.00
"2017-08-30 18:15",0.00
"2017-08-30 19:15",0.00
"2017-08-30 20:15",0.00
"2017-08-30 21:15",0.00
"2017-08-30 22:15",0.00
"2017-08-30 23:15",0.00
"2017-08-31 00:15",0.00
"2017-08-31 01:15",0.00
"2017-08-31 02:15",0.00
"2017-08-31 03:15",0.00
"2017-08-31 04:15",0.00
"2017-08-31 05:15",0.00
"2017-08-31 06:15",0.00
"2017-08-31 07:15",0.00
"2017-08-31 08:15",0.00
"2017-08-31 09:15",0.00
"2017-08-31 10:15",0.00
"2017-08-31 11:15",0.00
"2017-08-31 12:15",0.00
"2017-08-31 13:15",0.00
"2017-08-31 14:15",0.00
"2017-08-31 15:15",0.00
"2017-08-31 16:15",0.00
"2017-08-31 17:15",0.00
"2017-08-31 17:55",1.82
"2017-08-31 18:00",7.44
"2017-08-31 18:05",33.23
"2017-08-31 18:10",50.01
"2017-08-31 18:15",50.09
"2017-08-31 18:20",49.90
"2017-08-31 18:25",49.55
"2017-08-31 18:30",49.22
"2017-08-31 18:35",49.29
"2017-08-31 18:40",49.54
"2017-08-31 18:45",49.46
"2017-08-31 18:50",49.27
"2017-08-31 18:55",49.28
"2017-08-31 19:00",49.50
"2017-08-31 19:05",50.56
"2017-08-31 19:10",50.41
"2017-08-31 19:15",50.11
"2017-08-31 19:20",49.69
"2017-08-31 19:25",49.57
"2017-08-31 19:30",49.68
"2017-08-31 19:35",50.12
"2017-08-31 19:40",49.55
"2017-08-31 19:45",49.34
"2017-08-31 19:50",49.33
"2017-08-31 19:55",49.25
"2017-08-31 20:00",49.64
"2017-08-31 20:05",51.13
"2017-08-31 20:10",50.87
"2017-08-31 20:15",50.38
"2017-08-31 20:20",50.02
"2017-08-31 20:25",49.61
"2017-08-31 20:30",49.93
"2017-08-31 20:35",50.55
"2017-08-31 20:40",50.50
"2017-08-31 20:45",50.15
"2017-08-31 20:50",50.16
"2017-08-31 20:55",49.97
"2017-08-31 21:00",50.21
"2017-08-31 21:05",26.48
"2017-08-31 21:10",0.02
"2017-08-31 21:15",0.00
"2017-08-31 22:15",0.00
"2017-08-31 23:15",0.00
"2017-09-01 00:15",0.00
"2017-09-01 01:15",0.00
"2017-09-01 02:15",0.00
"2017-09-01 03:15",0.00
"2017-09-01 04:15",0.00
"2017-09-01 05:15",0.00
"2017-09-01 06:15",0.00
"2017-09-01 07:15",0.00
"2017-09-01 08:15",0.00
"2017-09-01 09:15",0.00
"2017-09-01 10:15",0.00
"2017-09-01 11:15",0.00
"2017-09-01 12:15",0.00
"2017-09-01 13:15",0.00
"2017-09-01 14:15",0.00
"2017-09-01 15:15",0.00
"2017-09-01 16:15",0.00
"2017-09-01 17:15",0.00
"2017-09-01 18:15",0.00
"2017-09-01 19:15",0.00
"2017-09-01 20:15",0.00
"2017-09-01 21:15",0.00
"2017-09-01 22:15",0.00
"2017-09-01 23:15",0.00
"2017-09-02 00:15",0.00
"2017-09-02 01:15",0.00
"2017-09-02 02:15",0.00
"2017-09-02 03:15",0.00
"2017-09-02 04:15",0.00
"2017-09-02 05:15",0.00
"2017-09-02 06:15",0.00
"2017-09-02 07:15",0.00
"2017-09-02 08:15",0.00
"2017-09-02 09:15",0.00
"2017-09-02 10:15",0.00
"2017-09-02 11:15",0.00
"2017-09-02 12:15",0.00
"2017-09-02 13:15",0.00
"2017-09-02 14:15",0.00
"2017-09-02 15:15",0.00
"2017-09-02 16:15",0.00
"2017-09-02 17:15",0.00
"2017-09-02 17:55",1.82
"2017-09-02 18:00",5.99
"2017-09-02 18:05",14.34
"2017-09-02 18:10",46.90
"2017-09-02 18:15",49.89
"2017-09-02 18:20",49.66
"2017-09-02 18:25",49.60
"2017-09-02 18:30",49.58
"2017-09-02 18:35",49.57
"2017-09-02 18:40",49.43
"2017-09-02 18:45",49.16
"2017-09-02 18:50",49.21
"2017-09-02 18:55",49.17
"2017-09-02 19:00",49.13
"2017-09-02 19:05",50.38
"2017-09-02 19:10",50.17
"2017-09-02 19:15",49.53
"2017-09-02 19:20",49.49
"2017-09-02 19:25",49.28
"2017-09-02 19:30",49.14
"2017-09-02 19:35",49.68
"2017-09-02 19:40",49.29
"2017-09-02 19:45",49.38
"2017-09-02 19:50",49.55
"2017-09-02 19:55",49.48
"2017-09-02 20:00",49.54
"2017-09-02 20:05",50.36
"2017-09-02 20:10",50.29
"2017-09-02 20:15",49.92
"2017-09-02 20:20",49.91
"2017-09-02 20:25",49.66
"2017-09-02 20:30",49.66
"2017-09-02 20:35",49.94
"2017-09-02 20:40",49.84
"2017-09-02 20:45",49.89
"2017-09-02 20:50",49.78
"2017-09-02 20:55",49.54
"2017-09-02 21:00",49.74
"2017-09-02 21:05",16.03
"2017-09-02 21:10",0.00
"2017-09-02 22:10",0.00
"2017-09-02 23:10",0.00
"2017-09-03 00:10",0.00
"2017-09-03 01:10",0.00
"2017-09-03 02:10",0.00
"2017-09-03 03:10",0.00
"2017-09-03 04:10",0.00
"2017-09-03 05:10",0.00
"2017-09-03 06:10",0.00
"2017-09-03 07:10",0.00
"2017-09-03 08:10",0.00
"2017-09-03 09:10",0.00
"2017-09-03 10:10",0.00
"2017-09-03 11:10",0.00
"2017-09-03 12:10",0.00
"2017-09-03 13:10",0.00
"2017-09-03 14:10",0.00
"2017-09-03 15:10",0.00
"2017-09-03 16:10",0.00
"2017-09-03 17:10",0.00
"2017-09-03 18:10",0.00
"2017-09-03 19:10",0.00
"2017-09-03 20:10",0.00
"2017-09-03 21:10",0.00
"2017-09-03 22:10",0.00
"2017-09-03 23:10",0.00
"2017-09-04 00:10",0.00
"2017-09-04 01:10",0.00
"2017-09-04 02:10",0.00
"2017-09-04 03:10",0.00
"2017-09-04 04:10",0.00
"2017-09-04 05:10",0.00
"2017-09-04 06:10",0.00
"2017-09-04 07:10",0.00
"2017-09-04 08:10",0.00
"2017-09-04 09:10",0.00
"2017-09-04 10:10",0.00
"2017-09-04 11:10",0.00
"2017-09-04 12:10",0.00
"2017-09-04 13:10",0.00
"2017-09-04 14:10",0.00
"2017-09-04 15:10",0.00
"2017-09-04 16:10",0.00
"2017-09-04 17:10",0.00
"2017-09-04 18:10",0.00
"2017-09-04 19:10",0.00
"2017-09-04 20:10",0.00
"2017-09-04 21:10",0.00
"2017-09-04 22:10",0.00
"2017-09-04 23:10",0.00
"2017-09-05 00:10",0.00
"2017-09-05 01:10",0.00
"2017-09-05 02:10",0.00
"2017-09-05 03:10",0.00
"2017-09-05 04:10",0.00
"2017-09-05 05:10",0.00
"2017-09-05 06:10",0.00
"2017-09-05 07:10",0.00
"2017-09-05 07:55",1.04
"2017-09-05 08:00",5.53
"2017-09-05 08:05",6.55
"2017-09-05 08:10",31.20
"2017-09-05 08:15",49.21
"2017-09-05 08:20",49.39
"2017-09-05 08:25",49.38
"2017-09-05 08:30",49.47
"2017-09-05 08:35",49.37
"2017-09-05 08:40",49.19
"2017-09-05 08:45",49.33
"2017-09-05 08:50",49.57
"2017-09-05 08:55",49.36
"2017-09-05 09:00",49.19
"2017-09-05 09:05",49.56
"2017-09-05 09:10",49.53
"2017-09-05 09:15",49.38
"2017-09-05 09:20",49.20
"2017-09-05 09:25",49.44
"2017-09-05 09:30",49.27
"2017-09-05 09:35",49.61
"2017-09-05 09:40",49.68
"2017-09-05 09:45",49.45
"2017-09-05 09:50",49.57
"2017-09-05 09:55",49.48
"2017-09-05 10:00",49.32
"2017-09-05 10:05",49.78
"2017-09-05 10:10",49.48
"2017-09-05 10:15",49.20
"2017-09-05 10:20",49.57
"2017-09-05 10:25",49.57
"2017-09-05 10:30",49.30
"2017-09-05 10:35",49.63
"2017-09-05 10:40",49.47
"2017-09-05 10:45",49.55
"2017-09-05 10:50",49.40
"2017-09-05 10:55",49.23
"2017-09-05 11:00",49.61
"2017-09-05 11:05",7.99
"2017-09-05 11:10",0.00
"2017-09-05 12:10",0.00
"2017-09-05 13:10",0.00
"2017-09-05 14:10",0.00
"2017-09-05 15:10",0.00
"2017-09-05 16:10",0.00
"2017-09-05 17:10",0.00
"2017-09-05 18:10",0.00
"2017-09-05 19:10",0.00
"2017-09-05 20:10",0.00
"2017-09-05 21:10",0.00
"2017-09-05 22:10",0.00
"2017-09-05 23:10",0.00
"2017-09-06 00:10",0.00
"2017-09-06 01:10",0.00
"2017-09-06 02:10",0.00
"2017-09-06 03:10",0.00
"2017-09-06 04:10",0.00
"2017-09-06 05:10",0.00
