"2017-08-30 11:50",30.45
"2017-08-30 11:55",30.32
"2017-08-30 12:05",30.19
"2017-08-30 12:10",30.67
"2017-08-30 12:15",31.03
"2017-08-30 12:25",30.81
"2017-08-30 12:30",30.54
"2017-08-30 12:35",30.37
"2017-08-30 12:40",30.67
"2017-08-30 12:45",30.88
"2017-08-30 13:05",30.63
"2017-08-30 13:10",30.82
"2017-08-30 13:15",30.70
"2017-08-30 13:20",30.91
"2017-08-30 13:25",30.45
"2017-08-30 13:35",30.59
"2017-08-30 13:40",30.72
"2017-08-30 13:55",30.53
"2017-08-30 14:10",30.04
"2017-08-30 14:15",30.18
"2017-08-30 14:25",30.34
"2017-08-30 14:40",30.46
"2017-08-30 14:45",30.60
"2017-08-30 14:55",30.41
"2017-08-30 15:00",30.17
"2017-08-30 15:05",30.33
"2017-08-30 15:15",30.54
"2017-08-30 15:25",30.26
"2017-08-30 15:30",30.72
"2017-08-30 15:35",30.41
"2017-08-30 15:40",30.24
"2017-08-30 15:45",30.41
"2017-08-30 15:50",30.30
"2017-08-30 15:55",30.46
"2017-08-30 16:05",29.79
"2017-08-30 16:10",29.58
"2017-08-30 16:20",29.80
"2017-08-30 16:25",30.16
"2017-08-30 16:30",30.50
"2017-08-30 16:35",30.85
"2017-08-30 16:45",31.03
"2017-08-30 17:00",31.35
"2017-08-30 17:05",30.51
"2017-08-30 17:10",30.14
"2017-08-30 17:15",30.27
"2017-08-30 17:20",30.60
"2017-08-30 17:25",30.88
"2017-08-30 17:30",30.72
"2017-08-30 17:35",30.92
"2017-08-30 17:45",31.28
"2017-08-30 17:50",31.54
"2017-08-30 17:55",31.36
"2017-08-30 18:10",30.94
"2017-08-30 18:15",30.66
"2017-08-30 18:20",30.77
"2017-08-30 18:25",31.00
"2017-08-30 18:35",30.65
"2017-08-30 18:40",30.83
"2017-08-30 18:45",30.67
"2017-08-30 18:50",30.52
"2017-08-30 18:55",30.73
"2017-08-30 19:00",30.45
"2017-08-30 19:05",31.12
"2017-08-30 19:10",32.26
"2017-08-30 19:15",31.53
"2017-08-30 19:20",30.78
"2017-08-30 19:25",30.52
"2017-08-30 19:30",30.19
"2017-08-30 19:50",29.94
"2017-08-30 19:55",29.71
"2017-08-30 20:00",29.37
"2017-08-30 20:05",29.82
"2017-08-30 20:10",30.89
"2017-08-30 20:25",30.59
"2017-08-30 20:30",30.28
"2017-08-30 20:35",30.42
"2017-08-30 20:40",31.05
"2017-08-30 20:45",31.16
"2017-08-30 20:50",31.06
"2017-08-30 20:55",30.67
"2017-08-30 21:00",30.45
"2017-08-30 21:05",30.95
"2017-08-30 21:10",32.02
"2017-08-30 21:20",31.66
"2017-08-30 21:25",31.22
"2017-08-30 21:30",30.81
"2017-08-30 21:35",30.52
"2017-08-30 21:40",30.33
"2017-08-30 21:50",30.45
"2017-08-30 21:55",30.06
"2017-08-30 22:00",29.58
"2017-08-30 22:05",29.73
"2017-08-30 22:10",31.28
"2017-08-30 22:20",31.08
"2017-08-30 22:30",30.77
"2017-08-30 22:35",30.44
"2017-08-30 22:40",30.21
"2017-08-30 22:55",29.90
"2017-08-30 23:05",30.39
"2017-08-30 23:10",31.59
"2017-08-30 23:15",31.28
"2017-08-30 23:25",30.83
"2017-08-30 23:30",30.67
"2017-08-30 23:35",30.82
"2017-08-30 23:45",30.70
"2017-08-30 23:50",30.51
"2017-08-31 00:00",30.17
"2017-08-31 00:05",30.52
"2017-08-31 00:10",31.48
"2017-08-31 00:15",31.13
"2017-08-31 00:20",30.91
"2017-08-31 00:25",30.74
"2017-08-31 00:30",30.49
"2017-08-31 00:35",30.75
"2017-08-31 00:40",31.18
"2017-08-31 00:45",30.98
"2017-08-31 00:50",31.10
"2017-08-31 00:55",30.86
"2017-08-31 01:00",30.64
"2017-08-31 01:05",31.07
"2017-08-31 01:10",31.52
"2017-08-31 01:15",31.29
"2017-08-31 01:20",31.08
"2017-08-31 01:30",30.89
"2017-08-31 01:40",31.06
"2017-08-31 01:45",30.92
"2017-08-31 01:50",30.78
"2017-08-31 01:55",30.65
"2017-08-31 02:05",31.14
"2017-08-31 02:15",30.84
"2017-08-31 02:20",31.06
"2017-08-31 02:25",30.94
"2017-08-31 02:30",30.77
"2017-08-31 02:40",30.92
"2017-08-31 02:50",30.67
"2017-08-31 02:55",31.01
"2017-08-31 03:05",30.88
"2017-08-31 03:10",31.20
"2017-08-31 03:15",31.37
"2017-08-31 03:20",30.90
"2017-08-31 03:25",31.02
"2017-08-31 03:35",30.86
"2017-08-31 03:45",31.10
"2017-08-31 03:50",30.69
"2017-08-31 03:55",30.88
"2017-08-31 04:00",30.71
"2017-08-31 04:05",30.44
"2017-08-31 04:10",30.60
"2017-08-31 04:15",31.13
"2017-08-31 04:25",31.00
"2017-08-31 04:30",31.28
"2017-08-31 04:35",31.12
"2017-08-31 04:45",30.92
"2017-08-31 04:50",30.67
"2017-08-31 05:00",30.47
"2017-08-31 05:05",29.99
"2017-08-31 05:15",30.45
"2017-08-31 05:20",30.71
"2017-08-31 05:25",30.89
"2017-08-31 05:30",31.36
"2017-08-31 05:55",31.04
"2017-08-31 06:05",30.68
"2017-08-31 06:10",30.55
"2017-08-31 06:15",31.09
"2017-08-31 06:20",30.93
"2017-08-31 06:30",30.79
"2017-08-31 06:35",31.03
"2017-08-31 06:45",30.77
"2017-08-31 06:55",30.87
"2017-08-31 07:05",30.14
"2017-08-31 07:10",28.70
"2017-08-31 07:15",28.43
"2017-08-31 07:25",28.61
"2017-08-31 07:30",28.71
"2017-08-31 07:45",28.85
"2017-08-31 08:20",28.69
"2017-08-31 08:25",28.52
"2017-08-31 08:40",28.42
"2017-08-31 09:00",28.28
"2017-08-31 09:05",28.43
"2017-08-31 09:10",28.33
"2017-08-31 09:15",28.57
"2017-08-31 09:25",28.37
"2017-08-31 09:35",28.48
"2017-08-31 09:40",28.37
"2017-08-31 09:50",28.54
"2017-08-31 10:05",28.22
"2017-08-31 10:10",28.36
"2017-08-31 10:20",28.48
"2017-08-31 10:25",28.32
"2017-08-31 10:30",28.21
"2017-08-31 10:40",28.54
"2017-08-31 10:50",28.31
"2017-08-31 10:55",28.17
"2017-08-31 11:15",28.44
"2017-08-31 11:20",28.23
"2017-08-31 11:40",28.33
"2017-08-31 11:45",28.12
"2017-08-31 11:55",27.99
"2017-08-31 12:10",28.25
"2017-08-31 12:20",28.05
"2017-08-31 12:40",28.21
"2017-08-31 12:45",28.74
"2017-08-31 12:50",28.57
"2017-08-31 12:55",28.32
"2017-08-31 13:15",28.45
"2017-08-31 13:20",28.71
"2017-08-31 13:25",28.56
"2017-08-31 13:35",28.38
"2017-08-31 13:40",28.75
"2017-08-31 13:50",28.60
"2017-08-31 13:55",28.49
"2017-08-31 14:00",28.29
"2017-08-31 14:05",28.10
"2017-08-31 14:10",28.20
"2017-08-31 14:15",28.31
"2017-08-31 14:30",28.72
"2017-08-31 14:35",28.50
"2017-08-31 15:00",28.36
"2017-08-31 15:15",28.51
"2017-08-31 15:20",28.63
"2017-08-31 15:25",28.46
"2017-08-31 15:30",28.59
"2017-08-31 15:40",28.47
"2017-08-31 15:45",28.35
"2017-08-31 15:50",28.50
"2017-08-31 16:05",28.25
"2017-08-31 16:15",28.06
"2017-08-31 16:20",28.25
"2017-08-31 16:25",28.38
"2017-08-31 16:35",28.58
"2017-08-31 16:40",28.89
"2017-08-31 16:45",28.69
"2017-08-31 17:10",28.45
"2017-08-31 17:30",28.22
"2017-08-31 17:35",28.03
"2017-08-31 17:50",28.23
"2017-08-31 18:00",27.92
"2017-08-31 18:05",27.42
"2017-08-31 18:10",27.10
"2017-08-31 18:30",26.99
"2017-08-31 18:45",27.14
"2017-08-31 18:55",26.97
"2017-08-31 19:00",27.29
"2017-08-31 19:05",28.03
"2017-08-31 19:10",28.70
"2017-08-31 19:15",28.48
"2017-08-31 19:20",28.27
"2017-08-31 19:25",27.89
"2017-08-31 19:40",28.11
"2017-08-31 19:45",27.76
"2017-08-31 19:50",27.60
"2017-08-31 20:00",27.10
"2017-08-31 20:05",27.97
"2017-08-31 20:10",28.77
"2017-08-31 20:15",28.51
"2017-08-31 20:20",27.92
"2017-08-31 20:25",27.43
"2017-08-31 20:30",27.22
"2017-08-31 20:35",27.58
"2017-08-31 20:40",28.12
"2017-08-31 20:45",27.88
"2017-08-31 20:50",27.64
"2017-08-31 20:55",27.51
"2017-08-31 21:05",28.01
"2017-08-31 21:10",28.16
"2017-08-31 21:20",28.27
"2017-08-31 21:25",28.00
"2017-08-31 21:30",27.75
"2017-08-31 21:35",27.87
"2017-08-31 21:40",28.05
"2017-08-31 21:45",27.92
"2017-08-31 21:50",27.78
"2017-08-31 21:55",27.66
"2017-08-31 22:00",27.45
"2017-08-31 22:05",27.55
"2017-08-31 22:10",28.29
"2017-08-31 22:15",28.54
"2017-08-31 22:25",28.33
"2017-08-31 22:40",28.21
"2017-08-31 22:45",28.08
"2017-08-31 22:50",27.79
"2017-08-31 22:55",27.58
"2017-08-31 23:05",28.12
"2017-08-31 23:10",28.94
"2017-08-31 23:15",28.74
"2017-08-31 23:20",28.55
"2017-08-31 23:25",27.96
"2017-08-31 23:40",28.13
"2017-08-31 23:45",28.02
"2017-09-01 00:00",27.87
"2017-09-01 00:05",28.10
"2017-09-01 00:10",28.35
"2017-09-01 00:20",28.07
"2017-09-01 00:30",27.90
"2017-09-01 00:35",27.73
"2017-09-01 00:40",27.98
"2017-09-01 00:55",27.87
"2017-09-01 01:00",27.68
"2017-09-01 01:05",28.02
"2017-09-01 01:10",28.34
"2017-09-01 01:15",28.16
"2017-09-01 01:30",27.64
"2017-09-01 01:35",27.83
"2017-09-01 01:40",28.07
"2017-09-01 01:50",27.85
"2017-09-01 02:35",28.08
"2017-09-01 02:45",27.95
"2017-09-01 02:55",28.06
"2017-09-01 03:00",27.88
"2017-09-01 03:05",27.60
"2017-09-01 03:20",27.77
"2017-09-01 03:50",27.57
"2017-09-01 04:00",27.74
"2017-09-01 04:05",27.90
"2017-09-01 04:15",28.01
"2017-09-01 04:20",28.21
"2017-09-01 04:35",27.97
"2017-09-01 04:40",28.09
"2017-09-01 04:45",27.96
"2017-09-01 04:50",28.06
"2017-09-01 05:05",27.73
"2017-09-01 05:10",27.57
"2017-09-01 05:15",28.06
"2017-09-01 05:20",28.23
"2017-09-01 05:25",28.06
"2017-09-01 05:50",27.94
"2017-09-01 05:55",27.67
"2017-09-01 06:05",27.35
"2017-09-01 06:10",26.79
"2017-09-01 06:15",27.10
"2017-09-01 06:20",27.40
"2017-09-01 06:25",27.63
"2017-09-01 06:40",27.78
"2017-09-01 06:45",27.65
"2017-09-01 06:50",27.77
"2017-09-01 06:55",27.59
"2017-09-01 07:00",26.48
"2017-09-01 07:05",26.10
"2017-09-01 07:10",25.87
"2017-09-01 07:20",26.02
"2017-09-01 07:25",24.85
"2017-09-01 07:30",24.55
"2017-09-01 07:35",24.34
"2017-09-01 08:00",24.53
"2017-09-01 08:05",24.91
"2017-09-01 08:15",25.17
"2017-09-01 08:30",25.01
"2017-09-01 08:50",24.82
"2017-09-01 08:55",24.95
"2017-09-01 09:00",25.28
"2017-09-01 09:05",25.96
"2017-09-01 09:15",25.74
"2017-09-01 09:35",25.56
"2017-09-01 09:40",25.29
"2017-09-01 09:50",25.48
"2017-09-01 09:55",25.67
"2017-09-01 10:00",25.28
"2017-09-01 10:10",25.56
"2017-09-01 10:25",25.46
"2017-09-01 10:40",25.34
"2017-09-01 10:45",24.78
"2017-09-01 11:10",25.45
"2017-09-01 11:15",25.95
"2017-09-01 11:20",25.58
"2017-09-01 11:30",25.30
"2017-09-01 11:35",25.46
"2017-09-01 11:45",25.28
"2017-09-01 12:10",25.48
"2017-09-01 12:15",25.61
"2017-09-01 12:25",25.44
"2017-09-01 12:35",25.31
"2017-09-01 12:40",25.15
"2017-09-01 12:45",25.27
"2017-09-01 12:50",25.09
"2017-09-01 13:05",25.23
"2017-09-01 13:10",25.51
"2017-09-01 13:20",25.35
"2017-09-01 13:35",25.13
"2017-09-01 14:05",25.25
"2017-09-01 14:15",25.41
"2017-09-01 14:20",25.55
"2017-09-01 14:30",25.39
"2017-09-01 14:35",25.04
"2017-09-01 14:55",25.25
"2017-09-01 15:00",24.96
"2017-09-01 15:05",25.07
"2017-09-01 15:15",25.22
"2017-09-01 15:30",25.34
"2017-09-01 15:40",25.82
"2017-09-01 16:00",26.02
"2017-09-01 16:05",25.25
"2017-09-01 16:15",25.56
"2017-09-01 16:25",25.77
"2017-09-01 16:30",26.05
"2017-09-01 16:45",26.20
"2017-09-01 16:50",26.31
"2017-09-01 17:05",25.99
"2017-09-01 17:10",26.18
"2017-09-01 17:15",26.33
"2017-09-01 17:20",26.49
"2017-09-01 17:25",26.37
"2017-09-01 17:35",25.96
"2017-09-01 17:40",25.63
"2017-09-01 17:45",25.25
"2017-09-01 17:55",25.71
"2017-09-01 18:00",25.82
"2017-09-01 18:05",25.54
"2017-09-01 18:10",25.39
"2017-09-01 18:25",25.49
"2017-09-01 18:35",25.24
"2017-09-01 18:50",25.00
"2017-09-01 19:05",25.76
"2017-09-01 19:10",26.69
"2017-09-01 19:15",26.15
"2017-09-01 19:20",25.50
"2017-09-01 19:30",25.26
"2017-09-01 19:35",24.89
"2017-09-01 19:40",25.23
"2017-09-01 19:50",24.91
"2017-09-01 19:55",24.70
"2017-09-01 20:00",24.50
"2017-09-01 20:05",24.81
"2017-09-01 20:10",25.94
"2017-09-01 20:25",25.59
"2017-09-01 20:30",25.14
"2017-09-01 20:40",25.70
"2017-09-01 20:45",25.56
"2017-09-01 20:50",25.10
"2017-09-01 20:55",25.46
"2017-09-01 21:00",25.57
"2017-09-01 21:10",25.79
"2017-09-01 21:20",25.61
"2017-09-01 21:30",25.38
"2017-09-01 21:40",25.58
"2017-09-01 21:45",25.38
"2017-09-01 22:00",25.07
"2017-09-01 22:05",25.34
"2017-09-01 22:10",25.79
"2017-09-01 22:15",26.33
"2017-09-01 22:20",26.07
"2017-09-01 22:25",25.61
"2017-09-01 22:30",25.25
"2017-09-01 22:35",25.10
"2017-09-01 23:00",25.36
"2017-09-01 23:05",25.49
"2017-09-01 23:25",25.67
"2017-09-01 23:30",25.15
"2017-09-01 23:40",25.37
"2017-09-01 23:55",25.18
"2017-09-02 00:05",25.47
"2017-09-02 00:10",26.12
"2017-09-02 00:20",25.99
"2017-09-02 00:25",25.45
"2017-09-02 00:30",25.06
"2017-09-02 00:35",24.93
"2017-09-02 00:40",25.07
"2017-09-02 00:45",24.87
"2017-09-02 00:50",25.06
"2017-09-02 01:00",24.90
"2017-09-02 01:05",25.23
"2017-09-02 01:10",25.62
"2017-09-02 01:25",25.32
"2017-09-02 01:30",24.93
"2017-09-02 01:55",25.15
"2017-09-02 02:05",25.32
"2017-09-02 02:10",25.77
"2017-09-02 02:15",25.90
"2017-09-02 02:20",25.61
"2017-09-02 02:25",25.38
"2017-09-02 02:30",25.53
"2017-09-02 02:35",25.21
"2017-09-02 02:40",25.11
"2017-09-02 02:45",25.28
"2017-09-02 03:25",25.09
"2017-09-02 03:30",25.31
"2017-09-02 03:35",25.14
"2017-09-02 03:40",24.46
"2017-09-02 03:45",24.85
"2017-09-02 03:50",25.08
"2017-09-02 04:15",25.35
"2017-09-02 04:25",24.96
"2017-09-02 04:30",25.09
"2017-09-02 04:45",25.44
"2017-09-02 05:00",25.17
"2017-09-02 05:05",24.78
"2017-09-02 05:15",24.97
"2017-09-02 05:20",25.09
"2017-09-02 05:25",25.35
"2017-09-02 05:30",25.22
"2017-09-02 05:40",25.41
"2017-09-02 05:55",25.63
"2017-09-02 06:10",25.12
"2017-09-02 06:15",25.43
"2017-09-02 06:25",24.88
"2017-09-02 06:40",25.05
"2017-09-02 06:45",24.94
"2017-09-02 07:00",25.06
"2017-09-02 07:05",24.93
"2017-09-02 07:10",24.75
"2017-09-02 07:15",25.05
"2017-09-02 07:35",25.35
"2017-09-02 07:40",25.93
"2017-09-02 08:00",26.07
"2017-09-02 08:15",25.90
"2017-09-02 08:30",26.07
"2017-09-02 08:40",25.88
"2017-09-02 08:50",25.76
"2017-09-02 09:00",25.59
"2017-09-02 09:05",25.96
"2017-09-02 09:10",25.81
"2017-09-02 09:15",25.55
"2017-09-02 09:20",25.81
"2017-09-02 09:25",25.97
"2017-09-02 09:35",26.12
"2017-09-02 09:50",26.36
"2017-09-02 10:00",25.90
"2017-09-02 10:15",26.34
"2017-09-02 10:20",26.65
"2017-09-02 10:30",26.75
"2017-09-02 10:35",26.94
"2017-09-02 10:45",26.82
"2017-09-02 10:55",26.99
"2017-09-02 11:00",26.61
"2017-09-02 11:05",26.91
"2017-09-02 11:20",26.78
"2017-09-02 11:25",26.66
"2017-09-02 11:30",26.39
"2017-09-02 11:40",26.67
"2017-09-02 11:45",26.54
"2017-09-02 12:00",26.41
"2017-09-02 12:05",26.57
"2017-09-02 12:10",26.90
"2017-09-02 12:15",26.80
"2017-09-02 12:20",26.51
"2017-09-02 12:35",26.65
"2017-09-02 12:40",26.79
"2017-09-02 12:45",26.66
"2017-09-02 12:50",26.55
"2017-09-02 13:05",26.67
"2017-09-02 13:20",26.39
"2017-09-02 13:40",26.54
"2017-09-02 13:55",26.71
"2017-09-02 14:05",26.56
"2017-09-02 14:10",26.25
"2017-09-02 14:20",26.65
"2017-09-02 14:55",26.32
"2017-09-02 15:00",26.20
"2017-09-02 15:05",26.41
"2017-09-02 15:25",26.54
"2017-09-02 15:40",26.42
"2017-09-02 15:45",26.60
"2017-09-02 16:00",26.90
"2017-09-02 16:05",26.78
"2017-09-02 16:10",26.19
"2017-09-02 16:15",26.38
"2017-09-02 16:20",26.62
"2017-09-02 16:35",26.81
"2017-09-02 16:40",26.62
"2017-09-02 17:00",26.81
"2017-09-02 17:05",26.16
"2017-09-02 17:10",25.92
"2017-09-02 17:20",26.49
"2017-09-02 17:25",26.68
"2017-09-02 17:35",26.80
"2017-09-02 18:00",26.57
"2017-09-02 18:05",26.27
"2017-09-02 18:15",26.53
"2017-09-02 18:20",26.39
"2017-09-02 18:25",26.50
"2017-09-02 19:00",26.32
"2017-09-02 19:05",26.70
"2017-09-02 19:10",27.47
"2017-09-02 19:15",27.07
"2017-09-02 19:20",26.67
"2017-09-02 19:30",26.47
"2017-09-02 19:35",26.59
"2017-09-02 19:45",26.36
"2017-09-02 20:05",26.66
"2017-09-02 20:10",27.24
"2017-09-02 20:15",27.04
"2017-09-02 20:20",26.43
"2017-09-02 20:30",26.62
"2017-09-02 20:35",26.50
"2017-09-02 20:40",26.77
"2017-09-02 20:45",26.61
"2017-09-02 21:05",26.72
"2017-09-02 21:10",27.16
"2017-09-02 21:20",26.83
"2017-09-02 21:25",26.62
"2017-09-02 21:35",26.91
"2017-09-02 21:40",27.09
"2017-09-02 21:55",26.93
"2017-09-02 22:10",27.09
"2017-09-02 22:15",26.57
"2017-09-02 22:20",26.37
"2017-09-02 22:30",26.63
"2017-09-02 22:50",26.31
"2017-09-02 23:00",26.56
"2017-09-02 23:10",26.83
"2017-09-02 23:15",26.57
"2017-09-02 23:35",26.70
"2017-09-02 23:50",26.54
"2017-09-02 23:55",26.20
"2017-09-03 00:00",25.94
"2017-09-03 00:10",26.17
"2017-09-03 00:15",26.38
"2017-09-03 00:25",26.25
"2017-09-03 00:35",26.41
"2017-09-03 00:40",26.57
"2017-09-03 00:50",26.41
"2017-09-03 01:00",26.28
"2017-09-03 01:05",26.57
"2017-09-03 01:10",27.02
"2017-09-03 01:20",26.82
"2017-09-03 01:25",26.64
"2017-09-03 01:35",26.42
"2017-09-03 01:45",26.64
"2017-09-03 02:00",26.75
"2017-09-03 02:10",26.93
"2017-09-03 02:20",26.77
"2017-09-03 02:25",26.47
"2017-09-03 02:40",26.64
"2017-09-03 02:45",26.47
"2017-09-03 02:55",26.58
"2017-09-03 03:05",26.45
"2017-09-03 03:10",26.61
"2017-09-03 03:15",26.74
"2017-09-03 03:20",26.45
"2017-09-03 03:40",26.59
"2017-09-03 03:45",26.33
"2017-09-03 04:05",26.59
"2017-09-03 04:15",26.75
"2017-09-03 04:45",26.56
"2017-09-03 05:00",26.44
"2017-09-03 05:05",26.20
"2017-09-03 05:15",26.34
"2017-09-03 05:25",26.23
"2017-09-03 05:30",26.47
"2017-09-03 05:40",26.33
"2017-09-03 06:10",25.96
"2017-09-03 06:15",26.41
"2017-09-03 06:35",26.21
"2017-09-03 06:40",26.33
"2017-09-03 06:55",26.22
"2017-09-03 07:10",26.39
"2017-09-03 07:15",26.55
"2017-09-03 07:30",26.20
"2017-09-03 07:35",25.80
"2017-09-03 07:50",25.90
"2017-09-03 07:55",25.72
"2017-09-03 08:00",26.01
"2017-09-03 08:10",25.89
"2017-09-03 08:15",25.99
"2017-09-03 08:25",25.77
"2017-09-03 08:30",25.26
"2017-09-03 08:35",24.55
"2017-09-03 08:45",24.42
"2017-09-03 09:20",24.58
"2017-09-03 09:35",24.82
"2017-09-03 09:55",24.93
"2017-09-03 10:00",24.82
"2017-09-03 10:05",24.94
"2017-09-03 10:10",25.05
"2017-09-03 10:15",24.88
"2017-09-03 10:20",24.77
"2017-09-03 10:35",24.88
"2017-09-03 10:40",25.10
"2017-09-03 10:50",24.73
"2017-09-03 11:00",24.87
"2017-09-03 11:05",25.05
"2017-09-03 11:10",25.37
"2017-09-03 11:15",25.14
"2017-09-03 11:20",24.77
"2017-09-03 11:25",24.59
"2017-09-03 11:30",24.77
"2017-09-03 11:35",24.96
"2017-09-03 11:40",24.83
"2017-09-03 11:50",25.03
"2017-09-03 12:00",24.88
"2017-09-03 12:10",25.05
"2017-09-03 12:15",24.85
"2017-09-03 12:20",24.67
"2017-09-03 12:35",24.80
"2017-09-03 12:50",24.69
"2017-09-03 13:00",24.47
"2017-09-03 13:05",24.61
"2017-09-03 13:10",24.80
"2017-09-03 13:25",24.91
"2017-09-03 13:35",24.77
"2017-09-03 13:40",24.87
"2017-09-03 14:00",24.75
"2017-09-03 14:25",24.49
"2017-09-03 14:30",24.64
"2017-09-03 14:45",25.14
"2017-09-03 14:50",25.27
"2017-09-03 15:05",24.57
"2017-09-03 15:10",24.24
"2017-09-03 15:15",24.50
"2017-09-03 15:20",24.61
"2017-09-03 15:25",25.05
"2017-09-03 15:30",25.37
"2017-09-03 15:35",25.67
"2017-09-03 15:40",25.56
"2017-09-03 15:50",25.80
"2017-09-03 15:55",25.92
"2017-09-03 16:00",25.48
"2017-09-03 16:05",25.32
"2017-09-03 16:10",25.11
"2017-09-03 16:20",25.41
"2017-09-03 16:35",25.51
"2017-09-03 16:40",25.66
"2017-09-03 16:45",25.56
"2017-09-03 16:55",25.72
"2017-09-03 17:05",25.57
"2017-09-03 17:10",25.00
"2017-09-03 17:15",25.17
"2017-09-03 17:20",25.31
"2017-09-03 17:25",25.44
"2017-09-03 17:30",25.85
"2017-09-03 17:35",25.54
"2017-09-03 17:40",25.15
"2017-09-03 17:45",25.38
"2017-09-03 17:55",25.63
"2017-09-03 18:00",25.76
"2017-09-03 18:05",25.12
"2017-09-03 18:10",24.89
"2017-09-03 18:15",25.26
"2017-09-03 19:00",25.08
"2017-09-03 19:05",25.39
"2017-09-03 19:10",25.70
"2017-09-03 19:15",25.36
"2017-09-03 19:20",25.25
"2017-09-03 19:30",25.07
"2017-09-03 19:45",24.93
"2017-09-03 19:50",25.05
"2017-09-03 19:55",25.31
"2017-09-03 20:00",25.15
"2017-09-03 20:05",25.77
"2017-09-03 20:10",26.10
"2017-09-03 20:15",25.46
"2017-09-03 20:20",25.18
"2017-09-03 20:35",25.42
"2017-09-03 20:40",25.86
"2017-09-03 20:45",25.58
"2017-09-03 20:50",25.37
"2017-09-03 21:05",25.99
"2017-09-03 21:10",26.20
"2017-09-03 21:15",25.73
"2017-09-03 21:20",25.51
"2017-09-03 21:30",25.62
"2017-09-03 21:40",25.97
"2017-09-03 21:45",25.74
"2017-09-03 21:50",25.39
"2017-09-03 22:00",25.14
"2017-09-03 22:05",25.73
"2017-09-03 22:10",26.37
"2017-09-03 22:15",25.96
"2017-09-03 22:20",25.56
"2017-09-03 22:25",25.35
"2017-09-03 22:30",25.47
"2017-09-03 22:45",25.58
"2017-09-03 22:50",25.39
"2017-09-03 23:00",25.20
"2017-09-03 23:05",25.49
"2017-09-03 23:10",25.92
"2017-09-03 23:20",25.45
"2017-09-03 23:50",25.17
"2017-09-04 00:00",25.46
"2017-09-04 00:05",25.84
"2017-09-04 00:10",26.31
"2017-09-04 00:15",25.76
"2017-09-04 00:20",25.58
"2017-09-04 00:30",25.47
"2017-09-04 00:35",25.27
"2017-09-04 00:40",25.09
"2017-09-04 00:45",25.25
"2017-09-04 01:05",25.59
"2017-09-04 01:10",25.87
"2017-09-04 01:15",25.58
"2017-09-04 01:25",25.48
"2017-09-04 01:30",25.36
"2017-09-04 01:35",25.05
"2017-09-04 01:45",25.18
"2017-09-04 01:50",25.34
"2017-09-04 01:55",25.23
"2017-09-04 02:20",25.37
"2017-09-04 02:25",25.22
"2017-09-04 02:35",25.39
"2017-09-04 03:20",25.29
"2017-09-04 03:50",25.15
"2017-09-04 04:10",25.41
"2017-09-04 04:15",25.61
"2017-09-04 04:35",25.32
"2017-09-04 04:40",25.47
"2017-09-04 04:45",25.86
"2017-09-04 04:55",25.61
"2017-09-04 05:05",25.33
"2017-09-04 05:20",25.62
"2017-09-04 05:25",25.42
"2017-09-04 05:30",25.68
"2017-09-04 05:35",25.93
"2017-09-04 05:40",25.82
"2017-09-04 05:50",25.60
"2017-09-04 05:55",25.39
"2017-09-04 06:05",24.82
"2017-09-04 06:10",24.22
"2017-09-04 06:15",24.50
"2017-09-04 06:20",24.63
"2017-09-04 06:25",24.74
"2017-09-04 06:55",25.16
"2017-09-04 07:00",25.41
"2017-09-04 07:05",25.23
"2017-09-04 07:20",25.37
"2017-09-04 07:25",25.60
"2017-09-04 07:30",25.38
"2017-09-04 07:45",25.49
"2017-09-04 07:50",25.32
"2017-09-04 08:00",25.16
"2017-09-04 08:05",25.54
"2017-09-04 08:10",25.97
"2017-09-04 08:15",25.71
"2017-09-04 08:20",25.52
"2017-09-04 08:30",25.67
"2017-09-04 08:35",25.47
"2017-09-04 08:40",25.37
"2017-09-04 08:45",25.59
"2017-09-04 09:05",25.46
"2017-09-04 09:20",25.56
"2017-09-04 09:40",25.77
"2017-09-04 09:50",26.00
"2017-09-04 10:00",25.87
"2017-09-04 10:05",25.54
"2017-09-04 10:40",25.77
"2017-09-04 10:45",25.88
"2017-09-04 10:50",25.43
"2017-09-04 11:00",25.31
"2017-09-04 11:05",25.52
"2017-09-04 11:10",25.78
"2017-09-04 11:30",25.40
"2017-09-04 11:50",25.19
"2017-09-04 12:05",25.30
"2017-09-04 12:10",25.51
"2017-09-04 12:30",25.39
"2017-09-04 12:50",25.28
"2017-09-04 13:05",25.43
"2017-09-04 13:10",25.31
"2017-09-04 13:15",25.41
"2017-09-04 13:25",25.30
"2017-09-04 13:30",25.43
"2017-09-04 13:35",25.31
"2017-09-04 13:40",25.41
"2017-09-04 13:45",25.30
"2017-09-04 14:00",25.41
"2017-09-04 14:10",25.30
"2017-09-04 14:30",25.43
"2017-09-04 14:35",25.32
"2017-09-04 14:55",25.45
"2017-09-04 15:00",25.20
"2017-09-04 15:20",25.31
"2017-09-04 15:25",25.15
"2017-09-04 15:35",25.27
"2017-09-04 15:55",25.03
"2017-09-04 16:05",24.40
"2017-09-04 16:10",24.13
"2017-09-04 16:15",24.38
"2017-09-04 16:20",24.62
"2017-09-04 16:35",24.77
"2017-09-04 16:40",24.65
"2017-09-04 16:50",24.84
"2017-09-04 17:05",24.71
"2017-09-04 17:10",24.38
"2017-09-04 17:20",24.58
"2017-09-04 17:25",24.70
"2017-09-04 17:30",24.88
"2017-09-04 18:05",24.68
"2017-09-04 18:25",24.84
"2017-09-04 18:30",24.58
"2017-09-04 18:55",24.45
"2017-09-04 19:00",24.35
"2017-09-04 19:05",25.11
"2017-09-04 19:10",25.56
"2017-09-04 19:15",25.12
"2017-09-04 19:20",24.83
"2017-09-04 19:25",24.54
"2017-09-04 19:45",24.30
"2017-09-04 19:55",24.41
"2017-09-04 20:00",24.09
"2017-09-04 20:05",24.89
"2017-09-04 20:10",25.41
"2017-09-04 20:20",24.99
"2017-09-04 20:30",24.60
"2017-09-04 20:35",24.71
"2017-09-04 20:40",24.90
"2017-09-04 20:45",25.06
"2017-09-04 21:00",24.75
"2017-09-04 21:05",25.45
"2017-09-04 21:10",25.75
"2017-09-04 21:15",25.31
"2017-09-04 21:20",25.14
"2017-09-04 21:25",25.00
"2017-09-04 21:55",24.82
"2017-09-04 22:00",24.67
"2017-09-04 22:05",24.78
"2017-09-04 22:10",24.90
"2017-09-04 22:25",25.02
"2017-09-04 22:30",25.18
"2017-09-04 22:35",25.07
"2017-09-04 22:45",24.85
"2017-09-04 22:50",24.73
"2017-09-04 22:55",24.58
"2017-09-04 23:00",24.34
"2017-09-04 23:05",24.97
"2017-09-04 23:10",25.92
"2017-09-04 23:20",25.78
"2017-09-04 23:25",25.15
"2017-09-04 23:30",24.63
"2017-09-04 23:35",24.89
"2017-09-04 23:40",25.00
"2017-09-04 23:50",24.85
"2017-09-04 23:55",24.72
"2017-09-05 00:05",25.00
"2017-09-05 00:10",25.35
"2017-09-05 00:25",25.21
"2017-09-05 00:30",25.07
"2017-09-05 01:10",25.23
"2017-09-05 01:20",25.05
"2017-09-05 01:40",24.94
"2017-09-05 02:10",25.13
"2017-09-05 02:35",24.97
"2017-09-05 02:40",25.09
"2017-09-05 03:05",24.98
"2017-09-05 03:10",24.82
"2017-09-05 03:15",24.92
"2017-09-05 03:20",25.02
"2017-09-05 03:25",25.19
"2017-09-05 03:55",24.94
"2017-09-05 04:15",25.23
"2017-09-05 04:25",25.00
"2017-09-05 04:30",25.23
"2017-09-05 04:40",25.13
"2017-09-05 04:45",25.31
"2017-09-05 04:50",25.20
"2017-09-05 05:05",24.21
"2017-09-05 05:10",24.04
"2017-09-05 05:15",24.40
"2017-09-05 05:20",24.64
"2017-09-05 05:25",24.83
"2017-09-05 05:30",25.01
"2017-09-05 05:45",25.15
"2017-09-05 05:50",25.34
"2017-09-05 06:05",24.93
"2017-09-05 06:10",24.68
"2017-09-05 06:20",24.87
"2017-09-05 06:25",24.97
"2017-09-05 06:35",25.13
"2017-09-05 06:40",25.03
"2017-09-05 06:55",24.92
"2017-09-05 07:00",24.12
"2017-09-05 07:05",24.00
"2017-09-05 07:30",24.33
"2017-09-05 07:35",24.14
"2017-09-05 07:40",24.31
"2017-09-05 07:50",24.07
"2017-09-05 08:05",24.19
"2017-09-05 08:10",24.39
"2017-09-05 08:20",24.13
"2017-09-05 08:30",24.29
"2017-09-05 08:40",24.14
"2017-09-05 09:10",24.40
"2017-09-05 09:15",24.53
"2017-09-05 09:20",24.29
"2017-09-05 09:25",24.09
"2017-09-05 09:40",24.30
"2017-09-05 10:15",24.12
"2017-09-05 10:25",23.98
"2017-09-05 10:30",24.18
"2017-09-05 10:35",24.04
"2017-09-05 10:40",24.41
"2017-09-05 10:50",24.20
"2017-09-05 11:00",23.99
"2017-09-05 11:10",24.15
"2017-09-05 11:20",24.02
"2017-09-05 11:35",24.14
"2017-09-05 11:40",24.31
"2017-09-05 11:45",24.19
"2017-09-05 11:50",24.05
"2017-09-05 11:55",23.78
"2017-09-05 12:00",23.89
"2017-09-05 12:05",24.01
"2017-09-05 12:10",24.58
"2017-09-05 12:20",24.48
"2017-09-05 12:25",24.31
"2017-09-05 12:40",24.60
"2017-09-05 12:45",24.37
"2017-09-05 12:50",24.22
"2017-09-05 13:00",24.05
"2017-09-05 13:05",23.95
"2017-09-05 13:25",23.83
"2017-09-05 13:55",24.17
"2017-09-05 14:05",24.27
"2017-09-05 14:40",24.39
"2017-09-05 14:45",24.27
"2017-09-05 15:00",24.39
"2017-09-05 15:05",24.27
"2017-09-05 15:10",24.16
"2017-09-05 15:30",24.29
"2017-09-05 15:50",24.67
"2017-09-05 16:00",24.78
"2017-09-05 16:05",24.09
"2017-09-05 16:10",23.87
"2017-09-05 16:20",24.13
"2017-09-05 16:25",24.34
"2017-09-05 16:35",24.54
"2017-09-05 17:00",24.43
"2017-09-05 17:05",23.98
"2017-09-05 17:10",23.87
"2017-09-05 17:15",24.06
"2017-09-05 17:25",24.38
"2017-09-05 17:40",24.28
"2017-09-05 17:45",24.46
"2017-09-05 18:00",24.36
"2017-09-05 18:05",24.12
"2017-09-05 18:25",24.01
"2017-09-05 18:30",23.86
"2017-09-05 19:05",24.84
"2017-09-05 19:10",25.15
"2017-09-05 19:15",24.47
"2017-09-05 19:20",24.22
"2017-09-05 19:30",23.90
"2017-09-05 19:50",23.71
"2017-09-05 20:05",24.04
"2017-09-05 20:10",24.56
"2017-09-05 20:15",23.95
"2017-09-05 20:20",23.51
"2017-09-05 20:25",23.36
"2017-09-05 20:35",23.46
"2017-09-05 20:40",24.12
"2017-09-05 20:55",23.93
"2017-09-05 21:05",24.40
"2017-09-05 21:10",24.59
"2017-09-05 21:15",24.36
"2017-09-05 21:20",24.16
"2017-09-05 21:40",24.05
"2017-09-05 21:45",23.91
"2017-09-05 21:55",23.77
"2017-09-05 22:00",23.54
"2017-09-05 22:05",24.16
"2017-09-05 22:10",24.69
"2017-09-05 22:15",24.50
"2017-09-05 22:25",24.34
"2017-09-05 22:35",24.19
"2017-09-05 22:50",24.08
"2017-09-05 22:55",23.80
"2017-09-05 23:05",23.98
"2017-09-05 23:10",24.54
"2017-09-05 23:25",24.26
"2017-09-05 23:30",24.04
"2017-09-05 23:45",24.33
"2017-09-05 23:55",24.14
"2017-09-06 00:00",24.01
"2017-09-06 00:05",24.22
"2017-09-06 00:10",24.41
"2017-09-06 00:25",24.22
"2017-09-06 00:45",24.37
"2017-09-06 01:05",24.54
"2017-09-06 01:10",24.70
"2017-09-06 01:15",24.48
"2017-09-06 01:25",24.25
"2017-09-06 01:45",24.13
"2017-09-06 02:00",24.25
"2017-09-06 02:50",24.14
"2017-09-06 02:55",24.27
"2017-09-06 03:00",24.06
"2017-09-06 03:55",23.86
"2017-09-06 04:05",23.99
"2017-09-06 04:15",24.22
"2017-09-06 04:25",24.44
"2017-09-06 04:45",24.25
"2017-09-06 05:05",23.95
"2017-09-06 05:10",24.15
"2017-09-06 05:15",24.31
"2017-09-06 05:35",24.18
"2017-09-06 05:45",24.31
"2017-09-06 06:00",24.20
"2017-09-06 06:05",23.91
"2017-09-06 06:15",24.08
"2017-09-06 06:20",24.25
"2017-09-06 06:25",24.07
"2017-09-06 06:40",24.22
"2017-09-06 06:55",24.06
"2017-09-06 07:00",24.23
"2017-09-06 07:05",24.56
"2017-09-06 07:10",24.66
"2017-09-06 07:20",24.95
"2017-09-06 07:25",25.09
"2017-09-06 07:30",24.93
"2017-09-06 07:35",24.82
"2017-09-06 08:10",24.99
"2017-09-06 08:15",24.77
"2017-09-06 08:20",24.63
"2017-09-06 08:25",24.81
"2017-09-06 08:30",24.92
"2017-09-06 08:35",24.81
"2017-09-06 08:50",24.98
"2017-09-06 08:55",24.78
"2017-09-06 09:00",24.60
"2017-09-06 09:05",24.81
"2017-09-06 09:10",25.16
"2017-09-06 09:15",24.88
"2017-09-06 09:20",24.77
