"2017-08-22 08:30",82.58
"2017-08-22 08:35",81.64
"2017-08-22 08:40",80.80
"2017-08-22 08:45",90.84
"2017-08-22 08:50",91.35
"2017-08-22 08:55",91.47
"2017-08-22 09:00",91.13
"2017-08-22 09:05",91.06
"2017-08-22 09:10",90.67
"2017-08-22 09:15",90.98
"2017-08-22 09:20",91.12
"2017-08-22 09:25",91.14
"2017-08-22 09:30",91.27
"2017-08-22 09:35",91.03
"2017-08-22 09:40",91.05
"2017-08-22 09:45",91.22
"2017-08-22 09:50",91.08
"2017-08-22 09:55",90.99
"2017-08-22 10:00",91.03
"2017-08-22 10:05",91.07
"2017-08-22 10:10",91.06
"2017-08-22 10:15",91.05
"2017-08-22 10:20",91.25
"2017-08-22 10:25",91.13
"2017-08-22 10:30",91.23
"2017-08-22 10:35",91.07
"2017-08-22 10:40",91.05
"2017-08-22 10:45",91.07
"2017-08-22 10:50",91.10
"2017-08-22 10:55",91.05
"2017-08-22 11:00",90.98
"2017-08-22 11:05",91.13
"2017-08-22 11:10",91.04
"2017-08-22 11:15",91.03
"2017-08-22 11:20",91.06
"2017-08-22 11:25",90.89
"2017-08-22 11:30",91.08
"2017-08-22 11:35",91.19
"2017-08-22 11:40",90.93
"2017-08-22 11:45",90.95
"2017-08-22 11:50",90.98
"2017-08-22 11:55",90.97
"2017-08-22 12:00",91.01
"2017-08-22 12:05",89.86
"2017-08-22 12:10",89.77
"2017-08-22 12:15",91.03
"2017-08-22 12:20",91.05
"2017-08-22 12:25",91.10
"2017-08-22 12:30",91.05
"2017-08-22 12:35",91.11
"2017-08-22 12:40",91.02
"2017-08-22 12:45",90.90
"2017-08-22 12:50",91.05
"2017-08-22 12:55",91.17
"2017-08-22 13:00",87.82
"2017-08-22 13:05",65.25
"2017-08-22 13:10",66.32
"2017-08-22 13:15",63.91
"2017-08-22 13:20",86.55
"2017-08-22 13:25",91.40
"2017-08-22 13:30",91.28
"2017-08-22 13:35",91.21
"2017-08-22 13:40",91.24
"2017-08-22 13:45",91.00
"2017-08-22 13:50",91.07
"2017-08-22 13:55",90.93
"2017-08-22 14:00",91.12
"2017-08-22 14:05",91.22
"2017-08-22 14:10",91.25
"2017-08-22 14:15",90.94
"2017-08-22 14:20",90.98
"2017-08-22 14:25",91.00
"2017-08-22 14:30",91.06
"2017-08-22 14:35",91.07
"2017-08-22 14:40",90.94
"2017-08-22 14:45",91.01
"2017-08-22 14:50",89.23
"2017-08-22 14:55",84.08
"2017-08-22 15:00",90.93
"2017-08-22 15:05",87.24
"2017-08-22 15:10",66.06
"2017-08-22 15:15",86.08
"2017-08-22 15:20",91.08
"2017-08-22 15:25",91.12
"2017-08-22 15:30",90.36
"2017-08-22 15:35",90.34
"2017-08-22 15:40",91.03
"2017-08-22 15:45",90.92
"2017-08-22 15:50",90.98
"2017-08-22 15:55",90.43
"2017-08-22 16:00",64.58
"2017-08-22 16:05",52.51
"2017-08-22 16:10",55.13
"2017-08-22 16:15",69.28
"2017-08-22 16:20",68.92
"2017-08-22 16:25",64.41
"2017-08-22 16:30",77.49
"2017-08-22 16:35",64.00
"2017-08-22 16:40",61.84
"2017-08-22 16:45",59.60
"2017-08-22 16:50",54.35
"2017-08-22 16:55",52.01
"2017-08-22 17:00",50.62
"2017-08-22 17:05",5.68
"2017-08-22 17:10",0.00
"2017-08-22 18:10",0.00
"2017-08-22 19:10",0.00
"2017-08-22 20:10",0.00
"2017-08-22 21:10",0.00
"2017-08-22 22:10",0.00
"2017-08-22 23:10",0.00
"2017-08-23 00:10",0.00
"2017-08-23 01:10",0.00
"2017-08-23 02:10",0.00
"2017-08-23 03:10",0.00
"2017-08-23 04:10",0.00
"2017-08-23 05:10",0.00
"2017-08-23 06:10",0.00
"2017-08-23 07:00",17.82
"2017-08-23 07:05",90.39
"2017-08-23 07:10",93.34
"2017-08-23 07:15",93.28
"2017-08-23 07:20",93.09
"2017-08-23 07:25",92.93
"2017-08-23 07:30",92.61
"2017-08-23 07:35",92.31
"2017-08-23 07:40",92.13
"2017-08-23 07:45",92.08
"2017-08-23 07:50",91.84
"2017-08-23 07:55",91.70
"2017-08-23 08:00",91.47
"2017-08-23 08:05",84.78
"2017-08-23 08:10",90.63
"2017-08-23 08:15",91.34
"2017-08-23 08:20",91.25
"2017-08-23 08:25",91.16
"2017-08-23 08:30",90.94
"2017-08-23 08:35",91.04
"2017-08-23 08:40",91.07
"2017-08-23 08:45",90.93
"2017-08-23 08:50",91.00
"2017-08-23 08:55",90.90
"2017-08-23 09:00",90.91
"2017-08-23 09:05",90.85
"2017-08-23 09:10",90.88
"2017-08-23 09:15",90.90
"2017-08-23 09:20",90.93
"2017-08-23 09:25",90.59
"2017-08-23 09:30",88.57
"2017-08-23 09:35",90.87
"2017-08-23 09:40",90.86
"2017-08-23 09:45",90.96
"2017-08-23 09:50",90.80
"2017-08-23 09:55",90.67
"2017-08-23 10:00",90.83
"2017-08-23 10:05",90.83
"2017-08-23 10:10",90.81
"2017-08-23 10:15",90.82
"2017-08-23 10:20",90.89
"2017-08-23 10:25",90.86
"2017-08-23 10:30",90.76
"2017-08-23 10:35",90.81
"2017-08-23 10:40",90.77
"2017-08-23 10:45",90.75
"2017-08-23 10:50",90.77
"2017-08-23 10:55",90.68
"2017-08-23 11:00",90.76
"2017-08-23 11:05",90.96
"2017-08-23 11:10",90.82
"2017-08-23 11:15",90.79
"2017-08-23 11:20",90.82
"2017-08-23 11:25",90.65
"2017-08-23 11:30",90.68
"2017-08-23 11:35",90.96
"2017-08-23 11:40",90.86
"2017-08-23 11:45",90.86
"2017-08-23 11:50",90.73
"2017-08-23 11:55",90.83
"2017-08-23 12:00",90.76
"2017-08-23 12:05",90.89
"2017-08-23 12:10",90.83
"2017-08-23 12:15",90.85
"2017-08-23 12:20",90.78
"2017-08-23 12:25",90.81
"2017-08-23 12:30",90.70
"2017-08-23 12:35",90.78
"2017-08-23 12:40",90.86
"2017-08-23 12:45",90.80
"2017-08-23 12:50",90.72
"2017-08-23 12:55",90.62
"2017-08-23 13:00",88.93
"2017-08-23 13:05",19.83
"2017-08-23 13:10",0.00
"2017-08-23 14:10",0.00
"2017-08-23 15:10",0.00
"2017-08-23 16:10",0.00
"2017-08-23 17:10",0.00
"2017-08-23 18:00",14.64
"2017-08-23 18:05",76.94
"2017-08-23 18:10",73.00
"2017-08-23 18:15",92.29
"2017-08-23 18:20",93.39
"2017-08-23 18:25",92.98
"2017-08-23 18:30",92.77
"2017-08-23 18:35",92.72
"2017-08-23 18:40",92.52
"2017-08-23 18:45",92.44
"2017-08-23 18:50",92.20
"2017-08-23 18:55",92.19
"2017-08-23 19:00",92.28
"2017-08-23 19:05",91.98
"2017-08-23 19:10",91.61
"2017-08-23 19:15",92.09
"2017-08-23 19:20",91.86
"2017-08-23 19:25",91.92
"2017-08-23 19:30",91.83
"2017-08-23 19:35",91.70
"2017-08-23 19:40",66.24
"2017-08-23 19:45",61.27
"2017-08-23 19:50",58.81
"2017-08-23 19:55",54.61
"2017-08-23 20:00",51.94
"2017-08-23 20:05",74.87
"2017-08-23 20:10",92.14
"2017-08-23 20:15",76.58
"2017-08-23 20:20",58.57
"2017-08-23 20:25",64.00
"2017-08-23 20:30",81.98
"2017-08-23 20:35",88.83
"2017-08-23 20:40",67.74
"2017-08-23 20:45",53.19
"2017-08-23 20:50",51.28
"2017-08-23 20:55",50.64
"2017-08-23 21:00",41.27
"2017-08-23 21:05",0.91
"2017-08-23 21:10",0.00
"2017-08-23 22:10",0.00
"2017-08-23 23:10",0.00
"2017-08-24 00:10",0.00
"2017-08-24 01:10",0.00
"2017-08-24 02:10",0.00
"2017-08-24 03:10",0.00
"2017-08-24 04:10",0.00
"2017-08-24 05:10",0.00
"2017-08-24 06:10",0.00
"2017-08-24 07:00",19.77
"2017-08-24 07:05",87.21
"2017-08-24 07:10",96.58
"2017-08-24 07:15",96.47
"2017-08-24 07:20",96.59
"2017-08-24 07:25",96.25
"2017-08-24 07:30",96.10
"2017-08-24 07:35",95.86
"2017-08-24 07:40",95.66
"2017-08-24 07:45",95.49
"2017-08-24 07:50",95.22
"2017-08-24 07:55",95.26
"2017-08-24 08:00",94.99
"2017-08-24 08:05",94.91
"2017-08-24 08:10",94.82
"2017-08-24 08:15",94.52
"2017-08-24 08:20",94.49
"2017-08-24 08:25",94.48
"2017-08-24 08:30",94.48
"2017-08-24 08:35",94.34
"2017-08-24 08:40",94.19
"2017-08-24 08:45",77.94
"2017-08-24 08:50",66.63
"2017-08-24 08:55",67.02
"2017-08-24 09:00",83.94
"2017-08-24 09:05",94.20
"2017-08-24 09:10",88.79
"2017-08-24 09:15",87.67
"2017-08-24 09:20",94.16
"2017-08-24 09:25",94.20
"2017-08-24 09:30",94.19
"2017-08-24 09:35",94.16
"2017-08-24 09:40",94.10
"2017-08-24 09:45",94.14
"2017-08-24 09:50",94.08
"2017-08-24 09:55",94.02
"2017-08-24 10:00",94.03
"2017-08-24 10:05",90.34
"2017-08-24 10:10",74.71
"2017-08-24 10:15",77.93
"2017-08-24 10:20",78.77
"2017-08-24 10:25",90.63
"2017-08-24 10:30",81.44
"2017-08-24 10:35",76.36
"2017-08-24 10:40",92.53
"2017-08-24 10:45",94.29
"2017-08-24 10:50",94.21
"2017-08-24 10:55",94.14
"2017-08-24 11:00",94.05
"2017-08-24 11:05",94.11
"2017-08-24 11:10",94.08
"2017-08-24 11:15",94.05
"2017-08-24 11:20",94.12
"2017-08-24 11:25",94.02
"2017-08-24 11:30",93.98
"2017-08-24 11:35",94.07
"2017-08-24 11:40",94.01
"2017-08-24 11:45",93.99
"2017-08-24 11:50",94.08
"2017-08-24 11:55",94.03
"2017-08-24 12:00",94.03
"2017-08-24 12:05",50.63
"2017-08-24 12:10",0.00
"2017-08-24 13:10",0.00
"2017-08-24 14:10",0.00
"2017-08-24 15:10",0.00
"2017-08-24 16:10",0.00
"2017-08-24 17:10",0.00
"2017-08-24 18:10",12.97
"2017-08-24 18:15",30.69
"2017-08-24 18:20",48.53
"2017-08-24 18:25",48.52
"2017-08-24 18:30",48.56
"2017-08-24 18:35",48.51
"2017-08-24 18:40",48.50
"2017-08-24 18:45",48.43
"2017-08-24 18:50",48.26
"2017-08-24 18:55",48.25
"2017-08-24 19:00",48.18
"2017-08-24 19:05",39.08
"2017-08-24 19:10",37.20
"2017-08-24 19:15",47.93
"2017-08-24 19:20",48.06
"2017-08-24 19:25",47.96
"2017-08-24 19:30",47.99
"2017-08-24 19:35",47.95
"2017-08-24 19:40",47.89
"2017-08-24 19:45",47.86
"2017-08-24 19:50",47.68
"2017-08-24 19:55",47.69
"2017-08-24 20:00",40.35
"2017-08-24 20:05",45.94
"2017-08-24 20:10",47.73
"2017-08-24 20:15",47.80
"2017-08-24 20:20",47.79
"2017-08-24 20:25",47.85
"2017-08-24 20:30",47.77
"2017-08-24 20:35",47.77
"2017-08-24 20:40",47.71
"2017-08-24 20:45",47.74
"2017-08-24 20:50",47.72
"2017-08-24 20:55",47.69
"2017-08-24 21:00",47.77
"2017-08-24 21:05",47.67
"2017-08-24 21:10",47.67
"2017-08-24 21:15",47.78
"2017-08-24 21:20",47.76
"2017-08-24 21:25",47.79
"2017-08-24 21:30",47.71
"2017-08-24 21:35",47.76
"2017-08-24 21:40",47.75
"2017-08-24 21:45",47.73
"2017-08-24 21:50",43.45
"2017-08-24 21:55",39.53
"2017-08-24 22:00",32.76
"2017-08-24 22:05",40.06
"2017-08-24 22:10",42.12
"2017-08-24 22:15",46.80
"2017-08-24 22:20",32.66
"2017-08-24 22:25",41.78
"2017-08-24 22:30",47.52
"2017-08-24 22:35",47.81
"2017-08-24 22:40",47.75
"2017-08-24 22:45",41.84
"2017-08-24 22:50",44.31
"2017-08-24 22:55",44.23
"2017-08-24 23:00",44.65
"2017-08-24 23:05",47.56
"2017-08-24 23:10",10.74
"2017-08-24 23:15",0.00
"2017-08-25 00:15",0.00
"2017-08-25 01:15",0.00
"2017-08-25 02:15",0.00
"2017-08-25 03:15",0.00
"2017-08-25 04:15",0.00
"2017-08-25 05:00",28.66
"2017-08-25 05:05",68.28
"2017-08-25 05:10",66.48
"2017-08-25 05:15",75.09
"2017-08-25 05:20",92.34
"2017-08-25 05:25",90.67
"2017-08-25 05:30",91.25
"2017-08-25 05:35",91.68
"2017-08-25 05:40",91.45
"2017-08-25 05:45",91.29
"2017-08-25 05:50",91.00
"2017-08-25 05:55",90.77
"2017-08-25 06:00",90.75
"2017-08-25 06:05",68.68
"2017-08-25 06:10",60.13
"2017-08-25 06:15",79.86
"2017-08-25 06:20",90.93
"2017-08-25 06:25",90.85
"2017-08-25 06:30",90.64
"2017-08-25 06:35",90.89
"2017-08-25 06:40",90.77
"2017-08-25 06:45",90.77
"2017-08-25 06:50",90.76
"2017-08-25 06:55",90.81
"2017-08-25 07:00",90.78
"2017-08-25 07:05",75.48
"2017-08-25 07:10",53.57
"2017-08-25 07:15",78.99
"2017-08-25 07:20",86.69
"2017-08-25 07:25",90.97
"2017-08-25 07:30",91.09
"2017-08-25 07:35",90.84
"2017-08-25 07:40",90.80
"2017-08-25 07:45",90.85
"2017-08-25 07:50",90.75
"2017-08-25 07:55",90.70
"2017-08-25 08:00",90.80
"2017-08-25 08:05",90.75
"2017-08-25 08:10",90.73
"2017-08-25 08:15",90.54
"2017-08-25 08:20",90.58
"2017-08-25 08:25",90.56
"2017-08-25 08:30",90.43
"2017-08-25 08:35",90.54
"2017-08-25 08:40",90.31
"2017-08-25 08:45",90.42
"2017-08-25 08:50",90.43
"2017-08-25 08:55",90.30
"2017-08-25 09:00",90.25
"2017-08-25 09:05",90.24
"2017-08-25 09:10",90.24
"2017-08-25 09:15",90.38
"2017-08-25 09:20",90.35
"2017-08-25 09:25",90.39
"2017-08-25 09:30",90.42
"2017-08-25 09:35",90.40
"2017-08-25 09:40",90.30
"2017-08-25 09:45",90.34
"2017-08-25 09:50",90.25
"2017-08-25 09:55",90.40
"2017-08-25 10:00",90.30
"2017-08-25 10:05",84.93
"2017-08-25 10:10",72.38
"2017-08-25 10:15",88.77
"2017-08-25 10:20",90.51
"2017-08-25 10:25",90.33
"2017-08-25 10:30",90.41
"2017-08-25 10:35",90.28
"2017-08-25 10:40",90.23
"2017-08-25 10:45",90.28
"2017-08-25 10:50",90.25
"2017-08-25 10:55",90.36
"2017-08-25 11:00",90.33
"2017-08-25 11:05",81.14
"2017-08-25 11:10",30.20
"2017-08-25 11:15",0.13
"2017-08-25 11:20",0.00
"2017-08-25 12:20",0.00
"2017-08-25 13:20",0.00
"2017-08-25 14:20",0.00
"2017-08-25 15:20",0.00
"2017-08-25 16:20",0.00
"2017-08-25 17:20",0.00
"2017-08-25 18:10",6.35
"2017-08-25 18:15",25.37
"2017-08-25 18:20",26.15
"2017-08-25 18:25",25.96
"2017-08-25 18:30",25.92
"2017-08-25 18:35",25.90
"2017-08-25 18:40",25.86
"2017-08-25 18:45",29.01
"2017-08-25 18:50",35.55
"2017-08-25 18:55",35.73
"2017-08-25 19:00",35.67
"2017-08-25 19:05",35.84
"2017-08-25 19:10",35.93
"2017-08-25 19:15",35.71
"2017-08-25 19:20",35.86
"2017-08-25 19:25",36.01
"2017-08-25 19:30",35.78
"2017-08-25 19:35",35.75
"2017-08-25 19:40",35.59
"2017-08-25 19:45",35.50
"2017-08-25 19:50",35.72
"2017-08-25 19:55",35.59
"2017-08-25 20:00",35.63
"2017-08-25 20:05",35.56
"2017-08-25 20:10",35.60
"2017-08-25 20:15",35.71
"2017-08-25 20:20",35.67
"2017-08-25 20:25",35.54
"2017-08-25 20:30",35.48
"2017-08-25 20:35",35.53
"2017-08-25 20:40",35.55
"2017-08-25 20:45",35.46
"2017-08-25 20:50",35.52
"2017-08-25 20:55",36.69
"2017-08-25 21:00",35.69
"2017-08-25 21:05",7.45
"2017-08-25 21:10",0.00
"2017-08-25 22:10",0.00
"2017-08-25 23:10",0.00
"2017-08-26 00:10",0.00
"2017-08-26 01:10",0.00
"2017-08-26 02:10",0.00
"2017-08-26 03:10",0.00
"2017-08-26 04:10",0.00
"2017-08-26 05:10",0.00
"2017-08-26 06:10",0.00
"2017-08-26 07:10",0.00
"2017-08-26 08:10",0.00
"2017-08-26 09:10",0.00
"2017-08-26 10:10",0.00
"2017-08-26 11:10",0.00
"2017-08-26 12:10",0.00
"2017-08-26 13:10",0.00
"2017-08-26 14:10",0.00
"2017-08-26 15:10",0.00
"2017-08-26 16:10",0.00
"2017-08-26 17:10",0.00
"2017-08-26 18:00",17.29
"2017-08-26 18:05",31.33
"2017-08-26 18:10",32.57
"2017-08-26 18:15",40.30
"2017-08-26 18:20",40.95
"2017-08-26 18:25",45.41
"2017-08-26 18:30",41.71
"2017-08-26 18:35",47.40
"2017-08-26 18:40",56.77
"2017-08-26 18:45",81.98
"2017-08-26 18:50",95.04
"2017-08-26 18:55",95.59
"2017-08-26 19:00",91.56
"2017-08-26 19:05",93.19
"2017-08-26 19:10",83.44
"2017-08-26 19:15",71.41
"2017-08-26 19:20",93.57
"2017-08-26 19:25",89.46
"2017-08-26 19:30",49.08
"2017-08-26 19:35",47.84
"2017-08-26 19:40",47.90
"2017-08-26 19:45",32.68
"2017-08-26 19:50",31.97
"2017-08-26 19:55",30.03
"2017-08-26 20:00",41.72
"2017-08-26 20:05",48.18
"2017-08-26 20:10",47.91
"2017-08-26 20:15",28.35
"2017-08-26 20:20",23.55
"2017-08-26 20:25",26.02
"2017-08-26 20:30",26.72
"2017-08-26 20:35",26.96
"2017-08-26 20:40",27.22
"2017-08-26 20:45",27.98
"2017-08-26 20:50",26.77
"2017-08-26 20:55",27.07
"2017-08-26 21:00",41.81
"2017-08-26 21:05",19.51
"2017-08-26 21:10",0.00
"2017-08-26 22:10",0.00
"2017-08-26 23:10",0.00
"2017-08-27 00:10",0.00
"2017-08-27 01:10",0.00
"2017-08-27 02:10",0.00
"2017-08-27 03:10",0.00
"2017-08-27 04:10",0.00
"2017-08-27 05:10",0.00
"2017-08-27 06:10",0.00
"2017-08-27 07:10",0.00
"2017-08-27 08:10",0.00
"2017-08-27 09:10",0.00
"2017-08-27 10:10",0.00
"2017-08-27 11:10",0.00
"2017-08-27 11:30",0.00
"2017-08-27 12:30",0.00
"2017-08-27 13:30",0.00
"2017-08-27 14:30",0.00
"2017-08-27 15:30",0.00
"2017-08-27 16:30",0.00
"2017-08-27 17:30",0.00
"2017-08-27 18:30",0.00
"2017-08-27 19:00",23.81
"2017-08-27 19:05",47.20
"2017-08-27 19:10",48.52
"2017-08-27 19:15",48.52
"2017-08-27 19:20",42.78
"2017-08-27 19:25",32.62
"2017-08-27 19:30",43.25
"2017-08-27 19:35",48.46
"2017-08-27 19:40",48.49
"2017-08-27 19:45",48.53
"2017-08-27 19:50",48.38
"2017-08-27 19:55",46.85
"2017-08-27 20:00",26.48
"2017-08-27 20:05",40.76
"2017-08-27 20:10",45.84
"2017-08-27 20:15",29.34
"2017-08-27 20:20",31.23
"2017-08-27 20:25",33.99
"2017-08-27 20:30",28.51
"2017-08-27 20:35",40.78
"2017-08-27 20:40",31.87
"2017-08-27 20:45",29.22
"2017-08-27 20:50",30.89
"2017-08-27 20:55",26.18
"2017-08-27 21:00",25.83
"2017-08-27 21:05",25.66
"2017-08-27 21:10",26.43
"2017-08-27 21:15",26.72
"2017-08-27 21:20",27.93
"2017-08-27 21:25",26.68
"2017-08-27 21:30",25.92
"2017-08-27 21:35",25.61
"2017-08-27 21:40",25.60
"2017-08-27 21:45",25.35
"2017-08-27 21:50",25.36
"2017-08-27 21:55",25.60
"2017-08-27 22:00",25.53
"2017-08-27 22:05",39.30
"2017-08-27 22:10",48.05
"2017-08-27 22:15",48.04
"2017-08-27 22:20",16.29
"2017-08-27 22:25",0.00
"2017-08-27 22:35",63.30
"2017-08-27 22:40",86.68
"2017-08-27 22:45",71.02
"2017-08-27 22:50",75.35
"2017-08-27 22:55",91.00
"2017-08-27 23:00",77.40
"2017-08-27 23:05",35.58
"2017-08-27 23:10",0.00
"2017-08-28 00:10",0.00
"2017-08-28 01:10",0.00
"2017-08-28 02:10",0.00
"2017-08-28 03:10",0.00
"2017-08-28 03:30",0.00
"2017-08-28 04:30",0.00
"2017-08-28 05:30",0.00
"2017-08-28 06:30",0.00
"2017-08-28 07:30",0.00
"2017-08-28 08:30",0.00
"2017-08-28 09:30",0.00
"2017-08-28 10:00",12.76
"2017-08-28 10:05",25.94
"2017-08-28 10:10",35.18
"2017-08-28 10:15",53.08
"2017-08-28 10:20",53.82
"2017-08-28 10:25",52.56
"2017-08-28 10:30",52.41
"2017-08-28 10:35",51.62
"2017-08-28 10:40",51.42
"2017-08-28 10:45",51.23
"2017-08-28 10:50",53.84
"2017-08-28 10:55",82.62
"2017-08-28 11:00",88.12
"2017-08-28 11:05",88.93
"2017-08-28 11:10",88.95
"2017-08-28 11:15",88.96
"2017-08-28 11:20",88.92
"2017-08-28 11:25",88.88
"2017-08-28 11:30",83.41
"2017-08-28 11:35",81.75
"2017-08-28 11:40",81.63
"2017-08-28 11:45",81.37
"2017-08-28 11:50",81.46
"2017-08-28 11:55",81.40
"2017-08-28 12:00",81.21
"2017-08-28 12:05",81.23
"2017-08-28 12:10",81.17
"2017-08-28 12:15",81.07
"2017-08-28 12:20",81.24
"2017-08-28 12:25",83.14
"2017-08-28 12:30",90.03
"2017-08-28 12:35",70.33
"2017-08-28 12:40",58.30
"2017-08-28 12:45",57.88
"2017-08-28 12:50",57.76
"2017-08-28 12:55",57.63
"2017-08-28 13:00",57.58
"2017-08-28 13:05",57.64
"2017-08-28 13:10",57.57
"2017-08-28 13:15",57.78
"2017-08-28 13:20",57.32
"2017-08-28 13:25",57.29
"2017-08-28 13:30",57.40
"2017-08-28 13:35",57.46
"2017-08-28 13:40",57.34
"2017-08-28 13:45",57.55
"2017-08-28 13:50",57.66
"2017-08-28 13:55",57.46
"2017-08-28 14:00",57.45
"2017-08-28 14:05",57.39
"2017-08-28 14:10",57.72
"2017-08-28 14:15",57.64
"2017-08-28 14:20",57.50
"2017-08-28 14:25",57.57
"2017-08-28 14:30",57.89
"2017-08-28 14:35",57.42
"2017-08-28 14:40",57.52
"2017-08-28 14:45",57.75
"2017-08-28 14:50",57.67
"2017-08-28 14:55",57.83
"2017-08-28 15:00",57.65
"2017-08-28 15:05",57.78
"2017-08-28 15:10",57.64
"2017-08-28 15:15",57.82
"2017-08-28 15:20",57.56
"2017-08-28 15:25",57.84
"2017-08-28 15:30",57.23
"2017-08-28 15:35",55.96
"2017-08-28 15:40",58.80
"2017-08-28 15:45",55.47
"2017-08-28 15:50",75.84
"2017-08-28 15:55",90.98
"2017-08-28 16:00",90.94
"2017-08-28 16:05",80.79
"2017-08-28 16:10",57.75
"2017-08-28 16:15",51.25
"2017-08-28 16:20",81.05
"2017-08-28 16:25",63.25
"2017-08-28 16:30",89.42
"2017-08-28 16:35",69.97
"2017-08-28 16:40",88.61
"2017-08-28 16:45",90.47
"2017-08-28 16:50",90.45
"2017-08-28 16:55",83.07
"2017-08-28 17:00",86.63
"2017-08-28 17:05",6.54
"2017-08-28 17:10",0.00
"2017-08-28 18:10",0.00
"2017-08-28 19:00",8.56
"2017-08-28 19:05",34.31
"2017-08-28 19:10",48.12
"2017-08-28 19:15",62.03
"2017-08-28 19:20",81.30
"2017-08-28 19:25",89.10
"2017-08-28 19:30",90.47
"2017-08-28 19:35",91.60
"2017-08-28 19:40",87.55
"2017-08-28 19:45",87.52
"2017-08-28 19:50",78.07
"2017-08-28 19:55",72.29
"2017-08-28 20:00",53.70
"2017-08-28 20:05",64.59
"2017-08-28 20:10",90.55
"2017-08-28 20:15",91.15
"2017-08-28 20:20",101.15
"2017-08-28 20:25",112.84
"2017-08-28 20:30",69.64
"2017-08-28 20:35",59.39
"2017-08-28 20:40",53.37
"2017-08-28 20:45",52.90
"2017-08-28 20:50",57.09
"2017-08-28 20:55",53.07
"2017-08-28 21:00",51.11
"2017-08-28 21:05",58.19
"2017-08-28 21:10",71.65
"2017-08-28 21:15",75.74
"2017-08-28 21:20",85.45
"2017-08-28 21:25",90.35
"2017-08-28 21:30",60.68
"2017-08-28 21:35",63.17
"2017-08-28 21:40",85.83
"2017-08-28 21:45",90.74
"2017-08-28 21:50",78.56
"2017-08-28 21:55",64.68
"2017-08-28 22:00",56.99
"2017-08-28 22:05",62.02
"2017-08-28 22:10",90.00
"2017-08-28 22:15",90.62
"2017-08-28 22:20",90.30
"2017-08-28 22:25",90.20
"2017-08-28 22:30",90.23
"2017-08-28 22:35",90.21
"2017-08-28 22:40",90.18
"2017-08-28 22:45",85.47
"2017-08-28 22:50",90.16
"2017-08-28 22:55",90.23
"2017-08-28 23:00",90.20
"2017-08-28 23:05",90.25
"2017-08-28 23:10",90.21
"2017-08-28 23:15",90.15
"2017-08-28 23:20",90.06
"2017-08-28 23:25",90.25
"2017-08-28 23:30",90.20
"2017-08-28 23:35",90.10
"2017-08-28 23:40",90.17
"2017-08-28 23:45",90.12
"2017-08-28 23:50",90.08
"2017-08-28 23:55",90.19
"2017-08-29 00:00",88.80
"2017-08-29 00:05",89.88
"2017-08-29 00:10",86.50
"2017-08-29 00:15",77.46
"2017-08-29 00:20",80.24
"2017-08-29 00:25",90.24
"2017-08-29 00:30",90.19
"2017-08-29 00:35",77.99
"2017-08-29 00:40",52.49
"2017-08-29 00:45",50.18
"2017-08-29 00:50",55.86
"2017-08-29 00:55",58.93
"2017-08-29 01:00",66.13
"2017-08-29 01:05",65.24
"2017-08-29 01:10",30.15
"2017-08-29 01:15",0.00
"2017-08-29 02:15",0.00
"2017-08-29 03:15",0.00
"2017-08-29 04:00",11.55
"2017-08-29 04:05",44.17
"2017-08-29 04:10",48.35
"2017-08-29 04:15",48.24
"2017-08-29 04:20",26.70
"2017-08-29 04:25",41.52
"2017-08-29 04:30",44.78
"2017-08-29 04:35",44.86
"2017-08-29 04:40",44.65
"2017-08-29 04:45",44.63
"2017-08-29 04:50",44.55
"2017-08-29 04:55",44.48
"2017-08-29 05:00",44.45
"2017-08-29 05:05",43.48
"2017-08-29 05:10",44.10
"2017-08-29 05:15",44.12
"2017-08-29 05:20",39.11
"2017-08-29 05:25",44.36
"2017-08-29 05:30",44.34
"2017-08-29 05:35",44.85
"2017-08-29 05:40",68.00
"2017-08-29 05:45",72.87
"2017-08-29 05:50",90.43
"2017-08-29 05:55",65.56
"2017-08-29 06:00",85.08
"2017-08-29 06:05",70.72
"2017-08-29 06:10",51.21
"2017-08-29 06:15",69.73
"2017-08-29 06:20",90.96
