"2016-06-02 17:00",0.00
"2016-06-02 18:00",0.00
"2016-06-02 19:00",0.00
"2016-06-02 20:00",0.00
"2016-06-02 21:00",0.00
"2016-06-02 22:00",0.00
"2016-06-02 23:00",0.00
"2016-06-03 00:00",0.00
"2016-06-03 01:00",0.00
"2016-06-03 02:00",0.00
"2016-06-03 03:00",0.00
"2016-06-03 04:00",0.00
"2016-06-03 05:00",0.00
"2016-06-03 06:00",0.00
"2016-06-03 07:00",0.00
"2016-06-03 08:00",0.00
"2016-06-03 09:00",0.00
"2016-06-03 10:00",0.00
"2016-06-03 11:00",0.00
"2016-06-03 12:00",0.00
"2016-06-03 13:00",0.00
"2016-06-03 14:00",0.00
"2016-06-03 15:00",0.00
"2016-06-03 16:00",0.00
"2016-06-03 17:00",0.00
"2016-06-03 18:00",0.00
"2016-06-03 19:00",0.00
"2016-06-03 20:00",0.00
"2016-06-03 21:00",0.00
"2016-06-03 22:00",0.00
"2016-06-03 23:00",0.00
"2016-06-04 00:00",0.00
"2016-06-04 01:00",0.00
"2016-06-04 02:05",0.00
"2016-06-04 03:05",0.00
"2016-06-04 04:05",0.00
"2016-06-04 05:05",0.00
"2016-06-04 06:05",0.00
"2016-06-04 07:05",0.00
"2016-06-04 08:05",0.00
"2016-06-04 09:05",0.00
"2016-06-04 10:05",0.00
"2016-06-04 11:05",0.00
"2016-06-04 12:05",0.00
"2016-06-04 13:05",0.00
"2016-06-04 14:05",0.00
"2016-06-04 15:05",0.00
"2016-06-04 16:05",0.00
"2016-06-04 17:05",0.00
"2016-06-04 18:05",0.00
"2016-06-04 19:05",0.00
"2016-06-04 20:05",0.00
"2016-06-04 21:05",0.00
"2016-06-04 22:05",0.00
"2016-06-04 23:05",0.00
"2016-06-05 00:05",0.00
"2016-06-05 01:05",0.00
"2016-06-05 02:05",0.00
"2016-06-05 03:05",0.00
"2016-06-05 04:05",0.00
"2016-06-05 05:05",0.00
"2016-06-05 06:05",0.00
"2016-06-05 07:05",0.00
"2016-06-05 08:05",0.00
"2016-06-05 09:05",0.00
"2016-06-05 10:05",0.00
"2016-06-05 11:05",0.00
"2016-06-05 12:05",0.00
"2016-06-05 13:05",0.00
"2016-06-05 14:05",0.00
"2016-06-05 15:05",0.00
"2016-06-05 16:05",0.00
"2016-06-05 17:05",0.00
"2016-06-05 18:05",0.00
"2016-06-05 19:05",0.00
"2016-06-05 20:05",0.00
"2016-06-05 21:05",0.00
"2016-06-05 22:05",0.00
"2016-06-05 23:05",0.00
"2016-06-06 00:05",0.00
"2016-06-06 01:10",0.00
"2016-06-06 02:10",0.00
"2016-06-06 03:10",0.00
"2016-06-06 04:10",0.00
"2016-06-06 05:10",0.00
"2016-06-06 06:10",0.00
"2016-06-06 07:10",0.00
"2016-06-06 08:10",0.00
"2016-06-06 09:10",0.00
"2016-06-06 10:10",0.00
"2016-06-06 11:10",0.00
"2016-06-06 12:10",0.00
"2016-06-06 13:10",0.00
"2016-06-06 14:10",0.00
"2016-06-06 15:10",0.00
"2016-06-06 16:10",0.00
"2016-06-06 17:10",0.00
"2016-06-06 18:10",0.00
"2016-06-06 19:10",0.00
"2016-06-06 20:10",0.00
"2016-06-06 21:10",0.00
"2016-06-06 22:10",0.00
"2016-06-06 23:10",0.00
"2016-06-07 00:10",0.00
"2016-06-07 01:10",0.00
"2016-06-07 02:10",0.00
"2016-06-07 03:10",0.00
"2016-06-07 04:10",0.00
"2016-06-07 05:10",0.00
"2016-06-07 06:10",0.00
"2016-06-07 07:10",0.00
"2016-06-07 08:10",0.00
"2016-06-07 09:10",0.00
"2016-06-07 10:10",0.00
"2016-06-07 11:10",0.00
"2016-06-07 12:10",0.00
"2016-06-07 13:10",0.00
"2016-06-07 14:10",0.00
"2016-06-07 15:10",0.00
"2016-06-07 16:10",0.00
"2016-06-07 17:10",0.00
"2016-06-07 18:10",0.00
"2016-06-07 19:10",0.00
"2016-06-07 20:10",0.00
"2016-06-07 21:10",0.00
"2016-06-07 22:10",0.00
"2016-06-07 23:10",0.00
"2016-06-08 00:10",0.00
"2016-06-08 01:10",0.00
"2016-06-08 02:10",0.00
"2016-06-08 03:10",0.00
"2016-06-08 04:10",0.00
"2016-06-08 05:10",0.00
"2016-06-08 06:10",0.00
"2016-06-08 07:10",0.00
"2016-06-08 08:10",0.00
"2016-06-08 09:10",0.00
"2016-06-08 10:10",0.00
"2016-06-08 11:10",0.00
"2016-06-08 12:10",0.00
"2016-06-08 13:10",0.00
"2016-06-08 14:10",0.00
"2016-06-08 15:10",0.00
"2016-06-08 16:10",0.00
"2016-06-08 17:10",0.00
"2016-06-08 18:10",0.00
"2016-06-08 19:10",0.00
"2016-06-08 20:10",0.00
"2016-06-08 21:10",0.00
"2016-06-08 22:10",0.00
"2016-06-08 23:10",0.00
"2016-06-09 00:10",0.00
"2016-06-09 01:10",0.00
"2016-06-09 02:10",0.00
"2016-06-09 03:10",0.00
"2016-06-09 04:10",0.00
"2016-06-09 05:10",0.00
"2016-06-09 06:10",0.00
"2016-06-09 07:10",0.00
"2016-06-09 08:10",0.00
"2016-06-09 09:10",0.00
"2016-06-09 10:10",0.00
"2016-06-09 11:10",0.00
"2016-06-09 12:10",0.00
"2016-06-09 13:10",0.00
"2016-06-09 14:10",0.00
