"2018-03-08 09:55",0.00
"2018-03-08 10:55",0.00
"2018-03-08 11:55",0.00
"2018-03-08 12:55",0.00
"2018-03-08 13:55",0.00
"2018-03-08 14:55",0.00
"2018-03-08 15:55",0.00
"2018-03-08 16:55",0.00
"2018-03-08 17:55",0.00
"2018-03-08 18:55",0.00
"2018-03-08 19:55",0.00
"2018-03-08 20:55",0.00
"2018-03-08 21:55",0.00
"2018-03-08 22:55",0.00
"2018-03-08 23:55",0.00
"2018-03-09 00:55",0.00
"2018-03-09 01:55",0.00
"2018-03-09 02:55",0.00
"2018-03-09 03:55",0.00
"2018-03-09 04:55",0.00
"2018-03-09 05:55",0.00
"2018-03-09 06:55",0.00
"2018-03-09 07:55",0.00
"2018-03-09 08:55",0.00
"2018-03-09 09:55",0.00
"2018-03-09 10:55",0.00
"2018-03-09 11:55",0.00
"2018-03-09 12:55",0.00
"2018-03-09 13:55",0.00
"2018-03-09 14:55",0.00
"2018-03-09 15:55",0.00
"2018-03-09 16:55",0.00
"2018-03-09 17:55",0.00
"2018-03-09 18:55",0.00
"2018-03-09 19:55",0.00
"2018-03-09 20:55",0.00
"2018-03-09 21:55",0.00
"2018-03-09 22:55",0.00
"2018-03-09 23:55",0.00
"2018-03-10 00:55",0.00
"2018-03-10 01:55",0.00
"2018-03-10 02:55",0.00
"2018-03-10 03:55",0.00
"2018-03-10 04:55",0.00
"2018-03-10 05:55",0.00
"2018-03-10 06:55",0.00
"2018-03-10 07:55",0.00
"2018-03-10 08:55",0.00
"2018-03-10 09:55",0.00
"2018-03-10 10:55",0.00
"2018-03-10 11:55",0.00
"2018-03-10 12:55",0.00
"2018-03-10 13:55",0.00
"2018-03-10 14:55",0.00
"2018-03-10 15:55",0.00
"2018-03-10 16:55",0.00
"2018-03-10 17:55",0.00
"2018-03-10 18:55",0.00
"2018-03-10 19:55",0.00
"2018-03-10 20:55",0.00
"2018-03-10 21:55",0.00
"2018-03-10 22:55",0.00
"2018-03-10 23:55",0.00
"2018-03-11 00:55",0.00
"2018-03-11 01:55",0.00
"2018-03-11 02:55",0.00
"2018-03-11 03:55",0.00
"2018-03-11 04:55",0.00
"2018-03-11 05:55",0.00
"2018-03-11 06:55",0.00
"2018-03-11 07:55",0.00
"2018-03-11 08:55",0.00
"2018-03-11 09:55",0.00
"2018-03-11 10:55",0.00
"2018-03-11 11:55",0.00
"2018-03-11 12:55",0.00
"2018-03-11 13:55",0.00
"2018-03-11 14:55",0.00
"2018-03-11 15:55",0.00
"2018-03-11 16:55",0.00
"2018-03-11 17:55",0.00
"2018-03-11 18:55",0.00
"2018-03-11 19:55",0.00
"2018-03-11 20:55",0.00
"2018-03-11 21:55",0.00
"2018-03-11 22:55",0.00
"2018-03-11 23:55",0.00
"2018-03-12 00:55",0.00
"2018-03-12 01:55",0.00
"2018-03-12 02:55",0.00
"2018-03-12 03:55",0.00
"2018-03-12 04:55",0.00
"2018-03-12 05:55",0.00
"2018-03-12 06:55",0.00
"2018-03-12 07:55",0.00
"2018-03-12 08:55",0.00
"2018-03-12 09:55",0.00
"2018-03-12 10:55",0.00
"2018-03-12 11:55",0.00
"2018-03-12 12:55",0.00
"2018-03-12 13:55",0.00
"2018-03-12 14:55",0.00
"2018-03-12 15:55",0.00
"2018-03-12 16:55",0.00
"2018-03-12 17:55",0.00
"2018-03-12 18:55",0.00
"2018-03-12 19:55",0.00
"2018-03-12 20:55",0.00
"2018-03-12 21:55",0.00
"2018-03-12 22:55",0.00
"2018-03-12 23:55",0.00
"2018-03-13 00:55",0.00
"2018-03-13 01:55",0.00
"2018-03-13 02:55",0.00
"2018-03-13 03:55",0.00
"2018-03-13 04:55",0.00
"2018-03-13 05:55",0.00
"2018-03-13 06:55",0.00
"2018-03-13 07:55",0.00
"2018-03-13 08:55",0.00
"2018-03-13 09:55",0.00
"2018-03-13 10:55",0.00
"2018-03-13 11:55",0.00
"2018-03-13 12:55",0.00
"2018-03-13 13:55",0.00
"2018-03-13 14:55",0.00
"2018-03-13 15:55",0.00
"2018-03-13 16:55",0.00
"2018-03-13 17:55",0.00
"2018-03-13 18:55",0.00
"2018-03-13 19:55",0.00
"2018-03-13 20:55",0.00
"2018-03-13 21:55",0.00
"2018-03-13 22:55",0.00
"2018-03-13 23:55",0.00
"2018-03-14 00:55",0.00
"2018-03-14 01:55",0.00
"2018-03-14 02:55",0.00
"2018-03-14 03:55",0.00
"2018-03-14 04:55",0.00
"2018-03-14 05:55",0.00
"2018-03-14 06:55",0.00
"2018-03-14 07:55",0.00
"2018-03-14 08:55",0.00
"2018-03-14 09:55",0.00
"2018-03-14 10:55",0.00
"2018-03-14 11:55",0.00
"2018-03-14 12:55",0.00
"2018-03-14 13:55",0.00
"2018-03-14 14:55",0.00
"2018-03-14 15:55",0.00
"2018-03-14 16:55",1.15
"2018-03-14 17:15",2.23
"2018-03-14 17:30",3.82
"2018-03-14 17:45",5.06
"2018-03-14 18:00",6.29
"2018-03-14 18:10",7.40
"2018-03-14 18:20",8.60
"2018-03-14 18:35",10.40
"2018-03-14 18:45",11.48
"2018-03-14 19:00",12.80
"2018-03-14 19:10",13.97
"2018-03-14 19:25",15.05
"2018-03-14 19:40",16.24
"2018-03-14 19:55",17.35
"2018-03-14 20:15",18.96
"2018-03-14 20:45",20.31
"2018-03-14 21:25",21.65
"2018-03-14 22:25",22.32
"2018-03-14 23:25",21.65
"2018-03-15 00:25",20.98
"2018-03-15 01:05",19.78
"2018-03-15 02:05",18.96
"2018-03-15 02:40",17.75
"2018-03-15 03:40",16.95
"2018-03-15 04:20",15.88
"2018-03-15 05:20",15.17
"2018-03-15 06:20",13.98
"2018-03-15 07:20",13.39
