"2018-03-28 09:30",36.46
"2018-03-28 09:45",36.46
"2018-03-28 10:00",36.43
"2018-03-28 10:15",36.43
"2018-03-28 10:30",36.43
"2018-03-28 10:45",36.43
"2018-03-28 11:00",36.43
"2018-03-28 11:15",36.44
"2018-03-28 11:30",36.46
"2018-03-28 11:45",36.46
"2018-03-28 12:00",36.46
"2018-03-28 12:15",36.46
"2018-03-28 12:30",36.46
"2018-03-28 12:45",36.43
"2018-03-28 13:00",36.43
"2018-03-28 13:15",36.43
"2018-03-28 13:30",36.43
"2018-03-28 13:45",36.43
"2018-03-28 14:00",36.43
"2018-03-28 14:15",36.43
"2018-03-28 14:30",36.42
"2018-03-28 14:45",36.40
"2018-03-28 15:00",36.40
"2018-03-28 15:15",36.40
"2018-03-28 15:30",36.40
"2018-03-28 15:45",36.40
"2018-03-28 16:00",36.40
"2018-03-28 16:15",36.40
"2018-03-28 16:30",36.37
"2018-03-28 16:45",36.36
"2018-03-28 17:00",36.36
"2018-03-28 17:15",36.36
"2018-03-28 17:30",36.36
"2018-03-28 17:45",36.36
"2018-03-28 18:00",36.36
"2018-03-28 18:15",36.35
"2018-03-28 18:30",36.33
"2018-03-28 18:45",36.33
"2018-03-28 19:00",36.33
"2018-03-28 19:15",36.33
"2018-03-28 19:30",36.33
"2018-03-28 19:45",36.33
"2018-03-28 20:00",36.33
"2018-03-28 20:15",36.32
"2018-03-28 20:30",36.30
"2018-03-28 20:45",36.30
"2018-03-28 21:00",36.30
"2018-03-28 21:15",36.30
"2018-03-28 21:30",36.27
"2018-03-28 21:45",36.26
"2018-03-28 22:00",36.26
"2018-03-28 22:15",36.26
"2018-03-28 22:30",36.26
"2018-03-28 22:45",36.26
"2018-03-28 23:00",36.26
"2018-03-28 23:15",36.23
"2018-03-28 23:30",36.23
"2018-03-28 23:45",36.23
"2018-03-29 00:00",36.23
"2018-03-29 00:15",36.23
"2018-03-29 00:30",36.21
"2018-03-29 00:45",36.20
"2018-03-29 01:00",36.20
"2018-03-29 01:15",36.20
"2018-03-29 01:30",36.20
"2018-03-29 01:45",36.18
"2018-03-29 02:00",36.16
"2018-03-29 02:15",36.16
"2018-03-29 02:30",36.16
"2018-03-29 02:45",36.16
"2018-03-29 03:00",36.16
"2018-03-29 03:15",36.16
"2018-03-29 03:30",36.13
"2018-03-29 03:45",36.13
"2018-03-29 04:00",36.13
"2018-03-29 04:15",36.13
"2018-03-29 04:30",36.10
"2018-03-29 04:45",36.10
"2018-03-29 05:00",36.10
"2018-03-29 05:15",36.10
"2018-03-29 05:30",36.10
"2018-03-29 05:45",36.10
"2018-03-29 06:00",36.10
"2018-03-29 06:15",36.10
"2018-03-29 06:30",36.07
"2018-03-29 06:45",36.06
"2018-03-29 07:00",36.06
"2018-03-29 07:15",36.06
"2018-03-29 07:30",36.06
"2018-03-29 07:45",36.06
"2018-03-29 08:00",36.06
"2018-03-29 08:15",36.06
"2018-03-29 08:30",36.05
"2018-03-29 08:45",36.03
"2018-03-29 09:00",36.03
"2018-03-29 09:15",36.03
"2018-03-29 09:30",36.03
"2018-03-29 09:45",36.03
"2018-03-29 10:00",36.00
"2018-03-29 10:15",35.99
"2018-03-29 10:30",35.99
"2018-03-29 10:45",35.99
"2018-03-29 11:00",35.99
"2018-03-29 11:15",35.99
"2018-03-29 11:30",35.99
"2018-03-29 11:45",35.99
"2018-03-29 12:00",35.99
"2018-03-29 12:15",35.96
"2018-03-29 12:30",35.96
"2018-03-29 12:45",35.96
"2018-03-29 13:00",35.96
"2018-03-29 13:15",35.96
"2018-03-29 13:30",35.96
"2018-03-29 13:45",35.96
"2018-03-29 14:00",35.94
"2018-03-29 14:15",35.93
"2018-03-29 14:30",35.93
"2018-03-29 14:45",35.93
"2018-03-29 15:00",35.93
"2018-03-29 15:15",35.93
"2018-03-29 15:30",35.93
"2018-03-29 15:45",35.92
"2018-03-29 16:00",35.90
"2018-03-29 16:15",35.90
"2018-03-29 16:30",35.90
"2018-03-29 16:45",35.90
"2018-03-29 17:00",35.89
"2018-03-29 17:15",35.86
"2018-03-29 17:30",35.86
"2018-03-29 17:45",35.86
"2018-03-29 18:00",35.86
"2018-03-29 18:15",35.86
"2018-03-29 18:30",35.86
"2018-03-29 18:45",35.86
"2018-03-29 19:00",35.86
"2018-03-29 19:15",35.86
"2018-03-29 19:30",35.83
"2018-03-29 19:45",35.83
"2018-03-29 20:00",35.83
"2018-03-29 20:15",35.83
"2018-03-29 20:30",35.83
"2018-03-29 20:45",35.83
"2018-03-29 21:00",35.80
"2018-03-29 21:15",35.80
"2018-03-29 21:30",35.80
"2018-03-29 21:45",35.80
"2018-03-29 22:00",35.80
"2018-03-29 22:15",35.80
"2018-03-29 22:30",35.77
"2018-03-29 22:45",35.76
"2018-03-29 23:00",35.76
"2018-03-29 23:15",35.76
"2018-03-29 23:30",35.76
"2018-03-29 23:45",35.75
"2018-03-30 00:00",35.73
"2018-03-30 00:15",35.73
"2018-03-30 00:30",35.73
"2018-03-30 00:45",35.73
"2018-03-30 01:00",35.73
"2018-03-30 01:15",35.73
"2018-03-30 01:30",35.73
"2018-03-30 01:45",35.70
"2018-03-30 02:00",35.70
"2018-03-30 02:15",35.70
"2018-03-30 02:30",35.70
"2018-03-30 02:45",35.70
"2018-03-30 03:00",35.68
"2018-03-30 03:15",35.66
"2018-03-30 03:30",35.66
"2018-03-30 03:45",35.66
"2018-03-30 04:00",35.66
"2018-03-30 04:15",35.66
"2018-03-30 04:30",35.66
"2018-03-30 04:45",35.66
"2018-03-30 05:00",35.66
"2018-03-30 05:15",35.66
"2018-03-30 05:30",35.64
"2018-03-30 05:45",35.63
"2018-03-30 06:00",35.63
"2018-03-30 06:15",35.63
"2018-03-30 06:30",35.63
"2018-03-30 06:45",35.63
"2018-03-30 07:00",35.63
"2018-03-30 07:15",35.62
"2018-03-30 07:30",35.59
"2018-03-30 07:45",35.59
"2018-03-30 08:00",35.59
"2018-03-30 08:15",35.58
"2018-03-30 08:30",35.56
"2018-03-30 08:45",35.56
"2018-03-30 09:00",35.56
"2018-03-30 09:15",35.56
"2018-03-30 09:30",35.56
"2018-03-30 09:45",35.55
"2018-03-30 10:00",35.53
"2018-03-30 10:15",35.53
"2018-03-30 10:30",35.53
"2018-03-30 10:45",35.53
"2018-03-30 11:00",35.53
"2018-03-30 11:15",35.53
"2018-03-30 11:30",35.53
"2018-03-30 11:45",35.49
"2018-03-30 12:00",35.49
"2018-03-30 12:15",35.49
"2018-03-30 12:30",35.49
"2018-03-30 12:45",35.49
"2018-03-30 13:00",35.49
"2018-03-30 13:15",35.48
"2018-03-30 13:30",35.46
"2018-03-30 13:45",35.46
"2018-03-30 14:00",35.46
"2018-03-30 14:15",35.46
"2018-03-30 14:30",35.46
"2018-03-30 14:45",35.45
"2018-03-30 15:00",35.44
"2018-03-30 15:15",35.43
"2018-03-30 15:30",35.43
"2018-03-30 15:45",35.43
"2018-03-30 16:00",35.43
"2018-03-30 16:15",35.43
"2018-03-30 16:30",35.43
"2018-03-30 16:45",35.41
"2018-03-30 17:00",35.39
"2018-03-30 17:15",35.39
"2018-03-30 17:30",35.39
"2018-03-30 17:45",35.39
"2018-03-30 18:00",35.39
"2018-03-30 18:15",35.37
"2018-03-30 18:30",35.36
"2018-03-30 18:45",35.36
"2018-03-30 19:00",35.36
"2018-03-30 19:15",35.35
"2018-03-30 19:30",35.36
"2018-03-30 19:45",35.36
"2018-03-30 20:00",35.35
"2018-03-30 20:15",35.35
"2018-03-30 20:30",35.34
"2018-03-30 20:45",35.33
"2018-03-30 21:00",35.33
"2018-03-30 21:15",35.33
"2018-03-30 21:30",35.33
"2018-03-30 21:45",35.33
"2018-03-30 22:00",35.33
"2018-03-30 22:15",35.31
"2018-03-30 22:30",35.29
"2018-03-30 22:45",35.29
"2018-03-30 23:00",35.29
"2018-03-30 23:15",35.29
"2018-03-30 23:30",35.26
"2018-03-30 23:45",35.26
"2018-03-31 00:00",35.26
"2018-03-31 00:15",35.26
"2018-03-31 00:30",35.26
"2018-03-31 00:45",35.26
"2018-03-31 01:00",35.26
"2018-03-31 01:15",35.26
"2018-03-31 01:30",35.26
"2018-03-31 01:45",35.26
"2018-03-31 02:00",35.26
"2018-03-31 02:15",35.26
"2018-03-31 02:30",35.26
"2018-03-31 02:45",35.23
"2018-03-31 03:00",35.23
"2018-03-31 03:15",35.23
"2018-03-31 03:30",35.23
"2018-03-31 03:45",35.23
"2018-03-31 04:00",35.23
"2018-03-31 04:15",35.21
"2018-03-31 04:30",35.19
"2018-03-31 04:45",35.19
"2018-03-31 05:00",35.17
"2018-03-31 05:15",35.16
"2018-03-31 05:30",35.14
"2018-03-31 05:45",35.13
"2018-03-31 06:00",35.13
"2018-03-31 06:15",35.09
"2018-03-31 06:30",35.06
"2018-03-31 06:45",35.06
"2018-03-31 07:00",35.06
"2018-03-31 07:15",35.05
"2018-03-31 07:30",35.03
"2018-03-31 07:45",35.03
"2018-03-31 08:00",35.03
"2018-03-31 08:15",35.03
"2018-03-31 08:30",35.03
"2018-03-31 08:45",35.03
"2018-03-31 09:00",35.03
"2018-03-31 09:15",35.03
"2018-03-31 09:30",35.03
"2018-03-31 09:45",35.03
"2018-03-31 10:00",35.03
"2018-03-31 10:15",35.03
"2018-03-31 10:30",35.03
"2018-03-31 10:45",35.03
"2018-03-31 11:00",35.03
"2018-03-31 11:15",35.00
"2018-03-31 11:30",34.99
"2018-03-31 11:45",34.99
"2018-03-31 12:00",34.99
"2018-03-31 12:15",34.99
"2018-03-31 12:30",34.99
"2018-03-31 12:45",34.99
"2018-03-31 13:00",34.99
"2018-03-31 13:15",34.99
"2018-03-31 13:30",34.98
"2018-03-31 13:45",34.96
"2018-03-31 14:00",34.96
"2018-03-31 14:15",34.96
"2018-03-31 14:30",34.94
"2018-03-31 14:45",34.93
"2018-03-31 15:00",34.93
"2018-03-31 15:15",34.93
"2018-03-31 15:30",34.91
"2018-03-31 15:45",34.89
"2018-03-31 16:00",34.89
"2018-03-31 16:15",34.89
"2018-03-31 16:30",34.86
"2018-03-31 16:45",34.86
"2018-03-31 17:00",34.86
"2018-03-31 17:15",34.86
"2018-03-31 17:30",34.83
"2018-03-31 17:45",34.83
"2018-03-31 18:00",34.83
"2018-03-31 18:15",34.83
"2018-03-31 18:30",34.80
"2018-03-31 18:45",34.79
"2018-03-31 19:00",34.79
"2018-03-31 19:15",34.77
"2018-03-31 19:30",34.76
"2018-03-31 19:45",34.74
"2018-03-31 20:00",34.73
"2018-03-31 20:15",34.70
"2018-03-31 20:30",34.69
"2018-03-31 20:45",34.66
"2018-03-31 21:00",34.63
"2018-03-31 21:15",34.62
"2018-03-31 21:30",34.60
"2018-03-31 21:45",34.60
"2018-03-31 22:00",34.57
"2018-03-31 22:15",34.57
"2018-03-31 22:30",34.57
"2018-03-31 22:45",34.57
"2018-03-31 23:00",34.54
"2018-03-31 23:15",34.54
"2018-03-31 23:30",34.54
"2018-03-31 23:45",34.50
"2018-04-01 00:00",34.50
"2018-04-01 00:15",34.50
"2018-04-01 00:30",34.48
"2018-04-01 00:45",34.47
"2018-04-01 01:00",34.47
"2018-04-01 01:15",34.47
"2018-04-01 01:30",34.45
"2018-04-01 01:45",34.44
"2018-04-01 02:00",34.44
"2018-04-01 02:15",34.42
"2018-04-01 02:30",34.41
"2018-04-01 02:45",34.41
"2018-04-01 03:00",34.40
"2018-04-01 03:15",34.38
"2018-04-01 03:30",34.38
"2018-04-01 03:45",34.38
"2018-04-01 04:00",34.37
"2018-04-01 04:15",34.35
"2018-04-01 04:30",34.35
"2018-04-01 04:45",34.34
"2018-04-01 05:00",34.31
"2018-04-01 05:15",34.31
"2018-04-01 05:30",34.31
"2018-04-01 05:45",34.29
"2018-04-01 06:00",34.28
"2018-04-01 06:15",34.28
"2018-04-01 06:30",34.28
"2018-04-01 06:45",34.28
"2018-04-01 07:00",34.27
"2018-04-01 07:15",34.25
"2018-04-01 07:30",34.25
"2018-04-01 07:45",34.22
"2018-04-01 08:00",34.22
"2018-04-01 08:15",34.22
"2018-04-01 08:30",34.22
"2018-04-01 08:45",34.22
"2018-04-01 09:00",34.22
"2018-04-01 09:15",34.22
"2018-04-01 09:30",34.22
"2018-04-01 09:45",34.22
"2018-04-01 10:00",34.19
"2018-04-01 10:15",34.19
"2018-04-01 10:30",34.17
"2018-04-01 10:45",34.15
"2018-04-01 11:00",34.15
"2018-04-01 11:15",34.16
"2018-04-01 11:30",34.19
"2018-04-01 11:45",34.19
"2018-04-01 12:00",34.19
"2018-04-01 12:15",34.19
"2018-04-01 12:30",34.19
"2018-04-01 12:45",34.22
"2018-04-01 13:00",34.22
"2018-04-01 13:15",34.22
"2018-04-01 13:30",34.22
"2018-04-01 13:45",34.22
"2018-04-01 14:00",34.22
"2018-04-01 14:15",34.22
"2018-04-01 14:30",34.22
"2018-04-01 14:45",34.22
"2018-04-01 15:00",34.22
"2018-04-01 15:15",34.22
"2018-04-01 15:30",34.24
"2018-04-01 15:45",34.25
"2018-04-01 16:00",34.25
"2018-04-01 16:15",34.25
"2018-04-01 16:30",34.25
"2018-04-01 16:45",34.25
"2018-04-01 17:00",34.25
"2018-04-01 17:15",34.25
"2018-04-01 17:30",34.25
"2018-04-01 17:45",34.25
"2018-04-01 18:00",34.25
"2018-04-01 18:15",34.25
"2018-04-01 18:30",34.25
"2018-04-01 18:45",34.25
"2018-04-01 19:00",34.25
"2018-04-01 19:15",34.25
"2018-04-01 19:30",34.25
"2018-04-01 19:45",34.25
"2018-04-01 20:00",34.25
"2018-04-01 20:15",34.25
"2018-04-01 20:30",34.27
"2018-04-01 20:45",34.28
"2018-04-01 21:00",34.28
"2018-04-01 21:15",34.28
"2018-04-01 21:30",34.28
"2018-04-01 21:45",34.28
"2018-04-01 22:00",34.28
"2018-04-01 22:15",34.28
"2018-04-01 22:30",34.28
"2018-04-01 22:45",34.28
"2018-04-01 23:00",34.28
"2018-04-01 23:15",34.28
"2018-04-01 23:30",34.28
"2018-04-01 23:45",34.28
"2018-04-02 00:00",34.28
"2018-04-02 00:15",34.28
"2018-04-02 00:30",34.28
"2018-04-02 00:45",34.28
"2018-04-02 01:00",34.28
"2018-04-02 01:15",34.28
"2018-04-02 01:30",34.28
"2018-04-02 01:45",34.28
"2018-04-02 02:00",34.27
"2018-04-02 02:15",34.25
"2018-04-02 02:30",34.25
"2018-04-02 02:45",34.22
"2018-04-02 03:00",34.22
"2018-04-02 03:15",34.22
"2018-04-02 03:30",34.22
"2018-04-02 03:45",34.22
"2018-04-02 04:00",34.22
"2018-04-02 04:15",34.22
"2018-04-02 04:30",34.22
"2018-04-02 04:45",34.22
"2018-04-02 05:00",34.22
"2018-04-02 05:15",34.22
"2018-04-02 05:30",34.22
"2018-04-02 05:45",34.22
"2018-04-02 06:00",34.22
"2018-04-02 06:15",34.22
"2018-04-02 06:30",34.22
"2018-04-02 06:45",34.22
"2018-04-02 07:00",34.24
"2018-04-02 07:15",34.25
"2018-04-02 07:30",34.25
"2018-04-02 07:45",34.25
"2018-04-02 08:00",34.25
"2018-04-02 08:15",34.25
"2018-04-02 08:30",34.28
"2018-04-02 08:45",34.28
"2018-04-02 09:00",34.28
"2018-04-02 09:15",34.30
"2018-04-02 09:30",34.31
"2018-04-02 09:45",34.31
"2018-04-02 10:00",34.31
"2018-04-02 10:15",34.33
"2018-04-02 10:30",34.35
"2018-04-02 10:45",34.35
"2018-04-02 11:00",34.35
"2018-04-02 11:15",34.35
"2018-04-02 11:30",34.35
"2018-04-02 11:45",34.35
"2018-04-02 12:00",34.35
"2018-04-02 12:15",34.35
"2018-04-02 12:30",34.37
"2018-04-02 12:45",34.38
"2018-04-02 13:00",34.38
"2018-04-02 13:15",34.38
"2018-04-02 13:30",34.38
"2018-04-02 13:45",34.38
"2018-04-02 14:00",34.38
"2018-04-02 14:15",34.38
"2018-04-02 14:30",34.38
"2018-04-02 14:45",34.38
"2018-04-02 15:00",34.38
"2018-04-02 15:15",34.38
"2018-04-02 15:30",34.38
"2018-04-02 15:45",34.38
"2018-04-02 16:00",34.38
"2018-04-02 16:15",34.38
"2018-04-02 16:30",34.38
"2018-04-02 16:45",34.38
"2018-04-02 17:00",34.38
"2018-04-02 17:15",34.38
"2018-04-02 17:30",34.38
"2018-04-02 17:45",34.38
"2018-04-02 18:00",34.38
"2018-04-02 18:15",34.38
"2018-04-02 18:30",34.38
"2018-04-02 18:45",34.38
"2018-04-02 19:00",34.38
"2018-04-02 19:15",34.38
"2018-04-02 19:30",34.38
"2018-04-02 19:45",34.38
"2018-04-02 20:00",34.38
"2018-04-02 20:15",34.38
"2018-04-02 20:30",34.38
"2018-04-02 20:45",34.38
"2018-04-02 21:00",34.38
"2018-04-02 21:15",34.38
"2018-04-02 21:30",34.38
"2018-04-02 21:45",34.38
"2018-04-02 22:00",34.41
"2018-04-02 22:15",34.41
"2018-04-02 22:30",34.41
"2018-04-02 22:45",34.41
"2018-04-02 23:00",34.41
"2018-04-02 23:15",34.41
"2018-04-02 23:30",34.41
"2018-04-02 23:45",34.41
"2018-04-03 00:00",34.41
"2018-04-03 00:15",34.41
"2018-04-03 00:30",34.41
"2018-04-03 00:45",34.41
"2018-04-03 01:00",34.41
"2018-04-03 01:15",34.41
"2018-04-03 01:30",34.41
"2018-04-03 01:45",34.41
"2018-04-03 02:00",34.41
"2018-04-03 02:15",34.41
"2018-04-03 02:30",34.41
"2018-04-03 02:45",34.41
"2018-04-03 03:00",34.41
"2018-04-03 03:15",34.41
"2018-04-03 03:30",34.41
"2018-04-03 03:45",34.41
"2018-04-03 04:00",34.41
"2018-04-03 04:15",34.41
"2018-04-03 04:30",34.41
"2018-04-03 04:45",34.41
"2018-04-03 05:00",34.41
"2018-04-03 05:15",34.41
"2018-04-03 05:30",34.41
"2018-04-03 05:45",34.41
"2018-04-03 06:00",34.41
"2018-04-03 06:15",34.41
"2018-04-03 06:30",34.41
"2018-04-03 06:45",34.44
"2018-04-03 07:00",34.44
"2018-04-03 07:15",34.44
"2018-04-03 07:30",34.44
"2018-04-03 07:45",34.44
"2018-04-03 08:00",34.44
"2018-04-03 08:15",34.44
"2018-04-03 08:30",34.44
"2018-04-03 08:45",34.44
"2018-04-03 09:00",34.44
"2018-04-03 09:15",34.44
"2018-04-03 09:30",34.44
"2018-04-03 09:45",34.44
"2018-04-03 10:00",34.44
"2018-04-03 10:15",34.46
"2018-04-03 10:30",34.47
"2018-04-03 10:45",34.47
"2018-04-03 11:00",34.47
"2018-04-03 11:15",34.47
"2018-04-03 11:30",34.47
"2018-04-03 11:45",34.47
"2018-04-03 12:00",34.47
"2018-04-03 12:15",34.47
"2018-04-03 12:30",34.47
"2018-04-03 12:45",34.47
"2018-04-03 13:00",34.47
"2018-04-03 13:15",34.47
"2018-04-03 13:30",34.47
"2018-04-03 13:45",34.47
"2018-04-03 14:00",34.47
"2018-04-03 14:15",34.47
"2018-04-03 14:30",34.47
"2018-04-03 14:45",34.47
"2018-04-03 15:00",34.47
"2018-04-03 15:15",34.47
"2018-04-03 15:30",34.48
"2018-04-03 15:45",34.47
"2018-04-03 16:00",34.48
"2018-04-03 16:15",34.49
"2018-04-03 16:30",34.47
"2018-04-03 16:45",34.50
"2018-04-03 17:00",34.49
"2018-04-03 17:15",34.49
"2018-04-03 17:30",34.49
"2018-04-03 17:45",34.50
"2018-04-03 18:00",34.49
"2018-04-03 18:15",34.50
"2018-04-03 18:30",34.50
"2018-04-03 18:45",34.50
"2018-04-03 19:00",34.50
"2018-04-03 19:15",34.50
"2018-04-03 19:30",34.50
"2018-04-03 19:45",34.50
"2018-04-03 20:00",34.50
"2018-04-03 20:15",34.50
"2018-04-03 20:30",34.50
"2018-04-03 20:45",34.50
"2018-04-03 21:00",34.50
"2018-04-03 21:15",34.50
"2018-04-03 21:30",34.50
"2018-04-03 21:45",34.50
"2018-04-03 22:00",34.50
"2018-04-03 22:15",34.50
"2018-04-03 22:30",34.50
"2018-04-03 22:45",34.50
"2018-04-03 23:00",34.50
"2018-04-03 23:15",34.50
"2018-04-03 23:30",34.50
"2018-04-03 23:45",34.50
"2018-04-04 00:00",34.50
"2018-04-04 00:15",34.50
"2018-04-04 00:30",34.50
"2018-04-04 00:45",34.50
"2018-04-04 01:00",34.52
"2018-04-04 01:15",34.54
"2018-04-04 01:30",34.54
"2018-04-04 01:45",34.54
"2018-04-04 02:00",34.54
"2018-04-04 02:15",34.54
"2018-04-04 02:30",34.54
"2018-04-04 02:45",34.54
"2018-04-04 03:00",34.54
"2018-04-04 03:15",34.54
"2018-04-04 03:30",34.54
"2018-04-04 03:45",34.54
"2018-04-04 04:00",34.54
"2018-04-04 04:15",34.54
"2018-04-04 04:30",34.54
"2018-04-04 04:45",34.54
"2018-04-04 05:00",34.54
"2018-04-04 05:15",34.54
"2018-04-04 05:30",34.57
"2018-04-04 05:45",34.57
"2018-04-04 06:00",34.57
"2018-04-04 06:15",34.57
"2018-04-04 06:30",34.57
"2018-04-04 06:45",34.57
"2018-04-04 07:00",34.57
