"2018-03-28 09:30",407.81
"2018-03-28 09:45",407.81
"2018-03-28 10:00",407.81
"2018-03-28 10:15",407.81
"2018-03-28 10:30",407.81
"2018-03-28 10:45",407.81
"2018-03-28 11:00",407.81
"2018-03-28 11:15",407.81
"2018-03-28 11:30",407.81
"2018-03-28 11:45",407.81
"2018-03-28 12:00",407.81
"2018-03-28 12:15",407.81
"2018-03-28 12:30",407.81
"2018-03-28 12:45",407.81
"2018-03-28 13:00",407.81
"2018-03-28 13:15",407.81
"2018-03-28 13:30",407.81
"2018-03-28 13:45",407.81
"2018-03-28 14:00",407.81
"2018-03-28 14:15",407.81
"2018-03-28 14:30",407.81
"2018-03-28 14:45",407.81
"2018-03-28 15:00",407.81
"2018-03-28 15:15",407.81
"2018-03-28 15:30",407.81
"2018-03-28 15:45",407.81
"2018-03-28 16:00",407.81
"2018-03-28 16:15",407.81
"2018-03-28 16:30",407.89
"2018-03-28 16:45",407.81
"2018-03-28 17:00",407.81
"2018-03-28 17:15",407.81
"2018-03-28 17:30",407.81
"2018-03-28 17:45",407.81
"2018-03-28 18:00",408.10
"2018-03-28 18:15",408.12
"2018-03-28 18:30",408.12
"2018-03-28 18:45",408.02
"2018-03-28 19:00",408.12
"2018-03-28 19:15",408.12
"2018-03-28 19:30",408.06
"2018-03-28 19:45",408.12
"2018-03-28 20:00",408.12
"2018-03-28 20:15",408.12
"2018-03-28 20:30",408.12
"2018-03-28 20:45",408.12
"2018-03-28 21:00",408.12
"2018-03-28 21:15",407.92
"2018-03-28 21:30",408.04
"2018-03-28 21:45",408.12
"2018-03-28 22:00",408.12
"2018-03-28 22:15",408.12
"2018-03-28 22:30",408.12
"2018-03-28 22:45",408.12
"2018-03-28 23:00",408.12
"2018-03-28 23:15",408.12
"2018-03-28 23:30",408.12
"2018-03-28 23:45",408.12
"2018-03-29 00:00",408.12
"2018-03-29 00:15",408.12
"2018-03-29 00:30",408.12
"2018-03-29 00:45",408.12
"2018-03-29 01:00",408.12
"2018-03-29 01:15",408.12
"2018-03-29 01:30",408.12
"2018-03-29 01:45",408.32
"2018-03-29 02:00",408.42
"2018-03-29 02:15",408.40
"2018-03-29 02:30",408.12
"2018-03-29 02:45",408.12
"2018-03-29 03:00",408.12
"2018-03-29 03:15",408.12
"2018-03-29 03:30",408.22
"2018-03-29 03:45",408.42
"2018-03-29 04:00",408.42
"2018-03-29 04:15",408.42
"2018-03-29 04:30",408.42
"2018-03-29 04:45",408.22
"2018-03-29 05:00",408.20
"2018-03-29 05:15",408.42
"2018-03-29 05:30",408.42
"2018-03-29 05:45",408.42
"2018-03-29 06:00",408.42
"2018-03-29 06:15",408.42
"2018-03-29 06:30",408.42
"2018-03-29 06:45",408.42
"2018-03-29 07:00",408.42
"2018-03-29 07:15",408.42
"2018-03-29 07:30",408.42
"2018-03-29 07:45",408.42
"2018-03-29 08:00",408.42
"2018-03-29 08:15",408.42
"2018-03-29 08:30",408.42
"2018-03-29 08:45",408.42
"2018-03-29 09:00",408.42
"2018-03-29 09:15",408.42
"2018-03-29 09:30",408.42
"2018-03-29 09:45",408.42
"2018-03-29 10:00",408.42
"2018-03-29 10:15",408.42
"2018-03-29 10:30",408.48
"2018-03-29 10:45",408.72
"2018-03-29 11:00",408.72
"2018-03-29 11:15",408.72
"2018-03-29 11:30",408.66
"2018-03-29 11:45",408.58
"2018-03-29 12:00",408.66
"2018-03-29 12:15",408.64
"2018-03-29 12:30",408.62
"2018-03-29 12:45",408.62
"2018-03-29 13:00",408.62
"2018-03-29 13:15",408.72
"2018-03-29 13:30",408.72
"2018-03-29 13:45",408.68
"2018-03-29 14:00",408.72
"2018-03-29 14:15",408.70
"2018-03-29 14:30",408.72
"2018-03-29 14:45",408.72
"2018-03-29 15:00",408.72
"2018-03-29 15:15",408.72
"2018-03-29 15:30",408.68
"2018-03-29 15:45",408.72
"2018-03-29 16:00",408.72
"2018-03-29 16:15",408.68
"2018-03-29 16:30",408.70
"2018-03-29 16:45",408.72
"2018-03-29 17:00",408.68
"2018-03-29 17:15",408.62
"2018-03-29 17:30",408.66
"2018-03-29 17:45",408.72
"2018-03-29 18:00",408.72
"2018-03-29 18:15",408.72
"2018-03-29 18:30",408.72
"2018-03-29 18:45",408.72
"2018-03-29 19:00",408.72
"2018-03-29 19:15",408.72
"2018-03-29 19:30",408.72
"2018-03-29 19:45",408.72
"2018-03-29 20:00",408.72
"2018-03-29 20:15",408.72
"2018-03-29 20:30",408.72
"2018-03-29 20:45",408.72
"2018-03-29 21:00",408.72
"2018-03-29 21:15",408.72
"2018-03-29 21:30",408.72
"2018-03-29 21:45",408.72
"2018-03-29 22:00",408.72
"2018-03-29 22:15",408.72
"2018-03-29 22:30",408.72
"2018-03-29 22:45",408.72
"2018-03-29 23:00",408.72
"2018-03-29 23:15",408.84
"2018-03-29 23:30",408.72
"2018-03-29 23:45",408.72
"2018-03-30 00:00",408.92
"2018-03-30 00:15",409.02
"2018-03-30 00:30",409.02
"2018-03-30 00:45",408.98
"2018-03-30 01:00",409.02
"2018-03-30 01:15",408.97
"2018-03-30 01:30",408.82
"2018-03-30 01:45",408.94
"2018-03-30 02:00",408.94
"2018-03-30 02:15",409.02
"2018-03-30 02:30",409.02
"2018-03-30 02:45",409.02
"2018-03-30 03:00",409.02
"2018-03-30 03:15",409.02
"2018-03-30 03:30",409.02
"2018-03-30 03:45",409.02
"2018-03-30 04:00",409.02
"2018-03-30 04:15",409.02
"2018-03-30 04:30",409.02
"2018-03-30 04:45",409.02
"2018-03-30 05:00",409.02
"2018-03-30 05:15",409.02
"2018-03-30 05:30",409.02
"2018-03-30 05:45",409.02
"2018-03-30 06:00",409.02
"2018-03-30 06:15",409.02
"2018-03-30 06:30",409.02
"2018-03-30 06:45",409.02
"2018-03-30 07:00",409.02
"2018-03-30 07:15",409.02
"2018-03-30 07:30",409.02
"2018-03-30 07:45",409.20
"2018-03-30 08:00",409.33
"2018-03-30 08:15",409.33
"2018-03-30 08:30",409.13
"2018-03-30 08:45",409.02
"2018-03-30 09:00",409.02
"2018-03-30 09:15",409.33
"2018-03-30 09:30",409.33
"2018-03-30 09:45",409.33
"2018-03-30 10:00",409.33
"2018-03-30 10:15",409.09
"2018-03-30 10:30",409.25
"2018-03-30 10:45",409.31
"2018-03-30 11:00",409.31
"2018-03-30 11:15",409.33
"2018-03-30 11:30",409.37
"2018-03-30 11:45",409.33
"2018-03-30 12:00",409.21
"2018-03-30 12:15",409.21
"2018-03-30 12:30",409.29
"2018-03-30 12:45",409.33
"2018-03-30 13:00",409.33
"2018-03-30 13:15",409.33
"2018-03-30 13:30",409.37
"2018-03-30 13:45",409.31
"2018-03-30 14:00",409.33
"2018-03-30 14:15",409.27
"2018-03-30 14:30",409.31
"2018-03-30 14:45",409.37
"2018-03-30 15:00",409.41
"2018-03-30 15:15",409.39
"2018-03-30 15:30",409.33
"2018-03-30 15:45",409.45
"2018-03-30 16:00",409.43
"2018-03-30 16:15",409.33
"2018-03-30 16:30",409.22
"2018-03-30 16:45",409.31
"2018-03-30 17:00",409.33
"2018-03-30 17:15",409.54
"2018-03-30 17:30",409.63
"2018-03-30 17:45",409.37
"2018-03-30 18:00",409.25
"2018-03-30 18:15",409.33
"2018-03-30 18:30",409.31
"2018-03-30 18:45",409.31
"2018-03-30 19:00",409.61
"2018-03-30 19:15",409.57
"2018-03-30 19:30",409.37
"2018-03-30 19:45",409.45
"2018-03-30 20:00",409.35
"2018-03-30 20:15",409.24
"2018-03-30 20:30",409.43
"2018-03-30 20:45",409.65
"2018-03-30 21:00",409.55
"2018-03-30 21:15",409.57
"2018-03-30 21:30",409.69
"2018-03-30 21:45",409.59
"2018-03-30 22:00",409.41
"2018-03-30 22:15",409.47
"2018-03-30 22:30",409.63
"2018-03-30 22:45",409.67
"2018-03-30 23:00",409.93
"2018-03-30 23:15",409.81
"2018-03-30 23:30",409.63
"2018-03-30 23:45",409.61
"2018-03-31 00:00",409.63
"2018-03-31 00:15",409.63
"2018-03-31 00:30",409.63
"2018-03-31 00:45",409.89
"2018-03-31 01:00",409.93
"2018-03-31 01:15",409.75
"2018-03-31 01:30",409.63
"2018-03-31 01:45",409.63
"2018-03-31 02:00",409.63
"2018-03-31 02:15",409.83
"2018-03-31 02:30",409.93
"2018-03-31 02:45",409.93
"2018-03-31 03:00",409.81
"2018-03-31 03:15",409.93
"2018-03-31 03:30",409.77
"2018-03-31 03:45",409.63
"2018-03-31 04:00",409.75
"2018-03-31 04:15",409.90
"2018-03-31 04:30",409.93
"2018-03-31 04:45",409.93
"2018-03-31 05:00",409.73
"2018-03-31 05:15",409.63
"2018-03-31 05:30",409.69
"2018-03-31 05:45",409.63
"2018-03-31 06:00",409.79
"2018-03-31 06:15",409.93
"2018-03-31 06:30",409.93
"2018-03-31 06:45",409.93
"2018-03-31 07:00",409.69
"2018-03-31 07:15",409.85
"2018-03-31 07:30",409.93
"2018-03-31 07:45",409.93
"2018-03-31 08:00",409.93
"2018-03-31 08:15",409.93
"2018-03-31 08:30",409.93
"2018-03-31 08:45",409.93
"2018-03-31 09:00",409.93
"2018-03-31 09:15",409.93
"2018-03-31 09:30",409.93
"2018-03-31 09:45",409.93
"2018-03-31 10:00",409.93
"2018-03-31 10:15",409.93
"2018-03-31 10:30",409.93
"2018-03-31 10:45",409.93
"2018-03-31 11:00",409.93
"2018-03-31 11:15",410.01
"2018-03-31 11:30",410.24
"2018-03-31 11:45",410.24
"2018-03-31 12:00",410.24
"2018-03-31 12:15",410.24
"2018-03-31 12:30",410.24
"2018-03-31 12:45",410.24
"2018-03-31 13:00",410.24
"2018-03-31 13:15",410.24
"2018-03-31 13:30",410.24
"2018-03-31 13:45",410.24
"2018-03-31 14:00",410.24
"2018-03-31 14:15",410.24
"2018-03-31 14:30",410.24
"2018-03-31 14:45",410.24
"2018-03-31 15:00",410.24
"2018-03-31 15:15",410.24
"2018-03-31 15:30",410.24
"2018-03-31 15:45",410.24
"2018-03-31 16:00",410.24
"2018-03-31 16:15",410.24
"2018-03-31 16:30",410.24
"2018-03-31 16:45",410.24
"2018-03-31 17:00",410.24
"2018-03-31 17:15",410.24
"2018-03-31 17:30",410.24
"2018-03-31 17:45",410.24
"2018-03-31 18:00",410.24
"2018-03-31 18:15",410.24
"2018-03-31 18:30",410.24
"2018-03-31 18:45",410.24
"2018-03-31 19:00",410.24
"2018-03-31 19:15",410.24
"2018-03-31 19:30",410.24
"2018-03-31 19:45",410.24
"2018-03-31 20:00",410.24
"2018-03-31 20:15",410.24
"2018-03-31 20:30",410.48
"2018-03-31 20:45",410.54
"2018-03-31 21:00",410.54
"2018-03-31 21:15",410.54
"2018-03-31 21:30",410.54
"2018-03-31 21:45",410.54
"2018-03-31 22:00",410.54
"2018-03-31 22:15",410.54
"2018-03-31 22:30",410.54
"2018-03-31 22:45",410.54
"2018-03-31 23:00",410.54
"2018-03-31 23:15",410.54
"2018-03-31 23:30",410.54
"2018-03-31 23:45",410.54
"2018-04-01 00:00",410.54
"2018-04-01 00:15",410.54
"2018-04-01 00:30",410.54
"2018-04-01 00:45",410.54
"2018-04-01 01:00",410.54
"2018-04-01 01:15",410.54
"2018-04-01 01:30",410.54
"2018-04-01 01:45",410.54
"2018-04-01 02:00",410.54
"2018-04-01 02:15",410.54
"2018-04-01 02:30",410.54
"2018-04-01 02:45",410.54
"2018-04-01 03:00",410.54
"2018-04-01 03:15",410.54
"2018-04-01 03:30",410.54
"2018-04-01 03:45",410.72
"2018-04-01 04:00",410.84
"2018-04-01 04:15",410.84
"2018-04-01 04:30",410.84
"2018-04-01 04:45",410.58
"2018-04-01 05:00",410.70
"2018-04-01 05:15",410.84
"2018-04-01 05:30",410.56
"2018-04-01 05:45",410.74
"2018-04-01 06:00",410.84
"2018-04-01 06:15",410.54
"2018-04-01 06:30",410.60
"2018-04-01 06:45",410.84
"2018-04-01 07:00",410.84
"2018-04-01 07:15",410.84
"2018-04-01 07:30",410.84
"2018-04-01 07:45",410.84
"2018-04-01 08:00",410.84
"2018-04-01 08:15",410.84
"2018-04-01 08:30",410.84
"2018-04-01 08:45",410.84
"2018-04-01 09:00",410.84
"2018-04-01 09:15",410.84
"2018-04-01 09:30",410.84
"2018-04-01 09:45",410.84
"2018-04-01 10:00",410.84
"2018-04-01 10:15",410.84
"2018-04-01 10:30",410.84
"2018-04-01 10:45",410.84
"2018-04-01 11:00",410.84
"2018-04-01 11:15",410.84
"2018-04-01 11:30",410.84
"2018-04-01 11:45",410.84
"2018-04-01 12:00",410.84
"2018-04-01 12:15",410.84
"2018-04-01 12:30",410.84
"2018-04-01 12:45",410.84
"2018-04-01 13:00",410.84
"2018-04-01 13:15",410.84
"2018-04-01 13:30",410.84
"2018-04-01 13:45",410.84
"2018-04-01 14:00",410.88
"2018-04-01 14:15",411.15
"2018-04-01 14:30",410.87
"2018-04-01 14:45",410.84
"2018-04-01 15:00",410.84
"2018-04-01 15:15",410.84
"2018-04-01 15:30",410.84
"2018-04-01 15:45",410.84
"2018-04-01 16:00",410.84
"2018-04-01 16:15",410.88
"2018-04-01 16:30",411.15
"2018-04-01 16:45",411.15
"2018-04-01 17:00",410.92
"2018-04-01 17:15",410.84
"2018-04-01 17:30",410.84
"2018-04-01 17:45",410.84
"2018-04-01 18:00",410.84
"2018-04-01 18:15",410.84
"2018-04-01 18:30",410.84
"2018-04-01 18:45",410.84
"2018-04-01 19:00",410.84
"2018-04-01 19:15",410.84
"2018-04-01 19:30",410.84
"2018-04-01 19:45",410.84
"2018-04-01 20:00",410.84
"2018-04-01 20:15",410.84
"2018-04-01 20:30",410.84
"2018-04-01 20:45",410.84
"2018-04-01 21:00",410.84
"2018-04-01 21:15",410.84
"2018-04-01 21:30",410.86
"2018-04-01 21:45",411.15
"2018-04-01 22:00",411.15
"2018-04-01 22:15",411.15
"2018-04-01 22:30",411.15
"2018-04-01 22:45",411.15
"2018-04-01 23:00",411.15
"2018-04-01 23:15",411.15
"2018-04-01 23:30",411.15
"2018-04-01 23:45",411.15
"2018-04-02 00:00",411.15
"2018-04-02 00:15",411.15
"2018-04-02 00:30",411.15
"2018-04-02 00:45",411.15
"2018-04-02 01:00",411.15
"2018-04-02 01:15",411.15
"2018-04-02 01:30",411.15
"2018-04-02 01:45",411.15
"2018-04-02 02:00",411.15
"2018-04-02 02:15",411.15
"2018-04-02 02:30",411.15
"2018-04-02 02:45",411.15
"2018-04-02 03:00",411.15
"2018-04-02 03:15",411.15
"2018-04-02 03:30",411.15
"2018-04-02 03:45",411.15
"2018-04-02 04:00",411.15
"2018-04-02 04:15",411.15
"2018-04-02 04:30",411.15
"2018-04-02 04:45",411.15
"2018-04-02 05:00",411.15
"2018-04-02 05:15",411.15
"2018-04-02 05:30",411.15
"2018-04-02 05:45",411.15
"2018-04-02 06:00",411.15
"2018-04-02 06:15",411.15
"2018-04-02 06:30",411.15
"2018-04-02 06:45",411.15
"2018-04-02 07:00",411.15
"2018-04-02 07:15",411.15
"2018-04-02 07:30",411.15
"2018-04-02 07:45",411.33
"2018-04-02 08:00",411.45
"2018-04-02 08:15",411.45
"2018-04-02 08:30",411.45
"2018-04-02 08:45",411.31
"2018-04-02 09:00",411.15
"2018-04-02 09:15",411.37
"2018-04-02 09:30",411.45
"2018-04-02 09:45",411.45
"2018-04-02 10:00",411.45
"2018-04-02 10:15",411.45
"2018-04-02 10:30",411.25
"2018-04-02 10:45",411.15
"2018-04-02 11:00",411.25
"2018-04-02 11:15",411.45
"2018-04-02 11:30",411.45
"2018-04-02 11:45",411.45
"2018-04-02 12:00",411.45
"2018-04-02 12:15",411.45
"2018-04-02 12:30",411.45
"2018-04-02 12:45",411.45
"2018-04-02 13:00",411.45
"2018-04-02 13:15",411.45
"2018-04-02 13:30",411.45
"2018-04-02 13:45",411.45
"2018-04-02 14:00",411.45
"2018-04-02 14:15",411.45
"2018-04-02 14:30",411.45
"2018-04-02 14:45",411.45
"2018-04-02 15:00",411.45
"2018-04-02 15:15",411.45
"2018-04-02 15:30",411.45
"2018-04-02 15:45",411.45
"2018-04-02 16:00",411.45
"2018-04-02 16:15",411.45
"2018-04-02 16:30",411.45
"2018-04-02 16:45",411.45
"2018-04-02 17:00",411.45
"2018-04-02 17:15",411.45
"2018-04-02 17:30",411.45
"2018-04-02 17:45",411.45
"2018-04-02 18:00",411.45
"2018-04-02 18:15",411.43
"2018-04-02 18:30",411.45
"2018-04-02 18:45",411.61
"2018-04-02 19:00",411.65
"2018-04-02 19:15",411.45
"2018-04-02 19:30",411.45
"2018-04-02 19:45",411.45
"2018-04-02 20:00",411.45
"2018-04-02 20:15",411.45
"2018-04-02 20:30",411.69
"2018-04-02 20:45",411.53
"2018-04-02 21:00",411.55
"2018-04-02 21:15",411.45
"2018-04-02 21:30",411.45
"2018-04-02 21:45",411.45
"2018-04-02 22:00",411.49
"2018-04-02 22:15",411.49
"2018-04-02 22:30",411.71
"2018-04-02 22:45",411.75
"2018-04-02 23:00",411.63
"2018-04-02 23:15",411.45
"2018-04-02 23:30",411.45
"2018-04-02 23:45",411.45
"2018-04-03 00:00",411.45
"2018-04-03 00:15",411.67
"2018-04-03 00:30",411.75
"2018-04-03 00:45",411.75
"2018-04-03 01:00",411.47
"2018-04-03 01:15",411.71
"2018-04-03 01:30",411.75
"2018-04-03 01:45",411.75
"2018-04-03 02:00",411.75
"2018-04-03 02:15",411.75
"2018-04-03 02:30",411.75
"2018-04-03 02:45",411.75
"2018-04-03 03:00",411.75
"2018-04-03 03:15",411.75
"2018-04-03 03:30",411.75
"2018-04-03 03:45",411.75
"2018-04-03 04:00",411.75
"2018-04-03 04:15",411.75
"2018-04-03 04:30",411.75
"2018-04-03 04:45",411.75
"2018-04-03 05:00",411.75
"2018-04-03 05:15",411.75
"2018-04-03 05:30",411.75
"2018-04-03 05:45",411.75
"2018-04-03 06:00",411.75
"2018-04-03 06:15",411.75
"2018-04-03 06:30",411.75
"2018-04-03 06:45",411.75
"2018-04-03 07:00",411.75
"2018-04-03 07:15",411.75
"2018-04-03 07:30",411.75
"2018-04-03 07:45",411.75
"2018-04-03 08:00",411.75
"2018-04-03 08:15",411.75
"2018-04-03 08:30",411.83
"2018-04-03 08:45",411.93
"2018-04-03 09:00",412.01
"2018-04-03 09:15",411.90
"2018-04-03 09:30",411.85
"2018-04-03 09:45",411.87
"2018-04-03 10:00",411.83
"2018-04-03 10:15",411.91
"2018-04-03 10:30",411.97
"2018-04-03 10:45",411.86
"2018-04-03 11:00",411.87
"2018-04-03 11:15",412.05
"2018-04-03 11:30",411.95
"2018-04-03 11:45",411.84
"2018-04-03 12:00",411.87
"2018-04-03 12:15",411.99
"2018-04-03 12:30",411.89
"2018-04-03 12:45",411.89
"2018-04-03 13:00",412.03
"2018-04-03 13:15",411.90
"2018-04-03 13:30",411.85
"2018-04-03 13:45",411.95
"2018-04-03 14:00",411.86
"2018-04-03 14:15",411.92
"2018-04-03 14:30",411.97
"2018-04-03 14:45",411.96
"2018-04-03 15:00",411.99
"2018-04-03 15:15",411.83
"2018-04-03 15:30",411.82
"2018-04-03 15:45",411.90
"2018-04-03 16:00",411.90
"2018-04-03 16:15",411.97
"2018-04-03 16:30",411.97
"2018-04-03 16:45",412.00
"2018-04-03 17:00",411.87
"2018-04-03 17:15",411.87
"2018-04-03 17:30",411.83
"2018-04-03 17:45",411.89
"2018-04-03 18:00",411.93
"2018-04-03 18:15",412.08
"2018-04-03 18:30",412.05
"2018-04-03 18:45",412.01
"2018-04-03 19:00",412.06
"2018-04-03 19:15",411.81
"2018-04-03 19:30",411.75
"2018-04-03 19:45",411.87
"2018-04-03 20:00",412.06
"2018-04-03 20:15",412.06
"2018-04-03 20:30",412.06
"2018-04-03 20:45",412.06
"2018-04-03 21:00",411.86
"2018-04-03 21:15",411.75
"2018-04-03 21:30",411.75
"2018-04-03 21:45",411.75
"2018-04-03 22:00",411.91
"2018-04-03 22:15",412.06
"2018-04-03 22:30",412.06
"2018-04-03 22:45",412.06
"2018-04-03 23:00",411.97
"2018-04-03 23:15",411.89
"2018-04-03 23:30",412.06
"2018-04-03 23:45",412.06
"2018-04-04 00:00",412.06
"2018-04-04 00:15",412.30
"2018-04-04 00:30",412.26
"2018-04-04 00:45",412.02
"2018-04-04 01:00",411.75
"2018-04-04 01:15",411.94
"2018-04-04 01:30",412.06
"2018-04-04 01:45",412.36
"2018-04-04 02:00",412.36
"2018-04-04 02:15",412.36
"2018-04-04 02:30",412.12
"2018-04-04 02:45",412.06
"2018-04-04 03:00",412.06
"2018-04-04 03:15",412.06
"2018-04-04 03:30",412.27
"2018-04-04 03:45",412.36
"2018-04-04 04:00",412.36
"2018-04-04 04:15",412.26
"2018-04-04 04:30",412.06
"2018-04-04 04:45",412.06
"2018-04-04 05:00",412.26
"2018-04-04 05:15",412.38
"2018-04-04 05:30",412.54
"2018-04-04 05:45",412.58
"2018-04-04 06:00",412.42
"2018-04-04 06:15",412.06
"2018-04-04 06:30",412.14
"2018-04-04 06:45",412.09
"2018-04-04 07:00",412.18
"2018-04-04 07:15",412.48
