"2018-03-29 08:00",626.06
"2018-03-29 08:15",626.06
"2018-03-29 08:30",626.06
"2018-03-29 08:45",626.06
"2018-03-29 08:55",626.06
"2018-03-29 09:00",626.06
"2018-03-29 09:15",626.06
"2018-03-29 09:30",626.06
"2018-03-29 09:45",626.06
"2018-03-29 09:55",626.06
"2018-03-29 10:00",626.06
"2018-03-29 10:15",626.06
"2018-03-29 10:30",626.06
"2018-03-29 10:45",626.06
"2018-03-29 10:55",626.06
"2018-03-29 11:00",626.06
"2018-03-29 11:15",626.06
"2018-03-29 11:30",626.06
"2018-03-29 11:45",626.06
"2018-03-29 11:55",626.06
"2018-03-29 12:00",626.06
"2018-03-29 12:15",626.06
"2018-03-29 12:30",626.06
"2018-03-29 12:45",626.06
"2018-03-29 12:55",626.06
"2018-03-29 13:00",626.06
"2018-03-29 13:15",626.06
"2018-03-29 13:30",626.06
"2018-03-29 13:45",626.06
"2018-03-29 13:55",626.06
"2018-03-29 14:00",626.07
"2018-03-29 14:15",626.06
"2018-03-29 14:30",626.06
"2018-03-29 14:45",626.06
"2018-03-29 14:55",626.06
"2018-03-29 15:00",626.06
"2018-03-29 15:15",626.06
"2018-03-29 15:30",626.06
"2018-03-29 15:45",626.06
"2018-03-29 15:55",626.06
"2018-03-29 16:00",626.06
"2018-03-29 16:15",626.06
"2018-03-29 16:30",626.06
"2018-03-29 16:45",626.06
"2018-03-29 16:55",626.06
"2018-03-29 17:00",626.06
"2018-03-29 17:15",626.06
"2018-03-29 17:30",626.06
"2018-03-29 17:45",626.06
"2018-03-29 17:55",626.06
"2018-03-29 18:00",626.06
"2018-03-29 18:15",626.06
"2018-03-29 18:30",626.06
"2018-03-29 18:45",626.06
"2018-03-29 18:55",626.06
"2018-03-29 19:00",626.06
"2018-03-29 19:15",626.06
"2018-03-29 19:30",626.06
"2018-03-29 19:45",626.06
"2018-03-29 19:55",626.06
"2018-03-29 20:00",626.06
"2018-03-29 20:15",626.06
"2018-03-29 20:30",626.06
"2018-03-29 20:45",626.06
"2018-03-29 20:55",626.06
"2018-03-29 21:00",626.06
"2018-03-29 21:15",626.06
"2018-03-29 21:30",626.06
"2018-03-29 21:45",626.06
"2018-03-29 21:55",626.06
"2018-03-29 22:00",626.06
"2018-03-29 22:15",626.06
"2018-03-29 22:30",626.06
"2018-03-29 22:45",626.06
"2018-03-29 22:55",626.06
"2018-03-29 23:00",626.06
"2018-03-29 23:15",626.06
"2018-03-29 23:30",626.06
"2018-03-29 23:45",626.06
"2018-03-29 23:55",626.06
"2018-03-30 00:00",626.06
"2018-03-30 00:15",626.06
"2018-03-30 00:30",626.06
"2018-03-30 00:45",626.06
"2018-03-30 00:55",626.06
"2018-03-30 01:00",626.06
"2018-03-30 01:15",626.06
"2018-03-30 01:30",626.06
"2018-03-30 01:45",626.06
"2018-03-30 01:55",626.06
"2018-03-30 02:00",626.06
"2018-03-30 02:15",626.06
"2018-03-30 02:30",626.06
"2018-03-30 02:45",626.06
"2018-03-30 02:55",626.06
"2018-03-30 03:00",626.06
"2018-03-30 03:15",626.06
"2018-03-30 03:30",626.06
"2018-03-30 03:45",626.06
"2018-03-30 03:55",626.06
"2018-03-30 04:00",626.06
"2018-03-30 04:15",626.06
"2018-03-30 04:30",626.06
"2018-03-30 04:45",626.06
"2018-03-30 04:55",626.06
"2018-03-30 05:00",626.06
"2018-03-30 05:15",626.06
"2018-03-30 05:30",626.06
"2018-03-30 05:45",626.06
"2018-03-30 05:55",626.06
"2018-03-30 06:00",626.06
"2018-03-30 06:15",626.06
"2018-03-30 06:30",626.06
"2018-03-30 06:45",626.06
"2018-03-30 06:55",626.06
"2018-03-30 07:00",626.06
"2018-03-30 07:15",626.06
"2018-03-30 07:30",626.06
"2018-03-30 07:45",626.06
"2018-03-30 07:55",626.06
"2018-03-30 08:00",626.06
"2018-03-30 08:15",626.06
"2018-03-30 08:30",626.06
"2018-03-30 08:45",626.06
"2018-03-30 08:55",626.06
"2018-03-30 09:00",626.06
"2018-03-30 09:15",626.06
"2018-03-30 09:30",626.06
"2018-03-30 09:45",626.06
"2018-03-30 09:55",626.06
"2018-03-30 10:00",626.06
"2018-03-30 10:15",626.06
"2018-03-30 10:30",626.06
"2018-03-30 10:45",626.06
"2018-03-30 10:55",626.06
"2018-03-30 11:00",626.06
"2018-03-30 11:15",626.06
"2018-03-30 11:30",626.06
"2018-03-30 11:45",626.06
"2018-03-30 11:55",626.06
"2018-03-30 12:00",626.06
"2018-03-30 12:15",626.06
"2018-03-30 12:30",626.06
"2018-03-30 12:45",626.06
"2018-03-30 12:55",626.06
"2018-03-30 13:00",626.06
"2018-03-30 13:15",626.06
"2018-03-30 13:30",626.06
"2018-03-30 13:45",626.06
"2018-03-30 13:55",626.06
"2018-03-30 14:00",626.06
"2018-03-30 14:15",626.06
"2018-03-30 14:30",626.06
"2018-03-30 14:45",626.06
"2018-03-30 14:55",626.06
"2018-03-30 15:00",626.06
"2018-03-30 15:15",626.06
"2018-03-30 15:30",626.06
"2018-03-30 15:45",626.06
"2018-03-30 15:55",626.06
"2018-03-30 16:00",626.06
"2018-03-30 16:15",626.06
"2018-03-30 16:30",626.06
"2018-03-30 16:45",626.06
"2018-03-30 16:55",626.06
"2018-03-30 17:00",626.06
"2018-03-30 17:15",626.06
"2018-03-30 17:30",626.06
"2018-03-30 17:45",626.06
"2018-03-30 17:55",626.06
"2018-03-30 18:00",626.06
"2018-03-30 18:15",626.06
"2018-03-30 18:30",626.06
"2018-03-30 18:45",626.06
"2018-03-30 18:55",626.06
"2018-03-30 19:00",626.06
"2018-03-30 19:15",626.06
"2018-03-30 19:30",626.06
"2018-03-30 19:45",626.06
"2018-03-30 19:55",626.06
"2018-03-30 20:00",626.06
"2018-03-30 20:15",626.06
"2018-03-30 20:30",626.06
"2018-03-30 20:45",626.06
"2018-03-30 20:55",626.06
"2018-03-30 21:00",626.06
"2018-03-30 21:15",626.06
"2018-03-30 21:30",626.06
"2018-03-30 21:45",626.06
"2018-03-30 21:55",626.06
"2018-03-30 22:00",626.06
"2018-03-30 22:15",626.06
"2018-03-30 22:30",626.06
"2018-03-30 22:45",626.06
"2018-03-30 22:55",626.06
"2018-03-30 23:00",626.06
"2018-03-30 23:15",626.06
"2018-03-30 23:30",626.06
"2018-03-30 23:45",626.06
"2018-03-30 23:55",626.06
"2018-03-31 00:00",626.06
"2018-03-31 00:15",626.06
"2018-03-31 00:30",626.06
"2018-03-31 00:45",626.06
"2018-03-31 00:55",626.06
"2018-03-31 01:00",626.06
"2018-03-31 01:15",626.06
"2018-03-31 01:30",626.06
"2018-03-31 01:45",626.06
"2018-03-31 01:55",626.06
"2018-03-31 02:00",626.06
"2018-03-31 02:15",626.06
"2018-03-31 02:30",626.06
"2018-03-31 02:45",626.06
"2018-03-31 02:55",626.06
"2018-03-31 03:00",626.06
"2018-03-31 03:15",626.06
"2018-03-31 03:30",626.06
"2018-03-31 03:45",626.06
"2018-03-31 03:55",626.06
"2018-03-31 04:00",626.06
"2018-03-31 04:15",626.06
"2018-03-31 04:30",626.06
"2018-03-31 04:45",626.06
"2018-03-31 04:55",626.06
"2018-03-31 05:00",626.06
"2018-03-31 05:15",626.06
"2018-03-31 05:30",626.06
"2018-03-31 05:45",626.06
"2018-03-31 05:55",626.06
"2018-03-31 06:00",626.06
"2018-03-31 06:15",626.06
"2018-03-31 06:30",626.06
"2018-03-31 06:45",626.06
"2018-03-31 06:55",626.06
"2018-03-31 07:00",626.06
"2018-03-31 07:15",626.06
"2018-03-31 07:30",626.06
"2018-03-31 07:45",626.06
"2018-03-31 07:55",626.06
"2018-03-31 08:00",626.06
"2018-03-31 08:15",626.06
"2018-03-31 08:30",626.06
"2018-03-31 08:45",626.06
"2018-03-31 08:55",626.06
"2018-03-31 09:00",626.06
"2018-03-31 09:15",626.06
"2018-03-31 09:30",626.06
"2018-03-31 09:45",626.06
"2018-03-31 09:55",626.06
"2018-03-31 10:00",626.06
"2018-03-31 10:15",626.06
"2018-03-31 10:30",626.06
"2018-03-31 10:45",626.06
"2018-03-31 10:55",626.06
"2018-03-31 11:00",626.06
"2018-03-31 11:15",626.06
"2018-03-31 11:30",626.06
"2018-03-31 11:45",626.06
"2018-03-31 11:55",626.06
"2018-03-31 12:00",626.06
"2018-03-31 12:15",626.06
"2018-03-31 12:30",626.06
"2018-03-31 12:45",626.06
"2018-03-31 12:55",626.06
"2018-03-31 13:00",626.06
"2018-03-31 13:15",626.06
"2018-03-31 13:30",626.06
"2018-03-31 13:45",626.06
"2018-03-31 13:55",626.06
"2018-03-31 14:00",626.06
"2018-03-31 14:15",626.06
"2018-03-31 14:30",626.06
"2018-03-31 14:45",626.06
"2018-03-31 14:55",626.06
"2018-03-31 15:00",626.06
"2018-03-31 15:15",626.06
"2018-03-31 15:30",626.06
"2018-03-31 15:45",626.06
"2018-03-31 15:55",626.06
"2018-03-31 16:00",626.06
"2018-03-31 16:15",626.06
"2018-03-31 16:30",626.06
"2018-03-31 16:45",626.06
"2018-03-31 16:55",626.06
"2018-03-31 17:00",626.06
"2018-03-31 17:15",626.06
"2018-03-31 17:30",626.06
"2018-03-31 17:45",626.06
"2018-03-31 17:55",626.06
"2018-03-31 18:00",626.06
"2018-03-31 18:15",626.06
"2018-03-31 18:30",626.06
"2018-03-31 18:45",626.06
"2018-03-31 18:55",626.06
"2018-03-31 19:00",626.06
"2018-03-31 19:15",626.06
"2018-03-31 19:30",626.06
"2018-03-31 19:45",626.06
"2018-03-31 19:55",626.06
"2018-03-31 20:00",626.06
"2018-03-31 20:15",626.06
"2018-03-31 20:30",626.06
"2018-03-31 20:45",626.06
"2018-03-31 20:55",626.06
"2018-03-31 21:00",626.06
"2018-03-31 21:15",626.06
"2018-03-31 21:30",626.05
"2018-03-31 21:45",626.05
"2018-03-31 21:55",626.05
"2018-03-31 22:00",626.05
"2018-03-31 22:15",626.05
"2018-03-31 22:30",626.05
"2018-03-31 22:45",626.05
"2018-03-31 22:55",626.05
"2018-03-31 23:00",626.05
"2018-03-31 23:15",626.05
"2018-03-31 23:30",626.05
"2018-03-31 23:45",626.05
"2018-03-31 23:55",626.05
"2018-04-01 00:00",626.05
"2018-04-01 00:15",626.05
"2018-04-01 00:30",626.05
"2018-04-01 00:45",626.05
"2018-04-01 00:55",626.05
"2018-04-01 01:00",626.05
"2018-04-01 01:15",626.05
"2018-04-01 01:30",626.05
"2018-04-01 01:45",626.05
"2018-04-01 01:55",626.05
"2018-04-01 02:00",626.05
"2018-04-01 02:15",626.05
"2018-04-01 02:30",626.05
"2018-04-01 02:45",626.05
"2018-04-01 02:55",626.05
"2018-04-01 03:00",626.05
"2018-04-01 03:15",626.05
"2018-04-01 03:30",626.05
"2018-04-01 03:45",626.05
"2018-04-01 03:55",626.05
"2018-04-01 04:00",626.05
"2018-04-01 04:15",626.05
"2018-04-01 04:30",626.05
"2018-04-01 04:45",626.05
"2018-04-01 04:55",626.05
"2018-04-01 05:00",626.05
"2018-04-01 05:15",626.05
"2018-04-01 05:30",626.05
"2018-04-01 05:45",626.05
"2018-04-01 05:55",626.05
"2018-04-01 06:00",626.05
"2018-04-01 06:15",626.05
"2018-04-01 06:30",626.05
"2018-04-01 06:45",626.05
"2018-04-01 06:55",626.05
"2018-04-01 07:00",626.05
"2018-04-01 07:15",626.05
"2018-04-01 07:30",626.05
"2018-04-01 07:45",626.05
"2018-04-01 07:55",626.05
"2018-04-01 08:00",626.05
"2018-04-01 08:15",626.05
"2018-04-01 08:30",626.05
"2018-04-01 08:45",626.05
"2018-04-01 08:55",626.05
"2018-04-01 09:00",626.05
"2018-04-01 09:15",626.05
"2018-04-01 09:30",626.05
"2018-04-01 09:45",626.05
"2018-04-01 09:55",626.05
"2018-04-01 10:00",626.05
"2018-04-01 10:15",626.05
"2018-04-01 10:30",626.06
"2018-04-01 10:45",626.06
"2018-04-01 10:55",626.06
"2018-04-01 11:00",626.06
"2018-04-01 11:15",626.06
"2018-04-01 11:30",626.06
"2018-04-01 11:45",626.06
"2018-04-01 11:55",626.06
"2018-04-01 12:00",626.06
"2018-04-01 12:15",626.06
"2018-04-01 12:30",626.06
"2018-04-01 12:45",626.06
"2018-04-01 12:55",626.06
"2018-04-01 13:00",626.06
"2018-04-01 13:15",626.06
"2018-04-01 13:30",626.06
"2018-04-01 13:45",626.06
"2018-04-01 13:55",626.06
"2018-04-01 14:00",626.06
"2018-04-01 14:15",626.06
"2018-04-01 14:30",626.06
"2018-04-01 14:45",626.06
"2018-04-01 14:55",626.06
"2018-04-01 15:00",626.06
"2018-04-01 15:15",626.06
"2018-04-01 15:30",626.06
"2018-04-01 15:45",626.06
"2018-04-01 15:55",626.06
"2018-04-01 16:00",626.06
"2018-04-01 16:15",626.06
"2018-04-01 16:30",626.06
"2018-04-01 16:45",626.06
"2018-04-01 16:55",626.06
"2018-04-01 17:00",626.06
"2018-04-01 17:15",626.06
"2018-04-01 17:30",626.06
"2018-04-01 17:45",626.06
"2018-04-01 17:55",626.06
"2018-04-01 18:00",626.06
"2018-04-01 18:15",626.06
"2018-04-01 18:30",626.06
"2018-04-01 18:45",626.06
"2018-04-01 18:55",626.06
"2018-04-01 19:00",626.05
"2018-04-01 19:15",626.05
"2018-04-01 19:30",626.05
"2018-04-01 19:45",626.05
"2018-04-01 19:55",626.05
"2018-04-01 20:00",626.05
"2018-04-01 20:15",626.05
"2018-04-01 20:30",626.05
"2018-04-01 20:45",626.05
"2018-04-01 20:55",626.05
"2018-04-01 21:00",626.05
"2018-04-01 21:15",626.05
"2018-04-01 21:30",626.05
"2018-04-01 21:45",626.05
"2018-04-01 21:55",626.05
"2018-04-01 22:00",626.05
"2018-04-01 22:15",626.05
"2018-04-01 22:30",626.05
"2018-04-01 22:45",626.05
"2018-04-01 22:55",626.05
"2018-04-01 23:00",626.05
"2018-04-01 23:15",626.05
"2018-04-01 23:30",626.05
"2018-04-01 23:45",626.05
"2018-04-01 23:55",626.05
"2018-04-02 00:00",626.05
"2018-04-02 00:15",626.05
"2018-04-02 00:30",626.05
"2018-04-02 00:45",626.05
"2018-04-02 00:55",626.05
"2018-04-02 01:00",626.05
"2018-04-02 01:15",626.05
"2018-04-02 01:30",626.05
"2018-04-02 01:45",626.05
"2018-04-02 01:55",626.05
"2018-04-02 02:00",626.05
"2018-04-02 02:15",626.05
"2018-04-02 02:30",626.05
"2018-04-02 02:45",626.05
"2018-04-02 02:55",626.05
"2018-04-02 03:00",626.05
"2018-04-02 03:15",626.05
"2018-04-02 03:30",626.05
"2018-04-02 03:45",626.05
"2018-04-02 03:55",626.05
"2018-04-02 04:00",626.05
"2018-04-02 04:15",626.05
"2018-04-02 04:30",626.05
"2018-04-02 04:45",626.05
"2018-04-02 04:55",626.05
"2018-04-02 05:00",626.05
"2018-04-02 05:15",626.05
"2018-04-02 05:30",626.05
"2018-04-02 05:45",626.05
"2018-04-02 05:55",626.05
"2018-04-02 06:00",626.05
"2018-04-02 06:15",626.05
"2018-04-02 06:30",626.05
"2018-04-02 06:45",626.05
"2018-04-02 06:55",626.05
"2018-04-02 07:00",626.05
"2018-04-02 07:15",626.05
"2018-04-02 07:30",626.05
"2018-04-02 07:45",626.05
"2018-04-02 07:55",626.05
"2018-04-02 08:00",626.05
"2018-04-02 08:15",626.05
"2018-04-02 08:30",626.05
"2018-04-02 08:45",626.05
"2018-04-02 08:55",626.05
"2018-04-02 09:00",626.05
"2018-04-02 09:15",626.05
"2018-04-02 09:30",626.05
"2018-04-02 09:45",626.05
"2018-04-02 09:55",626.05
"2018-04-02 10:00",626.05
"2018-04-02 10:15",626.05
"2018-04-02 10:30",626.05
"2018-04-02 10:45",626.05
"2018-04-02 10:55",626.05
"2018-04-02 11:00",626.05
"2018-04-02 11:15",626.05
"2018-04-02 11:30",626.05
"2018-04-02 11:45",626.05
"2018-04-02 11:55",626.05
"2018-04-02 12:00",626.05
"2018-04-02 12:15",626.05
"2018-04-02 12:30",626.05
"2018-04-02 12:45",626.05
"2018-04-02 12:55",626.05
"2018-04-02 13:00",626.05
"2018-04-02 13:15",626.05
"2018-04-02 13:30",626.05
"2018-04-02 13:45",626.05
"2018-04-02 13:55",626.05
"2018-04-02 14:00",626.05
"2018-04-02 14:15",626.05
"2018-04-02 14:30",626.05
"2018-04-02 14:45",626.05
"2018-04-02 14:55",626.05
"2018-04-02 15:00",626.05
"2018-04-02 15:15",626.05
"2018-04-02 15:30",626.05
"2018-04-02 15:45",626.05
"2018-04-02 15:55",626.05
"2018-04-02 16:00",626.05
"2018-04-02 16:15",626.05
"2018-04-02 16:30",626.05
"2018-04-02 16:45",626.05
"2018-04-02 16:55",626.05
"2018-04-02 17:00",626.05
"2018-04-02 17:15",626.05
"2018-04-02 17:30",626.05
"2018-04-02 17:45",626.05
"2018-04-02 17:55",626.05
"2018-04-02 18:00",626.05
"2018-04-02 18:15",626.05
"2018-04-02 18:30",626.05
"2018-04-02 18:45",626.05
"2018-04-02 18:55",626.05
"2018-04-02 19:00",626.05
"2018-04-02 19:15",626.05
"2018-04-02 19:30",626.05
"2018-04-02 19:45",626.05
"2018-04-02 19:55",626.05
"2018-04-02 20:00",626.05
"2018-04-02 20:15",626.05
"2018-04-02 20:30",626.05
"2018-04-02 20:45",626.05
"2018-04-02 20:55",626.05
"2018-04-02 21:00",626.05
"2018-04-02 21:15",626.05
"2018-04-02 21:30",626.05
"2018-04-02 21:45",626.05
"2018-04-02 21:55",626.05
"2018-04-02 22:00",626.05
"2018-04-02 22:15",626.05
"2018-04-02 22:30",626.05
"2018-04-02 22:45",626.05
"2018-04-02 22:55",626.05
"2018-04-02 23:00",626.05
"2018-04-02 23:15",626.05
"2018-04-02 23:30",626.05
"2018-04-02 23:45",626.05
"2018-04-02 23:55",626.05
"2018-04-03 00:00",626.05
"2018-04-03 00:15",626.05
"2018-04-03 00:30",626.05
"2018-04-03 00:45",626.05
"2018-04-03 00:55",626.05
"2018-04-03 01:00",626.05
"2018-04-03 01:15",626.05
"2018-04-03 01:30",626.05
"2018-04-03 01:45",626.05
"2018-04-03 01:55",626.05
"2018-04-03 02:00",626.05
"2018-04-03 02:15",626.05
"2018-04-03 02:30",626.05
"2018-04-03 02:45",626.05
"2018-04-03 02:55",626.05
"2018-04-03 03:00",626.05
"2018-04-03 03:15",626.05
"2018-04-03 03:30",626.05
"2018-04-03 03:45",626.05
"2018-04-03 03:55",626.05
"2018-04-03 04:00",626.05
"2018-04-03 04:15",626.05
"2018-04-03 04:30",626.05
"2018-04-03 04:45",626.05
"2018-04-03 04:55",626.05
"2018-04-03 05:00",626.05
"2018-04-03 05:15",626.05
"2018-04-03 05:30",626.05
"2018-04-03 05:45",626.05
"2018-04-03 05:55",626.05
"2018-04-03 06:00",626.05
"2018-04-03 06:15",626.05
"2018-04-03 06:30",626.05
"2018-04-03 06:45",626.05
"2018-04-03 06:55",626.05
"2018-04-03 07:00",626.05
"2018-04-03 07:15",626.05
"2018-04-03 07:30",626.05
"2018-04-03 07:45",626.05
"2018-04-03 07:55",626.05
"2018-04-03 08:00",626.05
"2018-04-03 08:15",626.05
"2018-04-03 08:30",626.05
"2018-04-03 08:45",626.05
"2018-04-03 08:55",626.05
"2018-04-03 09:00",626.05
"2018-04-03 09:15",626.05
"2018-04-03 09:30",626.05
"2018-04-03 09:45",626.05
"2018-04-03 09:55",626.05
"2018-04-03 10:00",626.05
"2018-04-03 10:15",626.05
"2018-04-03 10:30",626.05
"2018-04-03 10:45",626.05
"2018-04-03 10:55",626.05
"2018-04-03 11:00",626.05
"2018-04-03 11:15",626.05
"2018-04-03 11:30",626.05
"2018-04-03 11:45",626.05
"2018-04-03 11:55",626.05
"2018-04-03 12:00",626.05
"2018-04-03 12:15",626.05
"2018-04-03 12:30",626.05
"2018-04-03 12:45",626.05
"2018-04-03 12:55",626.05
"2018-04-03 13:00",626.05
"2018-04-03 13:15",626.05
"2018-04-03 13:30",626.05
"2018-04-03 13:45",626.05
"2018-04-03 13:55",626.06
"2018-04-03 14:00",626.05
"2018-04-03 14:15",626.05
"2018-04-03 14:30",626.05
"2018-04-03 14:45",626.05
"2018-04-03 14:55",626.05
"2018-04-03 15:00",626.05
"2018-04-03 15:15",626.05
"2018-04-03 15:30",626.05
"2018-04-03 15:45",626.05
"2018-04-03 15:55",626.05
"2018-04-03 16:00",626.05
"2018-04-03 16:15",626.05
"2018-04-03 16:30",626.05
"2018-04-03 16:45",626.05
"2018-04-03 16:55",626.05
"2018-04-03 17:00",626.05
"2018-04-03 17:15",626.05
"2018-04-03 17:30",626.05
"2018-04-03 17:45",626.05
"2018-04-03 17:55",626.05
"2018-04-03 18:00",626.05
"2018-04-03 18:15",626.05
"2018-04-03 18:30",626.05
"2018-04-03 18:45",626.05
"2018-04-03 18:55",626.05
"2018-04-03 19:00",626.05
"2018-04-03 19:15",626.05
"2018-04-03 19:30",626.05
"2018-04-03 19:45",626.05
"2018-04-03 19:55",626.05
"2018-04-03 20:00",626.05
"2018-04-03 20:15",626.05
"2018-04-03 20:30",626.05
"2018-04-03 20:45",626.05
"2018-04-03 20:55",626.05
"2018-04-03 21:00",626.04
"2018-04-03 21:15",626.05
"2018-04-03 21:30",626.05
"2018-04-03 21:45",626.05
"2018-04-03 21:55",626.04
"2018-04-03 22:00",626.04
"2018-04-03 22:15",626.05
"2018-04-03 22:30",626.05
"2018-04-03 22:45",626.05
"2018-04-03 22:55",626.05
"2018-04-03 23:00",626.05
"2018-04-03 23:15",626.04
"2018-04-03 23:30",626.05
"2018-04-03 23:45",626.04
"2018-04-03 23:55",626.05
"2018-04-04 00:00",626.05
"2018-04-04 00:15",626.05
"2018-04-04 00:30",626.05
"2018-04-04 00:45",606.17
"2018-04-04 00:55",583.10
"2018-04-04 01:00",583.10
"2018-04-04 01:15",583.10
"2018-04-04 01:30",583.10
"2018-04-04 01:45",583.10
"2018-04-04 01:55",583.10
"2018-04-04 02:00",583.10
"2018-04-04 02:15",583.10
"2018-04-04 02:30",583.10
"2018-04-04 02:45",583.10
"2018-04-04 02:55",583.10
"2018-04-04 03:00",583.10
"2018-04-04 03:15",583.10
"2018-04-04 03:30",583.10
"2018-04-04 03:45",583.10
"2018-04-04 03:55",583.10
"2018-04-04 04:00",583.10
"2018-04-04 04:15",583.10
"2018-04-04 04:30",583.10
"2018-04-04 04:45",583.10
"2018-04-04 04:55",583.10
"2018-04-04 05:00",583.10
"2018-04-04 05:30",583.10
"2018-04-04 05:45",583.10
"2018-04-04 05:55",583.10
"2018-04-04 06:00",583.10
"2018-04-04 06:15",583.10
"2018-04-04 06:30",583.10
"2018-04-04 06:45",583.10
"2018-04-04 06:55",583.10
"2018-04-04 07:00",583.10
"2018-04-04 07:15",583.10
"2018-04-04 07:30",583.10
"2018-04-04 07:45",583.10
"2018-04-04 07:55",583.10
"2018-04-04 08:00",583.10
"2018-04-04 08:15",586.55
"2018-04-04 08:20",626.06
"2018-04-04 08:30",626.05
"2018-04-04 08:45",626.05
"2018-04-04 08:55",626.06
"2018-04-04 09:00",626.06
"2018-04-04 09:15",626.06
"2018-04-04 09:20",626.06
"2018-04-04 09:30",626.06
"2018-04-04 09:45",626.06
"2018-04-04 09:55",626.06
"2018-04-04 10:00",626.05
"2018-04-04 10:15",626.05
"2018-04-04 10:20",626.06
"2018-04-04 10:30",626.06
"2018-04-04 10:45",626.06
"2018-04-04 10:55",626.05
"2018-04-04 11:00",626.05
"2018-04-04 11:15",626.05
"2018-04-04 11:20",626.06
"2018-04-04 11:30",626.06
"2018-04-04 11:45",626.06
"2018-04-04 11:55",626.06
"2018-04-04 12:00",626.06
"2018-04-04 12:15",626.05
"2018-04-04 12:20",626.06
"2018-04-04 12:30",626.05
"2018-04-04 12:45",626.06
"2018-04-04 12:55",626.05
"2018-04-04 13:00",626.05
"2018-04-04 13:15",626.05
"2018-04-04 13:20",626.05
"2018-04-04 13:30",626.06
"2018-04-04 13:45",626.06
"2018-04-04 13:55",626.05
"2018-04-04 14:00",626.06
"2018-04-04 14:15",626.05
"2018-04-04 14:20",626.05
"2018-04-04 14:30",626.05
"2018-04-04 14:45",626.05
"2018-04-04 14:55",626.05
"2018-04-04 15:00",626.06
"2018-04-04 15:15",626.05
"2018-04-04 15:20",626.05
"2018-04-04 15:30",626.06
"2018-04-04 15:45",626.05
"2018-04-04 15:55",626.05
"2018-04-04 16:00",626.05
"2018-04-04 16:15",626.05
"2018-04-04 16:20",626.06
"2018-04-04 16:30",626.05
"2018-04-04 16:45",626.05
"2018-04-04 16:55",626.06
"2018-04-04 17:00",626.06
"2018-04-04 17:15",626.06
"2018-04-04 17:20",626.05
"2018-04-04 17:30",626.05
"2018-04-04 17:35",626.05
"2018-04-04 17:45",626.05
"2018-04-04 18:00",626.05
"2018-04-04 18:15",626.05
"2018-04-04 18:30",626.05
"2018-04-04 18:35",626.05
"2018-04-04 18:45",626.05
"2018-04-04 19:00",626.05
"2018-04-04 19:15",626.05
"2018-04-04 19:30",626.05
"2018-04-04 19:35",626.05
"2018-04-04 19:45",626.05
"2018-04-04 20:00",626.05
"2018-04-04 20:15",626.05
"2018-04-04 20:30",626.05
"2018-04-04 20:35",626.05
"2018-04-04 20:45",626.05
"2018-04-04 21:00",626.05
"2018-04-04 21:15",626.05
"2018-04-04 21:30",626.05
"2018-04-04 21:35",626.05
"2018-04-04 21:45",626.05
"2018-04-04 22:00",626.05
"2018-04-04 22:15",626.05
"2018-04-04 22:30",626.05
"2018-04-04 22:35",626.05
"2018-04-04 22:45",626.05
"2018-04-04 23:00",626.05
"2018-04-04 23:15",626.05
"2018-04-04 23:30",626.05
"2018-04-04 23:35",626.05
"2018-04-04 23:45",626.05
"2018-04-05 00:00",626.05
"2018-04-05 00:15",626.05
"2018-04-05 00:30",626.05
"2018-04-05 00:35",626.05
"2018-04-05 00:45",626.05
"2018-04-05 01:00",626.05
"2018-04-05 01:15",626.05
"2018-04-05 01:30",626.05
"2018-04-05 01:35",626.05
"2018-04-05 01:45",626.05
"2018-04-05 02:00",626.05
"2018-04-05 02:15",626.05
"2018-04-05 02:30",626.05
"2018-04-05 02:35",626.05
"2018-04-05 02:45",626.05
"2018-04-05 03:00",626.05
"2018-04-05 03:15",626.05
"2018-04-05 03:30",626.05
"2018-04-05 03:35",626.05
"2018-04-05 03:45",626.05
"2018-04-05 04:00",626.05
"2018-04-05 04:15",626.05
"2018-04-05 04:30",626.05
"2018-04-05 04:35",626.05
"2018-04-05 04:45",626.05
"2018-04-05 05:00",626.05
"2018-04-05 05:15",626.05
"2018-04-05 05:30",626.05
