"2015-11-24 09:55",0.00
"2015-11-24 10:55",0.00
"2015-11-24 11:55",0.00
"2015-11-24 12:55",0.00
"2015-11-24 13:55",0.00
"2015-11-24 14:55",0.00
"2015-11-24 15:55",0.00
"2015-11-24 16:55",0.00
"2015-11-24 17:55",0.00
"2015-11-24 18:55",0.00
"2015-11-24 19:55",0.00
"2015-11-24 20:55",0.00
"2015-11-24 21:55",0.00
"2015-11-24 22:55",0.00
"2015-11-24 23:55",0.00
"2015-11-25 00:55",0.00
"2015-11-25 01:55",0.00
"2015-11-25 02:55",0.00
"2015-11-25 03:55",0.00
"2015-11-25 04:55",0.00
"2015-11-25 05:55",0.00
"2015-11-25 06:55",0.00
"2015-11-25 07:55",0.00
"2015-11-25 08:55",0.00
"2015-11-25 09:55",0.00
"2015-11-25 10:55",0.00
"2015-11-25 11:55",0.00
"2015-11-25 12:55",0.00
"2015-11-25 13:55",0.00
"2015-11-25 14:55",0.00
"2015-11-25 15:55",0.00
"2015-11-25 16:55",0.00
"2015-11-25 17:55",0.00
"2015-11-25 18:55",0.00
"2015-11-25 19:55",0.00
"2015-11-25 20:55",0.00
"2015-11-25 21:55",0.00
"2015-11-25 22:55",0.00
"2015-11-25 23:55",0.00
"2015-11-26 00:55",0.00
"2015-11-26 01:55",0.00
"2015-11-26 02:55",0.00
"2015-11-26 03:55",0.00
"2015-11-26 04:55",0.00
"2015-11-26 05:55",0.00
"2015-11-26 06:55",0.00
"2015-11-26 07:55",0.00
"2015-11-26 08:55",0.00
"2015-11-26 09:55",0.00
"2015-11-26 10:55",0.00
"2015-11-26 11:55",0.00
"2015-11-26 12:55",0.00
"2015-11-26 13:55",0.00
"2015-11-26 14:55",0.00
"2015-11-26 15:55",0.00
"2015-11-26 16:55",0.00
"2015-11-26 17:55",0.00
"2015-11-26 18:55",0.00
"2015-11-26 19:55",0.00
"2015-11-26 20:55",0.00
"2015-11-26 21:55",0.00
"2015-11-26 22:55",0.00
"2015-11-26 23:55",0.00
"2015-11-27 00:55",0.00
"2015-11-27 01:55",0.00
"2015-11-27 02:55",0.00
"2015-11-27 03:55",0.00
"2015-11-27 04:55",0.00
"2015-11-27 05:55",0.00
"2015-11-27 06:55",0.00
"2015-11-27 07:55",0.00
"2015-11-27 08:55",0.00
"2015-11-27 09:55",0.00
"2015-11-27 10:55",0.00
"2015-11-27 11:55",0.00
"2015-11-27 12:55",0.00
"2015-11-27 13:55",0.00
"2015-11-27 14:55",0.00
"2015-11-27 15:55",0.00
"2015-11-27 16:55",0.00
"2015-11-27 17:55",0.00
"2015-11-27 18:55",0.00
"2015-11-27 19:55",0.00
"2015-11-27 20:55",0.00
"2015-11-27 21:55",0.00
"2015-11-27 22:55",0.00
"2015-11-27 23:55",0.00
"2015-11-28 00:55",0.00
"2015-11-28 01:55",0.00
"2015-11-28 02:55",0.00
"2015-11-28 03:55",0.00
"2015-11-28 04:55",0.00
"2015-11-28 05:55",0.00
"2015-11-28 06:55",0.00
"2015-11-28 07:55",0.00
"2015-11-28 08:55",0.00
"2015-11-28 09:55",0.00
"2015-11-28 10:55",0.00
"2015-11-28 11:55",0.00
"2015-11-28 12:55",0.00
"2015-11-28 13:55",0.00
"2015-11-28 14:55",0.00
"2015-11-28 15:55",0.00
"2015-11-28 16:55",0.00
"2015-11-28 17:55",0.00
"2015-11-28 18:55",0.00
"2015-11-28 19:55",0.00
"2015-11-28 20:55",0.00
"2015-11-28 21:55",0.00
"2015-11-28 22:55",0.00
"2015-11-28 23:55",0.00
"2015-11-29 00:55",0.00
"2015-11-29 01:55",0.00
"2015-11-29 02:55",0.00
"2015-11-29 03:55",0.00
"2015-11-29 04:55",0.00
"2015-11-29 05:55",0.00
"2015-11-29 06:55",0.00
"2015-11-29 07:55",0.00
"2015-11-29 08:55",0.00
"2015-11-29 09:55",0.00
"2015-11-29 10:55",0.00
"2015-11-29 11:55",0.00
"2015-11-29 12:55",0.00
"2015-11-29 13:55",0.00
"2015-11-29 14:55",0.00
"2015-11-29 15:55",0.00
"2015-11-29 16:55",0.00
"2015-11-29 17:55",0.00
"2015-11-29 18:55",0.00
"2015-11-29 19:55",0.00
"2015-11-29 20:55",0.00
"2015-11-29 21:55",0.00
"2015-11-29 22:55",0.00
"2015-11-29 23:55",0.00
"2015-11-30 00:55",0.00
"2015-11-30 01:55",0.00
"2015-11-30 02:55",0.00
"2015-11-30 03:55",0.00
"2015-11-30 04:55",0.00
"2015-11-30 05:55",0.00
"2015-11-30 06:55",0.00
"2015-11-30 07:55",0.00
"2015-11-30 08:55",0.00
"2015-11-30 09:55",0.00
"2015-11-30 10:55",0.00
"2015-11-30 11:55",0.00
"2015-11-30 12:55",0.00
"2015-11-30 13:55",0.00
"2015-11-30 14:55",0.00
"2015-11-30 15:55",0.00
"2015-11-30 16:55",0.00
"2015-11-30 17:55",0.00
"2015-11-30 18:55",0.00
"2015-11-30 19:55",0.00
"2015-11-30 20:55",0.00
"2015-11-30 21:55",0.00
"2015-11-30 22:55",0.00
"2015-11-30 23:55",0.00
"2015-12-01 00:55",0.00
"2015-12-01 01:55",0.00
"2015-12-01 02:55",0.00
"2015-12-01 03:55",0.00
"2015-12-01 04:55",0.00
"2015-12-01 05:55",0.00
"2015-12-01 06:55",0.00
"2015-12-01 07:55",0.00
