"2015-12-02 10:35",0.00
"2015-12-02 11:35",0.00
"2015-12-02 12:35",0.00
"2015-12-02 13:35",0.00
"2015-12-02 14:35",0.00
"2015-12-02 15:35",0.00
"2015-12-02 16:35",0.00
"2015-12-02 17:35",0.00
"2015-12-02 18:35",0.00
"2015-12-02 19:35",0.00
"2015-12-02 20:35",0.00
"2015-12-02 21:35",0.00
"2015-12-02 22:35",0.00
"2015-12-02 23:35",0.00
"2015-12-03 00:35",0.00
"2015-12-03 01:35",0.00
"2015-12-03 02:35",0.00
"2015-12-03 03:35",0.00
"2015-12-03 04:35",0.00
"2015-12-03 05:35",0.00
"2015-12-03 06:35",0.00
"2015-12-03 07:35",0.00
"2015-12-03 08:35",0.00
"2015-12-03 09:35",0.00
"2015-12-03 10:35",0.00
"2015-12-03 11:35",0.00
"2015-12-03 12:35",0.00
"2015-12-03 13:35",0.00
"2015-12-03 14:35",0.00
"2015-12-03 15:35",0.00
"2015-12-03 16:35",0.00
"2015-12-03 17:35",0.00
"2015-12-03 18:35",0.00
"2015-12-03 19:35",0.00
"2015-12-03 20:35",0.00
"2015-12-03 21:35",0.00
"2015-12-03 22:35",0.00
"2015-12-03 23:35",0.00
"2015-12-04 00:35",0.00
"2015-12-04 01:35",0.00
"2015-12-04 02:35",0.00
"2015-12-04 03:35",0.00
"2015-12-04 04:35",0.00
"2015-12-04 05:35",0.00
"2015-12-04 06:35",0.00
"2015-12-04 07:35",0.00
"2015-12-04 08:35",0.00
"2015-12-04 09:35",0.00
"2015-12-04 10:35",0.00
"2015-12-04 11:35",0.00
"2015-12-04 12:35",0.00
"2015-12-04 13:35",0.00
"2015-12-04 14:35",0.00
"2015-12-04 15:35",0.00
"2015-12-04 16:35",0.00
"2015-12-04 17:35",0.00
"2015-12-04 18:35",0.00
"2015-12-04 19:35",0.00
"2015-12-04 20:35",0.00
"2015-12-04 21:35",0.00
"2015-12-04 22:35",0.00
"2015-12-04 23:35",0.00
"2015-12-05 00:35",0.00
"2015-12-05 01:35",0.00
"2015-12-05 02:35",0.00
"2015-12-05 03:35",0.00
"2015-12-05 04:35",0.00
"2015-12-05 05:35",0.00
"2015-12-05 06:35",0.00
"2015-12-05 07:35",0.00
"2015-12-05 08:35",0.00
"2015-12-05 09:35",0.00
"2015-12-05 10:35",0.00
"2015-12-05 11:35",0.00
"2015-12-05 12:35",0.00
"2015-12-05 13:35",0.00
"2015-12-05 14:35",0.00
"2015-12-05 15:35",0.00
"2015-12-05 16:35",0.00
"2015-12-05 17:35",0.00
"2015-12-05 18:35",0.00
"2015-12-05 19:35",0.00
"2015-12-05 20:35",0.00
"2015-12-05 21:35",0.00
"2015-12-05 22:35",0.00
"2015-12-05 23:35",0.00
"2015-12-06 00:35",0.00
"2015-12-06 01:35",0.00
"2015-12-06 02:35",0.00
"2015-12-06 03:35",0.00
"2015-12-06 04:35",0.00
"2015-12-06 05:35",0.00
"2015-12-06 06:35",0.00
"2015-12-06 07:35",0.00
"2015-12-06 08:35",0.00
"2015-12-06 09:35",0.00
"2015-12-06 10:35",0.00
"2015-12-06 11:35",0.00
"2015-12-06 12:35",0.00
"2015-12-06 13:35",0.00
"2015-12-06 14:35",0.00
"2015-12-06 15:35",0.00
"2015-12-06 16:35",0.00
"2015-12-06 17:35",0.00
"2015-12-06 18:35",0.00
"2015-12-06 19:35",0.00
"2015-12-06 20:35",0.00
"2015-12-06 21:35",0.00
"2015-12-06 22:35",0.00
"2015-12-06 23:35",0.00
"2015-12-07 00:35",0.00
"2015-12-07 01:35",0.00
"2015-12-07 02:35",0.00
"2015-12-07 03:35",0.00
"2015-12-07 04:35",0.00
"2015-12-07 05:35",0.00
"2015-12-07 06:35",0.00
"2015-12-07 07:35",0.00
"2015-12-07 08:35",0.00
"2015-12-07 09:35",0.00
"2015-12-07 10:35",0.00
"2015-12-07 11:35",0.00
"2015-12-07 12:35",0.00
"2015-12-07 13:35",0.00
"2015-12-07 14:35",0.00
"2015-12-07 15:35",0.00
"2015-12-07 16:35",0.00
"2015-12-07 17:35",0.00
"2015-12-07 18:35",0.00
"2015-12-07 19:35",0.00
"2015-12-07 20:35",0.00
"2015-12-07 21:35",0.00
"2015-12-07 22:35",0.00
"2015-12-07 23:35",0.00
"2015-12-08 00:35",0.00
"2015-12-08 01:35",0.00
"2015-12-08 02:35",0.00
"2015-12-08 03:35",0.00
"2015-12-08 04:35",0.00
"2015-12-08 05:35",0.00
"2015-12-08 06:35",0.00
"2015-12-08 07:35",0.00
"2015-12-08 08:35",0.00
"2015-12-08 09:35",0.00
"2015-12-08 10:35",0.00
"2015-12-08 11:35",0.00
"2015-12-08 12:35",0.00
"2015-12-08 13:35",0.00
"2015-12-08 14:35",0.00
"2015-12-08 15:35",0.00
"2015-12-08 16:35",0.00
"2015-12-08 17:35",0.00
"2015-12-08 18:35",0.00
"2015-12-08 19:35",0.00
"2015-12-08 20:35",0.00
"2015-12-08 21:35",0.00
"2015-12-08 22:35",0.00
"2015-12-08 23:35",0.00
"2015-12-09 00:35",0.00
"2015-12-09 01:35",0.00
"2015-12-09 02:35",0.00
"2015-12-09 03:35",0.00
"2015-12-09 04:35",0.00
"2015-12-09 05:35",0.00
"2015-12-09 06:35",0.00
"2015-12-09 07:35",0.00
"2015-12-09 08:35",0.00
