"2017-11-20 11:45",261.21
"2017-11-20 12:00",261.21
"2017-11-20 12:15",261.21
"2017-11-20 12:20",261.22
"2017-11-20 12:25",261.20
"2017-11-20 12:30",261.22
"2017-11-20 12:45",261.21
"2017-11-20 13:00",261.21
"2017-11-20 13:15",261.21
"2017-11-20 13:20",261.22
"2017-11-20 13:25",261.22
"2017-11-20 13:30",261.22
"2017-11-20 13:45",261.21
"2017-11-20 14:00",261.22
"2017-11-20 14:15",261.21
"2017-11-20 14:20",261.22
"2017-11-20 14:25",261.21
"2017-11-20 14:30",261.20
"2017-11-20 14:45",261.21
"2017-11-20 15:00",261.21
"2017-11-20 15:15",261.21
"2017-11-20 15:20",261.22
"2017-11-20 15:25",261.21
"2017-11-20 15:30",261.22
"2017-11-20 15:45",261.21
"2017-11-20 16:00",261.21
"2017-11-20 16:15",261.21
"2017-11-20 16:20",261.21
"2017-11-20 16:25",261.21
"2017-11-20 16:30",261.20
"2017-11-20 16:45",261.21
"2017-11-20 17:00",261.21
"2017-11-20 17:15",261.21
"2017-11-20 17:20",261.20
"2017-11-20 17:25",261.21
"2017-11-20 17:30",261.20
"2017-11-20 17:45",261.21
"2017-11-20 18:00",261.21
"2017-11-20 18:15",261.21
"2017-11-20 18:20",261.21
"2017-11-20 18:25",261.21
"2017-11-20 18:30",261.21
"2017-11-20 18:45",261.21
"2017-11-20 19:00",261.21
"2017-11-20 19:15",261.21
"2017-11-20 19:20",261.21
"2017-11-20 19:25",261.21
"2017-11-20 19:30",261.21
"2017-11-20 19:45",261.21
"2017-11-20 20:00",261.21
"2017-11-20 20:15",261.21
"2017-11-20 20:20",261.21
"2017-11-20 20:25",261.21
"2017-11-20 20:30",261.21
"2017-11-20 20:45",261.21
"2017-11-20 21:00",261.21
"2017-11-20 21:15",261.20
"2017-11-20 21:20",261.20
"2017-11-20 21:25",261.20
"2017-11-20 21:30",261.20
"2017-11-20 21:45",261.20
"2017-11-20 22:00",261.20
"2017-11-20 22:15",261.20
"2017-11-20 22:20",261.20
"2017-11-20 22:25",261.20
"2017-11-20 22:30",261.20
"2017-11-20 22:45",261.20
"2017-11-20 23:00",261.20
"2017-11-20 23:15",261.21
"2017-11-20 23:20",261.21
"2017-11-20 23:25",261.21
"2017-11-20 23:30",261.21
"2017-11-20 23:45",261.21
"2017-11-21 00:00",261.21
"2017-11-21 00:15",261.21
"2017-11-21 00:20",261.21
"2017-11-21 00:25",261.21
"2017-11-21 00:30",261.20
"2017-11-21 00:45",261.20
"2017-11-21 01:00",261.20
"2017-11-21 01:15",261.20
"2017-11-21 01:20",261.20
"2017-11-21 01:25",261.20
"2017-11-21 01:30",261.20
"2017-11-21 01:45",261.20
"2017-11-21 02:00",261.19
"2017-11-21 02:15",261.19
"2017-11-21 02:20",261.19
"2017-11-21 02:25",261.20
"2017-11-21 02:30",261.20
"2017-11-21 02:45",261.20
"2017-11-21 03:00",261.20
"2017-11-21 03:15",261.20
"2017-11-21 03:20",261.20
"2017-11-21 03:25",261.20
"2017-11-21 03:30",261.20
"2017-11-21 03:45",261.20
"2017-11-21 04:00",261.20
"2017-11-21 04:15",261.20
"2017-11-21 04:20",261.20
"2017-11-21 04:25",261.20
"2017-11-21 04:30",261.20
"2017-11-21 04:45",261.20
"2017-11-21 05:00",261.20
"2017-11-21 05:15",261.20
"2017-11-21 05:20",261.20
"2017-11-21 05:25",261.20
"2017-11-21 05:30",261.20
"2017-11-21 05:45",261.20
"2017-11-21 06:00",261.20
"2017-11-21 06:15",261.20
"2017-11-21 06:20",261.20
"2017-11-21 06:25",261.20
"2017-11-21 06:30",261.20
"2017-11-21 06:45",261.20
"2017-11-21 07:00",261.20
"2017-11-21 07:15",261.20
"2017-11-21 07:20",261.20
"2017-11-21 07:25",261.20
"2017-11-21 07:30",261.20
"2017-11-21 07:45",261.20
"2017-11-21 08:00",261.20
"2017-11-21 08:15",261.20
"2017-11-21 08:20",261.20
"2017-11-21 08:25",261.20
"2017-11-21 08:30",261.20
"2017-11-21 08:45",261.20
"2017-11-21 09:00",261.20
"2017-11-21 09:15",261.20
"2017-11-21 09:20",261.20
"2017-11-21 09:25",261.20
"2017-11-21 09:30",261.20
"2017-11-21 09:45",261.20
"2017-11-21 10:00",261.21
"2017-11-21 10:15",261.71
"2017-11-21 10:20",261.21
"2017-11-21 10:25",261.21
"2017-11-21 10:30",261.21
"2017-11-21 10:45",261.21
"2017-11-21 11:00",261.21
"2017-11-21 11:15",261.21
"2017-11-21 11:20",261.21
"2017-11-21 11:25",261.21
"2017-11-21 11:30",261.21
"2017-11-21 11:45",261.21
"2017-11-21 12:00",261.21
"2017-11-21 12:15",261.21
"2017-11-21 12:20",261.21
"2017-11-21 12:25",261.20
"2017-11-21 12:30",261.22
"2017-11-21 12:45",261.21
"2017-11-21 13:00",261.21
"2017-11-21 13:15",261.21
"2017-11-21 13:20",261.21
"2017-11-21 13:25",261.21
"2017-11-21 13:30",261.22
"2017-11-21 13:45",261.21
"2017-11-21 14:00",261.21
"2017-11-21 14:15",261.20
"2017-11-21 14:20",261.21
"2017-11-21 14:25",261.20
"2017-11-21 14:30",261.20
"2017-11-21 14:45",261.21
"2017-11-21 15:00",261.21
"2017-11-21 15:15",261.21
"2017-11-21 15:20",261.21
"2017-11-21 15:25",261.21
"2017-11-21 15:30",261.20
"2017-11-21 15:45",261.71
"2017-11-21 16:00",261.20
"2017-11-21 16:15",261.21
"2017-11-21 16:20",261.21
"2017-11-21 16:25",261.21
"2017-11-21 16:30",261.21
"2017-11-21 16:45",261.21
"2017-11-21 17:00",261.21
"2017-11-21 17:15",261.21
"2017-11-21 17:20",261.21
"2017-11-21 17:25",261.21
"2017-11-21 17:30",261.21
"2017-11-21 17:45",261.21
"2017-11-21 18:00",261.21
"2017-11-21 18:15",261.21
"2017-11-21 18:20",261.21
"2017-11-21 18:25",261.21
"2017-11-21 18:30",261.21
"2017-11-21 18:45",261.21
"2017-11-21 19:00",261.21
"2017-11-21 19:15",261.21
"2017-11-21 19:20",261.21
"2017-11-21 19:25",261.21
"2017-11-21 19:30",261.21
"2017-11-21 19:45",261.21
"2017-11-21 20:00",261.21
"2017-11-21 20:15",261.21
"2017-11-21 20:20",261.21
"2017-11-21 20:25",261.21
"2017-11-21 20:30",261.21
"2017-11-21 20:45",261.21
"2017-11-21 21:00",261.71
"2017-11-21 21:15",261.21
"2017-11-21 21:20",261.21
"2017-11-21 21:25",261.21
"2017-11-21 21:30",261.20
"2017-11-21 21:45",261.21
"2017-11-21 22:00",261.71
"2017-11-21 22:15",261.21
"2017-11-21 22:20",261.21
"2017-11-21 22:25",261.21
"2017-11-21 22:30",261.21
"2017-11-21 22:45",261.21
"2017-11-21 23:00",261.21
"2017-11-21 23:15",261.21
"2017-11-21 23:20",261.21
"2017-11-21 23:25",261.21
"2017-11-21 23:30",261.21
"2017-11-21 23:45",261.21
"2017-11-22 00:00",261.21
"2017-11-22 00:15",261.71
"2017-11-22 00:20",261.20
"2017-11-22 00:25",261.21
"2017-11-22 00:30",261.20
"2017-11-22 00:45",261.20
"2017-11-22 01:00",261.20
"2017-11-22 01:15",261.20
"2017-11-22 01:20",261.20
"2017-11-22 01:25",261.20
"2017-11-22 01:30",261.20
"2017-11-22 01:45",261.20
"2017-11-22 02:00",261.21
"2017-11-22 02:15",261.19
"2017-11-22 02:20",261.19
"2017-11-22 02:25",261.19
"2017-11-22 02:30",261.19
"2017-11-22 02:45",261.19
"2017-11-22 03:00",261.19
"2017-11-22 03:15",261.19
"2017-11-22 03:20",261.19
"2017-11-22 03:25",261.19
"2017-11-22 03:30",261.19
"2017-11-22 03:45",261.19
"2017-11-22 04:00",261.19
"2017-11-22 04:15",261.19
"2017-11-22 04:20",261.19
"2017-11-22 04:25",261.19
"2017-11-22 04:30",261.19
"2017-11-22 04:45",261.19
"2017-11-22 05:00",261.16
"2017-11-22 05:15",261.17
"2017-11-22 05:20",261.19
"2017-11-22 05:25",261.19
"2017-11-22 05:30",261.19
"2017-11-22 05:45",261.19
"2017-11-22 06:00",261.20
"2017-11-22 06:15",261.20
"2017-11-22 06:20",261.20
"2017-11-22 06:25",261.20
"2017-11-22 06:30",261.20
"2017-11-22 06:45",261.20
"2017-11-22 07:00",261.20
"2017-11-22 07:15",261.20
"2017-11-22 07:20",261.19
"2017-11-22 07:25",261.19
"2017-11-22 07:30",261.19
"2017-11-22 07:45",261.19
"2017-11-22 08:00",261.19
"2017-11-22 08:15",261.19
"2017-11-22 08:20",261.20
"2017-11-22 08:25",261.20
"2017-11-22 08:30",261.20
"2017-11-22 08:45",261.20
"2017-11-22 09:00",261.20
"2017-11-22 09:15",261.20
"2017-11-22 09:20",261.20
"2017-11-22 09:25",261.20
"2017-11-22 09:30",261.20
"2017-11-22 09:45",261.20
"2017-11-22 10:00",261.20
"2017-11-22 10:15",261.21
"2017-11-22 10:20",261.20
"2017-11-22 10:25",261.21
"2017-11-22 10:30",261.21
"2017-11-22 10:45",261.21
"2017-11-22 11:00",261.71
"2017-11-22 11:15",261.71
"2017-11-22 11:20",261.21
"2017-11-22 11:25",261.21
"2017-11-22 11:30",261.21
"2017-11-22 11:45",261.21
"2017-11-22 12:00",261.71
"2017-11-22 12:15",261.21
"2017-11-22 12:20",261.21
"2017-11-22 12:25",261.21
"2017-11-22 12:30",261.21
"2017-11-22 12:45",261.21
"2017-11-22 13:00",261.21
"2017-11-22 13:15",261.21
"2017-11-22 13:20",261.21
"2017-11-22 13:25",261.21
"2017-11-22 13:30",261.21
"2017-11-22 13:45",261.21
"2017-11-22 14:00",261.21
"2017-11-22 14:15",261.21
"2017-11-22 14:20",261.21
"2017-11-22 14:25",261.21
"2017-11-22 14:30",261.21
"2017-11-22 14:45",261.21
"2017-11-22 15:00",261.21
"2017-11-22 15:15",261.21
"2017-11-22 15:20",261.21
"2017-11-22 15:25",261.21
"2017-11-22 15:30",261.21
"2017-11-22 15:45",261.21
"2017-11-22 16:00",261.21
"2017-11-22 16:15",261.21
"2017-11-22 16:20",261.21
"2017-11-22 16:25",261.21
"2017-11-22 16:30",261.21
"2017-11-22 16:45",261.21
"2017-11-22 17:00",261.21
"2017-11-22 17:15",261.21
"2017-11-22 17:20",261.21
"2017-11-22 17:25",261.21
"2017-11-22 17:30",261.21
"2017-11-22 17:45",261.21
"2017-11-22 18:00",261.21
"2017-11-22 18:15",261.21
"2017-11-22 18:20",261.21
"2017-11-22 18:25",261.21
"2017-11-22 18:30",261.21
"2017-11-22 18:45",261.21
"2017-11-22 19:00",261.21
"2017-11-22 19:15",261.22
"2017-11-22 19:20",261.22
"2017-11-22 19:25",261.22
"2017-11-22 19:30",261.22
"2017-11-22 19:45",261.22
"2017-11-22 20:00",261.22
"2017-11-22 20:15",261.22
"2017-11-22 20:20",261.22
"2017-11-22 20:25",261.22
"2017-11-22 20:30",261.22
"2017-11-22 20:45",261.22
"2017-11-22 21:00",261.22
"2017-11-22 21:15",261.21
"2017-11-22 21:20",261.20
"2017-11-22 21:25",261.20
"2017-11-22 21:30",261.21
"2017-11-22 21:45",261.21
"2017-11-22 22:00",261.21
"2017-11-22 22:15",261.21
"2017-11-22 22:20",261.20
"2017-11-22 22:25",261.21
"2017-11-22 22:30",261.21
"2017-11-22 22:45",261.21
"2017-11-22 23:00",261.21
"2017-11-22 23:15",261.21
"2017-11-22 23:20",261.21
"2017-11-22 23:25",261.21
"2017-11-22 23:30",261.21
"2017-11-22 23:45",261.21
"2017-11-23 00:00",261.21
"2017-11-23 00:15",261.21
"2017-11-23 00:20",261.21
"2017-11-23 00:25",261.21
"2017-11-23 00:30",261.21
"2017-11-23 00:45",261.21
"2017-11-23 01:00",261.21
"2017-11-23 01:15",261.21
"2017-11-23 01:20",261.21
"2017-11-23 01:25",261.21
"2017-11-23 01:30",261.21
"2017-11-23 01:45",261.21
"2017-11-23 02:00",261.21
"2017-11-23 02:15",261.21
"2017-11-23 02:20",261.21
"2017-11-23 02:25",261.21
"2017-11-23 02:30",261.21
"2017-11-23 02:45",261.21
"2017-11-23 03:00",261.21
"2017-11-23 03:15",261.21
"2017-11-23 03:20",261.21
"2017-11-23 03:25",261.21
"2017-11-23 03:30",261.21
"2017-11-23 03:45",261.21
"2017-11-23 04:00",261.21
"2017-11-23 04:15",261.21
"2017-11-23 04:20",261.21
"2017-11-23 04:25",261.21
"2017-11-23 04:30",261.21
"2017-11-23 04:45",261.21
"2017-11-23 05:00",261.21
"2017-11-23 05:15",261.21
"2017-11-23 05:20",261.21
"2017-11-23 05:25",261.21
"2017-11-23 05:30",261.21
"2017-11-23 05:45",261.21
"2017-11-23 06:00",261.21
"2017-11-23 06:15",261.21
"2017-11-23 06:20",261.21
"2017-11-23 06:25",261.21
"2017-11-23 06:30",261.21
"2017-11-23 06:45",261.21
"2017-11-23 07:00",261.21
"2017-11-23 07:15",261.21
"2017-11-23 07:20",261.21
"2017-11-23 07:25",261.21
"2017-11-23 07:30",261.21
"2017-11-23 07:45",261.21
"2017-11-23 08:00",261.21
"2017-11-23 08:15",261.71
"2017-11-23 08:20",261.21
"2017-11-23 08:25",261.21
"2017-11-23 08:30",261.21
"2017-11-23 08:45",261.71
"2017-11-23 09:00",261.21
"2017-11-23 09:15",261.21
"2017-11-23 09:20",261.20
"2017-11-23 09:25",261.21
"2017-11-23 09:30",261.21
"2017-11-23 09:45",261.21
"2017-11-23 10:00",261.21
"2017-11-23 10:15",261.21
"2017-11-23 10:20",261.21
"2017-11-23 10:25",261.21
"2017-11-23 10:30",261.20
"2017-11-23 10:45",261.71
"2017-11-23 11:00",261.71
"2017-11-23 11:15",261.20
"2017-11-23 11:20",261.21
"2017-11-23 11:25",261.20
"2017-11-23 11:30",261.20
"2017-11-23 11:45",261.20
"2017-11-23 12:00",261.21
"2017-11-23 12:15",261.21
"2017-11-23 12:20",261.20
"2017-11-23 12:25",261.21
"2017-11-23 12:30",261.20
"2017-11-23 12:45",261.21
"2017-11-23 13:00",261.21
"2017-11-23 13:15",261.21
"2017-11-23 13:20",261.20
"2017-11-23 13:25",261.21
"2017-11-23 13:30",261.21
"2017-11-23 13:45",261.21
"2017-11-23 14:00",261.21
"2017-11-23 14:15",261.21
"2017-11-23 14:20",261.20
"2017-11-23 14:25",261.20
"2017-11-23 14:30",261.20
"2017-11-23 14:45",261.20
"2017-11-23 15:00",261.21
"2017-11-23 15:15",261.20
"2017-11-23 15:20",261.20
"2017-11-23 15:25",261.20
"2017-11-23 15:30",261.20
"2017-11-23 15:45",261.20
"2017-11-23 16:00",261.20
"2017-11-23 16:15",261.20
"2017-11-23 16:20",261.20
"2017-11-23 16:25",261.20
"2017-11-23 16:30",261.20
"2017-11-23 16:45",261.20
"2017-11-23 17:00",261.20
"2017-11-23 17:15",261.71
"2017-11-23 17:20",261.21
"2017-11-23 17:25",261.21
"2017-11-23 17:30",261.21
"2017-11-23 17:45",261.21
"2017-11-23 18:00",261.21
"2017-11-23 18:15",261.21
"2017-11-23 18:20",261.21
"2017-11-23 18:25",261.21
"2017-11-23 18:30",261.21
"2017-11-23 18:45",261.21
"2017-11-23 19:00",261.21
"2017-11-23 19:15",261.21
"2017-11-23 19:20",261.21
"2017-11-23 19:25",261.21
"2017-11-23 19:30",261.21
"2017-11-23 19:45",261.21
"2017-11-23 20:00",261.21
"2017-11-23 20:15",261.21
"2017-11-23 20:20",261.21
"2017-11-23 20:25",261.21
"2017-11-23 20:30",261.21
"2017-11-23 20:45",261.21
"2017-11-23 21:00",261.71
"2017-11-23 21:15",261.20
"2017-11-23 21:20",261.21
"2017-11-23 21:25",261.20
"2017-11-23 21:30",261.20
"2017-11-23 21:45",261.20
"2017-11-23 22:00",261.20
"2017-11-23 22:15",261.21
"2017-11-23 22:20",261.19
"2017-11-23 22:25",261.19
"2017-11-23 22:30",261.19
"2017-11-23 22:45",261.19
"2017-11-23 23:00",261.20
"2017-11-23 23:15",261.20
"2017-11-23 23:20",261.20
"2017-11-23 23:25",261.20
"2017-11-23 23:30",261.20
"2017-11-23 23:45",261.20
"2017-11-24 00:00",261.20
"2017-11-24 00:15",261.21
"2017-11-24 00:20",261.20
"2017-11-24 00:25",261.20
"2017-11-24 00:30",261.20
"2017-11-24 00:45",261.20
"2017-11-24 01:00",261.71
"2017-11-24 01:15",261.20
"2017-11-24 01:20",261.20
"2017-11-24 01:25",261.21
"2017-11-24 01:30",261.20
"2017-11-24 01:45",261.21
"2017-11-24 02:00",261.71
"2017-11-24 02:15",261.20
"2017-11-24 02:20",261.20
"2017-11-24 02:25",261.21
"2017-11-24 02:30",261.20
"2017-11-24 02:45",261.21
"2017-11-24 03:00",261.71
"2017-11-24 03:15",261.20
"2017-11-24 03:20",261.20
"2017-11-24 03:25",261.20
"2017-11-24 03:30",261.20
"2017-11-24 03:45",261.20
"2017-11-24 04:00",261.21
"2017-11-24 04:15",261.20
"2017-11-24 04:20",261.20
"2017-11-24 04:25",261.21
"2017-11-24 04:30",261.20
"2017-11-24 04:45",261.20
"2017-11-24 05:00",261.20
"2017-11-24 05:15",261.20
"2017-11-24 05:20",261.20
"2017-11-24 05:25",261.20
"2017-11-24 05:30",261.20
"2017-11-24 05:45",261.20
"2017-11-24 06:00",261.20
"2017-11-24 06:15",261.20
"2017-11-24 06:20",261.20
"2017-11-24 06:25",261.20
"2017-11-24 06:30",261.20
"2017-11-24 06:45",261.20
"2017-11-24 07:00",261.20
"2017-11-24 07:15",261.20
"2017-11-24 07:20",261.20
"2017-11-24 07:25",261.20
"2017-11-24 07:30",261.20
"2017-11-24 07:45",261.20
"2017-11-24 08:00",261.20
"2017-11-24 08:15",261.20
"2017-11-24 08:20",261.20
"2017-11-24 08:25",261.20
"2017-11-24 08:30",261.20
"2017-11-24 08:45",261.20
"2017-11-24 09:00",261.20
"2017-11-24 09:15",261.20
"2017-11-24 09:20",261.20
"2017-11-24 09:25",261.20
"2017-11-24 09:30",261.20
"2017-11-24 09:45",261.20
"2017-11-24 10:00",261.20
"2017-11-24 10:15",261.20
"2017-11-24 10:20",261.20
"2017-11-24 10:25",261.20
"2017-11-24 10:30",261.20
"2017-11-24 10:45",261.20
"2017-11-24 11:00",261.20
"2017-11-24 11:15",261.20
"2017-11-24 11:20",261.20
"2017-11-24 11:25",261.20
"2017-11-24 11:30",261.20
"2017-11-24 11:45",261.20
"2017-11-24 12:00",261.20
"2017-11-24 12:15",261.20
"2017-11-24 12:20",261.20
"2017-11-24 12:25",261.20
"2017-11-24 12:30",261.20
"2017-11-24 12:45",261.20
"2017-11-24 13:00",261.21
"2017-11-24 13:15",261.71
"2017-11-24 13:20",261.20
"2017-11-24 13:25",261.20
"2017-11-24 13:30",261.21
"2017-11-24 13:45",261.71
"2017-11-24 14:00",261.21
"2017-11-24 14:15",261.21
"2017-11-24 14:20",261.21
"2017-11-24 14:25",261.21
"2017-11-24 14:30",261.21
"2017-11-24 14:45",261.21
"2017-11-24 15:00",261.21
"2017-11-24 15:15",261.22
"2017-11-24 15:20",261.21
"2017-11-24 15:25",261.21
"2017-11-24 15:30",261.21
"2017-11-24 15:45",261.21
"2017-11-24 16:00",261.20
"2017-11-24 16:15",261.20
"2017-11-24 16:20",261.20
"2017-11-24 16:25",261.20
"2017-11-24 16:30",261.20
"2017-11-24 16:45",261.21
"2017-11-24 17:00",261.32
"2017-11-24 17:15",261.36
"2017-11-24 17:20",261.38
"2017-11-24 17:25",261.30
"2017-11-24 17:30",261.30
"2017-11-24 17:45",261.32
"2017-11-24 18:00",261.37
"2017-11-24 18:15",261.30
"2017-11-24 18:20",261.30
"2017-11-24 18:25",261.30
"2017-11-24 18:30",261.30
"2017-11-24 18:45",261.32
"2017-11-24 19:00",261.30
"2017-11-24 19:15",261.30
"2017-11-24 19:20",261.30
"2017-11-24 19:25",261.30
"2017-11-24 19:30",261.30
"2017-11-24 19:45",261.30
"2017-11-24 20:00",261.27
"2017-11-24 20:15",261.20
"2017-11-24 20:20",261.20
"2017-11-24 20:25",261.21
"2017-11-24 20:30",261.20
"2017-11-24 20:45",261.21
"2017-11-24 21:00",261.71
"2017-11-24 21:15",261.21
"2017-11-24 21:20",261.21
"2017-11-24 21:25",261.21
"2017-11-24 21:30",261.20
"2017-11-24 21:45",261.20
"2017-11-24 22:00",261.71
"2017-11-24 22:15",261.20
"2017-11-24 22:20",261.20
"2017-11-24 22:25",261.21
"2017-11-24 22:30",261.20
"2017-11-24 22:45",261.20
"2017-11-24 23:00",261.21
"2017-11-24 23:15",261.21
"2017-11-24 23:20",261.20
"2017-11-24 23:25",261.20
"2017-11-24 23:30",261.20
"2017-11-24 23:45",261.20
"2017-11-25 00:00",261.71
"2017-11-25 00:15",261.20
"2017-11-25 00:20",261.20
"2017-11-25 00:25",261.20
"2017-11-25 00:30",261.20
"2017-11-25 00:45",261.20
"2017-11-25 01:00",261.20
"2017-11-25 01:15",261.20
"2017-11-25 01:20",261.20
"2017-11-25 01:25",261.20
"2017-11-25 01:30",261.20
"2017-11-25 01:45",261.20
"2017-11-25 02:00",261.20
"2017-11-25 02:15",261.27
"2017-11-25 02:20",261.30
"2017-11-25 02:25",261.30
"2017-11-25 02:30",261.19
"2017-11-25 02:45",261.25
"2017-11-25 03:00",261.19
"2017-11-25 03:15",261.19
"2017-11-25 03:20",261.18
"2017-11-25 03:25",261.19
"2017-11-25 03:30",261.19
"2017-11-25 03:45",261.19
"2017-11-25 04:00",261.19
"2017-11-25 04:15",261.19
"2017-11-25 04:20",261.20
"2017-11-25 04:25",261.20
"2017-11-25 04:30",261.20
"2017-11-25 04:45",261.20
"2017-11-25 05:00",261.21
"2017-11-25 05:15",261.20
"2017-11-25 05:20",261.20
"2017-11-25 05:25",261.20
"2017-11-25 05:30",261.20
"2017-11-25 05:45",261.20
"2017-11-25 06:00",261.20
"2017-11-25 06:15",261.20
"2017-11-25 06:20",261.20
"2017-11-25 06:25",261.20
"2017-11-25 06:30",261.20
"2017-11-25 06:45",261.20
"2017-11-25 07:00",261.20
"2017-11-25 07:15",261.20
"2017-11-25 07:20",261.20
"2017-11-25 07:25",261.20
"2017-11-25 07:30",261.20
"2017-11-25 07:45",261.20
"2017-11-25 08:00",261.20
"2017-11-25 08:15",261.20
"2017-11-25 08:20",261.20
"2017-11-25 08:25",261.20
"2017-11-25 08:30",261.20
"2017-11-25 08:45",261.20
"2017-11-25 09:00",261.20
"2017-11-25 09:15",261.20
"2017-11-25 09:20",261.20
"2017-11-25 09:25",261.20
"2017-11-25 09:30",261.20
"2017-11-25 09:45",261.20
"2017-11-25 10:00",261.20
"2017-11-25 10:15",261.28
"2017-11-25 10:20",261.19
"2017-11-25 10:25",261.19
"2017-11-25 10:30",261.19
"2017-11-25 10:45",261.19
"2017-11-25 11:00",261.25
"2017-11-25 11:15",261.30
"2017-11-25 11:20",261.30
"2017-11-25 11:25",261.30
"2017-11-25 11:30",261.30
"2017-11-25 11:45",261.29
"2017-11-25 12:00",261.20
"2017-11-25 12:15",261.20
"2017-11-25 12:20",261.20
"2017-11-25 12:25",261.20
"2017-11-25 12:30",261.20
"2017-11-25 12:45",261.20
"2017-11-25 13:00",261.21
"2017-11-25 13:15",261.20
"2017-11-25 13:20",261.20
"2017-11-25 13:25",261.20
"2017-11-25 13:30",261.20
"2017-11-25 13:45",261.20
"2017-11-25 14:00",261.21
"2017-11-25 14:15",261.20
"2017-11-25 14:20",261.20
"2017-11-25 14:25",261.21
"2017-11-25 14:30",261.20
"2017-11-25 14:45",261.20
"2017-11-25 15:00",261.20
"2017-11-25 15:15",261.20
"2017-11-25 15:20",261.20
"2017-11-25 15:25",261.20
"2017-11-25 15:30",261.20
"2017-11-25 15:45",261.20
"2017-11-25 16:00",261.20
"2017-11-25 16:15",261.20
"2017-11-25 16:20",261.20
"2017-11-25 16:25",261.20
"2017-11-25 16:30",261.20
"2017-11-25 16:45",261.20
"2017-11-25 17:00",261.20
"2017-11-25 17:15",261.20
"2017-11-25 17:20",261.20
"2017-11-25 17:25",261.20
"2017-11-25 17:30",261.20
"2017-11-25 17:45",261.20
"2017-11-25 18:00",261.20
"2017-11-25 18:15",261.20
"2017-11-25 18:20",261.20
"2017-11-25 18:25",261.20
"2017-11-25 18:30",261.20
"2017-11-25 18:45",261.20
"2017-11-25 19:00",261.20
"2017-11-25 19:15",261.20
"2017-11-25 19:20",261.20
"2017-11-25 19:25",261.20
"2017-11-25 19:30",261.20
"2017-11-25 19:45",261.20
"2017-11-25 20:00",261.20
"2017-11-25 20:15",261.20
"2017-11-25 20:20",261.20
"2017-11-25 20:25",261.20
"2017-11-25 20:30",261.20
"2017-11-25 20:45",261.20
"2017-11-25 21:00",261.20
"2017-11-25 21:15",261.20
"2017-11-25 21:20",261.20
"2017-11-25 21:25",261.20
"2017-11-25 21:30",261.20
"2017-11-25 21:45",261.20
"2017-11-25 22:00",261.20
"2017-11-25 22:15",261.20
"2017-11-25 22:20",261.20
"2017-11-25 22:25",261.20
"2017-11-25 22:30",261.20
"2017-11-25 22:45",261.20
"2017-11-25 23:00",261.20
"2017-11-25 23:15",261.20
"2017-11-25 23:20",261.20
"2017-11-25 23:25",261.20
"2017-11-25 23:30",261.20
"2017-11-25 23:45",261.20
"2017-11-26 00:00",261.20
"2017-11-26 00:15",261.20
"2017-11-26 00:20",261.20
"2017-11-26 00:25",261.20
"2017-11-26 00:30",261.20
"2017-11-26 00:45",261.20
"2017-11-26 01:00",261.20
"2017-11-26 01:15",261.20
"2017-11-26 01:20",261.20
"2017-11-26 01:25",261.20
"2017-11-26 01:30",261.20
"2017-11-26 01:45",261.20
"2017-11-26 02:00",261.20
"2017-11-26 02:15",261.20
"2017-11-26 02:20",261.20
"2017-11-26 02:25",261.20
"2017-11-26 02:30",261.20
"2017-11-26 02:45",261.20
"2017-11-26 03:00",261.20
"2017-11-26 03:15",261.19
"2017-11-26 03:20",261.19
"2017-11-26 03:25",261.19
"2017-11-26 03:30",261.19
"2017-11-26 03:45",261.19
"2017-11-26 04:00",261.19
"2017-11-26 04:15",261.19
"2017-11-26 04:20",261.19
"2017-11-26 04:25",261.19
"2017-11-26 04:30",261.00
"2017-11-26 04:45",261.07
"2017-11-26 05:00",261.18
"2017-11-26 05:15",261.19
"2017-11-26 05:20",261.19
"2017-11-26 05:25",261.18
"2017-11-26 05:30",261.18
"2017-11-26 05:45",261.18
"2017-11-26 06:00",261.18
"2017-11-26 06:15",261.18
"2017-11-26 06:20",261.18
"2017-11-26 06:25",261.18
"2017-11-26 06:30",261.18
"2017-11-26 06:45",261.18
"2017-11-26 07:00",261.19
"2017-11-26 07:15",261.18
"2017-11-26 07:20",261.19
"2017-11-26 07:25",261.19
"2017-11-26 07:30",261.19
"2017-11-26 07:45",261.19
"2017-11-26 08:00",261.19
"2017-11-26 08:15",261.19
"2017-11-26 08:20",261.19
"2017-11-26 08:25",261.19
"2017-11-26 08:30",261.19
"2017-11-26 08:45",261.19
"2017-11-26 09:00",261.19
"2017-11-26 09:15",261.19
"2017-11-26 09:20",261.19
"2017-11-26 09:25",261.19
"2017-11-26 09:30",261.19
"2017-11-26 09:45",261.19
"2017-11-26 10:00",261.13
"2017-11-26 10:15",261.15
"2017-11-26 10:20",261.10
"2017-11-26 10:25",261.18
"2017-11-26 10:30",261.10
"2017-11-26 10:45",261.08
"2017-11-26 11:00",261.00
"2017-11-26 11:15",261.20
"2017-11-26 11:20",261.20
"2017-11-26 11:25",261.21
"2017-11-26 11:30",261.20
"2017-11-26 11:45",261.21
"2017-11-26 12:00",261.21
"2017-11-26 12:15",261.71
"2017-11-26 12:20",261.21
"2017-11-26 12:25",261.21
"2017-11-26 12:30",261.21
"2017-11-26 12:45",261.21
"2017-11-26 13:00",261.20
"2017-11-26 13:15",261.71
"2017-11-26 13:20",261.20
"2017-11-26 13:25",261.20
"2017-11-26 13:30",261.21
"2017-11-26 13:45",261.21
"2017-11-26 14:00",261.21
"2017-11-26 14:15",261.20
"2017-11-26 14:20",261.21
"2017-11-26 14:25",261.21
"2017-11-26 14:30",261.20
"2017-11-26 14:45",261.20
"2017-11-26 15:00",261.20
"2017-11-26 15:15",261.20
"2017-11-26 15:20",261.20
"2017-11-26 15:25",261.20
"2017-11-26 15:30",261.20
"2017-11-26 15:45",261.20
"2017-11-26 16:00",261.09
"2017-11-26 16:15",261.00
"2017-11-26 16:20",261.00
"2017-11-26 16:25",261.00
"2017-11-26 16:30",261.00
"2017-11-26 16:45",261.00
"2017-11-26 17:00",261.00
"2017-11-26 17:15",261.00
"2017-11-26 17:20",261.00
"2017-11-26 17:25",261.00
"2017-11-26 17:30",261.00
"2017-11-26 17:45",261.00
"2017-11-26 18:00",261.00
"2017-11-26 18:15",261.00
"2017-11-26 18:20",261.00
"2017-11-26 18:25",261.00
"2017-11-26 18:30",261.00
"2017-11-26 18:45",261.00
"2017-11-26 19:00",261.00
"2017-11-26 19:15",261.00
"2017-11-26 19:20",261.00
"2017-11-26 19:25",261.00
"2017-11-26 19:30",261.00
"2017-11-26 19:45",261.01
"2017-11-26 20:00",261.19
"2017-11-26 20:15",261.19
"2017-11-26 20:20",261.19
"2017-11-26 20:25",261.19
"2017-11-26 20:30",261.18
"2017-11-26 20:45",261.19
"2017-11-26 21:00",261.19
"2017-11-26 21:15",261.19
"2017-11-26 21:20",261.18
"2017-11-26 21:25",261.18
"2017-11-26 21:30",261.18
"2017-11-26 21:45",261.18
"2017-11-26 22:00",261.18
"2017-11-26 22:15",261.18
"2017-11-26 22:20",261.18
"2017-11-26 22:25",261.18
"2017-11-26 22:30",261.18
"2017-11-26 22:45",261.18
"2017-11-26 23:00",261.18
"2017-11-26 23:15",261.18
"2017-11-26 23:20",261.18
"2017-11-26 23:25",261.18
"2017-11-26 23:30",261.18
"2017-11-26 23:45",261.18
"2017-11-27 00:00",261.19
"2017-11-27 00:15",261.18
"2017-11-27 00:20",261.18
"2017-11-27 00:25",261.19
"2017-11-27 00:30",261.19
"2017-11-27 00:45",261.18
"2017-11-27 01:00",261.18
"2017-11-27 01:15",261.18
"2017-11-27 01:20",261.18
"2017-11-27 01:25",261.18
"2017-11-27 01:30",261.18
"2017-11-27 01:45",261.18
"2017-11-27 02:00",261.18
"2017-11-27 02:15",261.18
"2017-11-27 02:20",261.19
"2017-11-27 02:25",261.19
"2017-11-27 02:30",261.18
"2017-11-27 02:45",261.18
"2017-11-27 03:00",261.19
"2017-11-27 03:15",261.19
"2017-11-27 03:20",261.19
"2017-11-27 03:25",261.19
"2017-11-27 03:30",261.19
"2017-11-27 03:45",261.19
"2017-11-27 04:00",261.19
"2017-11-27 04:15",261.19
"2017-11-27 04:20",261.19
"2017-11-27 04:25",261.19
"2017-11-27 04:30",261.19
"2017-11-27 04:45",261.19
"2017-11-27 05:00",261.19
"2017-11-27 05:15",261.19
"2017-11-27 05:20",261.19
"2017-11-27 05:25",261.19
"2017-11-27 05:30",261.19
"2017-11-27 05:45",261.19
"2017-11-27 06:00",261.19
"2017-11-27 06:15",261.19
"2017-11-27 06:20",261.19
"2017-11-27 06:25",261.19
"2017-11-27 06:30",261.18
"2017-11-27 06:45",261.19
"2017-11-27 07:00",261.19
"2017-11-27 07:15",261.19
"2017-11-27 07:20",261.19
"2017-11-27 07:25",261.19
"2017-11-27 07:30",261.19
"2017-11-27 07:45",261.19
"2017-11-27 08:00",261.19
"2017-11-27 08:15",261.19
"2017-11-27 08:20",261.18
"2017-11-27 08:25",261.19
"2017-11-27 08:30",261.19
"2017-11-27 08:45",261.19
"2017-11-27 09:00",261.19
"2017-11-27 09:15",261.19
"2017-11-27 09:20",261.19
"2017-11-27 09:25",261.19
"2017-11-27 09:30",261.19
"2017-11-27 09:45",261.13
"2017-11-27 10:00",261.00
"2017-11-27 10:15",261.00
"2017-11-27 10:20",261.00
"2017-11-27 10:25",261.00
"2017-11-27 10:30",261.00
