"2018-01-22 13:55",0.00
"2018-01-22 14:55",0.00
"2018-01-22 15:55",0.00
"2018-01-22 16:55",0.00
"2018-01-22 17:55",0.00
"2018-01-22 18:55",0.00
"2018-01-22 19:55",0.00
"2018-01-22 20:55",0.00
"2018-01-22 21:55",0.00
"2018-01-22 22:55",0.00
"2018-01-22 23:55",0.00
"2018-01-23 00:55",0.00
"2018-01-23 01:55",0.00
"2018-01-23 02:55",0.00
"2018-01-23 03:55",0.00
"2018-01-23 04:55",0.00
"2018-01-23 05:55",0.00
"2018-01-23 06:55",0.00
"2018-01-23 07:55",0.00
"2018-01-23 08:55",0.00
"2018-01-23 09:55",0.00
"2018-01-23 10:55",0.00
"2018-01-23 11:55",0.00
"2018-01-23 12:55",0.00
"2018-01-23 13:55",0.00
"2018-01-23 14:55",0.00
"2018-01-23 15:55",0.00
"2018-01-23 16:55",0.00
"2018-01-23 17:55",0.00
"2018-01-23 18:55",0.00
"2018-01-23 19:55",0.00
"2018-01-23 20:55",0.00
"2018-01-23 21:55",0.00
"2018-01-23 22:55",0.00
"2018-01-23 23:55",0.00
"2018-01-24 00:55",0.00
"2018-01-24 01:55",0.00
"2018-01-24 02:55",0.00
"2018-01-24 03:55",0.00
"2018-01-24 04:55",0.00
"2018-01-24 05:55",0.00
"2018-01-24 06:55",0.00
"2018-01-24 07:55",0.00
"2018-01-24 08:55",0.00
"2018-01-24 09:55",0.00
"2018-01-24 10:55",0.00
"2018-01-24 11:55",0.00
"2018-01-24 12:55",0.00
"2018-01-24 13:55",0.00
"2018-01-24 14:55",0.00
"2018-01-24 15:55",0.00
"2018-01-24 16:55",0.00
"2018-01-24 17:55",0.00
"2018-01-24 18:55",0.00
"2018-01-24 19:55",0.00
"2018-01-24 20:55",0.00
"2018-01-24 21:55",0.00
"2018-01-24 22:55",0.00
"2018-01-24 23:55",0.00
"2018-01-25 00:55",0.00
"2018-01-25 01:55",0.00
"2018-01-25 02:55",0.00
"2018-01-25 03:55",0.00
"2018-01-25 04:55",0.00
"2018-01-25 05:55",0.00
"2018-01-25 06:55",0.00
"2018-01-25 07:55",0.00
"2018-01-25 08:55",0.00
"2018-01-25 09:55",0.00
"2018-01-25 10:55",0.00
"2018-01-25 11:55",0.00
"2018-01-25 12:55",0.00
"2018-01-25 13:55",0.00
"2018-01-25 14:55",0.00
"2018-01-25 15:55",0.00
"2018-01-25 16:55",0.00
"2018-01-25 17:55",0.00
"2018-01-25 18:55",0.00
"2018-01-25 19:55",0.00
"2018-01-25 20:55",0.00
"2018-01-25 21:55",0.00
"2018-01-25 22:55",0.00
"2018-01-25 23:55",0.00
"2018-01-26 00:55",0.00
"2018-01-26 01:55",0.00
"2018-01-26 02:55",0.00
"2018-01-26 03:55",0.00
"2018-01-26 04:55",0.00
"2018-01-26 05:55",0.00
"2018-01-26 06:55",0.00
"2018-01-26 07:55",0.00
"2018-01-26 08:55",0.00
"2018-01-26 09:55",0.00
"2018-01-26 10:55",0.00
"2018-01-26 11:55",0.00
"2018-01-26 12:55",0.00
"2018-01-26 13:55",0.00
"2018-01-26 14:55",0.00
"2018-01-26 15:55",0.00
"2018-01-26 16:55",0.00
"2018-01-26 17:55",0.00
"2018-01-26 18:55",0.00
"2018-01-26 19:55",0.00
"2018-01-26 20:55",0.00
"2018-01-26 21:55",0.00
"2018-01-26 22:55",0.00
"2018-01-26 23:55",0.00
"2018-01-27 00:55",0.00
"2018-01-27 01:55",0.00
"2018-01-27 02:55",0.00
"2018-01-27 03:55",0.00
"2018-01-27 04:55",0.00
"2018-01-27 05:55",0.00
"2018-01-27 06:55",0.00
"2018-01-27 07:55",0.00
"2018-01-27 08:55",0.00
"2018-01-27 09:55",0.00
"2018-01-27 10:55",0.00
"2018-01-27 11:55",0.00
"2018-01-27 12:55",0.00
"2018-01-27 13:55",0.00
"2018-01-27 14:55",0.00
"2018-01-27 15:55",0.00
"2018-01-27 16:55",0.00
"2018-01-27 17:55",0.00
"2018-01-27 18:55",0.00
"2018-01-27 19:55",0.00
"2018-01-27 20:55",0.00
"2018-01-27 21:55",0.00
"2018-01-27 22:55",0.00
"2018-01-27 23:55",0.00
"2018-01-28 00:55",0.00
"2018-01-28 01:55",0.00
"2018-01-28 02:55",0.00
"2018-01-28 03:55",0.00
"2018-01-28 04:55",0.00
"2018-01-28 05:55",0.00
"2018-01-28 06:55",0.00
"2018-01-28 07:55",0.00
"2018-01-28 08:55",0.00
"2018-01-28 09:55",0.00
"2018-01-28 10:55",0.00
"2018-01-28 11:55",0.00
"2018-01-28 12:55",0.00
"2018-01-28 13:55",0.00
"2018-01-28 14:55",0.00
"2018-01-28 15:55",0.00
"2018-01-28 16:55",0.00
"2018-01-28 17:55",0.00
"2018-01-28 18:55",0.00
"2018-01-28 19:55",0.00
"2018-01-28 20:55",0.00
"2018-01-28 21:55",0.00
"2018-01-28 22:55",0.00
"2018-01-28 23:55",0.00
"2018-01-29 00:55",0.00
"2018-01-29 01:55",0.00
"2018-01-29 02:55",0.00
"2018-01-29 03:55",0.00
"2018-01-29 04:55",0.00
"2018-01-29 05:55",0.00
"2018-01-29 06:55",0.00
"2018-01-29 07:55",0.00
"2018-01-29 08:55",0.00
"2018-01-29 09:55",0.00
"2018-01-29 10:55",0.00
"2018-01-29 11:55",0.00
