"2018-03-13 09:45",28.82
"2018-03-13 10:00",28.82
"2018-03-13 10:15",28.82
"2018-03-13 10:30",28.84
"2018-03-13 10:45",28.86
"2018-03-13 11:00",28.86
"2018-03-13 11:15",28.86
"2018-03-13 11:30",28.86
"2018-03-13 11:45",28.86
"2018-03-13 12:00",28.86
"2018-03-13 12:15",28.89
"2018-03-13 12:30",28.89
"2018-03-13 12:45",28.89
"2018-03-13 13:00",28.89
"2018-03-13 13:15",28.89
"2018-03-13 13:30",28.91
"2018-03-13 13:45",28.92
"2018-03-13 14:00",28.92
"2018-03-13 14:15",28.92
"2018-03-13 14:30",28.93
"2018-03-13 14:45",28.96
"2018-03-13 15:00",28.96
"2018-03-13 15:15",28.96
"2018-03-13 15:30",28.96
"2018-03-13 15:45",28.96
"2018-03-13 16:00",28.96
"2018-03-13 16:15",28.96
"2018-03-13 16:30",28.99
"2018-03-13 16:45",28.99
"2018-03-13 17:00",28.99
"2018-03-13 17:15",28.99
"2018-03-13 17:30",29.00
"2018-03-13 17:45",28.99
"2018-03-13 18:00",28.99
"2018-03-13 18:15",28.99
"2018-03-13 18:30",29.01
"2018-03-13 18:45",29.02
"2018-03-13 19:00",29.02
"2018-03-13 19:15",29.02
"2018-03-13 19:30",29.02
"2018-03-13 19:45",29.03
"2018-03-13 20:00",29.06
"2018-03-13 20:15",29.06
"2018-03-13 20:30",29.06
"2018-03-13 20:45",29.06
"2018-03-13 21:00",29.06
"2018-03-13 21:15",29.06
"2018-03-13 21:30",29.06
"2018-03-13 21:45",29.09
"2018-03-13 22:00",29.09
"2018-03-13 22:15",29.09
"2018-03-13 22:30",29.09
"2018-03-13 22:45",29.09
"2018-03-13 23:00",29.09
"2018-03-13 23:15",29.09
"2018-03-13 23:30",29.09
"2018-03-13 23:45",29.09
"2018-03-14 00:00",29.09
"2018-03-14 00:15",29.09
"2018-03-14 00:30",29.09
"2018-03-14 00:45",29.09
"2018-03-14 01:00",29.09
"2018-03-14 01:15",29.12
"2018-03-14 01:30",29.16
"2018-03-14 01:45",29.16
"2018-03-14 02:00",29.16
"2018-03-14 02:15",29.16
"2018-03-14 02:30",29.16
"2018-03-14 02:45",29.16
"2018-03-14 03:00",29.16
"2018-03-14 03:15",29.16
"2018-03-14 03:30",29.16
"2018-03-14 03:45",29.18
"2018-03-14 04:00",29.19
"2018-03-14 04:15",29.19
"2018-03-14 04:30",29.19
"2018-03-14 04:45",29.19
"2018-03-14 05:00",29.19
"2018-03-14 05:15",29.19
"2018-03-14 05:30",29.19
"2018-03-14 05:45",29.19
"2018-03-14 06:00",29.19
"2018-03-14 06:15",29.19
"2018-03-14 06:30",29.19
"2018-03-14 06:45",29.19
"2018-03-14 07:00",29.20
"2018-03-14 07:15",29.25
"2018-03-14 07:30",29.25
"2018-03-14 07:45",29.25
"2018-03-14 08:00",29.25
"2018-03-14 08:15",29.25
"2018-03-14 08:30",29.25
"2018-03-14 08:45",29.29
"2018-03-14 09:00",29.29
"2018-03-14 09:15",29.29
"2018-03-14 09:30",29.29
"2018-03-14 09:45",29.29
"2018-03-14 10:00",29.29
"2018-03-14 10:15",29.29
"2018-03-14 10:30",29.29
"2018-03-14 10:45",29.29
"2018-03-14 11:00",29.32
"2018-03-14 11:15",29.32
"2018-03-14 11:30",29.32
"2018-03-14 11:45",29.32
"2018-03-14 12:00",29.32
"2018-03-14 12:15",29.32
"2018-03-14 12:30",29.33
"2018-03-14 12:45",29.33
"2018-03-14 13:00",29.35
"2018-03-14 13:15",29.35
"2018-03-14 13:30",29.35
"2018-03-14 13:45",29.36
"2018-03-14 14:00",29.39
"2018-03-14 14:15",29.38
"2018-03-14 14:30",29.39
"2018-03-14 14:45",29.39
"2018-03-14 15:00",29.39
"2018-03-14 15:15",29.39
"2018-03-14 15:30",29.39
"2018-03-14 15:45",29.39
"2018-03-14 16:00",29.40
"2018-03-14 16:15",29.42
"2018-03-14 16:30",29.40
"2018-03-14 16:45",29.40
"2018-03-14 17:00",29.39
"2018-03-14 17:15",29.40
"2018-03-14 17:30",29.42
"2018-03-14 17:45",29.43
"2018-03-14 18:00",29.43
"2018-03-14 18:15",29.43
"2018-03-14 18:30",29.43
"2018-03-14 18:45",29.45
"2018-03-14 19:00",29.43
"2018-03-14 19:15",29.42
"2018-03-14 19:30",29.45
"2018-03-14 19:45",29.48
"2018-03-14 20:00",29.49
"2018-03-14 20:15",29.49
"2018-03-14 20:30",29.49
"2018-03-14 20:45",29.51
"2018-03-14 21:00",29.50
"2018-03-14 21:15",29.52
"2018-03-14 21:30",29.52
"2018-03-14 21:45",29.52
"2018-03-14 22:00",29.54
"2018-03-14 22:15",29.53
"2018-03-14 22:30",29.53
"2018-03-14 22:45",29.55
"2018-03-14 23:00",29.55
"2018-03-14 23:15",29.55
"2018-03-14 23:30",29.55
"2018-03-14 23:45",29.55
"2018-03-15 00:00",29.57
"2018-03-15 00:15",29.59
"2018-03-15 00:30",29.59
"2018-03-15 00:45",29.59
"2018-03-15 01:00",29.61
"2018-03-15 01:15",29.62
"2018-03-15 01:30",29.62
"2018-03-15 01:45",29.62
"2018-03-15 02:00",29.62
"2018-03-15 02:15",29.65
"2018-03-15 02:30",29.65
"2018-03-15 02:45",29.65
"2018-03-15 03:00",29.69
"2018-03-15 03:15",29.69
"2018-03-15 03:30",29.70
"2018-03-15 03:45",29.75
"2018-03-15 04:00",29.76
"2018-03-15 04:15",29.78
"2018-03-15 04:30",29.80
"2018-03-15 04:45",29.82
"2018-03-15 05:00",29.84
"2018-03-15 05:15",29.86
"2018-03-15 05:30",29.88
"2018-03-15 05:45",29.91
"2018-03-15 06:00",29.93
"2018-03-15 06:15",29.95
"2018-03-15 06:30",29.95
"2018-03-15 06:45",29.98
"2018-03-15 07:00",30.01
"2018-03-15 07:15",30.07
"2018-03-15 07:30",30.10
"2018-03-15 07:45",30.14
"2018-03-15 08:00",30.17
"2018-03-15 08:15",30.21
"2018-03-15 08:30",30.24
"2018-03-15 08:45",30.28
"2018-03-15 09:00",30.32
"2018-03-15 09:15",30.34
"2018-03-15 09:30",30.38
"2018-03-15 09:45",30.41
"2018-03-15 10:00",30.43
"2018-03-15 10:15",30.47
"2018-03-15 10:30",30.50
"2018-03-15 10:45",30.52
"2018-03-15 11:00",30.56
"2018-03-15 11:15",30.58
"2018-03-15 11:30",30.60
"2018-03-15 11:45",30.65
"2018-03-15 12:00",30.65
"2018-03-15 12:15",30.69
"2018-03-15 12:30",30.72
"2018-03-15 12:45",30.73
"2018-03-15 13:00",30.78
"2018-03-15 13:15",30.81
"2018-03-15 13:30",30.84
"2018-03-15 13:45",30.88
"2018-03-15 14:00",30.90
"2018-03-15 14:15",30.94
"2018-03-15 14:30",31.00
"2018-03-15 14:45",31.04
"2018-03-15 15:00",31.09
"2018-03-15 15:15",31.16
"2018-03-15 15:30",31.19
"2018-03-15 15:45",31.26
"2018-03-15 16:00",31.31
"2018-03-15 16:15",31.34
"2018-03-15 16:30",31.40
"2018-03-15 16:45",31.48
"2018-03-15 17:00",31.51
"2018-03-15 17:15",31.56
"2018-03-15 17:30",31.62
"2018-03-15 17:45",31.67
"2018-03-15 18:00",31.71
"2018-03-15 18:15",31.76
"2018-03-15 18:30",31.80
"2018-03-15 18:45",31.85
"2018-03-15 19:00",31.89
"2018-03-15 19:15",31.92
"2018-03-15 19:30",31.96
"2018-03-15 19:45",32.00
"2018-03-15 20:00",32.04
"2018-03-15 20:15",32.08
"2018-03-15 20:30",32.11
"2018-03-15 20:45",32.14
"2018-03-15 21:00",32.18
"2018-03-15 21:15",32.21
"2018-03-15 21:30",32.24
"2018-03-15 21:45",32.28
"2018-03-15 22:00",32.31
"2018-03-15 22:15",32.33
"2018-03-15 22:30",32.36
"2018-03-15 22:45",32.39
"2018-03-15 23:00",32.42
"2018-03-15 23:15",32.43
"2018-03-15 23:30",32.47
"2018-03-15 23:45",32.47
"2018-03-16 00:00",32.50
"2018-03-16 00:15",32.52
"2018-03-16 00:30",32.54
"2018-03-16 00:45",32.57
"2018-03-16 01:00",32.58
"2018-03-16 01:15",32.61
"2018-03-16 01:30",32.63
"2018-03-16 01:45",32.66
"2018-03-16 02:00",32.69
"2018-03-16 02:15",32.71
"2018-03-16 02:30",32.73
"2018-03-16 02:45",32.76
"2018-03-16 03:00",32.76
"2018-03-16 03:15",32.79
"2018-03-16 03:30",32.80
"2018-03-16 03:45",32.84
"2018-03-16 04:00",32.85
"2018-03-16 04:15",32.87
"2018-03-16 04:30",32.88
"2018-03-16 04:45",32.91
"2018-03-16 05:00",32.91
"2018-03-16 05:15",32.94
"2018-03-16 05:30",32.95
"2018-03-16 05:45",32.95
"2018-03-16 06:00",32.97
"2018-03-16 06:15",32.98
"2018-03-16 06:30",32.99
"2018-03-16 06:45",33.02
"2018-03-16 07:00",33.03
"2018-03-16 07:15",33.06
"2018-03-16 07:30",33.06
"2018-03-16 07:45",33.09
"2018-03-16 08:00",33.10
"2018-03-16 08:15",33.10
"2018-03-16 08:30",33.13
"2018-03-16 08:45",33.13
"2018-03-16 09:00",33.15
"2018-03-16 09:15",33.17
"2018-03-16 09:30",33.17
"2018-03-16 09:45",33.20
"2018-03-16 10:00",33.21
"2018-03-16 10:15",33.22
"2018-03-16 10:30",33.24
"2018-03-16 10:45",33.24
"2018-03-16 11:00",33.25
"2018-03-16 11:15",33.28
"2018-03-16 11:30",33.28
"2018-03-16 11:45",33.28
"2018-03-16 12:00",33.28
"2018-03-16 12:15",33.32
"2018-03-16 12:30",33.33
"2018-03-16 12:45",33.34
"2018-03-16 13:00",33.36
"2018-03-16 13:15",33.35
"2018-03-16 13:30",33.35
"2018-03-16 13:45",33.37
"2018-03-16 14:00",33.39
"2018-03-16 14:15",33.39
"2018-03-16 14:30",33.42
"2018-03-16 14:45",33.43
"2018-03-16 15:00",33.43
"2018-03-16 15:15",33.47
"2018-03-16 15:30",33.47
"2018-03-16 15:45",33.47
"2018-03-16 16:00",33.47
"2018-03-16 16:15",33.47
"2018-03-16 16:30",33.49
"2018-03-16 16:45",33.50
"2018-03-16 17:00",33.50
"2018-03-16 17:15",33.53
"2018-03-16 17:30",33.54
"2018-03-16 17:45",33.54
"2018-03-16 18:00",33.56
"2018-03-16 18:15",33.58
"2018-03-16 18:30",33.58
"2018-03-16 18:45",33.58
"2018-03-16 19:00",33.61
"2018-03-16 19:15",33.61
"2018-03-16 19:30",33.61
"2018-03-16 19:45",33.61
"2018-03-16 20:00",33.64
"2018-03-16 20:15",33.65
"2018-03-16 20:30",33.65
"2018-03-16 20:45",33.67
"2018-03-16 21:00",33.70
"2018-03-16 21:15",33.70
"2018-03-16 21:30",33.70
"2018-03-16 21:45",33.70
"2018-03-16 22:00",33.70
"2018-03-16 22:15",33.70
"2018-03-16 22:30",33.70
"2018-03-16 22:45",33.70
"2018-03-16 23:00",33.74
"2018-03-16 23:15",33.70
"2018-03-16 23:30",33.70
"2018-03-16 23:45",33.73
"2018-03-17 00:00",33.74
"2018-03-17 00:15",33.74
"2018-03-17 00:30",33.74
"2018-03-17 00:45",33.74
"2018-03-17 01:00",33.77
"2018-03-17 01:15",33.79
"2018-03-17 01:30",33.79
"2018-03-17 01:45",33.79
"2018-03-17 02:00",33.83
"2018-03-17 02:15",33.84
"2018-03-17 02:30",33.84
"2018-03-17 02:45",33.84
"2018-03-17 03:00",33.84
"2018-03-17 03:15",33.85
"2018-03-17 03:30",33.89
"2018-03-17 03:45",33.89
"2018-03-17 04:00",33.89
"2018-03-17 04:15",33.89
"2018-03-17 04:30",33.89
"2018-03-17 04:45",33.89
"2018-03-17 05:00",33.89
"2018-03-17 05:15",33.92
"2018-03-17 05:30",33.94
"2018-03-17 05:45",33.94
"2018-03-17 06:00",33.94
"2018-03-17 06:15",33.94
"2018-03-17 06:30",33.98
"2018-03-17 06:45",33.98
"2018-03-17 07:00",33.98
"2018-03-17 07:15",33.98
"2018-03-17 07:30",33.98
"2018-03-17 07:45",33.98
"2018-03-17 08:00",33.98
"2018-03-17 08:15",33.98
"2018-03-17 08:30",33.98
"2018-03-17 08:45",33.98
"2018-03-17 09:00",34.00
"2018-03-17 09:15",33.98
"2018-03-17 09:30",33.98
"2018-03-17 09:45",34.02
"2018-03-17 10:00",34.03
"2018-03-17 10:15",34.03
"2018-03-17 10:30",34.03
"2018-03-17 10:45",34.04
"2018-03-17 11:00",34.03
"2018-03-17 11:15",34.03
"2018-03-17 11:30",34.03
"2018-03-17 11:45",34.03
"2018-03-17 12:00",34.03
"2018-03-17 12:15",34.03
"2018-03-17 12:30",34.03
"2018-03-17 12:45",34.03
"2018-03-17 13:00",34.03
"2018-03-17 13:15",34.03
"2018-03-17 13:30",33.98
"2018-03-17 13:45",34.02
"2018-03-17 14:00",33.98
"2018-03-17 14:15",33.98
"2018-03-17 14:30",33.98
"2018-03-17 14:45",33.98
"2018-03-17 15:00",33.98
"2018-03-17 15:15",33.98
"2018-03-17 15:30",33.98
"2018-03-17 15:45",34.01
"2018-03-17 16:00",34.03
"2018-03-17 16:15",34.06
"2018-03-17 16:30",34.08
"2018-03-17 16:45",34.08
"2018-03-17 17:00",34.08
"2018-03-17 17:15",34.08
"2018-03-17 17:30",34.08
"2018-03-17 17:45",34.08
"2018-03-17 18:00",34.08
"2018-03-17 18:15",34.08
"2018-03-17 18:30",34.08
"2018-03-17 18:45",34.08
"2018-03-17 19:00",34.10
"2018-03-17 19:15",34.13
"2018-03-17 19:30",34.13
"2018-03-17 19:45",34.13
"2018-03-17 20:00",34.13
"2018-03-17 20:15",34.13
"2018-03-17 20:30",34.13
"2018-03-17 20:45",34.13
"2018-03-17 21:00",34.13
"2018-03-17 21:15",34.17
"2018-03-17 21:30",34.17
"2018-03-17 21:45",34.17
"2018-03-17 22:00",34.19
"2018-03-17 22:15",34.22
"2018-03-17 22:30",34.24
"2018-03-17 22:45",34.27
"2018-03-17 23:00",34.27
"2018-03-17 23:15",34.32
"2018-03-17 23:30",34.32
"2018-03-17 23:45",34.36
"2018-03-18 00:00",34.38
"2018-03-18 00:15",34.41
"2018-03-18 00:30",34.44
"2018-03-18 00:45",34.46
"2018-03-18 01:00",34.46
"2018-03-18 01:15",34.49
"2018-03-18 01:30",34.51
"2018-03-18 01:45",34.51
"2018-03-18 02:00",34.51
"2018-03-18 02:15",34.51
"2018-03-18 02:30",34.51
"2018-03-18 02:45",34.54
"2018-03-18 03:00",34.55
"2018-03-18 03:15",34.55
"2018-03-18 03:30",34.60
"2018-03-18 03:45",34.65
"2018-03-18 04:00",34.69
"2018-03-18 04:15",34.70
"2018-03-18 04:30",34.70
"2018-03-18 04:45",34.72
"2018-03-18 05:00",34.74
"2018-03-18 05:15",34.74
"2018-03-18 05:30",34.74
"2018-03-18 05:45",34.74
"2018-03-18 06:00",34.74
"2018-03-18 06:15",34.74
"2018-03-18 06:30",34.74
"2018-03-18 06:45",34.74
"2018-03-18 07:00",34.74
"2018-03-18 07:15",34.74
"2018-03-18 07:30",34.74
"2018-03-18 07:45",34.74
"2018-03-18 08:00",34.78
"2018-03-18 08:15",34.75
"2018-03-18 08:30",34.74
"2018-03-18 08:45",34.74
"2018-03-18 09:00",34.74
"2018-03-18 09:15",34.75
"2018-03-18 09:30",34.74
"2018-03-18 09:45",34.75
"2018-03-18 10:00",34.74
"2018-03-18 10:15",34.79
"2018-03-18 10:30",34.79
"2018-03-18 10:45",34.79
"2018-03-18 11:00",34.79
"2018-03-18 11:15",34.79
"2018-03-18 11:30",34.79
"2018-03-18 11:45",34.79
"2018-03-18 12:00",34.79
"2018-03-18 12:15",34.79
"2018-03-18 12:30",34.79
"2018-03-18 12:45",34.79
"2018-03-18 13:00",34.77
"2018-03-18 13:15",34.74
"2018-03-18 13:30",34.74
"2018-03-18 13:45",34.74
"2018-03-18 14:00",34.74
"2018-03-18 14:15",34.78
"2018-03-18 14:30",34.79
"2018-03-18 14:45",34.79
"2018-03-18 15:00",34.79
"2018-03-18 15:15",34.79
"2018-03-18 15:30",34.80
"2018-03-18 15:45",34.84
"2018-03-18 16:00",34.84
"2018-03-18 16:15",34.84
"2018-03-18 16:30",34.84
"2018-03-18 16:45",34.84
"2018-03-18 17:00",34.84
"2018-03-18 17:15",34.84
"2018-03-18 17:30",34.84
"2018-03-18 17:45",34.84
"2018-03-18 18:00",34.84
"2018-03-18 18:15",34.84
"2018-03-18 18:30",34.84
"2018-03-18 18:45",34.84
"2018-03-18 19:00",34.84
"2018-03-18 19:15",34.80
"2018-03-18 19:30",34.79
"2018-03-18 19:45",34.79
"2018-03-18 20:00",34.79
"2018-03-18 20:15",34.79
"2018-03-18 20:30",34.79
"2018-03-18 20:45",34.75
"2018-03-18 21:00",34.74
"2018-03-18 21:15",34.74
"2018-03-18 21:30",34.74
"2018-03-18 21:45",34.74
"2018-03-18 22:00",34.74
"2018-03-18 22:15",34.71
"2018-03-18 22:30",34.70
"2018-03-18 22:45",34.70
"2018-03-18 23:00",34.70
"2018-03-18 23:15",34.70
"2018-03-18 23:30",34.66
"2018-03-18 23:45",34.65
"2018-03-19 00:00",34.60
"2018-03-19 00:15",34.60
"2018-03-19 00:30",34.60
"2018-03-19 00:45",34.61
"2018-03-19 01:00",34.60
"2018-03-19 01:15",34.60
"2018-03-19 01:30",34.60
"2018-03-19 01:45",34.60
"2018-03-19 02:00",34.60
"2018-03-19 02:15",34.60
"2018-03-19 02:30",34.60
"2018-03-19 02:45",34.60
"2018-03-19 03:00",34.58
"2018-03-19 03:15",34.55
"2018-03-19 03:30",34.55
"2018-03-19 03:45",34.55
"2018-03-19 04:00",34.55
"2018-03-19 04:15",34.55
"2018-03-19 04:30",34.53
"2018-03-19 04:45",34.51
"2018-03-19 05:00",34.51
"2018-03-19 05:15",34.51
"2018-03-19 05:30",34.51
"2018-03-19 05:45",34.51
"2018-03-19 06:00",34.51
"2018-03-19 06:15",34.51
"2018-03-19 06:30",34.51
"2018-03-19 06:45",34.50
"2018-03-19 07:00",34.46
"2018-03-19 07:15",34.51
"2018-03-19 07:30",34.50
"2018-03-19 07:45",34.46
"2018-03-19 08:00",34.46
"2018-03-19 08:15",34.46
"2018-03-19 08:30",34.46
"2018-03-19 08:45",34.46
"2018-03-19 09:00",34.46
"2018-03-19 09:15",34.46
"2018-03-19 09:30",34.46
"2018-03-19 09:45",34.41
"2018-03-19 10:00",34.41
"2018-03-19 10:15",34.41
"2018-03-19 10:30",34.41
"2018-03-19 10:45",34.41
"2018-03-19 11:00",34.41
"2018-03-19 11:15",34.36
"2018-03-19 11:30",34.36
"2018-03-19 11:45",34.36
"2018-03-19 12:00",34.36
"2018-03-19 12:15",34.32
"2018-03-19 12:30",34.32
"2018-03-19 12:45",34.32
"2018-03-19 13:00",34.32
"2018-03-19 13:15",34.29
"2018-03-19 13:30",34.27
"2018-03-19 13:45",34.27
"2018-03-19 14:00",34.27
"2018-03-19 14:15",34.27
"2018-03-19 14:30",34.27
"2018-03-19 14:45",34.27
"2018-03-19 15:00",34.27
"2018-03-19 15:15",34.24
"2018-03-19 15:30",34.22
"2018-03-19 15:45",34.22
"2018-03-19 16:00",34.21
"2018-03-19 16:15",34.17
"2018-03-19 16:30",34.17
"2018-03-19 16:45",34.17
"2018-03-19 17:00",34.17
"2018-03-19 17:15",34.17
"2018-03-19 17:30",34.17
"2018-03-19 17:45",34.17
"2018-03-19 18:00",34.17
"2018-03-19 18:15",34.14
"2018-03-19 18:30",34.13
"2018-03-19 18:45",34.13
"2018-03-19 19:00",34.13
"2018-03-19 19:15",34.13
"2018-03-19 19:30",34.13
"2018-03-19 19:45",34.13
"2018-03-19 20:00",34.13
"2018-03-19 20:15",34.13
"2018-03-19 20:30",34.13
"2018-03-19 20:45",34.11
"2018-03-19 21:00",34.08
"2018-03-19 21:15",34.08
"2018-03-19 21:30",34.08
"2018-03-19 21:45",34.08
"2018-03-19 22:00",34.08
"2018-03-19 22:15",34.08
"2018-03-19 22:30",34.08
"2018-03-19 22:45",34.08
"2018-03-19 23:00",34.08
"2018-03-19 23:15",34.03
"2018-03-19 23:30",34.03
"2018-03-19 23:45",34.03
"2018-03-20 00:00",34.03
"2018-03-20 00:15",34.03
"2018-03-20 00:30",33.99
"2018-03-20 00:45",33.98
"2018-03-20 01:00",33.98
"2018-03-20 01:15",33.98
"2018-03-20 01:30",33.98
"2018-03-20 01:45",33.98
"2018-03-20 02:00",33.98
"2018-03-20 02:15",33.97
"2018-03-20 02:30",33.94
"2018-03-20 02:45",33.94
"2018-03-20 03:00",33.98
"2018-03-20 03:15",33.98
"2018-03-20 03:30",33.98
"2018-03-20 03:45",33.98
"2018-03-20 04:00",33.98
"2018-03-20 04:15",33.98
"2018-03-20 04:30",33.98
"2018-03-20 04:45",33.98
"2018-03-20 05:00",33.98
"2018-03-20 05:15",33.98
"2018-03-20 05:30",33.98
"2018-03-20 05:45",33.98
"2018-03-20 06:00",33.98
"2018-03-20 06:15",33.98
"2018-03-20 06:30",33.94
"2018-03-20 06:45",33.94
"2018-03-20 07:00",33.94
"2018-03-20 07:15",33.98
"2018-03-20 07:30",33.98
"2018-03-20 07:45",33.98
"2018-03-20 08:00",33.98
"2018-03-20 08:15",33.98
