"2018-03-15 09:00",171.37
"2018-03-15 09:15",171.37
"2018-03-15 09:30",171.37
"2018-03-15 09:45",171.37
"2018-03-15 10:00",171.37
"2018-03-15 10:15",171.50
"2018-03-15 10:30",171.50
"2018-03-15 10:45",171.50
"2018-03-15 11:00",171.50
"2018-03-15 11:15",171.63
"2018-03-15 11:30",171.63
"2018-03-15 11:45",171.63
"2018-03-15 12:00",171.63
"2018-03-15 12:15",171.76
"2018-03-15 12:30",171.76
"2018-03-15 12:45",171.76
"2018-03-15 13:00",171.76
"2018-03-15 13:15",171.76
"2018-03-15 13:30",171.76
"2018-03-15 13:45",171.76
"2018-03-15 14:00",171.88
"2018-03-15 14:15",171.88
"2018-03-15 14:30",171.88
"2018-03-15 14:45",172.01
"2018-03-15 15:00",172.01
"2018-03-15 15:15",172.01
"2018-03-15 15:30",172.01
"2018-03-15 15:45",172.01
"2018-03-15 16:00",172.01
"2018-03-15 16:15",172.14
"2018-03-15 16:30",172.01
"2018-03-15 16:45",172.14
"2018-03-15 17:00",172.14
"2018-03-15 17:15",172.01
"2018-03-15 17:30",172.14
"2018-03-15 17:45",172.14
"2018-03-15 18:00",172.14
"2018-03-15 18:15",172.14
"2018-03-15 18:30",172.27
"2018-03-15 18:45",172.14
"2018-03-15 19:00",172.27
"2018-03-15 19:15",172.27
"2018-03-15 19:30",172.27
"2018-03-15 19:45",172.27
"2018-03-15 20:00",172.27
"2018-03-15 20:15",172.40
"2018-03-15 20:30",172.40
"2018-03-15 20:45",172.40
"2018-03-15 21:00",172.40
"2018-03-15 21:15",172.40
"2018-03-15 21:30",172.40
"2018-03-15 21:45",172.40
"2018-03-15 22:00",172.40
"2018-03-15 22:15",172.40
"2018-03-15 22:30",172.52
"2018-03-15 22:45",172.52
"2018-03-15 23:00",172.52
"2018-03-15 23:15",172.52
"2018-03-15 23:30",172.52
"2018-03-15 23:45",172.52
"2018-03-16 00:00",172.52
"2018-03-16 00:15",172.52
"2018-03-16 00:30",172.65
"2018-03-16 00:45",172.65
"2018-03-16 01:00",172.65
"2018-03-16 01:15",172.65
"2018-03-16 01:30",172.65
"2018-03-16 01:45",172.65
"2018-03-16 02:00",172.65
"2018-03-16 02:15",172.65
"2018-03-16 02:30",172.65
"2018-03-16 02:45",172.65
"2018-03-16 03:00",172.78
"2018-03-16 03:15",172.78
"2018-03-16 03:30",172.78
"2018-03-16 03:45",172.78
"2018-03-16 04:00",172.78
"2018-03-16 04:15",172.78
"2018-03-16 04:30",172.78
"2018-03-16 04:45",172.78
"2018-03-16 05:00",172.78
"2018-03-16 05:15",172.91
"2018-03-16 05:30",172.91
"2018-03-16 05:45",172.91
"2018-03-16 06:00",172.91
"2018-03-16 06:15",172.91
"2018-03-16 06:30",172.91
"2018-03-16 06:45",172.91
"2018-03-16 07:00",172.91
"2018-03-16 07:15",173.03
"2018-03-16 07:30",173.03
"2018-03-16 07:45",173.03
"2018-03-16 08:00",173.03
"2018-03-16 08:15",173.03
"2018-03-16 08:30",173.03
"2018-03-16 08:45",173.03
"2018-03-16 09:00",173.03
"2018-03-16 09:15",173.03
"2018-03-16 09:30",173.16
"2018-03-16 09:45",173.16
"2018-03-16 10:00",173.16
"2018-03-16 10:15",173.16
"2018-03-16 10:30",173.16
"2018-03-16 10:45",173.16
"2018-03-16 11:00",173.16
"2018-03-16 11:15",173.16
"2018-03-16 11:30",173.28
"2018-03-16 11:45",173.16
"2018-03-16 12:00",173.29
"2018-03-16 12:15",173.29
"2018-03-16 12:30",173.29
"2018-03-16 12:45",173.29
"2018-03-16 13:00",173.29
"2018-03-16 13:15",173.29
"2018-03-16 13:30",173.29
"2018-03-16 13:45",173.42
"2018-03-16 14:00",173.42
"2018-03-16 14:15",173.42
"2018-03-16 14:30",173.42
"2018-03-16 14:45",173.42
"2018-03-16 15:00",173.42
"2018-03-16 15:15",173.42
"2018-03-16 15:30",173.54
"2018-03-16 15:45",173.54
"2018-03-16 16:00",173.54
"2018-03-16 16:15",173.54
"2018-03-16 16:30",173.54
"2018-03-16 16:45",173.54
"2018-03-16 17:00",173.67
"2018-03-16 17:15",173.67
"2018-03-16 17:30",173.67
"2018-03-16 17:45",173.67
"2018-03-16 18:00",173.67
"2018-03-16 18:15",173.67
"2018-03-16 18:30",173.67
"2018-03-16 18:45",173.67
"2018-03-16 19:00",173.67
"2018-03-16 19:15",173.67
"2018-03-16 19:30",173.67
"2018-03-16 19:45",173.80
"2018-03-16 20:00",173.67
"2018-03-16 20:15",173.80
"2018-03-16 20:30",173.80
"2018-03-16 20:45",173.80
"2018-03-16 21:00",173.80
"2018-03-16 21:15",173.80
"2018-03-16 21:30",173.80
"2018-03-16 21:45",173.80
"2018-03-16 22:00",173.80
"2018-03-16 22:15",173.93
"2018-03-16 22:30",173.93
"2018-03-16 22:45",173.93
"2018-03-16 23:00",173.93
"2018-03-16 23:15",173.93
"2018-03-16 23:30",173.93
"2018-03-16 23:45",173.93
"2018-03-17 00:15",173.93
"2018-03-17 00:30",174.05
"2018-03-17 00:45",174.05
"2018-03-17 01:00",174.05
"2018-03-17 01:15",174.05
"2018-03-17 01:30",174.05
"2018-03-17 01:45",174.05
"2018-03-17 02:00",174.05
"2018-03-17 02:15",174.05
"2018-03-17 02:30",174.18
"2018-03-17 02:45",174.18
"2018-03-17 03:00",174.18
"2018-03-17 03:15",174.18
"2018-03-17 03:30",174.18
"2018-03-17 03:45",174.18
"2018-03-17 04:00",174.18
"2018-03-17 04:15",174.18
"2018-03-17 04:30",174.18
"2018-03-17 04:45",174.18
"2018-03-17 05:00",174.18
"2018-03-17 05:15",174.31
"2018-03-17 05:30",174.31
"2018-03-17 05:45",174.31
"2018-03-17 06:00",174.31
"2018-03-17 06:15",174.31
"2018-03-17 06:30",174.31
"2018-03-17 06:45",174.31
"2018-03-17 07:00",174.31
"2018-03-17 07:15",174.44
"2018-03-17 07:30",174.44
"2018-03-17 07:45",174.44
"2018-03-17 08:00",174.44
"2018-03-17 08:15",174.44
"2018-03-17 08:30",174.56
"2018-03-17 08:45",174.44
"2018-03-17 09:00",174.56
"2018-03-17 09:15",174.56
"2018-03-17 09:30",174.56
"2018-03-17 09:45",174.56
"2018-03-17 10:00",174.58
"2018-03-17 10:15",174.69
"2018-03-17 10:30",174.81
"2018-03-17 10:45",174.82
"2018-03-17 11:00",174.95
"2018-03-17 11:15",174.95
"2018-03-17 11:30",174.96
"2018-03-17 11:45",175.22
"2018-03-17 12:00",175.22
"2018-03-17 12:15",175.22
"2018-03-17 12:30",175.49
"2018-03-17 12:45",175.49
"2018-03-17 13:00",175.49
"2018-03-17 13:15",175.62
"2018-03-17 13:30",175.62
"2018-03-17 13:45",175.76
"2018-03-17 14:00",175.76
"2018-03-17 14:15",175.76
"2018-03-17 14:30",175.89
"2018-03-17 14:45",175.89
"2018-03-17 15:00",175.89
"2018-03-17 15:15",175.89
"2018-03-17 15:30",175.89
"2018-03-17 15:45",176.03
"2018-03-17 16:00",176.03
"2018-03-17 16:15",176.03
"2018-03-17 16:30",176.03
"2018-03-17 16:45",176.16
"2018-03-17 17:00",176.16
"2018-03-17 17:15",176.16
"2018-03-17 17:30",176.16
"2018-03-17 17:45",176.16
"2018-03-17 18:00",176.16
"2018-03-17 18:15",176.29
"2018-03-17 18:30",176.30
"2018-03-17 18:45",176.30
"2018-03-17 19:00",176.30
"2018-03-17 19:15",176.43
"2018-03-17 19:30",176.43
"2018-03-17 19:45",176.43
"2018-03-17 20:00",176.43
"2018-03-17 20:15",176.55
"2018-03-17 20:30",176.56
"2018-03-17 20:45",176.56
"2018-03-17 21:00",176.56
"2018-03-17 21:15",176.56
"2018-03-17 21:30",176.56
"2018-03-17 21:45",176.70
"2018-03-17 22:00",176.70
"2018-03-17 22:15",176.70
"2018-03-17 22:30",176.70
"2018-03-17 22:45",176.70
"2018-03-17 23:00",176.83
"2018-03-17 23:15",176.83
"2018-03-17 23:30",176.83
"2018-03-17 23:45",176.83
"2018-03-18 00:00",176.83
"2018-03-18 00:15",176.83
"2018-03-18 00:30",176.96
"2018-03-18 00:45",176.96
"2018-03-18 01:00",176.96
"2018-03-18 01:15",176.96
"2018-03-18 01:30",176.96
"2018-03-18 01:45",176.96
"2018-03-18 02:00",177.10
"2018-03-18 02:15",177.10
"2018-03-18 02:30",177.10
"2018-03-18 02:45",177.10
"2018-03-18 03:00",177.10
"2018-03-18 03:15",177.10
"2018-03-18 03:30",177.10
"2018-03-18 03:45",177.10
"2018-03-18 04:00",177.10
"2018-03-18 04:15",177.23
"2018-03-18 04:30",177.23
"2018-03-18 04:45",177.23
"2018-03-18 05:00",177.23
"2018-03-18 05:15",177.23
"2018-03-18 05:30",177.23
"2018-03-18 05:45",177.23
"2018-03-18 06:00",177.23
"2018-03-18 06:15",177.37
"2018-03-18 06:30",177.37
"2018-03-18 06:45",177.37
"2018-03-18 07:00",177.37
"2018-03-18 07:15",177.37
"2018-03-18 07:30",177.37
"2018-03-18 07:45",177.37
"2018-03-18 08:00",177.37
"2018-03-18 08:15",177.37
"2018-03-18 08:30",177.37
"2018-03-18 08:45",177.49
"2018-03-18 09:00",177.50
"2018-03-18 09:15",177.50
"2018-03-18 09:30",177.50
"2018-03-18 09:45",177.50
"2018-03-18 10:00",177.50
"2018-03-18 10:15",177.50
"2018-03-18 10:30",177.50
"2018-03-18 10:45",177.64
"2018-03-18 11:00",177.64
"2018-03-18 11:15",177.64
"2018-03-18 11:30",177.64
"2018-03-18 11:45",177.64
"2018-03-18 12:00",177.77
"2018-03-18 12:15",177.77
"2018-03-18 12:30",177.77
"2018-03-18 12:45",177.77
"2018-03-18 13:00",177.77
"2018-03-18 13:15",177.77
"2018-03-18 13:30",177.90
"2018-03-18 13:45",177.90
"2018-03-18 14:00",177.90
"2018-03-18 14:15",177.90
"2018-03-18 14:30",177.90
"2018-03-18 14:45",178.04
"2018-03-18 15:00",178.04
"2018-03-18 15:15",178.04
"2018-03-18 15:30",178.04
"2018-03-18 15:45",178.04
"2018-03-18 16:00",178.04
"2018-03-18 16:15",178.04
"2018-03-18 16:30",178.17
"2018-03-18 16:45",178.17
"2018-03-18 17:00",178.17
"2018-03-18 17:15",178.17
"2018-03-18 17:30",178.17
"2018-03-18 17:45",178.17
"2018-03-18 18:00",178.31
"2018-03-18 18:15",178.17
"2018-03-18 18:30",178.17
"2018-03-18 18:45",178.31
"2018-03-18 19:00",178.31
"2018-03-18 19:15",178.31
"2018-03-18 19:30",178.31
"2018-03-18 19:45",178.31
"2018-03-18 20:00",178.31
"2018-03-18 20:15",178.31
"2018-03-18 20:30",178.31
"2018-03-18 20:45",178.31
"2018-03-18 21:00",178.31
"2018-03-18 21:15",178.44
"2018-03-18 21:30",178.44
"2018-03-18 21:45",178.44
"2018-03-18 22:00",178.44
"2018-03-18 22:15",178.44
"2018-03-18 22:30",178.44
"2018-03-18 22:45",178.44
"2018-03-18 23:00",178.44
"2018-03-18 23:15",178.57
"2018-03-18 23:30",178.57
"2018-03-18 23:45",178.57
"2018-03-19 00:00",178.57
"2018-03-19 00:15",178.57
"2018-03-19 00:30",178.57
"2018-03-19 00:45",178.57
"2018-03-19 01:00",178.57
"2018-03-19 01:15",178.57
"2018-03-19 01:30",178.71
"2018-03-19 01:45",178.71
"2018-03-19 02:00",178.71
"2018-03-19 02:15",178.71
"2018-03-19 02:30",178.71
"2018-03-19 02:45",178.71
"2018-03-19 03:00",178.71
"2018-03-19 03:15",178.71
"2018-03-19 03:30",178.71
"2018-03-19 03:45",178.71
"2018-03-19 04:00",178.71
"2018-03-19 04:15",178.71
"2018-03-19 04:30",178.71
"2018-03-19 04:45",178.71
"2018-03-19 05:00",178.71
"2018-03-19 05:15",178.84
"2018-03-19 05:30",178.84
"2018-03-19 05:45",178.84
"2018-03-19 06:00",178.84
"2018-03-19 06:15",178.84
"2018-03-19 06:30",178.84
"2018-03-19 06:45",178.84
"2018-03-19 07:00",178.84
"2018-03-19 07:15",178.84
"2018-03-19 07:30",178.84
"2018-03-19 07:45",178.98
"2018-03-19 08:00",178.98
"2018-03-19 08:15",178.98
"2018-03-19 08:30",178.98
"2018-03-19 08:45",178.98
"2018-03-19 09:00",178.98
"2018-03-19 09:15",178.98
"2018-03-19 09:30",178.98
"2018-03-19 09:45",178.98
"2018-03-19 10:00",178.98
"2018-03-19 10:15",179.11
"2018-03-19 10:30",179.11
"2018-03-19 10:45",179.11
"2018-03-19 11:00",179.11
"2018-03-19 11:15",179.11
"2018-03-19 11:30",179.11
"2018-03-19 11:45",179.11
"2018-03-19 12:00",179.24
"2018-03-19 12:15",179.24
"2018-03-19 12:30",179.24
"2018-03-19 12:45",179.24
"2018-03-19 13:00",179.24
"2018-03-19 13:15",179.38
"2018-03-19 13:30",179.38
"2018-03-19 13:45",179.38
"2018-03-19 14:00",179.38
"2018-03-19 14:15",179.38
"2018-03-19 14:30",179.51
"2018-03-19 14:45",179.38
"2018-03-19 15:00",179.51
"2018-03-19 15:15",179.65
"2018-03-19 15:30",179.65
"2018-03-19 15:45",179.65
"2018-03-19 16:00",179.65
"2018-03-19 16:15",179.78
"2018-03-19 16:30",179.65
"2018-03-19 16:45",179.65
"2018-03-19 17:00",179.78
"2018-03-19 17:15",179.78
"2018-03-19 17:30",179.78
"2018-03-19 17:45",179.78
"2018-03-19 18:00",179.78
"2018-03-19 18:15",179.78
"2018-03-19 18:30",179.91
"2018-03-19 18:45",179.91
"2018-03-19 19:00",179.91
"2018-03-19 19:15",179.91
"2018-03-19 19:30",179.91
"2018-03-19 19:45",179.91
"2018-03-19 20:00",179.91
"2018-03-19 20:15",179.91
"2018-03-19 20:30",180.05
"2018-03-19 20:45",179.91
"2018-03-19 21:00",180.05
"2018-03-19 21:15",180.05
"2018-03-19 21:30",180.05
"2018-03-19 21:45",180.05
"2018-03-19 22:00",180.05
"2018-03-19 22:15",180.05
"2018-03-19 22:30",180.05
"2018-03-19 22:45",180.05
"2018-03-19 23:00",180.05
"2018-03-19 23:15",180.05
"2018-03-19 23:30",180.05
"2018-03-19 23:45",180.18
"2018-03-20 00:00",180.18
"2018-03-20 00:15",180.18
"2018-03-20 00:30",180.18
"2018-03-20 00:45",180.18
"2018-03-20 01:00",180.18
"2018-03-20 01:15",180.18
"2018-03-20 01:30",180.18
"2018-03-20 01:45",180.18
"2018-03-20 02:00",180.18
"2018-03-20 02:15",180.18
"2018-03-20 02:30",180.18
"2018-03-20 02:45",180.18
"2018-03-20 03:00",180.18
"2018-03-20 03:15",180.18
"2018-03-20 03:30",180.18
"2018-03-20 03:45",180.32
"2018-03-20 04:00",180.32
"2018-03-20 04:15",180.32
"2018-03-20 04:30",180.32
"2018-03-20 04:45",180.32
"2018-03-20 05:00",180.32
"2018-03-20 05:15",180.32
"2018-03-20 05:30",180.32
"2018-03-20 05:45",180.32
"2018-03-20 06:00",180.32
"2018-03-20 06:15",180.32
"2018-03-20 06:30",180.32
"2018-03-20 06:45",180.32
"2018-03-20 07:00",180.32
"2018-03-20 07:15",180.32
"2018-03-20 07:30",180.32
"2018-03-20 07:45",180.32
"2018-03-20 08:00",180.45
"2018-03-20 08:15",180.45
"2018-03-20 08:30",180.45
"2018-03-20 08:45",180.45
"2018-03-20 09:00",180.45
"2018-03-20 09:15",180.58
"2018-03-20 09:30",180.45
"2018-03-20 09:45",180.59
"2018-03-20 10:00",180.59
"2018-03-20 10:15",180.59
"2018-03-20 10:30",180.59
"2018-03-20 10:45",180.59
"2018-03-20 11:00",180.59
"2018-03-20 11:15",180.59
"2018-03-20 11:30",180.59
"2018-03-20 11:45",180.71
"2018-03-20 12:00",180.59
"2018-03-20 12:15",180.72
"2018-03-20 12:30",180.72
"2018-03-20 12:45",180.72
"2018-03-20 13:00",180.72
"2018-03-20 13:15",180.85
"2018-03-20 13:30",180.85
"2018-03-20 13:45",180.85
"2018-03-20 14:00",180.85
"2018-03-20 14:15",180.85
"2018-03-20 14:30",180.85
"2018-03-20 14:45",180.99
"2018-03-20 15:00",180.85
"2018-03-20 15:15",180.99
"2018-03-20 15:30",180.99
"2018-03-20 15:45",180.99
"2018-03-20 16:00",180.99
"2018-03-20 16:15",180.99
"2018-03-20 16:30",180.99
"2018-03-20 16:45",180.99
"2018-03-20 17:00",180.99
"2018-03-20 17:15",181.12
"2018-03-20 17:30",181.12
"2018-03-20 17:45",180.99
"2018-03-20 18:00",181.00
"2018-03-20 18:15",181.12
"2018-03-20 18:30",181.11
"2018-03-20 18:45",181.12
"2018-03-20 19:00",181.12
"2018-03-20 19:15",181.12
"2018-03-20 19:30",181.12
"2018-03-20 19:45",181.12
"2018-03-20 20:00",181.12
"2018-03-20 20:15",181.12
"2018-03-20 20:30",181.26
"2018-03-20 20:45",181.26
"2018-03-20 21:00",181.26
"2018-03-20 21:15",181.26
"2018-03-20 21:30",181.26
"2018-03-20 21:45",181.26
"2018-03-20 22:00",181.26
"2018-03-20 22:15",181.26
"2018-03-20 22:30",181.39
"2018-03-20 22:45",181.26
"2018-03-20 23:00",181.39
"2018-03-20 23:15",181.39
"2018-03-20 23:30",181.39
"2018-03-20 23:45",181.39
"2018-03-21 00:00",181.39
"2018-03-21 00:15",181.39
"2018-03-21 00:30",181.39
"2018-03-21 00:45",181.39
"2018-03-21 01:00",181.39
"2018-03-21 01:15",181.39
"2018-03-21 01:30",181.39
"2018-03-21 01:45",181.52
"2018-03-21 02:00",181.39
"2018-03-21 02:15",181.39
"2018-03-21 02:30",181.52
"2018-03-21 02:45",181.52
"2018-03-21 03:00",181.39
"2018-03-21 03:15",181.52
"2018-03-21 03:30",181.52
"2018-03-21 03:45",181.52
"2018-03-21 04:00",181.52
"2018-03-21 04:15",181.52
"2018-03-21 04:30",181.52
"2018-03-21 04:45",181.52
"2018-03-21 05:00",181.52
"2018-03-21 05:15",181.52
"2018-03-21 05:30",181.52
"2018-03-21 05:45",181.54
"2018-03-21 06:00",181.66
"2018-03-21 06:15",181.66
"2018-03-21 06:30",181.66
"2018-03-21 06:45",181.66
"2018-03-21 07:00",181.66
"2018-03-21 07:15",181.66
"2018-03-21 07:30",181.66
"2018-03-21 07:45",181.79
"2018-03-21 08:00",181.66
"2018-03-21 08:15",181.66
"2018-03-21 08:30",181.79
"2018-03-21 08:45",181.79
"2018-03-21 09:00",181.66
"2018-03-21 09:15",181.79
"2018-03-21 09:30",181.79
"2018-03-21 09:45",181.79
"2018-03-21 10:00",181.79
"2018-03-21 10:15",181.79
"2018-03-21 10:30",181.79
"2018-03-21 10:45",181.79
"2018-03-21 11:00",181.93
"2018-03-21 11:15",181.93
"2018-03-21 11:30",181.93
"2018-03-21 11:45",181.93
"2018-03-21 12:00",181.93
"2018-03-21 12:15",181.93
"2018-03-21 12:30",182.06
"2018-03-21 12:45",182.06
"2018-03-21 13:00",182.06
"2018-03-21 13:15",182.06
"2018-03-21 13:30",182.06
"2018-03-21 13:45",182.20
"2018-03-21 14:00",182.20
"2018-03-21 14:15",182.20
"2018-03-21 14:30",182.20
"2018-03-21 14:45",182.20
"2018-03-21 15:00",182.33
"2018-03-21 15:15",182.33
"2018-03-21 15:30",182.33
"2018-03-21 15:45",182.33
"2018-03-21 16:00",182.33
"2018-03-21 16:15",182.33
"2018-03-21 16:30",182.33
"2018-03-21 16:45",182.33
"2018-03-21 17:00",182.46
"2018-03-21 17:15",182.46
"2018-03-21 17:30",182.46
"2018-03-21 17:45",182.46
"2018-03-21 18:00",182.46
"2018-03-21 18:15",182.46
"2018-03-21 18:30",182.46
"2018-03-21 18:45",182.46
"2018-03-21 19:00",182.46
"2018-03-21 19:15",182.46
"2018-03-21 19:30",182.46
"2018-03-21 19:45",182.46
"2018-03-21 20:00",182.46
"2018-03-21 20:15",182.60
"2018-03-21 20:30",182.60
"2018-03-21 20:45",182.60
"2018-03-21 21:00",182.60
"2018-03-21 21:15",182.60
"2018-03-21 21:30",182.73
"2018-03-21 21:45",182.73
"2018-03-21 22:00",182.73
"2018-03-21 22:15",182.73
"2018-03-21 22:30",182.73
"2018-03-21 22:45",182.73
"2018-03-21 23:00",182.73
"2018-03-21 23:15",182.73
"2018-03-21 23:30",182.73
"2018-03-21 23:45",182.73
"2018-03-22 00:00",182.87
"2018-03-22 00:15",182.87
"2018-03-22 00:30",182.87
"2018-03-22 00:45",182.87
"2018-03-22 01:00",182.87
"2018-03-22 01:15",182.87
"2018-03-22 01:30",182.87
"2018-03-22 01:45",182.87
"2018-03-22 02:00",182.87
"2018-03-22 02:15",182.87
"2018-03-22 02:30",183.00
"2018-03-22 02:45",182.87
"2018-03-22 03:00",183.00
"2018-03-22 03:15",183.00
"2018-03-22 03:30",182.87
"2018-03-22 03:45",183.00
"2018-03-22 04:00",183.00
"2018-03-22 04:15",183.00
"2018-03-22 04:30",183.00
"2018-03-22 04:45",183.00
"2018-03-22 05:00",183.00
"2018-03-22 05:15",183.00
"2018-03-22 05:30",183.13
"2018-03-22 05:45",183.13
"2018-03-22 06:00",183.13
"2018-03-22 06:15",183.13
"2018-03-22 06:30",183.13
"2018-03-22 06:45",183.13
"2018-03-22 07:00",183.13
"2018-03-22 07:15",183.13
"2018-03-22 07:30",183.13
"2018-03-22 07:45",183.13
