"2018-03-08 12:55",1.81
"2018-03-08 13:00",1.78
"2018-03-08 13:05",1.85
"2018-03-08 13:10",1.83
"2018-03-08 13:15",1.72
"2018-03-08 13:20",1.67
"2018-03-08 13:25",1.75
"2018-03-08 13:35",2.35
"2018-03-08 13:40",1.77
"2018-03-08 13:50",1.78
"2018-03-08 13:55",1.67
"2018-03-08 14:00",1.76
"2018-03-08 14:05",1.77
"2018-03-08 14:10",1.75
"2018-03-08 14:20",1.85
"2018-03-08 14:25",1.70
"2018-03-08 14:30",1.77
"2018-03-08 14:35",1.71
"2018-03-08 14:40",1.67
"2018-03-08 14:45",1.72
"2018-03-08 14:50",1.74
"2018-03-08 14:55",2.17
"2018-03-08 15:00",2.22
"2018-03-08 15:05",1.78
"2018-03-08 15:10",1.70
"2018-03-08 15:15",1.65
"2018-03-08 15:20",1.79
"2018-03-08 15:25",1.63
"2018-03-08 15:30",2.21
"2018-03-08 15:35",2.24
"2018-03-08 15:40",1.73
"2018-03-08 15:45",1.73
"2018-03-08 15:50",1.73
"2018-03-08 15:55",1.68
"2018-03-08 16:00",1.77
"2018-03-08 16:05",1.76
"2018-03-08 16:10",2.14
"2018-03-08 16:15",2.28
"2018-03-08 16:20",2.19
"2018-03-08 16:25",1.65
"2018-03-08 16:30",2.15
"2018-03-08 16:35",2.32
"2018-03-08 16:40",2.16
"2018-03-08 16:45",1.69
"2018-03-08 16:50",1.75
"2018-03-08 16:55",1.68
"2018-03-08 17:00",1.69
"2018-03-08 17:05",1.73
"2018-03-08 17:10",1.64
"2018-03-08 17:15",1.65
"2018-03-08 17:20",2.15
"2018-03-08 17:25",2.18
"2018-03-08 17:30",1.75
"2018-03-08 17:35",1.63
"2018-03-08 17:40",1.71
"2018-03-08 17:45",1.69
"2018-03-08 17:50",2.10
"2018-03-08 17:55",2.04
"2018-03-08 18:00",1.69
"2018-03-08 18:05",2.17
"2018-03-08 18:10",1.71
"2018-03-08 18:15",1.75
"2018-03-08 18:20",2.15
"2018-03-08 18:25",1.66
"2018-03-08 18:30",1.68
"2018-03-08 18:35",1.65
"2018-03-08 18:40",1.73
"2018-03-08 18:45",1.69
"2018-03-08 18:50",1.72
"2018-03-08 18:55",1.81
"2018-03-08 19:00",2.05
"2018-03-08 19:05",1.73
"2018-03-08 19:10",1.70
"2018-03-08 19:15",2.09
"2018-03-08 19:20",1.91
"2018-03-08 19:25",1.99
"2018-03-08 19:30",1.51
"2018-03-08 19:35",1.71
"2018-03-08 19:40",1.67
"2018-03-08 19:45",1.80
"2018-03-08 19:50",1.83
"2018-03-08 19:55",1.77
"2018-03-08 20:00",1.75
"2018-03-08 20:05",2.31
"2018-03-08 20:10",2.37
"2018-03-08 20:15",1.83
"2018-03-08 20:20",2.29
"2018-03-08 20:25",2.26
"2018-03-08 20:30",1.85
"2018-03-08 20:35",2.25
"2018-03-08 20:40",2.31
"2018-03-08 20:45",1.89
"2018-03-08 20:50",1.85
"2018-03-08 20:55",1.79
"2018-03-08 21:00",1.87
"2018-03-08 21:05",1.79
"2018-03-08 21:10",1.81
"2018-03-08 21:15",2.33
"2018-03-08 21:20",2.24
"2018-03-08 21:25",1.83
"2018-03-08 21:30",2.35
"2018-03-08 21:35",1.97
"2018-03-08 21:40",1.96
"2018-03-08 21:45",2.03
"2018-03-08 21:50",2.00
"2018-03-08 21:55",1.95
"2018-03-08 22:00",1.98
"2018-03-08 22:05",2.03
"2018-03-08 22:10",2.08
"2018-03-08 22:15",2.03
"2018-03-08 22:20",1.95
"2018-03-08 22:25",1.97
"2018-03-08 22:30",2.52
"2018-03-08 22:35",2.03
"2018-03-08 22:40",2.07
"2018-03-08 22:45",2.04
"2018-03-08 22:50",2.64
"2018-03-08 22:55",2.55
"2018-03-08 23:00",2.05
"2018-03-08 23:05",2.68
"2018-03-08 23:10",2.49
"2018-03-08 23:15",2.08
"2018-03-08 23:20",1.99
"2018-03-08 23:25",2.03
"2018-03-08 23:30",2.07
"2018-03-08 23:35",1.98
"2018-03-08 23:40",2.09
"2018-03-08 23:45",2.15
"2018-03-08 23:50",2.24
"2018-03-08 23:55",2.11
"2018-03-09 00:00",2.20
"2018-03-09 00:05",2.19
"2018-03-09 00:10",2.24
"2018-03-09 00:15",2.21
"2018-03-09 00:20",2.72
"2018-03-09 00:25",2.24
"2018-03-09 00:30",2.17
"2018-03-09 00:35",2.85
"2018-03-09 00:40",2.68
"2018-03-09 00:45",2.26
"2018-03-09 00:50",2.16
"2018-03-09 00:55",2.21
"2018-03-09 01:00",2.22
"2018-03-09 01:05",2.23
"2018-03-09 01:10",2.27
"2018-03-09 01:15",2.32
"2018-03-09 01:20",2.34
"2018-03-09 01:25",2.29
"2018-03-09 01:30",2.38
"2018-03-09 01:35",2.35
"2018-03-09 01:40",2.34
"2018-03-09 01:45",2.75
"2018-03-09 01:50",2.34
"2018-03-09 01:55",2.33
"2018-03-09 02:00",2.39
"2018-03-09 02:05",2.30
"2018-03-09 02:10",2.73
"2018-03-09 02:15",2.30
"2018-03-09 02:20",2.36
"2018-03-09 02:25",2.75
"2018-03-09 02:30",2.36
"2018-03-09 02:35",2.35
"2018-03-09 02:40",3.04
"2018-03-09 02:45",3.03
"2018-03-09 02:50",3.12
"2018-03-09 02:55",2.49
"2018-03-09 03:00",2.34
"2018-03-09 03:05",2.44
"2018-03-09 03:10",2.46
"2018-03-09 03:15",2.43
"2018-03-09 03:20",2.57
"2018-03-09 03:25",2.42
"2018-03-09 03:30",2.49
"2018-03-09 03:35",2.45
"2018-03-09 03:40",2.47
"2018-03-09 03:45",2.49
"2018-03-09 03:50",2.63
"2018-03-09 03:55",2.52
"2018-03-09 04:00",2.57
"2018-03-09 04:05",3.10
"2018-03-09 04:10",2.57
"2018-03-09 04:15",3.23
"2018-03-09 04:20",2.63
"2018-03-09 04:25",2.58
"2018-03-09 04:30",2.59
"2018-03-09 04:35",2.56
"2018-03-09 04:40",2.57
"2018-03-09 04:45",2.59
"2018-03-09 04:50",2.71
"2018-03-09 04:55",3.20
"2018-03-09 05:00",2.66
"2018-03-09 05:05",3.25
"2018-03-09 05:10",2.64
"2018-03-09 05:15",2.68
"2018-03-09 05:20",2.54
"2018-03-09 05:25",2.67
"2018-03-09 05:30",2.62
"2018-03-09 05:35",2.60
"2018-03-09 05:40",2.64
"2018-03-09 05:45",2.61
"2018-03-09 05:50",3.35
"2018-03-09 05:55",3.26
"2018-03-09 06:00",2.74
"2018-03-09 06:05",2.67
"2018-03-09 06:10",2.70
"2018-03-09 06:15",2.69
"2018-03-09 06:20",2.71
"2018-03-09 06:25",2.67
"2018-03-09 06:30",2.64
"2018-03-09 06:35",2.67
"2018-03-09 06:40",3.39
"2018-03-09 06:45",2.84
"2018-03-09 06:50",3.18
"2018-03-09 06:55",2.74
"2018-03-09 07:00",2.69
"2018-03-09 07:05",2.60
"2018-03-09 07:10",2.64
"2018-03-09 07:15",2.62
"2018-03-09 07:20",2.67
"2018-03-09 07:25",2.66
"2018-03-09 07:30",2.68
"2018-03-09 07:35",3.18
"2018-03-09 07:40",2.76
"2018-03-09 07:45",2.72
"2018-03-09 07:50",2.53
"2018-03-09 07:55",2.69
"2018-03-09 08:00",2.66
"2018-03-09 08:05",3.16
"2018-03-09 08:10",2.70
"2018-03-09 08:15",2.66
"2018-03-09 08:20",2.61
"2018-03-09 08:25",2.78
"2018-03-09 08:30",3.31
"2018-03-09 08:35",2.87
"2018-03-09 08:40",2.72
"2018-03-09 08:45",2.69
"2018-03-09 08:50",2.70
"2018-03-09 08:55",2.67
"2018-03-09 09:00",2.61
"2018-03-09 09:10",2.76
"2018-03-09 09:15",2.61
"2018-03-09 09:20",2.68
"2018-03-09 09:25",2.58
"2018-03-09 09:30",2.61
"2018-03-09 09:40",2.65
"2018-03-09 09:45",2.69
"2018-03-09 09:55",2.52
"2018-03-09 10:00",2.61
"2018-03-09 10:10",2.62
"2018-03-09 10:15",2.64
"2018-03-09 10:20",3.14
"2018-03-09 10:25",2.57
"2018-03-09 10:30",3.09
"2018-03-09 10:35",2.59
"2018-03-09 10:40",2.53
"2018-03-09 10:45",2.48
"2018-03-09 10:50",2.57
"2018-03-09 10:55",2.53
"2018-03-09 11:00",2.56
"2018-03-09 11:05",2.60
"2018-03-09 11:10",2.56
"2018-03-09 11:15",2.97
"2018-03-09 11:20",2.61
"2018-03-09 11:25",2.57
"2018-03-09 11:30",2.58
"2018-03-09 11:35",2.47
"2018-03-09 11:40",2.60
"2018-03-09 11:45",2.50
"2018-03-09 11:50",2.52
"2018-03-09 11:55",2.55
"2018-03-09 12:00",2.95
"2018-03-09 12:05",2.47
"2018-03-09 12:10",2.54
"2018-03-09 12:15",3.00
"2018-03-09 12:20",2.49
"2018-03-09 12:25",2.52
"2018-03-09 12:30",2.93
"2018-03-09 12:35",2.51
"2018-03-09 12:40",2.45
"2018-03-09 12:45",2.46
"2018-03-09 12:50",2.54
"2018-03-09 12:55",2.44
"2018-03-09 13:00",2.46
"2018-03-09 13:05",2.48
"2018-03-09 13:10",2.54
"2018-03-09 13:15",2.83
"2018-03-09 13:20",2.53
"2018-03-09 13:25",2.49
"2018-03-09 13:30",2.54
"2018-03-09 13:35",2.45
"2018-03-09 13:40",2.43
"2018-03-09 13:45",2.53
"2018-03-09 13:50",2.47
"2018-03-09 13:55",2.43
"2018-03-09 14:00",2.46
"2018-03-09 14:05",2.53
"2018-03-09 14:10",3.03
"2018-03-09 14:15",2.59
"2018-03-09 14:20",2.56
"2018-03-09 14:25",2.60
"2018-03-09 14:30",2.57
"2018-03-09 14:35",2.58
"2018-03-09 14:40",2.67
"2018-03-09 14:45",2.61
"2018-03-09 14:50",2.67
"2018-03-09 14:55",2.68
"2018-03-09 15:00",2.74
"2018-03-09 15:05",2.83
"2018-03-09 15:10",2.77
"2018-03-09 15:15",2.88
"2018-03-09 15:20",2.87
"2018-03-09 15:25",2.83
"2018-03-09 15:30",3.28
"2018-03-09 15:35",2.99
"2018-03-09 15:40",3.01
"2018-03-09 15:45",3.01
"2018-03-09 15:50",3.80
"2018-03-09 15:55",3.65
"2018-03-09 16:00",3.10
"2018-03-09 16:05",3.15
"2018-03-09 16:10",3.85
"2018-03-09 16:15",3.31
"2018-03-09 16:20",3.36
"2018-03-09 16:25",4.24
"2018-03-09 16:30",4.38
"2018-03-09 16:35",4.52
"2018-03-09 16:40",4.63
"2018-03-09 16:45",3.89
"2018-03-09 16:50",4.80
"2018-03-09 16:55",4.24
"2018-03-09 17:00",4.25
"2018-03-09 17:05",5.19
"2018-03-09 17:10",4.47
"2018-03-09 17:15",4.69
"2018-03-09 17:20",4.69
"2018-03-09 17:25",4.87
"2018-03-09 17:30",6.15
"2018-03-09 17:35",6.44
"2018-03-09 17:40",5.34
"2018-03-09 17:45",5.36
"2018-03-09 17:50",5.43
"2018-03-09 17:55",6.67
"2018-03-09 18:00",5.69
"2018-03-09 18:05",5.82
"2018-03-09 18:10",5.99
"2018-03-09 18:15",6.13
"2018-03-09 18:20",6.33
"2018-03-09 18:25",6.42
"2018-03-09 18:30",6.46
"2018-03-09 18:35",7.76
"2018-03-09 18:40",6.71
"2018-03-09 18:45",6.68
"2018-03-09 18:50",6.69
"2018-03-09 18:55",7.07
"2018-03-09 19:00",7.04
"2018-03-09 19:05",8.59
"2018-03-09 19:10",7.28
"2018-03-09 19:15",7.50
"2018-03-09 19:20",7.46
"2018-03-09 19:25",7.60
"2018-03-09 19:30",7.53
"2018-03-09 19:35",9.23
"2018-03-09 19:40",7.57
"2018-03-09 19:45",7.88
"2018-03-09 19:50",7.97
"2018-03-09 19:55",8.08
"2018-03-09 20:00",10.36
"2018-03-09 20:05",8.30
"2018-03-09 20:10",8.37
"2018-03-09 20:15",8.32
"2018-03-09 20:20",8.41
"2018-03-09 20:25",8.49
"2018-03-09 20:30",8.60
"2018-03-09 20:35",10.70
"2018-03-09 20:40",8.72
"2018-03-09 20:45",8.82
"2018-03-09 20:50",8.86
"2018-03-09 20:55",9.00
"2018-03-09 21:00",11.10
"2018-03-09 21:05",9.15
"2018-03-09 21:10",9.16
"2018-03-09 21:15",11.67
"2018-03-09 21:20",11.99
"2018-03-09 21:25",11.52
"2018-03-09 21:30",9.43
"2018-03-09 21:35",9.50
"2018-03-09 21:40",9.48
"2018-03-09 21:45",12.04
"2018-03-09 21:50",9.79
"2018-03-09 21:55",9.61
"2018-03-09 22:00",9.49
"2018-03-09 22:05",9.49
"2018-03-09 22:10",9.49
"2018-03-09 22:15",9.52
"2018-03-09 22:20",11.80
"2018-03-09 22:25",9.76
"2018-03-09 22:30",9.59
"2018-03-09 22:35",9.60
"2018-03-09 22:40",11.34
"2018-03-09 22:45",9.64
"2018-03-09 22:50",9.54
"2018-03-09 22:55",12.22
"2018-03-09 23:00",9.97
"2018-03-09 23:05",9.46
"2018-03-09 23:10",9.52
"2018-03-09 23:15",12.05
"2018-03-09 23:20",12.49
"2018-03-09 23:25",9.89
"2018-03-09 23:30",9.42
"2018-03-09 23:35",9.38
"2018-03-09 23:40",9.42
"2018-03-09 23:45",9.43
"2018-03-09 23:50",9.35
"2018-03-09 23:55",9.43
"2018-03-10 00:00",9.40
"2018-03-10 00:05",9.30
"2018-03-10 00:10",9.04
"2018-03-10 00:15",9.41
"2018-03-10 00:20",9.24
"2018-03-10 00:25",9.10
"2018-03-10 00:30",9.30
"2018-03-10 00:35",9.25
"2018-03-10 00:40",9.19
"2018-03-10 00:45",9.26
"2018-03-10 00:50",9.16
"2018-03-10 00:55",8.95
"2018-03-10 01:00",9.03
"2018-03-10 01:05",9.12
"2018-03-10 01:10",8.98
"2018-03-10 01:15",8.99
"2018-03-10 01:20",11.04
"2018-03-10 01:25",8.97
"2018-03-10 01:30",11.21
"2018-03-10 01:35",9.07
"2018-03-10 01:40",8.93
"2018-03-10 01:45",10.79
"2018-03-10 01:50",8.86
"2018-03-10 01:55",8.71
"2018-03-10 02:00",11.13
"2018-03-10 02:05",9.07
"2018-03-10 02:10",8.68
"2018-03-10 02:15",8.73
"2018-03-10 02:20",10.87
"2018-03-10 02:25",8.76
"2018-03-10 02:30",8.60
"2018-03-10 02:35",8.55
"2018-03-10 02:40",8.42
"2018-03-10 02:45",8.44
"2018-03-10 02:50",8.40
"2018-03-10 02:55",8.35
"2018-03-10 03:00",8.16
"2018-03-10 03:05",8.17
"2018-03-10 03:10",8.27
"2018-03-10 03:15",8.28
"2018-03-10 03:20",8.13
"2018-03-10 03:25",10.21
"2018-03-10 03:30",8.19
"2018-03-10 03:35",8.10
"2018-03-10 03:40",8.07
"2018-03-10 03:45",8.03
"2018-03-10 03:50",8.10
"2018-03-10 03:55",8.01
"2018-03-10 04:00",7.78
"2018-03-10 04:05",7.84
"2018-03-10 04:10",9.68
"2018-03-10 04:15",7.93
"2018-03-10 04:20",7.76
"2018-03-10 04:25",7.71
"2018-03-10 04:30",7.69
"2018-03-10 04:35",7.66
"2018-03-10 04:40",7.68
"2018-03-10 04:45",7.70
"2018-03-10 04:50",7.59
"2018-03-10 04:55",7.49
"2018-03-10 05:00",7.48
"2018-03-10 05:05",7.42
"2018-03-10 05:10",7.41
"2018-03-10 05:15",7.35
"2018-03-10 05:20",7.43
"2018-03-10 05:25",9.54
"2018-03-10 05:30",9.01
"2018-03-10 05:35",7.31
"2018-03-10 05:45",7.18
"2018-03-10 05:50",8.64
"2018-03-10 05:55",7.26
"2018-03-10 06:00",7.29
"2018-03-10 06:05",7.24
"2018-03-10 06:15",7.32
"2018-03-10 06:20",7.15
"2018-03-10 06:25",7.32
"2018-03-10 06:30",7.35
"2018-03-10 06:35",7.35
"2018-03-10 06:45",9.65
"2018-03-10 06:50",8.00
"2018-03-10 06:55",7.97
"2018-03-10 07:00",8.10
"2018-03-10 07:05",8.20
"2018-03-10 07:10",8.38
"2018-03-10 07:15",11.14
"2018-03-10 07:20",11.43
"2018-03-10 07:25",11.07
"2018-03-10 07:30",9.57
"2018-03-10 07:35",9.79
"2018-03-10 07:40",10.15
"2018-03-10 07:45",10.55
"2018-03-10 07:50",10.52
"2018-03-10 07:55",11.23
"2018-03-10 08:00",11.49
"2018-03-10 08:05",11.79
"2018-03-10 08:10",11.96
"2018-03-10 08:15",12.19
"2018-03-10 08:20",12.44
"2018-03-10 08:25",12.65
"2018-03-10 08:30",12.91
"2018-03-10 08:35",13.20
"2018-03-10 08:40",13.35
"2018-03-10 08:45",13.55
"2018-03-10 08:50",17.85
"2018-03-10 08:55",14.82
"2018-03-10 09:00",14.26
"2018-03-10 09:05",15.15
"2018-03-10 09:10",15.51
"2018-03-10 09:15",19.48
"2018-03-10 09:20",16.49
"2018-03-10 09:25",16.77
"2018-03-10 09:30",16.99
"2018-03-10 09:35",17.12
"2018-03-10 09:40",17.02
"2018-03-10 09:45",17.46
"2018-03-10 09:50",17.59
"2018-03-10 09:55",18.00
"2018-03-10 10:00",18.38
"2018-03-10 10:05",19.69
"2018-03-10 10:10",19.01
"2018-03-10 10:15",19.18
"2018-03-10 10:20",19.83
"2018-03-10 10:25",19.61
"2018-03-10 10:30",20.00
"2018-03-10 10:35",20.00
"2018-03-10 10:40",20.00
"2018-03-10 10:45",20.00
"2018-03-10 10:50",20.00
"2018-03-10 10:55",19.95
"2018-03-10 11:00",20.00
"2018-03-10 11:05",20.00
"2018-03-10 11:10",19.98
"2018-03-10 11:15",19.98
"2018-03-10 11:20",19.98
"2018-03-10 11:25",19.54
"2018-03-10 11:30",19.90
"2018-03-10 11:35",19.30
"2018-03-10 11:40",19.04
"2018-03-10 11:45",19.10
"2018-03-10 11:50",19.12
"2018-03-10 11:55",18.90
"2018-03-10 12:00",19.18
"2018-03-10 12:05",19.08
"2018-03-10 12:10",19.07
"2018-03-10 12:15",19.91
"2018-03-10 12:20",20.00
"2018-03-10 12:25",18.95
"2018-03-10 12:30",18.72
"2018-03-10 12:35",18.69
"2018-03-10 12:40",18.76
"2018-03-10 12:45",19.75
"2018-03-10 12:50",18.65
"2018-03-10 12:55",19.65
"2018-03-10 13:00",18.47
"2018-03-10 13:05",18.38
"2018-03-10 13:10",19.61
"2018-03-10 13:15",18.24
"2018-03-10 13:20",18.19
"2018-03-10 13:25",18.14
"2018-03-10 13:30",18.13
"2018-03-10 13:35",18.12
"2018-03-10 13:40",18.00
"2018-03-10 13:45",17.79
"2018-03-10 13:50",17.71
"2018-03-10 13:55",17.80
"2018-03-10 14:00",19.86
"2018-03-10 14:05",19.57
"2018-03-10 14:10",17.47
"2018-03-10 14:15",17.49
"2018-03-10 14:20",19.85
"2018-03-10 14:25",19.48
"2018-03-10 14:30",17.10
"2018-03-10 14:35",17.15
"2018-03-10 14:40",17.17
"2018-03-10 14:45",19.77
"2018-03-10 14:50",17.34
"2018-03-10 14:55",17.27
"2018-03-10 15:00",17.06
"2018-03-10 15:05",17.01
"2018-03-10 15:10",16.66
"2018-03-10 15:15",16.35
"2018-03-10 15:20",16.58
"2018-03-10 15:25",19.27
"2018-03-10 15:30",16.89
"2018-03-10 15:35",16.59
"2018-03-10 15:40",19.58
"2018-03-10 15:45",16.53
"2018-03-10 15:50",19.59
"2018-03-10 15:55",20.00
"2018-03-10 16:00",20.00
"2018-03-10 16:05",16.81
"2018-03-10 16:10",16.28
"2018-03-10 16:15",16.21
"2018-03-10 16:20",16.31
"2018-03-10 16:25",16.09
"2018-03-10 16:30",18.84
"2018-03-10 16:35",15.98
"2018-03-10 16:40",16.18
"2018-03-10 16:45",16.03
"2018-03-10 16:50",15.95
"2018-03-10 16:55",15.88
"2018-03-10 17:00",15.97
"2018-03-10 17:05",15.77
"2018-03-10 17:10",15.68
"2018-03-10 17:15",15.71
"2018-03-10 17:20",15.72
"2018-03-10 17:25",15.76
"2018-03-10 17:30",15.67
"2018-03-10 17:35",15.40
"2018-03-10 17:40",15.42
"2018-03-10 17:45",15.48
"2018-03-10 17:50",15.33
"2018-03-10 17:55",15.39
"2018-03-10 18:00",15.33
"2018-03-10 18:05",15.33
"2018-03-10 18:10",15.06
"2018-03-10 18:15",15.09
"2018-03-10 18:20",15.06
"2018-03-10 18:25",15.01
"2018-03-10 18:30",14.98
"2018-03-10 18:35",14.83
"2018-03-10 18:40",14.62
"2018-03-10 18:45",14.61
"2018-03-10 18:50",14.72
"2018-03-10 18:55",14.52
"2018-03-10 19:00",14.69
"2018-03-10 19:05",17.20
"2018-03-10 19:10",14.77
"2018-03-10 19:15",14.52
"2018-03-10 19:20",14.40
"2018-03-10 19:25",14.34
"2018-03-10 19:30",14.24
"2018-03-10 19:35",14.35
"2018-03-10 19:40",14.09
"2018-03-10 19:45",13.95
"2018-03-10 19:50",14.04
"2018-03-10 19:55",14.06
"2018-03-10 20:00",13.71
"2018-03-10 20:05",16.75
"2018-03-10 20:10",13.60
"2018-03-10 20:15",18.18
"2018-03-10 20:20",14.25
"2018-03-10 20:25",13.55
"2018-03-10 20:30",13.61
"2018-03-10 20:35",16.81
"2018-03-10 20:40",13.74
"2018-03-10 20:45",13.25
"2018-03-10 20:50",13.08
"2018-03-10 20:55",13.20
"2018-03-10 21:00",13.23
"2018-03-10 21:05",13.01
"2018-03-10 21:10",13.12
"2018-03-10 21:15",13.09
"2018-03-10 21:20",12.93
"2018-03-10 21:25",16.16
"2018-03-10 21:30",12.68
"2018-03-10 21:35",12.82
"2018-03-10 21:40",16.21
"2018-03-10 21:45",12.53
"2018-03-10 21:50",12.59
"2018-03-10 21:55",12.51
"2018-03-10 22:00",17.24
"2018-03-10 22:05",16.99
"2018-03-10 22:10",12.56
"2018-03-10 22:15",12.18
"2018-03-10 22:20",12.25
"2018-03-10 22:25",12.14
"2018-03-10 22:30",12.18
"2018-03-10 22:35",12.19
"2018-03-10 22:40",12.21
"2018-03-10 22:45",12.05
"2018-03-10 22:50",12.11
"2018-03-10 22:55",12.16
"2018-03-10 23:05",12.17
"2018-03-10 23:10",12.32
"2018-03-10 23:20",12.22
"2018-03-10 23:25",15.38
"2018-03-10 23:35",12.32
"2018-03-10 23:40",12.24
"2018-03-10 23:45",12.29
"2018-03-10 23:50",12.42
"2018-03-10 23:55",12.44
"2018-03-11 00:00",12.29
"2018-03-11 00:05",12.30
"2018-03-11 00:10",15.54
"2018-03-11 00:15",12.44
"2018-03-11 00:20",12.29
"2018-03-11 00:25",16.13
"2018-03-11 00:30",12.76
"2018-03-11 00:35",12.53
"2018-03-11 00:40",12.30
"2018-03-11 00:45",12.23
"2018-03-11 00:50",11.98
"2018-03-11 00:55",12.16
"2018-03-11 01:00",12.19
"2018-03-11 01:05",11.99
"2018-03-11 01:10",12.10
"2018-03-11 01:15",12.13
"2018-03-11 01:20",11.94
"2018-03-11 01:25",12.02
"2018-03-11 01:30",11.99
"2018-03-11 01:35",11.86
"2018-03-11 01:40",11.96
"2018-03-11 01:45",11.97
"2018-03-11 01:50",11.76
"2018-03-11 01:55",11.70
"2018-03-11 02:00",11.78
"2018-03-11 02:05",11.68
"2018-03-11 02:10",11.68
"2018-03-11 02:15",11.63
"2018-03-11 02:20",11.61
"2018-03-11 02:25",11.54
"2018-03-11 02:30",11.54
"2018-03-11 02:35",15.49
"2018-03-11 02:40",11.88
"2018-03-11 02:45",11.27
"2018-03-11 02:50",11.20
"2018-03-11 02:55",11.19
"2018-03-11 03:00",11.23
"2018-03-11 03:05",11.20
"2018-03-11 03:10",11.20
"2018-03-11 03:15",11.20
"2018-03-11 03:20",11.03
"2018-03-11 03:25",10.99
"2018-03-11 03:30",10.90
"2018-03-11 03:35",10.87
"2018-03-11 03:40",10.93
"2018-03-11 03:45",10.88
"2018-03-11 03:50",10.82
"2018-03-11 03:55",10.84
"2018-03-11 04:00",10.63
"2018-03-11 04:05",10.57
"2018-03-11 04:10",10.53
"2018-03-11 04:15",10.46
"2018-03-11 04:20",10.42
"2018-03-11 04:25",10.36
"2018-03-11 04:30",13.42
"2018-03-11 04:35",10.87
"2018-03-11 04:40",10.34
"2018-03-11 04:45",10.29
"2018-03-11 04:50",10.06
"2018-03-11 04:55",10.04
"2018-03-11 05:00",9.87
"2018-03-11 05:05",10.03
"2018-03-11 05:10",10.00
"2018-03-11 05:15",12.51
"2018-03-11 05:20",10.02
"2018-03-11 05:25",9.77
"2018-03-11 05:30",9.69
"2018-03-11 05:35",9.71
"2018-03-11 05:40",9.71
"2018-03-11 05:45",12.01
"2018-03-11 05:50",9.71
"2018-03-11 05:55",9.55
"2018-03-11 06:00",9.45
"2018-03-11 06:05",9.42
"2018-03-11 06:10",11.25
"2018-03-11 06:15",9.43
"2018-03-11 06:20",9.32
"2018-03-11 06:25",9.23
"2018-03-11 06:30",11.08
"2018-03-11 06:35",9.15
"2018-03-11 06:40",9.10
"2018-03-11 06:45",11.47
"2018-03-11 06:50",11.75
"2018-03-11 06:55",9.25
"2018-03-11 07:00",8.75
"2018-03-11 07:05",10.85
"2018-03-11 07:10",8.98
"2018-03-11 07:15",10.93
"2018-03-11 07:20",11.15
"2018-03-11 07:25",8.73
"2018-03-11 07:30",8.76
"2018-03-11 07:35",8.75
"2018-03-11 07:40",11.08
"2018-03-11 07:45",11.12
"2018-03-11 07:50",10.88
"2018-03-11 07:55",8.65
"2018-03-11 08:00",8.47
"2018-03-11 08:05",10.81
"2018-03-11 08:10",11.21
"2018-03-11 08:15",8.69
"2018-03-11 08:20",8.37
"2018-03-11 08:25",10.08
"2018-03-11 08:30",8.31
"2018-03-11 08:35",8.28
"2018-03-11 08:40",8.24
"2018-03-11 08:45",9.79
"2018-03-11 08:50",8.20
"2018-03-11 08:55",8.08
"2018-03-11 09:00",10.18
"2018-03-11 09:05",8.25
"2018-03-11 09:10",7.89
"2018-03-11 09:15",7.94
"2018-03-11 09:20",8.01
"2018-03-11 09:25",9.62
"2018-03-11 09:30",7.83
"2018-03-11 09:35",7.83
"2018-03-11 09:40",7.68
"2018-03-11 09:45",9.67
"2018-03-11 09:50",7.80
"2018-03-11 09:55",7.58
"2018-03-11 10:00",7.43
"2018-03-11 10:05",9.06
"2018-03-11 10:10",7.57
"2018-03-11 10:15",7.37
"2018-03-11 10:20",7.35
"2018-03-11 10:25",9.21
"2018-03-11 10:30",9.49
"2018-03-11 10:35",7.15
"2018-03-11 10:40",7.21
"2018-03-11 10:45",7.11
"2018-03-11 10:50",7.23
"2018-03-11 10:55",9.00
"2018-03-11 11:00",7.23
"2018-03-11 11:05",6.72
"2018-03-11 11:10",8.55
"2018-03-11 11:15",8.92
"2018-03-11 11:20",7.04
"2018-03-11 11:25",6.83
"2018-03-11 11:30",6.86
"2018-03-11 11:35",6.85
"2018-03-11 11:40",6.73
"2018-03-11 11:45",6.74
"2018-03-11 11:50",6.56
"2018-03-11 11:55",6.57
"2018-03-11 12:00",6.52
"2018-03-11 12:05",6.37
"2018-03-11 12:10",7.60
"2018-03-11 12:15",6.38
"2018-03-11 12:20",6.30
"2018-03-11 12:25",6.40
"2018-03-11 12:30",6.27
"2018-03-11 12:35",6.16
"2018-03-11 12:40",6.36
"2018-03-11 12:45",7.51
"2018-03-11 12:50",6.28
"2018-03-11 12:55",6.18
"2018-03-11 13:00",6.11
"2018-03-11 13:05",6.12
"2018-03-11 13:10",6.16
"2018-03-11 13:15",6.14
"2018-03-11 13:20",7.38
"2018-03-11 13:25",6.10
"2018-03-11 13:30",6.03
"2018-03-11 13:35",7.32
"2018-03-11 13:40",7.47
"2018-03-11 13:45",5.96
"2018-03-11 13:50",6.06
"2018-03-11 13:55",5.94
"2018-03-11 14:00",5.92
"2018-03-11 14:05",5.75
"2018-03-11 14:10",5.90
"2018-03-11 14:15",5.81
"2018-03-11 14:20",5.86
"2018-03-11 14:25",5.83
"2018-03-11 14:30",5.83
"2018-03-11 14:35",5.56
"2018-03-11 14:40",5.54
"2018-03-11 14:45",5.47
"2018-03-11 14:50",5.34
"2018-03-11 14:55",5.44
"2018-03-11 15:00",5.45
"2018-03-11 15:05",5.59
"2018-03-11 15:10",5.24
"2018-03-11 15:15",5.22
"2018-03-11 15:20",5.05
"2018-03-11 15:25",5.07
"2018-03-11 15:30",4.96
"2018-03-11 15:35",4.96
"2018-03-11 15:40",4.94
"2018-03-11 15:45",4.89
"2018-03-11 15:50",4.60
"2018-03-11 15:55",4.79
"2018-03-11 16:00",4.77
"2018-03-11 16:05",4.82
"2018-03-11 16:10",4.63
"2018-03-11 16:15",5.34
"2018-03-11 16:20",4.55
"2018-03-11 16:25",5.67
"2018-03-11 16:30",4.48
"2018-03-11 16:35",4.39
"2018-03-11 16:40",4.41
"2018-03-11 16:45",4.42
"2018-03-11 16:50",4.39
"2018-03-11 16:55",4.36
"2018-03-11 17:00",4.91
"2018-03-11 17:05",4.24
"2018-03-11 17:10",4.28
"2018-03-11 17:15",4.25
"2018-03-11 17:20",4.50
"2018-03-11 17:25",4.34
"2018-03-11 17:30",4.24
"2018-03-11 17:35",4.34
"2018-03-11 17:40",5.26
"2018-03-11 17:45",4.50
"2018-03-11 17:50",4.53
"2018-03-11 17:55",4.54
"2018-03-11 18:00",4.56
"2018-03-11 18:05",5.51
"2018-03-11 18:10",4.73
"2018-03-11 18:15",5.64
"2018-03-11 18:20",4.60
"2018-03-11 18:25",5.58
"2018-03-11 18:30",5.64
"2018-03-11 18:40",4.62
"2018-03-11 18:45",4.76
"2018-03-11 18:50",4.80
"2018-03-11 18:55",5.93
"2018-03-11 19:00",5.05
"2018-03-11 19:05",5.02
"2018-03-11 19:10",5.07
"2018-03-11 19:15",5.14
"2018-03-11 19:20",5.08
"2018-03-11 19:25",6.59
"2018-03-11 19:30",6.52
"2018-03-11 19:35",5.27
"2018-03-11 19:40",5.26
"2018-03-11 19:45",5.43
"2018-03-11 19:55",5.45
"2018-03-11 20:00",5.44
"2018-03-11 20:05",5.39
"2018-03-11 20:10",5.54
"2018-03-11 20:15",5.72
"2018-03-11 20:20",5.72
"2018-03-11 20:25",5.75
"2018-03-11 20:30",7.32
"2018-03-11 20:35",7.47
"2018-03-11 20:40",5.96
"2018-03-11 20:45",5.78
"2018-03-11 20:50",5.82
"2018-03-11 20:55",7.36
"2018-03-11 21:00",5.91
"2018-03-11 21:05",5.90
"2018-03-11 21:10",6.04
"2018-03-11 21:15",6.05
"2018-03-11 21:20",6.08
"2018-03-11 21:25",6.05
"2018-03-11 21:30",7.57
"2018-03-11 21:35",6.49
"2018-03-11 21:40",6.15
"2018-03-11 21:45",6.07
"2018-03-11 21:50",6.08
"2018-03-11 21:55",6.09
"2018-03-11 22:00",6.12
"2018-03-11 22:05",6.13
"2018-03-11 22:10",6.14
"2018-03-11 22:15",6.15
"2018-03-11 22:20",6.10
"2018-03-11 22:25",7.89
"2018-03-11 22:30",6.20
"2018-03-11 22:35",6.11
"2018-03-11 22:40",6.06
"2018-03-11 22:45",6.06
"2018-03-11 22:50",5.98
"2018-03-11 22:55",5.98
"2018-03-11 23:00",6.03
"2018-03-11 23:05",7.86
"2018-03-11 23:10",7.99
"2018-03-11 23:15",8.11
"2018-03-11 23:20",8.04
"2018-03-11 23:25",6.16
"2018-03-11 23:30",7.18
"2018-03-11 23:35",5.87
"2018-03-11 23:40",5.78
"2018-03-11 23:45",5.83
"2018-03-11 23:50",7.39
"2018-03-11 23:55",7.18
"2018-03-12 00:00",5.88
"2018-03-12 00:05",5.88
"2018-03-12 00:10",5.83
"2018-03-12 00:15",7.14
"2018-03-12 00:20",5.81
"2018-03-12 00:25",5.75
"2018-03-12 00:30",7.20
"2018-03-12 00:35",5.85
"2018-03-12 00:40",5.80
"2018-03-12 00:45",5.75
"2018-03-12 00:50",5.70
"2018-03-12 00:55",6.86
"2018-03-12 01:00",5.59
"2018-03-12 01:05",5.64
"2018-03-12 01:10",7.52
"2018-03-12 01:15",5.89
"2018-03-12 01:20",7.19
"2018-03-12 01:25",5.88
"2018-03-12 01:30",5.60
"2018-03-12 01:35",5.45
"2018-03-12 01:40",5.37
"2018-03-12 01:45",5.41
"2018-03-12 01:50",5.50
"2018-03-12 01:55",5.44
"2018-03-12 02:00",5.48
"2018-03-12 02:05",6.82
"2018-03-12 02:10",5.23
"2018-03-12 02:15",5.35
"2018-03-12 02:20",5.32
"2018-03-12 02:25",5.33
"2018-03-12 02:30",5.33
"2018-03-12 02:35",5.32
"2018-03-12 02:40",5.18
"2018-03-12 02:45",5.19
"2018-03-12 02:50",5.23
"2018-03-12 02:55",5.13
"2018-03-12 03:00",5.19
"2018-03-12 03:05",5.17
"2018-03-12 03:10",5.13
"2018-03-12 03:15",5.14
"2018-03-12 03:20",5.12
"2018-03-12 03:25",5.03
"2018-03-12 03:30",4.89
"2018-03-12 03:35",4.98
"2018-03-12 03:40",5.01
"2018-03-12 03:45",6.19
"2018-03-12 03:50",5.02
"2018-03-12 03:55",4.82
"2018-03-12 04:00",5.01
"2018-03-12 04:05",4.88
"2018-03-12 04:10",4.75
"2018-03-12 04:15",4.90
"2018-03-12 04:20",4.91
"2018-03-12 04:25",4.86
"2018-03-12 04:30",4.84
"2018-03-12 04:35",6.24
"2018-03-12 04:40",4.93
"2018-03-12 04:45",4.73
"2018-03-12 04:50",4.81
"2018-03-12 04:55",4.87
"2018-03-12 05:00",4.73
"2018-03-12 05:05",4.73
"2018-03-12 05:10",4.64
"2018-03-12 05:15",4.70
"2018-03-12 05:20",4.73
"2018-03-12 05:25",5.75
"2018-03-12 05:30",4.71
"2018-03-12 05:35",4.69
"2018-03-12 05:40",5.67
"2018-03-12 05:45",5.83
"2018-03-12 05:50",6.10
"2018-03-12 05:55",5.59
"2018-03-12 06:00",4.59
"2018-03-12 06:05",4.44
"2018-03-12 06:10",4.52
"2018-03-12 06:15",4.48
"2018-03-12 06:20",4.51
"2018-03-12 06:25",4.57
"2018-03-12 06:30",5.70
"2018-03-12 06:35",5.61
"2018-03-12 06:40",4.46
"2018-03-12 06:45",4.44
"2018-03-12 06:50",4.51
"2018-03-12 06:55",4.42
"2018-03-12 07:00",4.41
"2018-03-12 07:05",4.42
"2018-03-12 07:10",4.37
"2018-03-12 07:15",4.38
"2018-03-12 07:20",4.34
"2018-03-12 07:25",4.28
"2018-03-12 07:30",4.26
"2018-03-12 07:35",4.18
"2018-03-12 07:40",4.30
"2018-03-12 07:45",4.27
"2018-03-12 07:50",4.15
"2018-03-12 07:55",4.16
"2018-03-12 08:00",4.14
"2018-03-12 08:05",5.17
"2018-03-12 08:10",5.49
"2018-03-12 08:15",5.24
"2018-03-12 08:20",4.08
"2018-03-12 08:25",4.06
"2018-03-12 08:30",4.03
"2018-03-12 08:35",4.09
"2018-03-12 08:40",3.92
"2018-03-12 08:45",3.96
"2018-03-12 08:50",5.13
"2018-03-12 08:55",4.05
"2018-03-12 09:00",3.92
"2018-03-12 09:05",3.97
"2018-03-12 09:10",3.87
"2018-03-12 09:15",3.95
"2018-03-12 09:20",3.86
"2018-03-12 09:25",3.93
"2018-03-12 09:30",3.87
"2018-03-12 09:35",3.74
"2018-03-12 09:40",3.82
"2018-03-12 09:45",4.65
"2018-03-12 09:50",3.89
"2018-03-12 09:55",4.81
"2018-03-12 10:00",4.72
"2018-03-12 10:05",3.82
"2018-03-12 10:10",3.84
"2018-03-12 10:15",3.69
"2018-03-12 10:20",3.68
"2018-03-12 10:25",3.77
"2018-03-12 10:30",3.63
"2018-03-12 10:35",3.73
"2018-03-12 10:40",3.68
"2018-03-12 10:45",3.76
"2018-03-12 10:50",3.66
"2018-03-12 10:55",3.60
"2018-03-12 11:00",3.59
"2018-03-12 11:05",3.59
"2018-03-12 11:10",3.60
"2018-03-12 11:15",3.60
"2018-03-12 11:20",3.63
"2018-03-12 11:25",3.61
"2018-03-12 11:30",3.53
"2018-03-12 11:35",3.47
"2018-03-12 11:40",3.54
"2018-03-12 11:45",4.38
"2018-03-12 11:50",3.57
"2018-03-12 11:55",3.53
"2018-03-12 12:00",3.47
"2018-03-12 12:05",3.46
"2018-03-12 12:10",4.23
"2018-03-12 12:15",3.44
"2018-03-12 12:20",3.36
"2018-03-12 12:25",3.25
"2018-03-12 12:30",3.21
"2018-03-12 12:35",3.25
"2018-03-12 12:40",3.85
"2018-03-12 12:45",3.18
"2018-03-12 12:50",3.22
"2018-03-12 12:55",3.25
"2018-03-12 13:00",3.23
"2018-03-12 13:05",3.05
"2018-03-12 13:10",3.81
"2018-03-12 13:15",3.35
"2018-03-12 13:20",3.14
"2018-03-12 13:25",3.70
"2018-03-12 13:30",3.21
"2018-03-12 13:35",3.09
"2018-03-12 13:40",3.05
"2018-03-12 13:45",3.11
"2018-03-12 13:50",3.02
"2018-03-12 13:55",3.00
"2018-03-12 14:00",2.89
"2018-03-12 14:05",2.84
"2018-03-12 14:10",2.89
"2018-03-12 14:15",3.79
"2018-03-12 14:20",3.02
"2018-03-12 14:25",2.89
"2018-03-12 14:30",2.87
"2018-03-12 14:35",2.81
"2018-03-12 14:40",2.83
"2018-03-12 14:45",3.48
"2018-03-12 14:50",2.80
"2018-03-12 14:55",2.84
"2018-03-12 15:00",2.73
"2018-03-12 15:05",2.74
"2018-03-12 15:10",2.67
"2018-03-12 15:15",2.78
"2018-03-12 15:20",2.66
"2018-03-12 15:25",2.48
"2018-03-12 15:30",2.72
"2018-03-12 15:35",2.61
"2018-03-12 15:40",2.51
"2018-03-12 15:45",2.56
"2018-03-12 15:50",3.12
"2018-03-12 15:55",2.50
"2018-03-12 16:00",2.40
"2018-03-12 16:05",3.06
"2018-03-12 16:10",3.26
"2018-03-12 16:15",2.62
"2018-03-12 16:20",2.42
"2018-03-12 16:25",2.93
"2018-03-12 16:30",2.88
"2018-03-12 16:35",2.37
"2018-03-12 16:40",2.35
"2018-03-12 16:45",2.65
"2018-03-12 16:50",2.30
"2018-03-12 16:55",2.89
"2018-03-12 17:00",2.25
"2018-03-12 17:05",2.25
"2018-03-12 17:10",2.23
"2018-03-12 17:15",2.22
"2018-03-12 17:20",2.22
"2018-03-12 17:25",2.66
"2018-03-12 17:30",2.13
"2018-03-12 17:35",2.78
"2018-03-12 17:40",2.83
"2018-03-12 17:45",2.12
"2018-03-12 17:50",2.21
"2018-03-12 17:55",2.76
"2018-03-12 18:00",2.69
"2018-03-12 18:05",2.09
"2018-03-12 18:10",2.21
"2018-03-12 18:15",2.11
"2018-03-12 18:20",2.10
"2018-03-12 18:25",2.10
"2018-03-12 18:30",2.04
"2018-03-12 18:35",2.04
"2018-03-12 18:40",2.08
"2018-03-12 18:45",2.06
"2018-03-12 18:50",2.12
"2018-03-12 18:55",1.97
"2018-03-12 19:00",2.05
"2018-03-12 19:05",2.06
"2018-03-12 19:10",2.03
"2018-03-12 19:15",2.02
"2018-03-12 19:20",1.99
"2018-03-12 19:25",1.96
"2018-03-12 19:30",1.95
"2018-03-12 19:35",1.95
"2018-03-12 19:40",2.02
"2018-03-12 19:45",1.95
"2018-03-12 19:50",1.91
"2018-03-12 19:55",2.03
"2018-03-12 20:00",1.95
"2018-03-12 20:05",2.02
"2018-03-12 20:10",1.96
"2018-03-12 20:15",1.95
"2018-03-12 20:20",1.96
"2018-03-12 20:25",2.53
"2018-03-12 20:30",2.08
"2018-03-12 20:35",2.51
"2018-03-12 20:40",2.06
"2018-03-12 20:45",2.01
"2018-03-12 20:50",2.06
"2018-03-12 20:55",2.01
"2018-03-12 21:00",2.42
"2018-03-12 21:05",1.97
"2018-03-12 21:10",1.97
"2018-03-12 21:15",2.56
"2018-03-12 21:20",2.54
"2018-03-12 21:25",2.23
"2018-03-12 21:30",2.09
"2018-03-12 21:35",2.06
"2018-03-12 21:40",2.59
"2018-03-12 21:45",2.66
"2018-03-12 21:50",2.43
"2018-03-12 21:55",1.96
"2018-03-12 22:00",2.10
"2018-03-12 22:05",2.37
"2018-03-12 22:10",2.51
"2018-03-12 22:15",2.07
"2018-03-12 22:20",1.99
"2018-03-12 22:25",2.47
"2018-03-12 22:30",2.01
"2018-03-12 22:35",2.46
"2018-03-12 22:40",2.12
"2018-03-12 22:45",2.10
"2018-03-12 22:50",2.35
"2018-03-12 22:55",2.12
"2018-03-12 23:00",2.48
"2018-03-12 23:05",2.01
"2018-03-12 23:10",2.69
"2018-03-12 23:15",2.76
"2018-03-12 23:20",2.58
"2018-03-12 23:25",2.04
"2018-03-12 23:30",2.10
"2018-03-12 23:35",2.04
"2018-03-12 23:40",2.67
"2018-03-12 23:45",2.70
"2018-03-12 23:50",2.60
"2018-03-12 23:55",2.13
"2018-03-13 00:00",2.13
"2018-03-13 00:05",2.48
"2018-03-13 00:10",2.12
"2018-03-13 00:15",2.08
"2018-03-13 00:20",2.67
"2018-03-13 00:25",2.76
"2018-03-13 00:30",2.61
"2018-03-13 00:35",2.16
"2018-03-13 00:40",2.08
"2018-03-13 00:45",2.06
"2018-03-13 00:50",2.07
"2018-03-13 00:55",2.09
"2018-03-13 01:00",2.16
"2018-03-13 01:05",2.19
"2018-03-13 01:10",1.99
"2018-03-13 01:15",2.14
"2018-03-13 01:20",2.19
"2018-03-13 01:25",2.17
"2018-03-13 01:30",2.19
"2018-03-13 01:35",2.17
"2018-03-13 01:40",2.12
"2018-03-13 01:45",2.20
"2018-03-13 01:50",2.10
"2018-03-13 01:55",2.23
"2018-03-13 02:00",2.27
"2018-03-13 02:05",2.86
"2018-03-13 02:10",2.80
"2018-03-13 02:15",2.77
"2018-03-13 02:20",2.75
"2018-03-13 02:25",2.63
"2018-03-13 02:30",2.19
"2018-03-13 02:35",2.23
"2018-03-13 02:40",2.17
"2018-03-13 02:45",2.13
"2018-03-13 02:50",2.10
"2018-03-13 02:55",2.08
"2018-03-13 03:00",2.18
"2018-03-13 03:05",2.22
"2018-03-13 03:10",2.22
"2018-03-13 03:15",2.04
"2018-03-13 03:20",2.09
"2018-03-13 03:25",2.17
"2018-03-13 03:30",2.11
"2018-03-13 03:35",2.18
"2018-03-13 03:40",2.14
"2018-03-13 03:45",2.12
"2018-03-13 03:50",2.13
"2018-03-13 03:55",2.06
"2018-03-13 04:00",2.49
"2018-03-13 04:05",2.17
"2018-03-13 04:10",2.07
"2018-03-13 04:15",2.12
"2018-03-13 04:20",2.21
"2018-03-13 04:25",2.18
"2018-03-13 04:30",2.16
"2018-03-13 04:35",2.11
"2018-03-13 04:40",2.64
"2018-03-13 04:45",2.18
"2018-03-13 04:50",2.74
"2018-03-13 04:55",2.14
"2018-03-13 05:00",2.12
"2018-03-13 05:05",2.12
"2018-03-13 05:10",2.72
"2018-03-13 05:15",2.57
"2018-03-13 05:20",2.15
"2018-03-13 05:25",2.57
"2018-03-13 05:30",2.18
"2018-03-13 05:35",2.26
"2018-03-13 05:40",2.15
"2018-03-13 05:45",2.22
"2018-03-13 05:50",2.14
"2018-03-13 05:55",2.17
"2018-03-13 06:00",2.42
"2018-03-13 06:05",2.44
"2018-03-13 06:10",2.20
"2018-03-13 06:15",2.13
"2018-03-13 06:20",2.17
"2018-03-13 06:25",2.15
"2018-03-13 06:30",2.17
"2018-03-13 06:35",2.12
"2018-03-13 06:40",2.13
"2018-03-13 06:45",2.23
"2018-03-13 06:50",2.23
"2018-03-13 06:55",2.12
"2018-03-13 07:00",2.23
"2018-03-13 07:05",2.25
"2018-03-13 07:10",2.22
"2018-03-13 07:15",2.19
"2018-03-13 07:20",2.69
"2018-03-13 07:25",2.79
"2018-03-13 07:30",2.78
"2018-03-13 07:35",2.73
"2018-03-13 07:40",2.72
"2018-03-13 07:45",2.19
"2018-03-13 07:50",2.17
"2018-03-13 07:55",2.84
"2018-03-13 08:00",2.91
"2018-03-13 08:05",2.27
"2018-03-13 08:10",2.23
"2018-03-13 08:15",2.15
"2018-03-13 08:20",2.19
"2018-03-13 08:25",2.15
"2018-03-13 08:30",2.11
"2018-03-13 08:35",2.15
"2018-03-13 08:40",2.15
"2018-03-13 08:45",2.19
"2018-03-13 08:50",2.52
"2018-03-13 08:55",2.13
"2018-03-13 09:00",2.67
"2018-03-13 09:05",2.12
"2018-03-13 09:10",2.13
"2018-03-13 09:15",2.10
"2018-03-13 09:20",2.02
"2018-03-13 09:25",2.04
"2018-03-13 09:30",2.72
"2018-03-13 09:35",2.17
"2018-03-13 09:40",2.14
"2018-03-13 09:45",2.21
"2018-03-13 09:50",2.86
"2018-03-13 09:55",2.94
"2018-03-13 10:00",2.99
"2018-03-13 10:05",2.78
"2018-03-13 10:10",2.32
"2018-03-13 10:15",2.27
"2018-03-13 10:20",2.71
"2018-03-13 10:25",2.30
"2018-03-13 10:30",2.34
"2018-03-13 10:35",2.35
"2018-03-13 10:40",2.28
"2018-03-13 10:45",2.36
"2018-03-13 10:50",2.83
"2018-03-13 10:55",2.89
"2018-03-13 11:00",2.41
"2018-03-13 11:05",2.32
"2018-03-13 11:10",2.21
"2018-03-13 11:15",2.77
"2018-03-13 11:20",2.91
"2018-03-13 11:25",2.22
"2018-03-13 11:30",2.34
"2018-03-13 11:35",2.39
"2018-03-13 11:40",2.29
"2018-03-13 11:45",2.70
"2018-03-13 11:50",2.21
"2018-03-13 11:55",2.26
"2018-03-13 12:00",2.25
"2018-03-13 12:05",2.66
"2018-03-13 12:10",2.30
"2018-03-13 12:15",2.25
"2018-03-13 12:20",2.18
"2018-03-13 12:25",2.28
"2018-03-13 12:30",2.91
"2018-03-13 12:35",2.31
"2018-03-13 12:40",2.22
"2018-03-13 12:45",2.25
"2018-03-13 12:50",2.23
"2018-03-13 12:55",2.16
"2018-03-13 13:00",2.23
"2018-03-13 13:05",2.26
"2018-03-13 13:10",2.14
"2018-03-13 13:15",2.60
"2018-03-13 13:20",2.13
"2018-03-13 13:25",2.52
"2018-03-13 13:30",1.94
"2018-03-13 13:35",2.01
"2018-03-13 13:40",1.99
"2018-03-13 13:45",2.02
"2018-03-13 13:50",1.95
"2018-03-13 13:55",1.98
"2018-03-13 14:00",2.31
"2018-03-13 14:05",1.91
"2018-03-13 14:10",1.88
"2018-03-13 14:15",1.92
"2018-03-13 14:20",1.84
"2018-03-13 14:25",1.77
"2018-03-13 14:30",1.77
"2018-03-13 14:35",1.80
"2018-03-13 14:40",1.70
"2018-03-13 14:45",1.72
"2018-03-13 14:50",1.75
"2018-03-13 14:55",1.80
"2018-03-13 15:00",2.07
"2018-03-13 15:05",1.92
"2018-03-13 15:10",1.67
"2018-03-13 15:15",1.62
"2018-03-13 15:20",1.60
"2018-03-13 15:25",1.59
"2018-03-13 15:30",1.59
"2018-03-13 15:35",1.58
"2018-03-13 15:40",1.52
"2018-03-13 15:45",1.54
"2018-03-13 15:50",1.51
"2018-03-13 15:55",1.77
"2018-03-13 16:00",1.63
"2018-03-13 16:05",1.43
"2018-03-13 16:10",1.47
"2018-03-13 16:15",1.47
"2018-03-13 16:20",1.38
"2018-03-13 16:25",1.37
"2018-03-13 16:30",1.31
"2018-03-13 16:35",1.41
"2018-03-13 16:40",1.33
"2018-03-13 16:45",1.36
"2018-03-13 16:50",1.72
"2018-03-13 16:55",1.32
"2018-03-13 17:00",1.39
"2018-03-13 17:05",1.36
"2018-03-13 17:10",1.36
"2018-03-13 17:15",1.51
"2018-03-13 17:20",1.25
"2018-03-13 17:25",1.44
"2018-03-13 17:30",1.25
"2018-03-13 17:35",1.34
"2018-03-13 17:40",1.31
"2018-03-13 17:45",1.31
"2018-03-13 17:50",1.33
"2018-03-13 17:55",1.34
"2018-03-13 18:00",1.30
"2018-03-13 18:05",1.28
"2018-03-13 18:10",1.66
"2018-03-13 18:15",1.32
"2018-03-13 18:20",1.30
"2018-03-13 18:25",1.26
"2018-03-13 18:30",1.25
"2018-03-13 18:35",1.31
"2018-03-13 18:40",1.31
"2018-03-13 18:45",1.17
"2018-03-13 18:50",1.30
"2018-03-13 18:55",1.38
"2018-03-13 19:00",1.27
"2018-03-13 19:05",1.33
"2018-03-13 19:10",1.27
"2018-03-13 19:15",1.32
"2018-03-13 19:20",1.35
"2018-03-13 19:25",1.33
"2018-03-13 19:30",1.32
"2018-03-13 19:35",1.36
"2018-03-13 19:40",1.75
"2018-03-13 19:45",1.45
"2018-03-13 19:50",1.36
"2018-03-13 19:55",1.32
"2018-03-13 20:00",1.37
"2018-03-13 20:05",1.36
"2018-03-13 20:10",1.39
"2018-03-13 20:15",1.40
"2018-03-13 20:20",1.46
"2018-03-13 20:25",1.31
"2018-03-13 20:30",1.49
"2018-03-13 20:35",1.77
"2018-03-13 20:40",1.68
"2018-03-13 20:45",1.39
"2018-03-13 20:50",1.34
"2018-03-13 20:55",1.33
"2018-03-13 21:00",1.36
"2018-03-13 21:05",1.29
"2018-03-13 21:10",1.32
"2018-03-13 21:15",1.43
"2018-03-13 21:20",1.36
"2018-03-13 21:25",1.70
"2018-03-13 21:30",1.37
"2018-03-13 21:35",1.63
"2018-03-13 21:40",1.63
"2018-03-13 21:45",1.38
"2018-03-13 21:50",1.38
"2018-03-13 21:55",1.43
"2018-03-13 22:00",1.37
"2018-03-13 22:05",1.53
"2018-03-13 22:10",1.44
"2018-03-13 22:15",1.40
"2018-03-13 22:20",1.38
"2018-03-13 22:25",1.40
"2018-03-13 22:30",1.43
"2018-03-13 22:35",1.59
"2018-03-13 22:40",1.40
"2018-03-13 22:45",1.42
"2018-03-13 22:50",1.64
"2018-03-13 22:55",1.56
"2018-03-13 23:00",1.66
"2018-03-13 23:05",1.47
"2018-03-13 23:10",1.44
"2018-03-13 23:15",1.49
"2018-03-13 23:20",1.29
"2018-03-13 23:25",1.38
"2018-03-13 23:30",1.31
"2018-03-13 23:35",1.39
"2018-03-13 23:40",1.42
"2018-03-13 23:45",1.47
"2018-03-13 23:50",1.38
"2018-03-13 23:55",1.59
"2018-03-14 00:00",1.62
"2018-03-14 00:05",1.50
"2018-03-14 00:10",1.37
"2018-03-14 00:15",1.41
"2018-03-14 00:20",1.64
"2018-03-14 00:25",1.43
"2018-03-14 00:30",1.41
"2018-03-14 00:35",1.43
"2018-03-14 00:40",1.51
"2018-03-14 00:45",1.40
"2018-03-14 00:50",1.46
"2018-03-14 00:55",1.41
"2018-03-14 01:00",1.44
"2018-03-14 01:05",1.46
"2018-03-14 01:10",1.46
"2018-03-14 01:15",1.36
"2018-03-14 01:20",1.69
"2018-03-14 01:25",1.81
"2018-03-14 01:30",1.77
"2018-03-14 01:35",1.74
"2018-03-14 01:40",1.75
"2018-03-14 01:45",1.43
"2018-03-14 01:50",1.53
"2018-03-14 01:55",1.73
"2018-03-14 02:00",1.76
"2018-03-14 02:05",1.51
"2018-03-14 02:10",1.50
"2018-03-14 02:15",1.73
"2018-03-14 02:20",1.51
"2018-03-14 02:25",1.43
"2018-03-14 02:30",1.43
"2018-03-14 02:35",1.82
"2018-03-14 02:40",1.90
"2018-03-14 02:45",1.44
"2018-03-14 02:50",1.41
"2018-03-14 02:55",1.47
"2018-03-14 03:00",1.44
"2018-03-14 03:05",1.47
"2018-03-14 03:10",1.81
"2018-03-14 03:15",1.56
"2018-03-14 03:20",1.48
"2018-03-14 03:25",1.47
"2018-03-14 03:30",1.53
"2018-03-14 03:35",1.46
"2018-03-14 03:40",1.48
"2018-03-14 03:45",1.47
"2018-03-14 03:50",1.42
"2018-03-14 03:55",1.45
"2018-03-14 04:00",1.84
"2018-03-14 04:05",1.45
"2018-03-14 04:10",1.40
"2018-03-14 04:15",1.71
"2018-03-14 04:20",1.45
"2018-03-14 04:25",1.43
"2018-03-14 04:30",1.44
"2018-03-14 04:35",1.75
"2018-03-14 04:40",1.50
"2018-03-14 04:45",1.44
"2018-03-14 04:50",1.47
"2018-03-14 04:55",1.56
"2018-03-14 05:00",1.49
"2018-03-14 05:05",1.41
"2018-03-14 05:10",1.76
"2018-03-14 05:15",1.56
"2018-03-14 05:20",1.46
"2018-03-14 05:25",1.49
"2018-03-14 05:30",1.51
"2018-03-14 05:35",1.58
"2018-03-14 05:40",1.50
"2018-03-14 05:45",1.46
"2018-03-14 05:50",1.50
"2018-03-14 05:55",1.49
"2018-03-14 06:00",1.48
"2018-03-14 06:05",1.59
"2018-03-14 06:10",1.55
"2018-03-14 06:15",1.47
"2018-03-14 06:20",1.56
"2018-03-14 06:25",1.53
"2018-03-14 06:30",1.45
"2018-03-14 06:35",1.75
"2018-03-14 06:40",1.57
"2018-03-14 06:45",1.83
"2018-03-14 06:50",1.54
"2018-03-14 06:55",0.96
"2018-03-14 07:00",1.77
"2018-03-14 07:05",1.40
"2018-03-14 07:10",1.16
"2018-03-14 07:15",1.22
"2018-03-14 07:20",1.77
"2018-03-14 07:25",1.44
"2018-03-14 07:30",1.79
"2018-03-14 07:35",1.49
"2018-03-14 07:40",1.78
"2018-03-14 07:45",1.67
"2018-03-14 07:50",1.55
"2018-03-14 07:55",1.87
"2018-03-14 08:00",1.54
"2018-03-14 08:05",1.53
"2018-03-14 08:10",1.56
"2018-03-14 08:15",1.57
"2018-03-14 08:20",1.58
"2018-03-14 08:25",1.57
"2018-03-14 08:30",1.57
"2018-03-14 08:35",1.52
"2018-03-14 08:40",1.61
"2018-03-14 08:45",1.53
"2018-03-14 08:50",1.64
"2018-03-14 08:55",1.98
"2018-03-14 09:00",1.59
"2018-03-14 09:05",1.61
"2018-03-14 09:10",1.97
"2018-03-14 09:15",1.68
"2018-03-14 09:20",1.55
"2018-03-14 09:25",1.65
"2018-03-14 09:30",2.05
"2018-03-14 09:35",1.74
"2018-03-14 09:40",1.64
"2018-03-14 09:45",1.58
"2018-03-14 09:50",1.72
"2018-03-14 09:55",1.73
"2018-03-14 10:00",2.26
"2018-03-14 10:05",2.15
"2018-03-14 10:10",1.73
"2018-03-14 10:15",1.75
"2018-03-14 10:20",1.83
"2018-03-14 10:25",1.68
"2018-03-14 10:30",1.75
"2018-03-14 10:35",2.17
"2018-03-14 10:40",1.84
"2018-03-14 10:45",1.75
"2018-03-14 10:50",1.77
"2018-03-14 10:55",2.30
"2018-03-14 11:00",1.90
"2018-03-14 11:05",1.93
"2018-03-14 11:10",1.78
"2018-03-14 11:15",1.94
"2018-03-14 11:20",1.92
"2018-03-14 11:25",1.90
"2018-03-14 11:30",1.90
"2018-03-14 11:35",2.48
"2018-03-14 11:40",2.05
"2018-03-14 11:45",2.02
"2018-03-14 11:50",2.04
"2018-03-14 11:55",2.18
"2018-03-14 12:00",2.18
"2018-03-14 12:05",2.32
"2018-03-14 12:10",2.25
"2018-03-14 12:15",2.40
"2018-03-14 12:20",2.31
"2018-03-14 12:25",2.50
"2018-03-14 12:30",3.29
"2018-03-14 12:35",3.50
"2018-03-14 12:40",3.58
"2018-03-14 12:45",2.76
"2018-03-14 12:50",2.80
"2018-03-14 12:55",2.90
"2018-03-14 13:00",2.95
"2018-03-14 13:05",2.95
"2018-03-14 13:10",3.20
"2018-03-14 13:15",3.22
"2018-03-14 13:20",3.22
"2018-03-14 13:25",3.34
"2018-03-14 13:30",3.30
"2018-03-14 13:35",3.40
"2018-03-14 13:40",3.45
"2018-03-14 13:45",3.52
"2018-03-14 13:50",4.67
"2018-03-14 13:55",4.70
"2018-03-14 14:00",3.69
"2018-03-14 14:05",4.60
"2018-03-14 14:10",3.93
"2018-03-14 14:15",3.86
"2018-03-14 14:20",3.85
"2018-03-14 14:25",4.01
"2018-03-14 14:30",3.97
"2018-03-14 14:35",5.22
"2018-03-14 14:40",5.31
"2018-03-14 14:45",4.08
"2018-03-14 14:50",4.15
"2018-03-14 14:55",4.17
"2018-03-14 15:00",4.24
"2018-03-14 15:05",4.17
"2018-03-14 15:10",4.16
"2018-03-14 15:15",4.15
"2018-03-14 15:20",4.11
"2018-03-14 15:25",5.10
"2018-03-14 15:30",4.21
"2018-03-14 15:35",4.24
"2018-03-14 15:40",4.26
"2018-03-14 15:45",4.37
"2018-03-14 15:50",5.27
"2018-03-14 15:55",4.60
"2018-03-14 16:00",4.53
"2018-03-14 16:05",5.61
"2018-03-14 16:10",4.66
"2018-03-14 16:15",4.77
"2018-03-14 16:20",4.80
"2018-03-14 16:25",6.10
"2018-03-14 16:30",6.10
"2018-03-14 16:35",4.86
"2018-03-14 16:40",4.77
"2018-03-14 16:45",4.77
"2018-03-14 16:50",6.12
"2018-03-14 16:55",6.11
"2018-03-14 17:00",4.85
"2018-03-14 17:05",4.93
"2018-03-14 17:10",4.97
"2018-03-14 17:15",4.95
"2018-03-14 17:20",4.97
"2018-03-14 17:25",5.04
"2018-03-14 17:30",5.26
"2018-03-14 17:35",5.37
"2018-03-14 17:40",5.24
"2018-03-14 17:45",5.43
"2018-03-14 17:50",7.55
"2018-03-14 17:55",5.80
"2018-03-14 18:00",5.66
"2018-03-14 18:05",5.70
"2018-03-14 18:10",5.71
"2018-03-14 18:15",5.87
"2018-03-14 18:20",5.86
"2018-03-14 18:25",5.94
"2018-03-14 18:30",6.07
"2018-03-14 18:35",6.19
"2018-03-14 18:40",8.00
"2018-03-14 18:45",8.31
"2018-03-14 18:50",8.06
"2018-03-14 18:55",6.81
"2018-03-14 19:00",6.71
"2018-03-14 19:05",8.61
"2018-03-14 19:10",7.35
"2018-03-14 19:15",9.09
"2018-03-14 19:20",7.66
"2018-03-14 19:25",7.79
"2018-03-14 19:30",9.94
"2018-03-14 19:35",8.64
"2018-03-14 19:40",8.80
"2018-03-14 19:45",11.28
"2018-03-14 19:50",9.75
"2018-03-14 19:55",10.23
"2018-03-14 20:00",10.56
"2018-03-14 20:05",10.92
"2018-03-14 20:10",11.42
"2018-03-14 20:15",11.57
"2018-03-14 20:20",11.97
"2018-03-14 20:25",12.45
"2018-03-14 20:30",12.65
"2018-03-14 20:35",13.26
"2018-03-14 20:40",13.68
"2018-03-14 20:45",13.99
"2018-03-14 20:50",14.38
"2018-03-14 20:55",14.82
"2018-03-14 21:00",15.11
"2018-03-14 21:05",15.54
"2018-03-14 21:10",15.89
"2018-03-14 21:15",19.13
"2018-03-14 21:20",16.69
"2018-03-14 21:25",16.95
"2018-03-14 21:30",17.29
"2018-03-14 21:35",17.66
"2018-03-14 21:40",17.72
"2018-03-14 21:45",17.71
"2018-03-14 21:50",18.13
"2018-03-14 21:55",18.20
"2018-03-14 22:00",18.38
"2018-03-14 22:05",18.56
"2018-03-14 22:10",19.01
"2018-03-14 22:15",18.96
"2018-03-14 22:20",19.73
"2018-03-14 22:25",18.81
"2018-03-14 22:30",18.89
"2018-03-14 22:35",19.03
"2018-03-14 22:40",19.90
"2018-03-14 22:45",19.08
"2018-03-14 22:50",19.11
"2018-03-14 22:55",19.70
"2018-03-14 23:00",19.05
"2018-03-14 23:05",19.04
"2018-03-14 23:10",19.72
"2018-03-14 23:15",18.89
"2018-03-14 23:20",18.93
"2018-03-14 23:25",18.97
"2018-03-14 23:30",19.01
"2018-03-14 23:35",18.95
"2018-03-14 23:40",18.70
"2018-03-14 23:45",19.60
"2018-03-14 23:50",18.68
"2018-03-14 23:55",18.73
"2018-03-15 00:00",18.63
"2018-03-15 00:05",18.41
"2018-03-15 00:10",18.59
"2018-03-15 00:15",18.63
"2018-03-15 00:20",18.54
"2018-03-15 00:25",18.49
"2018-03-15 00:30",18.43
"2018-03-15 00:35",18.36
"2018-03-15 00:40",18.21
"2018-03-15 00:45",18.21
"2018-03-15 00:50",18.42
"2018-03-15 00:55",18.23
"2018-03-15 01:00",18.13
"2018-03-15 01:05",18.03
"2018-03-15 01:10",17.80
"2018-03-15 01:15",17.80
"2018-03-15 01:20",17.82
"2018-03-15 01:25",17.85
"2018-03-15 01:30",17.65
"2018-03-15 01:35",17.62
"2018-03-15 01:40",17.42
"2018-03-15 01:45",17.60
"2018-03-15 01:50",17.61
"2018-03-15 01:55",17.52
"2018-03-15 02:00",17.48
"2018-03-15 02:05",17.46
"2018-03-15 02:10",17.59
"2018-03-15 02:15",17.20
"2018-03-15 02:20",16.98
"2018-03-15 02:25",17.15
"2018-03-15 02:30",17.26
"2018-03-15 02:35",16.81
"2018-03-15 02:40",16.76
"2018-03-15 02:45",16.95
"2018-03-15 02:50",16.91
"2018-03-15 02:55",16.81
"2018-03-15 03:00",16.71
"2018-03-15 03:05",16.73
"2018-03-15 03:10",16.51
"2018-03-15 03:15",16.63
"2018-03-15 03:20",16.64
"2018-03-15 03:25",16.38
"2018-03-15 03:30",19.18
"2018-03-15 03:35",16.79
"2018-03-15 03:40",19.41
"2018-03-15 03:45",16.46
"2018-03-15 03:50",16.30
"2018-03-15 03:55",16.20
"2018-03-15 04:00",16.30
"2018-03-15 04:05",16.14
"2018-03-15 04:10",16.22
"2018-03-15 04:15",16.16
"2018-03-15 04:20",16.05
"2018-03-15 04:25",15.94
"2018-03-15 04:30",16.09
"2018-03-15 04:35",15.99
"2018-03-15 04:40",19.48
"2018-03-15 04:45",20.00
"2018-03-15 04:50",16.60
"2018-03-15 04:55",16.05
"2018-03-15 05:00",15.94
"2018-03-15 05:05",15.78
"2018-03-15 05:10",15.76
"2018-03-15 05:15",15.71
"2018-03-15 05:20",18.99
"2018-03-15 05:25",15.88
"2018-03-15 05:30",15.88
"2018-03-15 05:35",15.85
"2018-03-15 05:40",15.79
"2018-03-15 05:45",15.56
"2018-03-15 05:50",19.45
"2018-03-15 05:55",19.51
"2018-03-15 06:00",15.62
"2018-03-15 06:05",15.54
"2018-03-15 06:10",15.41
"2018-03-15 06:15",15.51
"2018-03-15 06:20",15.55
"2018-03-15 06:25",15.47
"2018-03-15 06:30",15.49
"2018-03-15 06:35",15.37
"2018-03-15 06:40",15.11
"2018-03-15 06:45",15.53
"2018-03-15 06:50",15.36
"2018-03-15 06:55",15.32
"2018-03-15 07:00",15.09
"2018-03-15 07:05",15.19
"2018-03-15 07:10",15.06
"2018-03-15 07:15",15.08
"2018-03-15 07:20",14.96
"2018-03-15 07:25",18.72
"2018-03-15 07:30",19.44
"2018-03-15 07:35",14.94
"2018-03-15 07:40",14.77
"2018-03-15 07:45",18.53
"2018-03-15 07:50",19.83
"2018-03-15 07:55",19.75
"2018-03-15 08:00",19.90
"2018-03-15 08:05",19.28
"2018-03-15 08:10",14.51
"2018-03-15 08:15",14.25
"2018-03-15 08:20",14.30
"2018-03-15 08:25",18.34
"2018-03-15 08:30",18.49
"2018-03-15 08:35",14.56
"2018-03-15 08:40",14.22
"2018-03-15 08:45",14.27
"2018-03-15 08:50",14.06
"2018-03-15 08:55",14.03
"2018-03-15 09:00",14.03
"2018-03-15 09:05",14.04
"2018-03-15 09:10",13.96
"2018-03-15 09:15",13.82
"2018-03-15 09:20",18.16
"2018-03-15 09:25",14.97
"2018-03-15 09:30",13.73
"2018-03-15 09:35",13.79
"2018-03-15 09:40",13.63
"2018-03-15 09:45",17.28
"2018-03-15 09:50",13.71
"2018-03-15 09:55",13.64
"2018-03-15 10:00",13.52
"2018-03-15 10:05",13.23
"2018-03-15 10:10",13.14
"2018-03-15 10:15",12.96
"2018-03-15 10:20",13.19
"2018-03-15 10:25",13.22
"2018-03-15 10:30",13.18
"2018-03-15 10:35",13.06
"2018-03-15 10:40",13.10
"2018-03-15 10:45",12.86
"2018-03-15 10:50",13.06
"2018-03-15 10:55",12.92
"2018-03-15 11:00",16.85
"2018-03-15 11:05",13.11
"2018-03-15 11:10",16.71
"2018-03-15 11:15",17.21
"2018-03-15 11:20",13.27
"2018-03-15 11:25",12.59
"2018-03-15 11:30",15.61
"2018-03-15 11:35",12.58
"2018-03-15 11:40",12.43
"2018-03-15 11:45",12.30
"2018-03-15 11:50",12.05
