"2013-12-28 21:15",0.00
"2013-12-28 22:15",0.00
"2013-12-28 23:15",0.00
"2013-12-29 00:15",0.00
"2013-12-29 01:15",0.00
"2013-12-29 02:15",0.00
"2013-12-29 03:15",0.00
"2013-12-29 04:15",0.00
"2013-12-29 05:15",0.00
"2013-12-29 06:15",0.00
"2013-12-29 07:15",0.00
"2013-12-29 08:15",0.00
"2013-12-29 09:15",0.00
"2013-12-29 10:15",0.00
"2013-12-29 11:15",0.00
"2013-12-29 12:15",0.00
"2013-12-29 13:15",0.00
"2013-12-29 14:15",0.00
"2013-12-29 15:15",0.00
"2013-12-29 16:15",0.00
"2013-12-29 17:15",0.00
"2013-12-29 18:15",0.00
"2013-12-29 19:15",0.00
"2013-12-29 20:15",0.00
"2013-12-29 21:15",0.00
"2013-12-29 22:15",0.00
"2013-12-29 23:15",0.00
"2013-12-30 00:15",0.00
"2013-12-30 01:15",0.00
"2013-12-30 02:15",0.00
"2013-12-30 03:15",0.00
"2013-12-30 04:15",0.00
"2013-12-30 05:15",0.00
"2013-12-30 06:15",0.00
"2013-12-30 07:15",0.00
"2013-12-30 08:15",0.00
"2013-12-30 09:15",0.00
"2013-12-30 10:15",0.00
"2013-12-30 11:15",0.00
"2013-12-30 12:15",0.00
"2013-12-30 13:15",0.00
"2013-12-30 14:15",0.00
"2013-12-30 15:15",0.00
"2013-12-30 16:15",0.00
"2013-12-30 17:15",0.00
"2013-12-30 18:15",0.00
"2013-12-30 19:15",0.00
"2013-12-30 20:15",0.00
"2013-12-30 21:15",0.00
"2013-12-30 22:15",0.00
"2013-12-30 23:15",0.00
"2013-12-31 00:15",0.00
"2013-12-31 01:15",0.00
"2013-12-31 02:15",0.00
"2013-12-31 03:15",0.00
"2013-12-31 04:15",0.00
"2013-12-31 05:15",0.00
"2013-12-31 06:15",0.00
"2013-12-31 07:15",0.00
"2013-12-31 08:15",0.00
"2013-12-31 09:15",0.00
"2013-12-31 10:15",0.00
"2013-12-31 11:15",0.00
"2013-12-31 12:15",0.00
"2013-12-31 13:15",0.00
"2013-12-31 14:15",0.00
"2013-12-31 15:15",0.00
"2013-12-31 16:15",0.00
"2013-12-31 17:15",0.00
"2013-12-31 18:15",0.00
"2013-12-31 19:15",0.00
"2013-12-31 20:15",0.00
"2013-12-31 21:15",0.00
"2013-12-31 22:15",0.00
"2013-12-31 23:15",0.00
"2014-01-01 00:15",0.00
"2014-01-01 01:15",0.00
"2014-01-01 02:15",0.00
"2014-01-01 03:15",0.00
"2014-01-01 04:15",0.00
"2014-01-01 05:15",0.00
"2014-01-01 06:15",0.00
"2014-01-01 07:15",0.00
"2014-01-01 08:15",0.00
"2014-01-01 09:15",0.00
"2014-01-01 10:15",0.00
"2014-01-01 11:15",0.00
"2014-01-01 12:15",0.00
"2014-01-01 13:15",0.00
"2014-01-01 14:15",0.00
"2014-01-01 15:15",0.00
"2014-01-01 16:15",0.00
"2014-01-01 17:15",0.00
"2014-01-01 18:15",0.00
"2014-01-01 19:15",0.00
"2014-01-01 20:15",0.00
"2014-01-01 21:15",0.00
"2014-01-01 22:15",0.00
"2014-01-01 23:15",0.00
"2014-01-02 00:15",0.00
"2014-01-02 01:15",0.00
"2014-01-02 02:15",0.00
"2014-01-02 03:15",0.00
"2014-01-02 04:15",0.00
"2014-01-02 05:15",0.00
"2014-01-02 06:15",0.00
"2014-01-02 07:15",0.00
"2014-01-02 08:15",0.00
"2014-01-02 09:15",0.00
"2014-01-02 10:15",0.00
"2014-01-02 11:15",0.00
"2014-01-02 12:15",0.00
"2014-01-02 13:15",0.00
"2014-01-02 14:15",0.00
"2014-01-02 15:15",0.00
"2014-01-02 16:15",0.00
"2014-01-02 17:15",0.00
"2014-01-02 18:15",0.00
"2014-01-02 19:15",0.00
"2014-01-02 20:15",0.00
"2014-01-02 21:15",0.00
"2014-01-02 22:15",0.00
"2014-01-02 23:15",0.00
"2014-01-03 00:15",0.00
"2014-01-03 01:15",0.00
"2014-01-03 02:15",0.00
"2014-01-03 03:15",0.00
"2014-01-03 04:15",0.00
"2014-01-03 05:15",0.00
"2014-01-03 06:15",0.00
"2014-01-03 07:15",0.00
"2014-01-03 08:15",0.00
"2014-01-03 09:15",0.00
"2014-01-03 10:15",0.00
"2014-01-03 11:15",0.00
"2014-01-03 12:15",0.00
"2014-01-03 13:15",0.00
"2014-01-03 14:15",0.00
"2014-01-03 15:15",0.00
"2014-01-03 16:15",0.00
"2014-01-03 17:15",0.00
"2014-01-03 18:15",0.00
"2014-01-03 19:15",0.00
"2014-01-03 20:15",0.00
"2014-01-03 21:15",0.00
"2014-01-03 22:15",0.00
"2014-01-03 23:15",0.00
"2014-01-04 00:15",0.00
"2014-01-04 01:15",0.00
"2014-01-04 02:15",0.00
"2014-01-04 03:15",0.00
"2014-01-04 04:15",0.00
"2014-01-04 05:15",0.00
"2014-01-04 06:15",0.00
"2014-01-04 07:15",0.00
"2014-01-04 08:15",0.00
"2014-01-04 08:25",0.00
"2014-01-04 09:25",0.00
"2014-01-04 10:25",0.00
"2014-01-04 11:25",0.00
"2014-01-04 12:25",0.00
"2014-01-04 13:25",0.00
"2014-01-04 14:25",0.00
"2014-01-04 15:25",0.00
"2014-01-04 16:25",0.00
"2014-01-04 17:25",0.00
"2014-01-04 18:25",0.00
"2014-01-04 19:25",0.00
