"2018-01-18 14:10",0.00
"2018-01-18 15:10",0.00
"2018-01-18 16:10",0.00
"2018-01-18 17:10",0.00
"2018-01-18 18:10",0.00
"2018-01-18 19:10",0.00
"2018-01-18 20:10",0.00
"2018-01-18 21:10",0.00
"2018-01-18 22:10",0.00
"2018-01-18 23:10",0.00
"2018-01-19 00:10",0.00
"2018-01-19 01:10",0.00
"2018-01-19 02:10",0.00
"2018-01-19 03:10",0.00
"2018-01-19 04:10",0.00
"2018-01-19 05:10",0.00
"2018-01-19 06:10",0.00
"2018-01-19 07:10",0.00
"2018-01-19 08:10",0.00
"2018-01-19 09:10",0.00
"2018-01-19 10:10",0.00
"2018-01-19 11:10",0.00
"2018-01-19 12:10",0.00
"2018-01-19 13:10",0.00
"2018-01-19 14:10",0.00
"2018-01-19 15:10",0.00
"2018-01-19 16:10",0.00
"2018-01-19 17:10",0.00
"2018-01-19 18:10",0.00
"2018-01-19 19:10",0.00
"2018-01-19 20:10",0.00
"2018-01-19 21:10",0.00
"2018-01-19 22:10",0.00
"2018-01-19 23:10",0.00
"2018-01-20 00:10",0.00
"2018-01-20 01:10",0.00
"2018-01-20 02:10",0.00
"2018-01-20 03:10",0.00
"2018-01-20 04:10",0.00
"2018-01-20 05:10",0.00
"2018-01-20 06:10",0.00
"2018-01-20 07:10",0.00
"2018-01-20 08:10",0.00
"2018-01-20 09:10",0.00
"2018-01-20 10:10",0.00
"2018-01-20 11:10",0.00
"2018-01-20 12:10",0.00
"2018-01-20 13:10",0.00
"2018-01-20 14:10",0.00
"2018-01-20 15:10",0.00
"2018-01-20 16:10",0.00
"2018-01-20 17:10",0.00
"2018-01-20 18:10",0.00
"2018-01-20 19:10",0.00
"2018-01-20 20:10",0.00
"2018-01-20 21:10",0.00
"2018-01-20 22:10",0.00
"2018-01-20 23:10",0.00
"2018-01-21 00:10",0.00
"2018-01-21 01:10",0.00
"2018-01-21 02:10",0.00
"2018-01-21 03:10",0.00
"2018-01-21 04:10",0.00
"2018-01-21 05:10",0.00
"2018-01-21 06:10",0.00
"2018-01-21 07:10",0.00
"2018-01-21 08:10",0.00
"2018-01-21 09:10",0.00
"2018-01-21 10:10",0.00
"2018-01-21 11:10",0.00
"2018-01-21 12:10",0.00
"2018-01-21 13:10",0.00
"2018-01-21 14:10",0.00
"2018-01-21 15:10",0.00
"2018-01-21 16:10",0.00
"2018-01-21 17:10",0.00
"2018-01-21 18:10",0.00
"2018-01-21 19:10",0.00
"2018-01-21 20:10",0.00
"2018-01-21 21:10",0.00
"2018-01-21 22:10",0.00
"2018-01-21 23:10",0.00
"2018-01-22 00:10",0.00
"2018-01-22 01:10",0.00
"2018-01-22 02:10",0.00
"2018-01-22 03:10",0.00
"2018-01-22 04:10",0.00
"2018-01-22 05:10",0.00
"2018-01-22 06:10",0.00
"2018-01-22 07:10",0.00
"2018-01-22 08:10",0.00
"2018-01-22 09:10",0.00
"2018-01-22 10:10",0.00
"2018-01-22 11:10",0.00
"2018-01-22 12:10",0.00
"2018-01-22 13:10",0.00
"2018-01-22 14:10",0.00
"2018-01-22 15:10",0.00
"2018-01-22 16:10",0.00
"2018-01-22 17:10",0.00
"2018-01-22 18:10",0.00
"2018-01-22 19:10",0.00
"2018-01-22 20:10",0.00
"2018-01-22 21:10",0.00
"2018-01-22 22:10",0.00
"2018-01-22 23:10",0.00
"2018-01-23 00:10",0.00
"2018-01-23 01:10",0.00
"2018-01-23 02:10",0.00
"2018-01-23 03:10",0.00
"2018-01-23 04:10",0.00
"2018-01-23 05:10",0.00
"2018-01-23 06:10",0.00
"2018-01-23 07:10",0.00
"2018-01-23 08:10",0.00
"2018-01-23 09:10",0.00
"2018-01-23 10:10",0.00
"2018-01-23 11:10",0.00
"2018-01-23 12:10",0.00
"2018-01-23 13:10",0.00
"2018-01-23 14:10",0.00
"2018-01-23 15:10",0.00
"2018-01-23 16:10",0.00
"2018-01-23 17:10",0.00
"2018-01-23 18:10",0.00
"2018-01-23 19:10",0.00
"2018-01-23 20:10",0.00
"2018-01-23 21:10",0.00
"2018-01-23 22:10",0.00
"2018-01-23 23:10",0.00
"2018-01-24 00:10",0.00
"2018-01-24 01:10",0.00
"2018-01-24 02:10",0.00
"2018-01-24 03:10",0.00
"2018-01-24 04:10",0.00
"2018-01-24 05:10",0.00
"2018-01-24 06:10",0.00
"2018-01-24 07:10",0.00
"2018-01-24 08:10",0.00
"2018-01-24 09:10",0.00
"2018-01-24 10:10",0.00
"2018-01-24 11:10",0.00
"2018-01-24 12:10",0.00
"2018-01-24 13:10",0.00
"2018-01-24 14:10",0.00
"2018-01-24 15:10",0.00
"2018-01-24 16:10",0.00
"2018-01-24 17:10",0.00
"2018-01-24 18:10",0.00
"2018-01-24 19:10",0.00
"2018-01-24 20:10",0.00
"2018-01-24 21:10",0.00
"2018-01-24 22:10",0.00
"2018-01-24 23:10",0.00
"2018-01-25 00:10",0.00
"2018-01-25 01:10",0.00
"2018-01-25 02:10",0.00
"2018-01-25 03:10",0.00
"2018-01-25 04:10",0.00
"2018-01-25 05:10",0.00
"2018-01-25 06:10",0.00
"2018-01-25 07:10",0.00
"2018-01-25 08:10",0.00
"2018-01-25 09:10",0.00
"2018-01-25 10:10",0.00
"2018-01-25 11:10",0.00
"2018-01-25 12:10",0.00
