"2018-03-08 08:10",37.48
"2018-03-08 08:15",38.40
"2018-03-08 08:20",38.40
"2018-03-08 08:25",38.40
"2018-03-08 08:30",38.40
"2018-03-08 08:35",38.40
"2018-03-08 08:40",38.40
"2018-03-08 08:45",39.32
"2018-03-08 08:50",39.32
"2018-03-08 08:55",39.32
"2018-03-08 09:00",39.32
"2018-03-08 09:05",40.26
"2018-03-08 09:10",40.26
"2018-03-08 09:15",40.26
"2018-03-08 09:20",40.26
"2018-03-08 09:25",40.26
"2018-03-08 09:30",40.26
"2018-03-08 09:35",41.21
"2018-03-08 09:40",41.21
"2018-03-08 09:45",41.21
"2018-03-08 09:50",41.21
"2018-03-08 09:55",41.21
"2018-03-08 10:00",41.21
"2018-03-08 10:05",41.21
"2018-03-08 10:10",41.21
"2018-03-08 10:15",41.21
"2018-03-08 10:20",42.17
"2018-03-08 10:25",43.13
"2018-03-08 10:30",43.13
"2018-03-08 10:35",43.13
"2018-03-08 10:40",43.13
"2018-03-08 10:45",43.13
"2018-03-08 10:50",43.13
"2018-03-08 10:55",44.11
"2018-03-08 11:00",44.11
"2018-03-08 11:05",44.11
"2018-03-08 11:10",44.11
"2018-03-08 11:15",44.11
"2018-03-08 11:20",44.11
"2018-03-08 11:25",44.11
"2018-03-08 11:30",45.10
"2018-03-08 11:35",46.11
"2018-03-08 11:40",46.11
"2018-03-08 11:45",46.11
"2018-03-08 11:50",46.11
"2018-03-08 11:55",46.11
"2018-03-08 12:00",46.11
"2018-03-08 12:05",47.12
"2018-03-08 12:10",47.12
"2018-03-08 12:15",47.12
"2018-03-08 12:20",47.12
"2018-03-08 12:25",47.12
"2018-03-08 12:30",47.12
"2018-03-08 12:35",48.14
"2018-03-08 12:40",48.14
"2018-03-08 12:45",48.14
"2018-03-08 12:50",48.24
"2018-03-08 12:55",48.24
"2018-03-08 13:00",48.24
"2018-03-08 13:05",48.24
"2018-03-08 13:10",49.17
"2018-03-08 13:15",49.17
"2018-03-08 13:20",50.22
"2018-03-08 13:25",50.22
"2018-03-08 13:30",50.22
"2018-03-08 13:35",50.22
"2018-03-08 13:40",51.27
"2018-03-08 13:45",51.27
"2018-03-08 13:50",51.27
"2018-03-08 13:55",51.27
"2018-03-08 14:00",52.34
"2018-03-08 14:05",52.34
"2018-03-08 14:10",52.34
"2018-03-08 14:15",52.34
"2018-03-08 14:20",52.34
"2018-03-08 14:25",52.34
"2018-03-08 14:30",53.41
"2018-03-08 14:35",53.41
"2018-03-08 14:40",54.50
"2018-03-08 14:45",54.50
"2018-03-08 14:50",54.50
"2018-03-08 14:55",55.59
"2018-03-08 15:00",55.59
"2018-03-08 15:05",55.59
"2018-03-08 15:10",56.69
"2018-03-08 15:15",56.71
"2018-03-08 15:20",56.71
"2018-03-08 15:25",56.71
"2018-03-08 15:30",57.82
"2018-03-08 15:35",57.82
"2018-03-08 15:40",57.82
"2018-03-08 15:45",57.82
"2018-03-08 15:50",58.95
"2018-03-08 15:55",58.95
"2018-03-08 16:00",58.95
"2018-03-08 16:05",60.09
"2018-03-08 16:10",60.09
"2018-03-08 16:15",60.09
"2018-03-08 16:20",61.24
"2018-03-08 16:25",61.25
"2018-03-08 16:30",61.25
"2018-03-08 16:35",61.25
"2018-03-08 16:40",62.40
"2018-03-08 16:45",62.40
"2018-03-08 16:50",62.40
"2018-03-08 16:55",62.40
"2018-03-08 17:00",63.58
"2018-03-08 17:05",63.58
"2018-03-08 17:10",63.58
"2018-03-08 17:15",64.76
"2018-03-08 17:20",64.76
"2018-03-08 17:25",64.76
"2018-03-08 17:30",65.84
"2018-03-08 17:35",65.96
"2018-03-08 17:40",65.96
"2018-03-08 17:45",65.96
"2018-03-08 17:50",67.15
"2018-03-08 17:55",67.15
"2018-03-08 18:00",67.15
"2018-03-08 18:05",68.37
"2018-03-08 18:10",68.37
"2018-03-08 18:15",68.37
"2018-03-08 18:20",68.37
"2018-03-08 18:25",69.60
"2018-03-08 18:30",69.60
"2018-03-08 18:35",69.60
"2018-03-08 18:40",69.60
"2018-03-08 18:45",70.86
"2018-03-08 18:50",70.86
"2018-03-08 18:55",70.86
"2018-03-08 19:00",70.86
"2018-03-08 19:05",70.86
"2018-03-08 19:10",70.86
"2018-03-08 19:15",70.86
"2018-03-08 19:20",72.11
"2018-03-08 19:25",72.11
"2018-03-08 19:30",72.11
"2018-03-08 19:35",73.37
"2018-03-08 19:40",73.37
"2018-03-08 19:45",73.37
"2018-03-08 19:50",74.62
"2018-03-08 19:55",74.62
"2018-03-08 20:00",74.62
"2018-03-08 20:05",74.62
"2018-03-08 20:10",74.62
"2018-03-08 20:15",75.88
"2018-03-08 20:20",75.88
"2018-03-08 20:25",75.88
"2018-03-08 20:30",75.88
"2018-03-08 20:35",75.88
"2018-03-08 20:40",77.19
"2018-03-08 20:45",77.19
"2018-03-08 20:50",77.19
"2018-03-08 20:55",77.19
"2018-03-08 21:00",78.50
"2018-03-08 21:05",78.50
"2018-03-08 21:10",78.50
"2018-03-08 21:15",78.63
"2018-03-08 21:20",78.63
"2018-03-08 21:25",78.63
"2018-03-08 21:30",78.63
"2018-03-08 21:35",79.82
"2018-03-08 21:40",81.00
"2018-03-08 21:45",81.12
"2018-03-08 21:50",81.13
"2018-03-08 21:55",81.13
"2018-03-08 22:00",81.13
"2018-03-08 22:05",81.13
"2018-03-08 22:10",81.13
"2018-03-08 22:15",81.13
"2018-03-08 22:20",81.13
"2018-03-08 22:25",81.13
"2018-03-08 22:30",81.13
"2018-03-08 22:35",81.13
"2018-03-08 22:40",81.13
"2018-03-08 22:45",83.80
"2018-03-08 22:50",83.80
"2018-03-08 22:55",83.80
"2018-03-08 23:00",83.80
"2018-03-08 23:05",83.80
"2018-03-08 23:10",83.80
"2018-03-08 23:15",83.80
"2018-03-08 23:20",85.17
"2018-03-08 23:25",85.17
"2018-03-08 23:30",85.17
"2018-03-08 23:35",85.17
"2018-03-08 23:40",85.17
"2018-03-08 23:45",85.17
"2018-03-08 23:50",85.17
"2018-03-08 23:55",85.17
"2018-03-09 00:00",86.53
"2018-03-09 00:05",86.53
"2018-03-09 00:10",86.53
"2018-03-09 00:15",86.53
"2018-03-09 00:20",86.53
"2018-03-09 00:25",87.90
"2018-03-09 00:30",87.90
"2018-03-09 00:35",87.90
"2018-03-09 00:40",87.90
"2018-03-09 00:45",87.90
"2018-03-09 00:50",87.90
"2018-03-09 00:55",87.90
"2018-03-09 01:00",89.25
"2018-03-09 01:05",89.26
"2018-03-09 01:10",89.26
"2018-03-09 01:15",89.26
"2018-03-09 01:20",89.26
"2018-03-09 01:25",89.26
"2018-03-09 01:30",89.26
"2018-03-09 01:35",89.26
"2018-03-09 01:40",89.26
"2018-03-09 01:45",89.26
"2018-03-09 01:50",89.26
"2018-03-09 01:55",89.26
"2018-03-09 02:00",89.26
"2018-03-09 02:05",90.71
"2018-03-09 02:10",90.71
"2018-03-09 02:15",90.71
"2018-03-09 02:20",90.71
"2018-03-09 02:25",90.71
"2018-03-09 02:30",90.71
"2018-03-09 02:35",90.71
"2018-03-09 02:40",90.71
"2018-03-09 02:45",90.71
"2018-03-09 02:50",90.71
"2018-03-09 02:55",90.71
"2018-03-09 03:00",90.71
"2018-03-09 03:05",90.71
"2018-03-09 03:10",90.71
"2018-03-09 03:15",90.71
"2018-03-09 03:20",90.71
"2018-03-09 03:25",90.71
"2018-03-09 03:30",90.71
"2018-03-09 03:35",90.71
"2018-03-09 03:40",90.71
"2018-03-09 03:45",90.71
"2018-03-09 03:50",90.71
"2018-03-09 03:55",90.71
"2018-03-09 04:00",90.71
"2018-03-09 04:05",90.71
"2018-03-09 04:10",90.71
"2018-03-09 04:15",90.71
"2018-03-09 04:20",90.71
"2018-03-09 04:25",90.71
"2018-03-09 04:30",90.71
"2018-03-09 04:35",90.71
"2018-03-09 04:40",90.71
"2018-03-09 04:45",90.71
"2018-03-09 04:50",90.71
"2018-03-09 04:55",90.71
"2018-03-09 05:00",90.71
"2018-03-09 05:05",90.71
"2018-03-09 05:10",90.71
"2018-03-09 05:15",90.71
"2018-03-09 05:20",90.71
"2018-03-09 05:25",90.71
"2018-03-09 05:30",90.71
"2018-03-09 05:35",90.71
"2018-03-09 05:40",90.71
"2018-03-09 05:45",90.71
"2018-03-09 05:50",90.71
"2018-03-09 05:55",90.71
"2018-03-09 06:01",90.71
"2018-03-09 06:05",90.71
"2018-03-09 06:10",90.71
"2018-03-09 06:15",90.71
"2018-03-09 06:20",90.71
"2018-03-09 06:25",90.71
"2018-03-09 06:31",90.71
"2018-03-09 06:35",90.71
"2018-03-09 06:40",90.72
"2018-03-09 06:46",92.15
"2018-03-09 06:50",92.15
"2018-03-09 06:55",92.15
"2018-03-09 07:01",92.15
"2018-03-09 07:05",92.15
"2018-03-09 07:10",92.15
"2018-03-09 07:16",92.14
"2018-03-09 07:20",92.14
"2018-03-09 07:25",92.15
"2018-03-09 07:31",92.15
"2018-03-09 07:35",92.15
"2018-03-09 07:40",92.15
"2018-03-09 07:46",92.15
"2018-03-09 07:50",92.15
"2018-03-09 07:55",92.15
"2018-03-09 08:01",92.15
"2018-03-09 08:05",92.15
"2018-03-09 08:10",92.15
"2018-03-09 08:16",90.71
"2018-03-09 08:20",90.71
"2018-03-09 08:25",90.84
"2018-03-09 08:31",92.15
"2018-03-09 08:35",92.15
"2018-03-09 08:40",92.15
"2018-03-09 08:46",92.02
"2018-03-09 08:50",92.02
"2018-03-09 08:55",92.15
"2018-03-09 09:01",92.02
"2018-03-09 09:05",92.02
"2018-03-09 09:10",90.85
"2018-03-09 09:16",90.85
"2018-03-09 09:20",90.85
"2018-03-09 09:25",90.85
"2018-03-09 09:31",92.02
"2018-03-09 09:35",92.02
"2018-03-09 09:40",92.02
"2018-03-09 09:46",92.15
"2018-03-09 09:50",92.15
"2018-03-09 09:55",92.02
"2018-03-09 10:01",92.15
"2018-03-09 10:05",92.15
"2018-03-09 10:10",92.15
"2018-03-09 10:16",92.15
"2018-03-09 10:20",92.15
"2018-03-09 10:25",92.15
"2018-03-09 10:31",92.15
"2018-03-09 10:35",92.15
"2018-03-09 10:40",92.15
"2018-03-09 10:46",92.15
"2018-03-09 10:50",92.15
"2018-03-09 10:55",92.15
"2018-03-09 11:01",92.15
"2018-03-09 11:05",92.15
"2018-03-09 11:10",92.15
"2018-03-09 11:16",92.15
"2018-03-09 11:20",92.15
"2018-03-09 11:25",92.15
"2018-03-09 11:31",92.15
"2018-03-09 11:35",92.15
"2018-03-09 11:40",92.15
"2018-03-09 11:46",92.15
"2018-03-09 11:50",92.15
"2018-03-09 11:55",92.15
"2018-03-09 12:01",92.15
"2018-03-09 12:05",92.15
"2018-03-09 12:10",92.15
"2018-03-09 12:16",92.15
"2018-03-09 12:20",92.15
"2018-03-09 12:25",92.15
"2018-03-09 12:31",92.15
"2018-03-09 12:35",92.15
"2018-03-09 12:40",92.15
"2018-03-09 12:46",92.15
"2018-03-09 12:50",92.15
"2018-03-09 12:55",92.15
"2018-03-09 13:01",90.72
"2018-03-09 13:05",90.72
"2018-03-09 13:10",90.71
"2018-03-09 13:16",90.84
"2018-03-09 13:20",90.84
"2018-03-09 13:25",90.71
"2018-03-09 13:31",90.71
"2018-03-09 13:35",90.71
"2018-03-09 13:40",90.71
"2018-03-09 13:46",90.71
"2018-03-09 13:50",90.71
"2018-03-09 13:55",90.71
"2018-03-09 14:01",90.71
"2018-03-09 14:05",90.71
"2018-03-09 14:10",90.71
"2018-03-09 14:16",90.71
"2018-03-09 14:20",90.71
"2018-03-09 14:25",90.71
"2018-03-09 14:31",90.71
"2018-03-09 14:35",90.71
"2018-03-09 14:40",90.71
"2018-03-09 14:46",90.71
"2018-03-09 14:50",90.71
"2018-03-09 14:55",90.71
"2018-03-09 15:01",90.71
"2018-03-09 15:05",90.71
"2018-03-09 15:10",90.71
"2018-03-09 15:16",90.71
"2018-03-09 15:20",90.71
"2018-03-09 15:25",90.71
"2018-03-09 15:31",90.71
"2018-03-09 15:35",90.71
"2018-03-09 15:40",90.71
"2018-03-09 15:46",90.71
"2018-03-09 15:50",90.71
"2018-03-09 15:55",90.71
"2018-03-09 16:01",90.71
"2018-03-09 16:05",90.71
"2018-03-09 16:10",90.71
"2018-03-09 16:16",90.71
"2018-03-09 16:20",90.71
"2018-03-09 16:25",90.71
"2018-03-09 16:31",90.71
"2018-03-09 16:35",90.71
"2018-03-09 16:40",90.71
"2018-03-09 16:46",92.01
"2018-03-09 16:50",92.01
"2018-03-09 16:55",90.72
"2018-03-09 17:01",92.15
"2018-03-09 17:05",92.15
"2018-03-09 17:10",92.15
"2018-03-09 17:16",92.15
"2018-03-09 17:20",92.15
"2018-03-09 17:25",92.15
"2018-03-09 17:31",92.15
"2018-03-09 17:35",92.15
"2018-03-09 17:40",92.15
"2018-03-09 17:45",92.15
"2018-03-09 17:50",92.15
"2018-03-09 17:55",92.15
"2018-03-09 18:01",92.15
"2018-03-09 18:05",92.15
"2018-03-09 18:10",92.15
"2018-03-09 18:16",92.15
"2018-03-09 18:20",92.15
"2018-03-09 18:25",92.15
"2018-03-09 18:31",92.15
"2018-03-09 18:35",92.15
"2018-03-09 18:40",92.15
"2018-03-09 18:46",92.15
"2018-03-09 18:50",92.15
"2018-03-09 18:55",92.15
"2018-03-09 19:01",92.15
"2018-03-09 19:05",92.15
"2018-03-09 19:10",92.15
"2018-03-09 19:15",92.15
"2018-03-09 19:20",92.15
"2018-03-09 19:25",92.15
"2018-03-09 19:31",92.15
"2018-03-09 19:35",92.15
"2018-03-09 19:40",92.15
"2018-03-09 19:46",92.15
"2018-03-09 19:50",92.15
"2018-03-09 19:55",92.15
"2018-03-09 20:01",90.85
"2018-03-09 20:05",90.85
"2018-03-09 20:10",90.84
"2018-03-09 20:16",90.84
"2018-03-09 20:20",90.71
"2018-03-09 20:25",90.71
"2018-03-09 20:31",90.71
"2018-03-09 20:35",90.71
"2018-03-09 20:40",90.70
"2018-03-09 20:46",89.27
"2018-03-09 20:50",89.27
"2018-03-09 20:55",89.26
"2018-03-09 21:01",89.26
"2018-03-09 21:05",89.26
"2018-03-09 21:10",89.26
"2018-03-09 21:15",89.26
"2018-03-09 21:20",89.26
"2018-03-09 21:25",88.03
"2018-03-09 21:31",87.90
"2018-03-09 21:35",87.90
"2018-03-09 21:40",87.90
"2018-03-09 21:45",87.90
"2018-03-09 21:50",87.90
"2018-03-09 21:55",87.90
"2018-03-09 22:01",87.90
"2018-03-09 22:05",87.90
"2018-03-09 22:10",87.90
"2018-03-09 22:15",87.90
"2018-03-09 22:20",87.90
"2018-03-09 22:25",86.53
"2018-03-09 22:31",86.55
"2018-03-09 22:35",86.55
"2018-03-09 22:40",86.67
"2018-03-09 22:46",86.53
"2018-03-09 22:50",86.53
"2018-03-09 22:55",86.53
"2018-03-09 23:01",87.76
"2018-03-09 23:05",87.76
"2018-03-09 23:10",86.53
"2018-03-09 23:15",86.53
"2018-03-09 23:20",86.53
"2018-03-09 23:25",86.53
"2018-03-09 23:31",86.53
"2018-03-09 23:35",86.53
"2018-03-09 23:40",86.53
"2018-03-09 23:45",86.53
"2018-03-09 23:50",86.53
"2018-03-09 23:55",86.53
"2018-03-10 00:01",86.53
"2018-03-10 00:05",86.53
"2018-03-10 00:10",86.53
"2018-03-10 00:16",86.53
"2018-03-10 00:20",86.53
"2018-03-10 00:25",86.53
"2018-03-10 00:31",86.53
"2018-03-10 00:35",86.53
"2018-03-10 00:40",86.53
"2018-03-10 00:45",86.53
"2018-03-10 00:50",86.53
"2018-03-10 00:55",86.53
"2018-03-10 01:01",86.53
"2018-03-10 01:05",86.53
"2018-03-10 01:10",86.53
"2018-03-10 01:15",86.53
"2018-03-10 01:20",86.53
"2018-03-10 01:25",86.53
"2018-03-10 01:30",86.53
"2018-03-10 01:35",86.53
"2018-03-10 01:40",86.53
"2018-03-10 01:46",86.53
"2018-03-10 01:50",86.53
"2018-03-10 01:55",87.88
"2018-03-10 02:01",87.90
"2018-03-10 02:05",87.90
"2018-03-10 02:10",87.90
"2018-03-10 02:16",87.90
"2018-03-10 02:20",87.90
"2018-03-10 02:25",87.90
"2018-03-10 02:31",88.02
"2018-03-10 02:35",89.26
"2018-03-10 02:40",89.26
"2018-03-10 02:45",89.26
"2018-03-10 02:50",90.71
"2018-03-10 02:55",90.71
"2018-03-10 03:01",92.15
"2018-03-10 03:05",92.15
"2018-03-10 03:10",92.15
"2018-03-10 03:16",93.46
"2018-03-10 03:20",93.46
"2018-03-10 03:25",93.59
"2018-03-10 03:31",95.04
"2018-03-10 03:35",95.04
"2018-03-10 03:40",96.48
"2018-03-10 03:46",97.93
"2018-03-10 03:50",97.93
"2018-03-10 03:55",99.37
"2018-03-10 04:01",100.82
"2018-03-10 04:05",100.82
"2018-03-10 04:10",102.26
"2018-03-10 04:16",103.71
"2018-03-10 04:20",103.71
"2018-03-10 04:25",105.26
"2018-03-10 04:31",108.37
"2018-03-10 04:35",108.37
"2018-03-10 04:40",109.92
"2018-03-10 04:46",111.47
"2018-03-10 04:50",114.56
"2018-03-10 04:55",116.12
"2018-03-10 05:01",119.23
"2018-03-10 05:05",119.23
"2018-03-10 05:10",122.53
"2018-03-10 05:16",124.21
"2018-03-10 05:20",125.87
"2018-03-10 05:25",127.53
"2018-03-10 05:31",134.17
"2018-03-10 05:35",134.17
"2018-03-10 05:40",135.83
"2018-03-10 05:46",141.13
"2018-03-10 05:50",141.13
"2018-03-10 05:55",144.48
"2018-03-10 06:01",149.78
"2018-03-10 06:05",149.78
"2018-03-10 06:10",151.72
"2018-03-10 06:16",153.49
"2018-03-10 06:20",157.23
"2018-03-10 06:25",160.79
"2018-03-10 06:31",166.60
"2018-03-10 06:35",166.60
"2018-03-10 06:40",168.47
"2018-03-10 06:46",174.20
"2018-03-10 06:50",174.20
"2018-03-10 06:55",178.14
"2018-03-10 07:01",180.14
"2018-03-10 07:05",180.14
"2018-03-10 07:10",186.08
"2018-03-10 07:15",188.06
"2018-03-10 07:20",192.00
"2018-03-10 07:25",195.92
"2018-03-10 07:31",198.18
"2018-03-10 07:35",200.24
"2018-03-10 07:40",204.20
"2018-03-10 07:46",206.53
"2018-03-10 07:50",208.65
"2018-03-10 07:55",208.65
"2018-03-10 08:01",219.37
"2018-03-10 08:05",219.37
"2018-03-10 08:10",221.37
"2018-03-10 08:16",225.95
"2018-03-10 08:20",225.95
"2018-03-10 08:25",225.95
"2018-03-10 08:31",235.05
"2018-03-10 08:35",235.05
"2018-03-10 08:40",237.10
"2018-03-10 08:45",239.37
"2018-03-10 08:50",243.69
"2018-03-10 08:55",235.20
"2018-03-10 09:01",235.20
"2018-03-10 09:05",235.20
"2018-03-10 09:10",242.80
"2018-03-10 09:16",242.80
"2018-03-10 09:20",242.80
"2018-03-10 09:25",242.80
"2018-03-10 09:31",242.80
"2018-03-10 09:35",242.80
"2018-03-10 09:40",242.80
"2018-03-10 09:46",242.80
"2018-03-10 09:50",242.80
"2018-03-10 09:55",250.39
"2018-03-10 10:01",250.40
"2018-03-10 10:05",250.40
"2018-03-10 10:10",250.40
"2018-03-10 10:16",250.40
"2018-03-10 10:20",250.40
"2018-03-10 10:25",250.40
"2018-03-10 10:31",250.40
"2018-03-10 10:35",250.40
"2018-03-10 10:40",250.40
"2018-03-10 10:46",250.40
"2018-03-10 10:50",250.40
"2018-03-10 10:55",258.00
"2018-03-10 11:01",258.00
"2018-03-10 11:05",258.00
"2018-03-10 11:10",258.00
"2018-03-10 11:16",258.00
"2018-03-10 11:20",258.00
"2018-03-10 11:25",258.00
"2018-03-10 11:31",258.00
"2018-03-10 11:35",258.00
"2018-03-10 11:40",258.00
"2018-03-10 11:45",258.00
"2018-03-10 11:50",258.00
"2018-03-10 11:55",258.00
"2018-03-10 12:01",258.00
"2018-03-10 12:05",258.00
"2018-03-10 12:10",258.00
"2018-03-10 12:16",258.00
"2018-03-10 12:20",258.00
"2018-03-10 12:25",258.00
"2018-03-10 12:31",258.00
"2018-03-10 12:35",258.00
"2018-03-10 12:40",258.00
"2018-03-10 12:46",258.00
"2018-03-10 12:50",258.00
"2018-03-10 12:55",258.00
"2018-03-10 13:01",258.00
"2018-03-10 13:05",258.00
"2018-03-10 13:10",258.00
"2018-03-10 13:16",258.00
"2018-03-10 13:20",258.00
"2018-03-10 13:25",266.00
"2018-03-10 13:31",266.00
"2018-03-10 13:35",266.00
"2018-03-10 13:40",266.00
"2018-03-10 13:46",266.00
"2018-03-10 13:50",266.00
"2018-03-10 13:55",266.00
"2018-03-10 14:01",266.00
"2018-03-10 14:05",266.00
"2018-03-10 14:10",266.00
"2018-03-10 14:16",274.00
"2018-03-10 14:20",274.00
"2018-03-10 14:25",274.00
"2018-03-10 14:31",282.00
"2018-03-10 14:35",282.00
"2018-03-10 14:40",282.00
"2018-03-10 14:46",282.00
"2018-03-10 14:50",282.00
"2018-03-10 14:55",282.00
"2018-03-10 15:01",282.00
"2018-03-10 15:05",282.00
"2018-03-10 15:10",282.00
"2018-03-10 15:16",282.00
"2018-03-10 15:20",290.00
"2018-03-10 15:25",290.00
"2018-03-10 15:31",290.00
"2018-03-10 15:35",290.00
"2018-03-10 15:40",298.00
"2018-03-10 15:46",298.00
"2018-03-10 15:50",298.00
"2018-03-10 15:55",306.40
"2018-03-10 16:01",306.40
"2018-03-10 16:05",306.40
"2018-03-10 16:10",306.40
"2018-03-10 16:16",306.40
"2018-03-10 16:20",306.40
"2018-03-10 16:25",306.40
"2018-03-10 16:31",314.72
"2018-03-10 16:35",314.80
"2018-03-10 16:40",314.80
"2018-03-10 16:46",323.20
"2018-03-10 16:50",323.20
"2018-03-10 16:55",323.20
"2018-03-10 17:01",323.20
"2018-03-10 17:05",323.20
"2018-03-10 17:10",323.20
"2018-03-10 17:16",331.60
"2018-03-10 17:20",331.60
"2018-03-10 17:25",331.60
"2018-03-10 17:31",331.60
"2018-03-10 17:35",331.60
"2018-03-10 17:40",331.60
"2018-03-10 17:45",331.60
"2018-03-10 17:50",331.60
"2018-03-10 17:55",331.60
"2018-03-10 18:01",340.00
"2018-03-10 18:05",340.00
"2018-03-10 18:10",340.00
"2018-03-10 18:16",340.00
"2018-03-10 18:20",340.00
"2018-03-10 18:25",340.00
"2018-03-10 18:31",348.80
"2018-03-10 18:35",348.80
"2018-03-10 18:40",348.80
"2018-03-10 18:46",348.80
"2018-03-10 18:50",348.80
"2018-03-10 18:55",348.80
"2018-03-10 19:01",348.80
"2018-03-10 19:05",348.80
"2018-03-10 19:10",348.80
"2018-03-10 19:16",357.60
"2018-03-10 19:20",357.60
"2018-03-10 19:25",357.60
"2018-03-10 19:31",357.60
"2018-03-10 19:35",357.60
"2018-03-10 19:40",357.60
"2018-03-10 19:46",357.60
"2018-03-10 19:50",357.60
"2018-03-10 19:55",357.60
"2018-03-10 20:01",357.60
"2018-03-10 20:05",357.60
"2018-03-10 20:10",357.60
"2018-03-10 20:16",357.60
"2018-03-10 20:20",357.60
"2018-03-10 20:25",357.60
"2018-03-10 20:31",357.60
"2018-03-10 20:35",357.60
"2018-03-10 20:40",357.60
"2018-03-10 20:46",357.60
"2018-03-10 20:50",357.60
"2018-03-10 20:55",357.60
"2018-03-10 21:01",357.60
"2018-03-10 21:05",357.60
"2018-03-10 21:10",357.60
"2018-03-10 21:16",357.60
"2018-03-10 21:20",357.60
"2018-03-10 21:25",357.60
"2018-03-10 21:31",357.60
"2018-03-10 21:35",357.60
"2018-03-10 21:40",357.60
"2018-03-10 21:46",357.60
"2018-03-10 21:50",357.60
"2018-03-10 21:55",357.60
"2018-03-10 22:01",357.60
"2018-03-10 22:05",357.60
"2018-03-10 22:10",357.60
"2018-03-10 22:16",357.60
"2018-03-10 22:20",357.60
"2018-03-10 22:25",357.60
"2018-03-10 22:31",357.60
"2018-03-10 22:35",357.60
"2018-03-10 22:40",357.60
"2018-03-10 22:46",348.80
"2018-03-10 22:50",348.80
"2018-03-10 22:55",348.80
"2018-03-10 23:01",348.80
"2018-03-10 23:05",348.80
"2018-03-10 23:10",348.80
"2018-03-10 23:16",348.80
"2018-03-10 23:20",348.80
"2018-03-10 23:25",348.80
"2018-03-10 23:31",348.80
"2018-03-10 23:35",348.80
"2018-03-10 23:40",348.80
"2018-03-10 23:46",340.00
"2018-03-10 23:50",340.00
"2018-03-10 23:55",340.00
"2018-03-11 00:01",340.00
"2018-03-11 00:05",340.00
"2018-03-11 00:10",340.00
"2018-03-11 00:16",340.00
"2018-03-11 00:20",340.00
"2018-03-11 00:25",340.00
"2018-03-11 00:31",331.60
"2018-03-11 00:35",331.60
"2018-03-11 00:40",331.60
"2018-03-11 00:45",331.60
"2018-03-11 00:50",331.60
"2018-03-11 00:55",331.60
"2018-03-11 01:01",331.60
"2018-03-11 01:05",331.60
"2018-03-11 01:10",331.60
"2018-03-11 01:16",331.60
"2018-03-11 01:20",331.60
"2018-03-11 01:25",331.60
"2018-03-11 01:31",323.20
"2018-03-11 01:35",323.20
"2018-03-11 01:40",323.20
"2018-03-11 01:46",323.20
"2018-03-11 01:50",323.20
"2018-03-11 01:55",314.88
"2018-03-11 02:01",314.80
"2018-03-11 02:05",314.80
"2018-03-11 02:10",314.80
"2018-03-11 02:16",306.48
"2018-03-11 02:20",306.48
"2018-03-11 02:25",306.40
"2018-03-11 02:31",306.40
"2018-03-11 02:35",306.40
"2018-03-11 02:40",306.40
"2018-03-11 02:46",306.40
"2018-03-11 02:50",306.40
"2018-03-11 02:55",306.40
"2018-03-11 03:01",306.40
"2018-03-11 03:05",306.40
"2018-03-11 03:10",298.00
"2018-03-11 03:16",298.00
"2018-03-11 03:20",298.00
"2018-03-11 03:25",298.00
"2018-03-11 03:31",290.00
"2018-03-11 03:35",290.00
"2018-03-11 03:40",290.00
"2018-03-11 03:46",290.00
"2018-03-11 03:50",290.00
"2018-03-11 03:55",290.00
"2018-03-11 04:01",282.01
"2018-03-11 04:05",282.01
"2018-03-11 04:10",282.01
"2018-03-11 04:15",282.00
"2018-03-11 04:20",282.00
"2018-03-11 04:25",282.00
"2018-03-11 04:31",282.00
"2018-03-11 04:35",282.00
"2018-03-11 04:40",282.00
"2018-03-11 04:46",282.00
"2018-03-11 04:50",274.00
"2018-03-11 04:55",274.00
"2018-03-11 05:01",274.00
"2018-03-11 05:05",274.00
"2018-03-11 05:10",274.00
"2018-03-11 05:16",274.00
"2018-03-11 05:20",274.00
"2018-03-11 05:25",274.00
"2018-03-11 05:31",266.00
"2018-03-11 05:35",266.00
"2018-03-11 05:40",258.00
"2018-03-11 05:46",258.00
"2018-03-11 05:50",258.00
"2018-03-11 05:55",258.00
"2018-03-11 06:01",258.00
"2018-03-11 06:05",258.00
"2018-03-11 06:10",258.00
"2018-03-11 06:16",258.00
"2018-03-11 06:20",258.00
"2018-03-11 06:25",258.00
"2018-03-11 06:31",258.00
"2018-03-11 06:35",258.00
"2018-03-11 06:40",258.00
"2018-03-11 06:46",258.00
"2018-03-11 06:50",258.00
"2018-03-11 06:55",258.00
"2018-03-11 07:01",258.00
"2018-03-11 07:05",258.00
"2018-03-11 07:10",258.00
"2018-03-11 07:16",250.40
"2018-03-11 07:20",250.40
"2018-03-11 07:25",250.40
"2018-03-11 07:31",250.40
"2018-03-11 07:35",250.40
"2018-03-11 07:40",250.40
"2018-03-11 07:46",250.40
"2018-03-11 07:50",250.40
"2018-03-11 07:55",250.40
"2018-03-11 08:01",250.40
"2018-03-11 08:05",250.40
"2018-03-11 08:10",250.40
"2018-03-11 08:16",242.80
"2018-03-11 08:20",242.80
"2018-03-11 08:25",242.80
"2018-03-11 08:31",242.80
"2018-03-11 08:35",242.80
"2018-03-11 08:40",242.80
"2018-03-11 08:46",242.80
"2018-03-11 08:50",242.80
"2018-03-11 08:55",242.80
"2018-03-11 09:01",242.80
"2018-03-11 09:05",242.80
"2018-03-11 09:10",242.80
"2018-03-11 09:16",242.80
"2018-03-11 09:20",242.80
"2018-03-11 09:25",242.80
"2018-03-11 09:31",242.80
"2018-03-11 09:35",242.80
"2018-03-11 09:40",235.28
"2018-03-11 09:45",235.20
"2018-03-11 09:50",235.20
"2018-03-11 09:55",235.20
"2018-03-11 10:01",235.20
"2018-03-11 10:05",235.20
"2018-03-11 10:10",235.20
"2018-03-11 10:16",235.20
"2018-03-11 10:20",227.60
"2018-03-11 10:25",227.60
"2018-03-11 10:31",227.60
"2018-03-11 10:35",227.60
"2018-03-11 10:40",227.60
"2018-03-11 10:45",227.60
"2018-03-11 10:50",227.60
"2018-03-11 10:55",227.60
"2018-03-11 11:01",227.60
"2018-03-11 11:05",227.60
"2018-03-11 11:10",227.60
"2018-03-11 11:16",227.60
"2018-03-11 11:20",227.60
"2018-03-11 11:25",227.60
"2018-03-11 11:31",227.60
"2018-03-11 11:35",227.60
"2018-03-11 11:40",220.08
"2018-03-11 11:45",220.00
"2018-03-11 11:50",220.00
"2018-03-11 11:55",220.00
"2018-03-11 12:01",220.00
"2018-03-11 12:05",220.00
"2018-03-11 12:10",220.00
"2018-03-11 12:16",220.00
"2018-03-11 12:20",220.00
"2018-03-11 12:25",220.00
"2018-03-11 12:31",220.00
"2018-03-11 12:35",220.00
"2018-03-11 12:40",220.00
"2018-03-11 12:46",220.00
"2018-03-11 12:50",220.00
"2018-03-11 12:55",220.00
"2018-03-11 13:01",220.00
"2018-03-11 13:05",220.00
"2018-03-11 13:10",220.00
"2018-03-11 13:16",220.00
"2018-03-11 13:20",220.00
"2018-03-11 13:25",220.00
"2018-03-11 13:31",220.00
"2018-03-11 13:35",220.00
"2018-03-11 13:40",220.00
"2018-03-11 13:46",212.81
"2018-03-11 13:50",212.80
"2018-03-11 13:55",212.80
"2018-03-11 14:01",212.80
"2018-03-11 14:05",212.80
"2018-03-11 14:10",212.80
"2018-03-11 14:16",212.80
"2018-03-11 14:20",212.80
"2018-03-11 14:25",212.80
"2018-03-11 14:31",212.80
"2018-03-11 14:35",212.80
"2018-03-11 14:40",212.80
"2018-03-11 14:46",212.80
"2018-03-11 14:50",212.80
"2018-03-11 14:55",212.80
"2018-03-11 15:01",212.80
"2018-03-11 15:05",212.80
"2018-03-11 15:10",212.80
"2018-03-11 15:16",212.80
"2018-03-11 15:20",212.80
"2018-03-11 15:25",212.80
"2018-03-11 15:31",212.80
"2018-03-11 15:35",212.80
"2018-03-11 15:40",212.80
"2018-03-11 15:46",212.80
"2018-03-11 15:50",212.80
"2018-03-11 15:55",212.80
"2018-03-11 16:01",212.80
"2018-03-11 16:05",212.80
"2018-03-11 16:10",212.80
"2018-03-11 16:16",212.80
"2018-03-11 16:20",212.80
"2018-03-11 16:25",212.80
"2018-03-11 16:31",212.80
"2018-03-11 16:35",212.80
"2018-03-11 16:40",212.80
"2018-03-11 16:45",212.80
"2018-03-11 16:50",212.80
"2018-03-11 16:55",212.80
"2018-03-11 17:01",212.80
"2018-03-11 17:05",212.80
"2018-03-11 17:10",212.80
"2018-03-11 17:16",212.80
"2018-03-11 17:20",212.80
"2018-03-11 17:25",212.80
"2018-03-11 17:31",212.80
"2018-03-11 17:35",212.80
"2018-03-11 17:40",212.80
"2018-03-11 17:45",212.80
"2018-03-11 17:50",212.80
"2018-03-11 17:55",212.80
"2018-03-11 18:01",212.80
"2018-03-11 18:05",212.80
"2018-03-11 18:10",212.80
"2018-03-11 18:16",212.80
"2018-03-11 18:20",212.80
"2018-03-11 18:25",212.80
"2018-03-11 18:31",212.80
"2018-03-11 18:35",212.80
"2018-03-11 18:40",212.80
"2018-03-11 18:46",212.80
"2018-03-11 18:50",212.80
"2018-03-11 18:55",212.80
"2018-03-11 19:01",212.80
"2018-03-11 19:05",212.80
"2018-03-11 19:10",212.80
"2018-03-11 19:16",212.80
"2018-03-11 19:20",212.80
"2018-03-11 19:25",212.80
"2018-03-11 19:31",212.80
"2018-03-11 19:35",212.80
"2018-03-11 19:40",212.80
"2018-03-11 19:45",212.80
"2018-03-11 19:50",212.80
"2018-03-11 19:55",212.80
"2018-03-11 20:01",212.80
"2018-03-11 20:05",212.80
"2018-03-11 20:10",212.80
"2018-03-11 20:15",212.80
"2018-03-11 20:20",212.80
"2018-03-11 20:25",212.80
"2018-03-11 20:31",212.80
"2018-03-11 20:35",212.80
"2018-03-11 20:40",212.80
"2018-03-11 20:45",212.80
"2018-03-11 20:50",212.80
"2018-03-11 20:55",212.80
"2018-03-11 21:01",212.80
"2018-03-11 21:05",212.80
"2018-03-11 21:10",212.80
"2018-03-11 21:16",212.80
"2018-03-11 21:20",212.80
"2018-03-11 21:25",212.80
"2018-03-11 21:31",212.80
"2018-03-11 21:35",212.80
"2018-03-11 21:40",212.80
"2018-03-11 21:45",212.80
"2018-03-11 21:50",212.80
"2018-03-11 21:55",212.80
"2018-03-11 22:01",212.80
"2018-03-11 22:05",212.80
"2018-03-11 22:10",212.80
"2018-03-11 22:15",212.80
"2018-03-11 22:20",212.80
"2018-03-11 22:25",212.80
"2018-03-11 22:31",212.80
"2018-03-11 22:35",212.80
"2018-03-11 22:40",212.80
"2018-03-11 22:46",212.80
"2018-03-11 22:50",212.80
"2018-03-11 22:55",212.80
"2018-03-11 23:01",212.80
"2018-03-11 23:05",212.80
"2018-03-11 23:10",212.80
"2018-03-11 23:16",212.80
"2018-03-11 23:20",212.80
"2018-03-11 23:25",212.80
"2018-03-11 23:31",212.80
"2018-03-11 23:35",212.80
"2018-03-11 23:40",212.80
"2018-03-11 23:45",212.80
"2018-03-11 23:50",212.80
"2018-03-11 23:55",212.80
"2018-03-12 00:01",212.80
"2018-03-12 00:05",212.80
"2018-03-12 00:10",212.80
"2018-03-12 00:16",212.80
"2018-03-12 00:20",212.80
"2018-03-12 00:25",212.80
"2018-03-12 00:31",212.80
"2018-03-12 00:35",212.80
"2018-03-12 00:40",212.80
"2018-03-12 00:45",212.80
"2018-03-12 00:50",212.80
"2018-03-12 00:55",212.80
"2018-03-12 01:01",212.80
"2018-03-12 01:05",212.80
"2018-03-12 01:10",212.80
"2018-03-12 01:16",212.80
"2018-03-12 01:20",212.80
"2018-03-12 01:25",212.80
"2018-03-12 01:31",212.80
"2018-03-12 01:35",212.80
"2018-03-12 01:40",212.80
"2018-03-12 01:46",243.91
"2018-03-12 01:50",243.91
"2018-03-12 01:55",243.91
"2018-03-12 02:01",243.91
"2018-03-12 02:05",243.91
"2018-03-12 02:10",243.91
"2018-03-12 02:15",243.91
"2018-03-12 02:20",243.91
"2018-03-12 02:25",243.91
"2018-03-12 02:31",243.91
"2018-03-12 02:35",243.91
"2018-03-12 02:40",241.85
"2018-03-12 02:46",241.87
"2018-03-12 02:50",243.89
"2018-03-12 02:55",241.64
"2018-03-12 03:01",241.64
"2018-03-12 03:05",241.64
"2018-03-12 03:10",241.64
"2018-03-12 03:16",241.64
"2018-03-12 03:20",241.64
"2018-03-12 03:25",241.44
"2018-03-12 03:31",239.37
"2018-03-12 03:35",239.37
"2018-03-12 03:40",239.37
"2018-03-12 03:46",239.37
"2018-03-12 03:50",239.37
"2018-03-12 03:55",239.37
"2018-03-12 04:01",239.37
"2018-03-12 04:05",239.37
"2018-03-12 04:10",239.37
"2018-03-12 04:16",239.37
"2018-03-12 04:20",239.37
"2018-03-12 04:25",239.15
"2018-03-12 04:31",237.31
"2018-03-12 04:35",237.31
"2018-03-12 04:40",237.10
"2018-03-12 04:46",237.10
"2018-03-12 04:50",237.10
"2018-03-12 04:55",237.10
"2018-03-12 05:01",237.10
"2018-03-12 05:05",237.10
"2018-03-12 05:10",237.10
"2018-03-12 05:16",237.10
"2018-03-12 05:20",237.10
"2018-03-12 05:25",237.10
"2018-03-12 05:31",235.04
"2018-03-12 05:35",235.04
"2018-03-12 05:40",237.10
"2018-03-12 05:46",235.04
"2018-03-12 05:50",234.83
"2018-03-12 05:55",234.83
"2018-03-12 06:01",234.83
"2018-03-12 06:05",234.83
"2018-03-12 06:10",234.83
"2018-03-12 06:15",234.83
"2018-03-12 06:20",234.83
"2018-03-12 06:25",232.83
"2018-03-12 06:31",234.83
"2018-03-12 06:35",234.83
"2018-03-12 06:40",232.81
"2018-03-12 06:46",232.61
"2018-03-12 06:50",232.61
"2018-03-12 06:55",234.61
"2018-03-12 07:01",232.61
"2018-03-12 07:05",232.61
"2018-03-12 07:10",232.61
"2018-03-12 07:16",232.61
"2018-03-12 07:20",232.61
"2018-03-12 07:25",232.61
"2018-03-12 07:31",232.61
"2018-03-12 07:35",232.61
"2018-03-12 07:40",232.61
"2018-03-12 07:46",232.61
"2018-03-12 07:50",232.61
"2018-03-12 07:55",232.61
"2018-03-12 08:01",232.61
"2018-03-12 08:05",232.61
"2018-03-12 08:10",232.61
"2018-03-12 08:16",232.61
"2018-03-12 08:20",232.61
"2018-03-12 08:25",232.81
"2018-03-12 08:31",234.83
"2018-03-12 08:35",234.83
"2018-03-12 08:40",234.83
"2018-03-12 08:46",234.83
"2018-03-12 08:50",234.83
"2018-03-12 08:55",234.63
"2018-03-12 09:01",234.83
"2018-03-12 09:05",234.83
"2018-03-12 09:10",234.83
"2018-03-12 09:16",234.83
"2018-03-12 09:20",234.83
"2018-03-12 09:25",236.87
"2018-03-12 09:31",236.88
"2018-03-12 09:35",236.88
"2018-03-12 09:40",237.08
"2018-03-12 09:45",237.10
"2018-03-12 09:50",237.10
"2018-03-12 09:55",237.10
"2018-03-12 10:01",237.10
"2018-03-12 10:05",237.10
"2018-03-12 10:10",237.10
"2018-03-12 10:15",237.10
"2018-03-12 10:20",237.10
"2018-03-12 10:25",237.10
"2018-03-12 10:31",239.17
"2018-03-12 10:35",239.17
"2018-03-12 10:40",239.37
"2018-03-12 10:46",239.37
"2018-03-12 10:50",239.37
"2018-03-12 10:55",239.37
"2018-03-12 11:01",239.37
"2018-03-12 11:05",239.37
"2018-03-12 11:10",241.62
"2018-03-12 11:16",239.39
"2018-03-12 11:20",239.39
"2018-03-12 11:25",241.64
"2018-03-12 11:31",241.64
"2018-03-12 11:35",241.64
"2018-03-12 11:40",241.64
"2018-03-12 11:46",241.64
"2018-03-12 11:50",241.64
"2018-03-12 11:55",241.64
"2018-03-12 12:01",243.70
"2018-03-12 12:05",243.71
"2018-03-12 12:10",243.91
"2018-03-12 12:15",243.71
"2018-03-12 12:20",243.91
"2018-03-12 12:25",243.91
"2018-03-12 12:31",243.91
"2018-03-12 12:35",243.91
"2018-03-12 12:40",243.71
"2018-03-12 12:46",243.91
"2018-03-12 12:50",243.91
"2018-03-12 12:55",243.91
"2018-03-12 13:01",243.91
"2018-03-12 13:05",243.91
"2018-03-12 13:10",243.91
"2018-03-12 13:16",243.91
"2018-03-12 13:20",243.91
"2018-03-12 13:25",243.91
"2018-03-12 13:31",243.93
"2018-03-12 13:35",243.93
"2018-03-12 13:40",212.80
"2018-03-12 13:45",212.80
"2018-03-12 13:50",243.91
"2018-03-12 13:55",244.14
"2018-03-12 14:01",212.80
"2018-03-12 14:05",212.80
"2018-03-12 14:10",212.80
"2018-03-12 14:15",212.80
"2018-03-12 14:20",212.80
"2018-03-12 14:25",212.80
"2018-03-12 14:31",212.80
"2018-03-12 14:35",212.80
"2018-03-12 14:40",212.80
"2018-03-12 14:46",212.80
"2018-03-12 14:50",212.80
"2018-03-12 14:55",212.80
"2018-03-12 15:01",212.80
"2018-03-12 15:05",212.80
"2018-03-12 15:10",212.80
"2018-03-12 15:15",212.80
"2018-03-12 15:20",212.80
"2018-03-12 15:25",212.80
"2018-03-12 15:31",212.80
"2018-03-12 15:35",212.80
"2018-03-12 15:40",212.80
"2018-03-12 15:46",212.80
"2018-03-12 15:50",212.80
"2018-03-12 15:55",212.80
"2018-03-12 16:01",212.80
"2018-03-12 16:05",212.80
"2018-03-12 16:10",212.80
"2018-03-12 16:16",245.99
"2018-03-12 16:20",245.99
"2018-03-12 16:25",244.14
"2018-03-12 16:31",244.12
"2018-03-12 16:35",244.12
"2018-03-12 16:40",244.12
"2018-03-12 16:46",243.91
"2018-03-12 16:50",243.91
"2018-03-12 16:55",243.91
"2018-03-12 17:01",243.91
"2018-03-12 17:05",243.91
"2018-03-12 17:10",243.91
"2018-03-12 17:16",243.91
"2018-03-12 17:20",243.91
"2018-03-12 17:25",243.91
"2018-03-12 17:31",243.91
"2018-03-12 17:35",243.91
"2018-03-12 17:40",243.91
"2018-03-12 17:45",243.71
"2018-03-12 17:50",243.91
"2018-03-12 17:55",243.91
"2018-03-12 18:01",243.69
"2018-03-12 18:05",243.69
"2018-03-12 18:10",241.64
"2018-03-12 18:16",241.64
"2018-03-12 18:20",241.64
"2018-03-12 18:25",241.64
"2018-03-12 18:31",241.64
"2018-03-12 18:35",241.64
"2018-03-12 18:40",241.64
"2018-03-12 18:46",239.60
"2018-03-12 18:50",239.60
"2018-03-12 18:55",239.37
"2018-03-12 19:01",239.59
"2018-03-12 19:05",239.59
"2018-03-12 19:10",239.58
"2018-03-12 19:16",239.37
"2018-03-12 19:20",239.37
"2018-03-12 19:25",239.37
"2018-03-12 19:31",239.37
"2018-03-12 19:35",239.37
"2018-03-12 19:40",239.37
"2018-03-12 19:46",239.37
"2018-03-12 19:50",239.37
"2018-03-12 19:55",239.35
"2018-03-12 20:01",239.37
"2018-03-12 20:05",239.37
"2018-03-12 20:10",237.10
"2018-03-12 20:16",237.10
"2018-03-12 20:20",237.10
"2018-03-12 20:25",237.10
"2018-03-12 20:31",237.10
"2018-03-12 20:35",237.10
"2018-03-12 20:40",237.10
"2018-03-12 20:46",237.10
"2018-03-12 20:50",237.10
"2018-03-12 20:55",234.83
"2018-03-12 21:01",234.83
"2018-03-12 21:05",234.83
"2018-03-12 21:10",234.83
"2018-03-12 21:16",234.83
"2018-03-12 21:20",234.83
"2018-03-12 21:25",234.83
"2018-03-12 21:31",232.83
"2018-03-12 21:35",232.83
"2018-03-12 21:40",232.61
"2018-03-12 21:46",232.61
"2018-03-12 21:50",232.61
"2018-03-12 21:55",232.61
"2018-03-12 22:01",232.61
"2018-03-12 22:05",232.61
"2018-03-12 22:10",232.61
"2018-03-12 22:16",232.61
"2018-03-12 22:20",232.61
"2018-03-12 22:25",232.59
"2018-03-12 22:31",230.41
"2018-03-12 22:35",230.41
"2018-03-12 22:40",230.39
"2018-03-12 22:46",230.39
"2018-03-12 22:50",230.39
"2018-03-12 22:55",230.39
"2018-03-12 23:01",230.39
"2018-03-12 23:05",230.39
"2018-03-12 23:10",230.39
"2018-03-12 23:16",230.39
"2018-03-12 23:20",230.39
"2018-03-12 23:25",228.37
"2018-03-12 23:31",228.17
"2018-03-12 23:35",228.17
"2018-03-12 23:40",228.17
"2018-03-12 23:46",228.17
"2018-03-12 23:50",226.17
"2018-03-12 23:55",228.17
"2018-03-13 00:01",225.95
"2018-03-13 00:05",225.95
"2018-03-13 00:10",226.15
"2018-03-13 00:15",225.95
"2018-03-13 00:20",225.95
"2018-03-13 00:25",225.95
"2018-03-13 00:31",225.95
"2018-03-13 00:35",225.95
"2018-03-13 00:40",225.95
"2018-03-13 00:45",225.95
"2018-03-13 00:50",225.95
"2018-03-13 00:55",225.95
"2018-03-13 01:01",225.95
"2018-03-13 01:05",225.95
"2018-03-13 01:10",225.95
"2018-03-13 01:16",225.73
"2018-03-13 01:20",225.73
"2018-03-13 01:25",223.73
"2018-03-13 01:31",223.73
"2018-03-13 01:35",223.73
"2018-03-13 01:40",223.73
"2018-03-13 01:45",223.73
"2018-03-13 01:50",223.73
"2018-03-13 01:55",223.73
"2018-03-13 02:01",223.73
"2018-03-13 02:05",223.73
"2018-03-13 02:10",223.73
"2018-03-13 02:16",221.56
"2018-03-13 02:20",221.56
"2018-03-13 02:25",221.56
"2018-03-13 02:31",221.56
"2018-03-13 02:35",221.56
"2018-03-13 02:40",221.56
"2018-03-13 02:46",221.56
"2018-03-13 02:50",221.56
"2018-03-13 02:55",221.56
"2018-03-13 03:01",219.61
"2018-03-13 03:05",219.61
"2018-03-13 03:10",219.61
"2018-03-13 03:16",219.61
"2018-03-13 03:20",219.39
"2018-03-13 03:25",219.39
"2018-03-13 03:31",219.39
"2018-03-13 03:35",219.39
"2018-03-13 03:40",219.39
"2018-03-13 03:46",219.39
"2018-03-13 03:50",219.39
"2018-03-13 03:55",219.39
"2018-03-13 04:01",217.42
"2018-03-13 04:05",217.42
"2018-03-13 04:10",219.20
"2018-03-13 04:16",217.23
"2018-03-13 04:20",217.23
"2018-03-13 04:25",217.23
"2018-03-13 04:31",217.23
"2018-03-13 04:35",217.23
"2018-03-13 04:40",217.23
"2018-03-13 04:45",217.23
"2018-03-13 04:50",217.23
"2018-03-13 04:55",217.22
"2018-03-13 05:01",215.06
"2018-03-13 05:05",215.06
"2018-03-13 05:10",215.06
"2018-03-13 05:16",215.06
"2018-03-13 05:20",215.06
"2018-03-13 05:25",215.06
"2018-03-13 05:31",215.06
"2018-03-13 05:35",215.06
"2018-03-13 05:40",215.06
"2018-03-13 05:46",215.06
"2018-03-13 05:50",215.06
"2018-03-13 05:55",213.11
"2018-03-13 06:01",212.91
"2018-03-13 06:05",212.91
"2018-03-13 06:10",214.84
"2018-03-13 06:16",212.89
"2018-03-13 06:20",212.89
"2018-03-13 06:25",212.89
"2018-03-13 06:31",212.89
"2018-03-13 06:35",212.89
"2018-03-13 06:40",212.89
"2018-03-13 06:45",212.89
"2018-03-13 06:50",212.89
"2018-03-13 06:55",212.89
"2018-03-13 07:01",212.89
"2018-03-13 07:05",212.89
"2018-03-13 07:10",212.89
"2018-03-13 07:16",212.89
"2018-03-13 07:20",210.77
"2018-03-13 07:25",210.77
"2018-03-13 07:31",210.77
"2018-03-13 07:35",210.77
"2018-03-13 07:40",210.77
"2018-03-13 07:46",210.77
"2018-03-13 07:50",210.77
"2018-03-13 07:55",210.77
"2018-03-13 08:01",210.58
"2018-03-13 08:05",210.58
"2018-03-13 08:10",208.84
"2018-03-13 08:16",208.65
"2018-03-13 08:20",208.65
"2018-03-13 08:25",208.65
"2018-03-13 08:31",208.65
"2018-03-13 08:35",208.65
"2018-03-13 08:40",208.65
"2018-03-13 08:46",208.65
"2018-03-13 08:50",208.65
"2018-03-13 08:55",208.65
"2018-03-13 09:01",208.65
"2018-03-13 09:05",208.65
"2018-03-13 09:10",208.65
"2018-03-13 09:15",208.65
"2018-03-13 09:20",208.65
"2018-03-13 09:25",208.44
"2018-03-13 09:31",206.53
"2018-03-13 09:35",206.53
"2018-03-13 09:40",206.55
"2018-03-13 09:46",206.53
"2018-03-13 09:50",206.53
"2018-03-13 09:55",206.53
"2018-03-13 10:01",206.53
"2018-03-13 10:05",206.53
"2018-03-13 10:10",206.53
"2018-03-13 10:15",206.53
"2018-03-13 10:20",206.53
"2018-03-13 10:25",206.51
"2018-03-13 10:31",204.41
"2018-03-13 10:35",204.41
"2018-03-13 10:40",204.41
"2018-03-13 10:46",204.41
"2018-03-13 10:50",204.41
"2018-03-13 10:55",204.41
"2018-03-13 11:01",204.41
"2018-03-13 11:05",204.41
"2018-03-13 11:10",202.53
"2018-03-13 11:16",202.35
"2018-03-13 11:20",202.35
"2018-03-13 11:25",204.22
"2018-03-13 11:31",202.33
"2018-03-13 11:35",202.33
"2018-03-13 11:40",202.33
"2018-03-13 11:45",202.33
"2018-03-13 11:50",202.33
"2018-03-13 11:55",202.33
"2018-03-13 12:01",202.33
"2018-03-13 12:05",202.33
"2018-03-13 12:10",202.33
"2018-03-13 12:16",202.33
"2018-03-13 12:20",202.33
"2018-03-13 12:25",202.33
"2018-03-13 12:31",183.15
"2018-03-13 12:35",183.15
"2018-03-13 12:40",183.15
"2018-03-13 12:46",181.51
"2018-03-13 12:50",181.49
"2018-03-13 12:55",181.49
"2018-03-13 13:01",181.49
"2018-03-13 13:05",181.49
"2018-03-13 13:10",181.49
"2018-03-13 13:15",181.49
"2018-03-13 13:20",181.49
"2018-03-13 13:25",181.49
"2018-03-13 13:31",181.49
"2018-03-13 13:35",181.49
"2018-03-13 13:40",181.49
"2018-03-13 13:46",181.49
"2018-03-13 13:50",181.49
"2018-03-13 13:55",181.49
"2018-03-13 14:01",181.49
"2018-03-13 14:05",181.49
"2018-03-13 14:10",181.49
"2018-03-13 14:16",181.49
"2018-03-13 14:20",179.85
"2018-03-13 14:25",179.84
"2018-03-13 14:31",179.83
"2018-03-13 14:35",179.83
"2018-03-13 14:40",179.83
"2018-03-13 14:46",179.83
"2018-03-13 14:50",179.83
"2018-03-13 14:55",179.83
"2018-03-13 15:01",179.83
"2018-03-13 15:05",179.83
"2018-03-13 15:10",179.82
"2018-03-13 15:16",179.83
"2018-03-13 15:20",179.83
"2018-03-13 15:25",179.69
"2018-03-13 15:31",178.18
"2018-03-13 15:35",178.18
"2018-03-13 15:40",178.18
"2018-03-13 15:46",178.18
"2018-03-13 15:50",178.18
"2018-03-13 15:55",178.18
"2018-03-13 16:01",178.18
"2018-03-13 16:05",178.18
"2018-03-13 16:10",178.18
"2018-03-13 16:16",178.18
"2018-03-13 16:20",178.18
"2018-03-13 16:25",178.18
"2018-03-13 16:31",178.18
"2018-03-13 16:35",178.18
"2018-03-13 16:40",178.18
"2018-03-13 16:46",178.16
"2018-03-13 16:50",178.16
"2018-03-13 16:55",178.16
"2018-03-13 17:01",178.01
"2018-03-13 17:05",178.01
"2018-03-13 17:10",176.52
"2018-03-13 17:16",176.52
"2018-03-13 17:20",176.53
"2018-03-13 17:25",176.52
"2018-03-13 17:31",176.52
"2018-03-13 17:35",176.52
"2018-03-13 17:40",176.52
"2018-03-13 17:46",176.52
"2018-03-13 17:50",176.52
"2018-03-13 17:55",176.52
"2018-03-13 18:01",176.52
"2018-03-13 18:05",176.52
"2018-03-13 18:10",176.52
"2018-03-13 18:16",176.52
"2018-03-13 18:20",176.52
"2018-03-13 18:25",176.52
"2018-03-13 18:31",176.52
"2018-03-13 18:35",176.52
"2018-03-13 18:40",176.52
"2018-03-13 18:46",175.02
"2018-03-13 18:50",175.02
"2018-03-13 18:55",176.52
"2018-03-13 19:01",174.86
"2018-03-13 19:05",174.86
"2018-03-13 19:10",176.35
"2018-03-13 19:16",174.86
"2018-03-13 19:20",174.86
"2018-03-13 19:25",174.86
"2018-03-13 19:31",174.86
"2018-03-13 19:35",174.86
"2018-03-13 19:40",174.86
"2018-03-13 19:46",174.86
"2018-03-13 19:50",174.86
"2018-03-13 19:55",174.86
"2018-03-13 20:01",174.86
"2018-03-13 20:05",174.86
"2018-03-13 20:10",174.86
"2018-03-13 20:16",174.86
"2018-03-13 20:20",173.37
"2018-03-13 20:25",174.86
"2018-03-13 20:31",174.71
"2018-03-13 20:35",174.71
"2018-03-13 20:40",173.20
"2018-03-13 20:46",174.84
"2018-03-13 20:50",173.20
"2018-03-13 20:55",173.20
"2018-03-13 21:01",173.20
"2018-03-13 21:05",173.20
"2018-03-13 21:10",173.20
"2018-03-13 21:16",173.20
"2018-03-13 21:20",173.20
"2018-03-13 21:25",173.20
"2018-03-13 21:31",173.20
"2018-03-13 21:35",173.20
"2018-03-13 21:40",173.20
"2018-03-13 21:46",173.20
"2018-03-13 21:50",173.20
"2018-03-13 21:55",173.20
"2018-03-13 22:01",173.20
"2018-03-13 22:05",173.20
"2018-03-13 22:10",173.20
"2018-03-13 22:16",173.20
"2018-03-13 22:20",173.20
"2018-03-13 22:25",173.06
"2018-03-13 22:31",171.63
"2018-03-13 22:35",171.63
"2018-03-13 22:40",171.63
"2018-03-13 22:46",171.63
"2018-03-13 22:50",171.63
"2018-03-13 22:55",171.63
"2018-03-13 23:01",171.63
"2018-03-13 23:05",171.63
"2018-03-13 23:10",171.63
"2018-03-13 23:16",171.63
"2018-03-13 23:20",171.63
"2018-03-13 23:25",171.63
"2018-03-13 23:31",171.63
"2018-03-13 23:35",171.63
"2018-03-13 23:40",171.63
"2018-03-13 23:46",171.63
"2018-03-13 23:50",171.63
"2018-03-13 23:55",171.63
"2018-03-14 00:01",171.62
"2018-03-14 00:05",171.62
"2018-03-14 00:10",170.21
"2018-03-14 00:16",170.21
"2018-03-14 00:20",170.07
"2018-03-14 00:25",170.07
"2018-03-14 00:31",170.07
"2018-03-14 00:35",170.07
"2018-03-14 00:40",170.07
"2018-03-14 00:46",170.07
"2018-03-14 00:50",170.07
"2018-03-14 00:55",169.93
"2018-03-14 01:01",169.91
"2018-03-14 01:05",169.91
"2018-03-14 01:10",168.50
"2018-03-14 01:16",168.50
"2018-03-14 01:20",168.50
"2018-03-14 01:25",168.50
"2018-03-14 01:31",168.50
"2018-03-14 01:35",168.50
"2018-03-14 01:40",168.50
"2018-03-14 01:46",168.50
"2018-03-14 01:50",168.50
"2018-03-14 01:55",168.50
"2018-03-14 02:01",166.95
"2018-03-14 02:05",166.95
"2018-03-14 02:10",166.93
"2018-03-14 02:15",166.93
"2018-03-14 02:20",166.93
"2018-03-14 02:25",166.93
"2018-03-14 02:31",166.93
"2018-03-14 02:35",166.93
"2018-03-14 02:40",166.93
"2018-03-14 02:46",165.38
"2018-03-14 02:50",165.38
"2018-03-14 02:55",165.37
"2018-03-14 03:01",165.37
"2018-03-14 03:05",165.37
"2018-03-14 03:10",165.37
"2018-03-14 03:16",163.82
"2018-03-14 03:20",163.82
"2018-03-14 03:25",163.80
"2018-03-14 03:31",163.80
"2018-03-14 03:35",163.80
"2018-03-14 03:40",163.80
"2018-03-14 03:46",163.80
"2018-03-14 03:50",162.24
"2018-03-14 03:55",162.24
"2018-03-14 04:01",162.24
"2018-03-14 04:05",162.24
"2018-03-14 04:10",162.24
"2018-03-14 04:15",162.24
"2018-03-14 04:20",162.24
"2018-03-14 04:25",160.69
"2018-03-14 04:31",160.67
"2018-03-14 04:35",160.67
"2018-03-14 04:40",160.67
"2018-03-14 04:46",159.10
"2018-03-14 04:50",159.10
"2018-03-14 04:55",159.10
"2018-03-14 05:01",159.10
"2018-03-14 05:05",159.10
"2018-03-14 05:10",159.10
"2018-03-14 05:15",157.54
"2018-03-14 05:20",157.54
"2018-03-14 05:25",157.54
"2018-03-14 05:31",157.52
"2018-03-14 05:35",157.52
"2018-03-14 05:40",156.11
"2018-03-14 05:45",155.97
"2018-03-14 05:50",155.97
"2018-03-14 05:55",155.97
"2018-03-14 06:01",154.40
"2018-03-14 06:05",154.40
"2018-03-14 06:10",154.40
"2018-03-14 06:16",154.40
"2018-03-14 06:20",154.40
"2018-03-14 06:25",154.40
"2018-03-14 06:31",152.84
"2018-03-14 06:35",152.84
"2018-03-14 06:40",152.84
"2018-03-14 06:45",152.84
"2018-03-14 06:50",152.84
"2018-03-14 06:55",151.43
"2018-03-14 07:01",151.27
"2018-03-14 07:05",151.27
"2018-03-14 07:10",151.27
"2018-03-14 07:16",149.86
"2018-03-14 07:20",149.86
"2018-03-14 07:25",149.71
"2018-03-14 07:31",149.71
"2018-03-14 07:35",149.71
"2018-03-14 07:40",149.71
"2018-03-14 07:46",149.69
"2018-03-14 07:50",148.14
"2018-03-14 07:55",148.14
"2018-03-14 08:01",148.14
"2018-03-14 08:05",148.14
"2018-03-14 08:10",148.14
"2018-03-14 08:15",146.68
"2018-03-14 08:20",146.67
"2018-03-14 08:25",146.67
"2018-03-14 08:31",146.67
"2018-03-14 08:35",146.67
"2018-03-14 08:40",146.67
"2018-03-14 08:46",145.21
"2018-03-14 08:50",145.20
"2018-03-14 08:55",145.20
"2018-03-14 09:01",145.20
"2018-03-14 09:05",145.20
"2018-03-14 09:10",145.20
"2018-03-14 09:15",145.20
"2018-03-14 09:20",145.13
"2018-03-14 09:25",143.75
"2018-03-14 09:31",143.61
"2018-03-14 09:35",143.61
"2018-03-14 09:40",143.61
"2018-03-14 09:45",143.61
"2018-03-14 09:50",143.61
"2018-03-14 09:55",143.61
"2018-03-14 10:01",143.60
"2018-03-14 10:05",143.60
"2018-03-14 10:10",143.60
"2018-03-14 10:15",142.13
"2018-03-14 10:20",142.12
"2018-03-14 10:25",142.12
"2018-03-14 10:31",142.12
"2018-03-14 10:35",142.12
"2018-03-14 10:40",142.12
"2018-03-14 10:45",142.12
"2018-03-14 10:50",142.12
"2018-03-14 10:55",142.12
"2018-03-14 11:01",141.99
"2018-03-14 11:05",142.12
"2018-03-14 11:10",140.79
"2018-03-14 11:16",142.12
"2018-03-14 11:20",142.12
"2018-03-14 11:25",142.12
"2018-03-14 11:31",140.77
"2018-03-14 11:35",140.77
"2018-03-14 11:40",140.64
"2018-03-14 11:46",140.77
"2018-03-14 11:50",140.79
"2018-03-14 11:55",140.77
"2018-03-14 12:01",140.79
"2018-03-14 12:05",140.64
"2018-03-14 12:10",140.64
"2018-03-14 12:15",140.64
"2018-03-14 12:20",140.64
"2018-03-14 12:25",140.64
"2018-03-14 12:30",140.64
"2018-03-14 12:35",140.64
"2018-03-14 12:40",140.64
"2018-03-14 12:46",140.64
"2018-03-14 12:50",140.64
"2018-03-14 12:55",140.64
"2018-03-14 13:01",139.17
"2018-03-14 13:05",140.50
"2018-03-14 13:10",140.64
"2018-03-14 13:16",140.62
"2018-03-14 13:20",140.64
"2018-03-14 13:25",140.64
"2018-03-14 13:31",140.64
"2018-03-14 13:35",140.64
"2018-03-14 13:40",140.64
"2018-03-14 13:45",140.64
"2018-03-14 13:50",140.64
"2018-03-14 13:55",140.64
"2018-03-14 14:01",142.11
"2018-03-14 14:05",141.99
"2018-03-14 14:10",142.12
"2018-03-14 14:15",142.12
"2018-03-14 14:20",142.26
"2018-03-14 14:25",142.27
"2018-03-14 14:31",143.61
"2018-03-14 14:35",143.61
"2018-03-14 14:40",143.61
"2018-03-14 14:46",143.76
"2018-03-14 14:50",143.76
"2018-03-14 14:55",143.76
"2018-03-14 15:01",145.13
"2018-03-14 15:05",145.14
"2018-03-14 15:10",145.13
"2018-03-14 15:16",145.13
"2018-03-14 15:20",146.49
"2018-03-14 15:25",146.49
"2018-03-14 15:31",146.64
"2018-03-14 15:35",146.64
"2018-03-14 15:40",146.64
"2018-03-14 15:46",146.64
"2018-03-14 15:50",146.64
"2018-03-14 15:55",146.64
"2018-03-14 16:01",146.64
"2018-03-14 16:05",146.64
"2018-03-14 16:10",146.64
"2018-03-14 16:15",148.16
"2018-03-14 16:20",148.16
"2018-03-14 16:25",149.67
"2018-03-14 16:31",149.67
"2018-03-14 16:35",149.67
"2018-03-14 16:40",149.67
"2018-03-14 18:08",149.67
"2018-03-14 18:11",149.67
"2018-03-14 18:13",149.67
"2018-03-14 18:18",158.92
"2018-03-14 18:23",158.92
"2018-03-14 18:28",160.50
"2018-03-14 18:33",160.50
"2018-03-14 18:38",160.51
"2018-03-14 18:43",162.07
"2018-03-14 18:48",162.07
"2018-03-14 18:53",162.07
"2018-03-14 18:58",162.07
"2018-03-14 19:03",162.07
"2018-03-14 19:08",162.22
"2018-03-14 19:13",163.63
"2018-03-14 19:18",163.65
"2018-03-14 19:23",163.65
"2018-03-14 19:28",163.65
"2018-03-14 19:33",163.65
"2018-03-14 19:38",163.65
"2018-03-14 19:43",163.65
"2018-03-14 19:48",163.65
"2018-03-14 19:53",163.65
"2018-03-14 19:58",163.65
"2018-03-14 20:03",163.65
"2018-03-14 20:08",163.65
"2018-03-14 20:13",163.65
"2018-03-14 20:18",163.65
"2018-03-14 20:23",163.65
"2018-03-14 20:28",163.65
"2018-03-14 20:33",163.65
"2018-03-14 20:38",163.65
"2018-03-14 20:43",163.65
"2018-03-14 20:48",163.65
"2018-03-14 20:53",163.65
"2018-03-14 20:58",163.65
"2018-03-14 21:03",163.65
"2018-03-14 21:08",163.65
"2018-03-14 21:13",163.65
"2018-03-14 21:18",163.65
"2018-03-14 21:23",163.65
"2018-03-14 21:28",163.65
"2018-03-14 21:33",162.23
"2018-03-14 21:38",163.65
"2018-03-14 21:43",163.65
"2018-03-14 21:48",163.65
"2018-03-14 21:53",163.65
"2018-03-14 21:58",163.51
"2018-03-14 22:03",163.51
"2018-03-14 22:08",163.51
"2018-03-14 22:13",163.65
"2018-03-14 22:18",162.07
"2018-03-14 22:23",162.07
"2018-03-14 22:28",162.07
"2018-03-14 22:33",163.63
"2018-03-14 22:38",162.22
"2018-03-14 22:43",162.09
"2018-03-14 22:48",163.65
"2018-03-14 22:53",163.50
"2018-03-14 22:58",163.63
"2018-03-14 23:03",163.65
"2018-03-14 23:08",163.63
"2018-03-14 23:13",163.63
"2018-03-14 23:18",163.65
"2018-03-14 23:23",163.65
"2018-03-14 23:28",163.65
"2018-03-14 23:33",163.65
"2018-03-14 23:38",163.65
"2018-03-14 23:43",163.65
"2018-03-14 23:48",163.65
"2018-03-14 23:53",163.65
"2018-03-14 23:58",163.65
"2018-03-15 00:03",163.65
"2018-03-15 00:08",163.65
"2018-03-15 00:13",165.22
"2018-03-15 00:18",165.07
"2018-03-15 00:23",165.07
"2018-03-15 00:28",165.22
"2018-03-15 00:33",165.22
"2018-03-15 00:38",165.22
"2018-03-15 00:43",165.22
"2018-03-15 00:48",165.22
"2018-03-15 00:53",165.22
"2018-03-15 00:58",165.22
"2018-03-15 01:03",165.24
"2018-03-15 01:08",165.37
"2018-03-15 01:13",166.64
"2018-03-15 01:18",166.80
"2018-03-15 01:23",166.80
"2018-03-15 01:28",166.80
"2018-03-15 01:33",166.80
"2018-03-15 01:38",166.80
"2018-03-15 01:43",166.80
"2018-03-15 01:48",166.80
"2018-03-15 01:53",166.80
"2018-03-15 01:58",166.80
"2018-03-15 02:03",166.80
"2018-03-15 02:08",168.40
"2018-03-15 02:13",168.40
"2018-03-15 02:18",168.40
"2018-03-15 02:23",168.39
"2018-03-15 02:28",168.39
"2018-03-15 02:33",168.40
"2018-03-15 02:38",168.40
"2018-03-15 02:43",168.40
"2018-03-15 02:48",168.40
"2018-03-15 02:53",168.40
"2018-03-15 02:58",168.40
"2018-03-15 03:03",168.40
"2018-03-15 03:08",170.01
"2018-03-15 03:13",170.01
"2018-03-15 03:18",170.01
"2018-03-15 03:23",170.01
"2018-03-15 03:28",170.01
"2018-03-15 03:33",171.61
"2018-03-15 03:38",171.61
"2018-03-15 03:43",171.61
"2018-03-15 03:48",171.61
"2018-03-15 03:53",173.20
"2018-03-15 03:58",173.22
"2018-03-15 04:03",173.22
"2018-03-15 04:08",173.22
"2018-03-15 04:13",174.66
"2018-03-15 04:18",174.82
"2018-03-15 04:23",174.82
"2018-03-15 04:28",176.45
"2018-03-15 04:33",176.45
"2018-03-15 04:38",178.08
"2018-03-15 04:43",178.08
"2018-03-15 04:48",178.08
"2018-03-15 04:53",179.71
"2018-03-15 04:58",179.87
"2018-03-15 05:03",181.34
"2018-03-15 05:08",182.82
"2018-03-15 05:13",182.99
"2018-03-15 05:18",184.61
"2018-03-15 05:23",184.63
"2018-03-15 05:28",186.29
"2018-03-15 05:33",187.79
"2018-03-15 05:38",187.96
"2018-03-15 05:43",189.46
"2018-03-15 05:48",189.62
"2018-03-15 05:53",191.27
"2018-03-15 05:58",191.29
"2018-03-15 06:03",192.98
"2018-03-15 06:08",194.67
"2018-03-15 06:13",196.19
"2018-03-15 06:18",196.36
"2018-03-15 06:23",198.03
"2018-03-15 06:28",199.72
"2018-03-15 06:33",199.76
"2018-03-15 06:38",201.46
"2018-03-15 06:43",203.02
"2018-03-15 06:48",204.89
"2018-03-15 06:53",204.89
"2018-03-15 06:58",206.61
"2018-03-15 07:03",208.33
