"2018-02-23 08:15",18.50
"2018-02-23 08:30",18.50
"2018-02-23 08:45",18.50
"2018-02-23 09:00",18.50
"2018-02-23 09:15",18.50
"2018-02-23 09:30",18.50
"2018-02-23 09:45",18.50
"2018-02-23 10:00",18.50
"2018-02-23 10:15",18.50
"2018-02-23 10:30",18.50
"2018-02-23 10:45",18.50
"2018-02-23 11:00",18.50
"2018-02-23 11:15",18.50
"2018-02-23 11:30",18.50
"2018-02-23 11:45",18.50
"2018-02-23 12:00",18.50
"2018-02-23 12:15",18.50
"2018-02-23 12:30",18.50
"2018-02-23 12:45",18.50
"2018-02-23 13:00",18.50
"2018-02-23 13:15",18.50
"2018-02-23 13:30",18.50
"2018-02-23 13:45",18.50
"2018-02-23 14:00",18.50
"2018-02-23 14:15",18.50
"2018-02-23 14:30",18.50
"2018-02-23 14:45",18.50
"2018-02-23 15:00",18.50
"2018-02-23 15:15",18.50
"2018-02-23 15:30",18.50
"2018-02-23 15:45",18.50
"2018-02-23 16:00",18.50
"2018-02-23 16:15",18.50
"2018-02-23 16:30",18.50
"2018-02-23 16:45",18.50
"2018-02-23 17:00",18.50
"2018-02-23 17:15",18.50
"2018-02-23 17:30",18.50
"2018-02-23 17:45",18.50
"2018-02-23 18:00",18.50
"2018-02-23 18:15",18.50
"2018-02-23 18:30",18.50
"2018-02-23 18:45",18.50
"2018-02-23 19:00",18.50
"2018-02-23 19:15",18.50
"2018-02-23 19:30",18.50
"2018-02-23 19:45",18.50
"2018-02-23 20:00",18.50
"2018-02-23 20:15",18.50
"2018-02-23 20:30",18.50
"2018-02-23 20:45",18.50
"2018-02-23 21:00",18.50
"2018-02-23 21:15",18.50
"2018-02-23 21:30",18.50
"2018-02-23 21:45",18.50
"2018-02-23 22:00",18.50
"2018-02-23 22:15",18.50
"2018-02-23 22:30",18.50
"2018-02-23 22:45",18.50
"2018-02-23 23:00",18.50
"2018-02-23 23:15",18.50
"2018-02-23 23:30",18.50
"2018-02-23 23:45",18.50
"2018-02-24 00:00",18.50
"2018-02-24 00:15",18.50
"2018-02-24 00:30",18.50
"2018-02-24 00:45",18.50
"2018-02-24 01:00",18.50
"2018-02-24 01:15",18.50
"2018-02-24 01:30",18.50
"2018-02-24 01:45",18.50
"2018-02-24 02:00",18.50
"2018-02-24 02:15",18.50
"2018-02-24 02:30",18.50
"2018-02-24 02:45",18.50
"2018-02-24 03:00",18.50
"2018-02-24 03:15",18.50
"2018-02-24 03:30",18.50
"2018-02-24 03:45",18.50
"2018-02-24 04:00",18.50
"2018-02-24 04:15",18.50
"2018-02-24 04:30",18.50
"2018-02-24 04:45",18.50
"2018-02-24 05:00",18.50
"2018-02-24 05:15",18.50
"2018-02-24 05:30",18.50
"2018-02-24 05:45",18.50
"2018-02-24 06:00",18.50
"2018-02-24 06:15",18.50
"2018-02-24 06:30",18.50
"2018-02-24 06:45",18.50
"2018-02-24 07:00",18.50
"2018-02-24 07:15",18.50
"2018-02-24 07:30",18.50
"2018-02-24 07:45",18.50
"2018-02-24 08:00",18.50
"2018-02-24 08:15",18.50
"2018-02-24 08:30",18.50
"2018-02-24 08:45",18.50
"2018-02-24 09:00",18.50
"2018-02-24 09:15",18.50
"2018-02-24 09:30",18.50
"2018-02-24 09:45",18.50
"2018-02-24 10:00",18.50
"2018-02-24 10:15",18.50
"2018-02-24 10:30",18.50
"2018-02-24 10:45",18.50
"2018-02-24 11:00",18.50
"2018-02-24 11:15",18.50
"2018-02-24 11:30",18.50
"2018-02-24 11:45",18.50
"2018-02-24 12:00",18.50
"2018-02-24 12:15",18.50
"2018-02-24 12:30",18.50
"2018-02-24 12:45",18.50
"2018-02-24 13:00",18.50
"2018-02-24 13:15",18.50
"2018-02-24 13:30",18.50
"2018-02-24 13:45",18.50
"2018-02-24 14:00",18.50
"2018-02-24 14:15",18.50
"2018-02-24 14:30",18.50
"2018-02-24 14:45",18.50
"2018-02-24 15:00",18.50
"2018-02-24 15:15",18.50
"2018-02-24 15:30",18.50
"2018-02-24 15:45",18.50
"2018-02-24 16:00",18.50
"2018-02-24 16:15",18.50
"2018-02-24 16:30",18.50
"2018-02-24 16:45",18.50
"2018-02-24 17:00",18.50
"2018-02-24 17:15",18.50
"2018-02-24 17:30",18.50
"2018-02-24 17:45",18.50
"2018-02-24 18:00",18.50
"2018-02-24 18:15",18.50
"2018-02-24 18:30",18.50
"2018-02-24 18:45",18.50
"2018-02-24 19:00",18.50
"2018-02-24 19:15",18.50
"2018-02-24 19:30",18.50
"2018-02-24 19:45",18.50
"2018-02-24 20:00",18.50
"2018-02-24 20:15",18.50
"2018-02-24 20:30",18.50
"2018-02-24 20:45",18.50
"2018-02-24 21:00",18.50
"2018-02-24 21:15",18.50
"2018-02-24 21:30",18.50
"2018-02-24 21:45",18.50
"2018-02-24 22:00",18.50
"2018-02-24 22:15",18.50
"2018-02-24 22:30",18.50
"2018-02-24 22:45",18.50
"2018-02-24 23:00",18.50
"2018-02-24 23:15",18.50
"2018-02-24 23:30",18.50
"2018-02-24 23:45",18.50
"2018-02-25 00:00",18.50
"2018-02-25 00:15",18.50
"2018-02-25 00:30",18.50
"2018-02-25 00:45",18.50
"2018-02-25 01:00",18.50
"2018-02-25 01:15",18.50
"2018-02-25 01:30",18.50
"2018-02-25 01:45",18.50
"2018-02-25 02:00",18.50
"2018-02-25 02:15",18.50
"2018-02-25 02:30",18.50
"2018-02-25 02:45",18.50
"2018-02-25 03:00",18.50
"2018-02-25 03:15",18.50
"2018-02-25 03:30",18.50
"2018-02-25 03:45",18.50
"2018-02-25 04:00",18.50
"2018-02-25 04:15",18.50
"2018-02-25 04:30",18.50
"2018-02-25 04:45",18.50
"2018-02-25 05:00",18.50
"2018-02-25 05:15",18.50
"2018-02-25 05:30",18.50
"2018-02-25 05:45",18.50
"2018-02-25 06:00",18.50
"2018-02-25 06:15",18.50
"2018-02-25 06:30",18.50
"2018-02-25 06:45",18.50
"2018-02-25 07:00",18.50
"2018-02-25 07:15",18.50
"2018-02-25 07:30",18.50
"2018-02-25 07:45",18.50
"2018-02-25 08:00",18.50
"2018-02-25 08:15",18.50
"2018-02-25 08:30",18.50
"2018-02-25 08:45",18.50
"2018-02-25 09:00",18.50
"2018-02-25 09:15",18.50
"2018-02-25 09:30",18.50
"2018-02-25 09:45",18.50
"2018-02-25 10:00",18.50
"2018-02-25 10:15",18.50
"2018-02-25 10:30",18.50
"2018-02-25 10:45",18.50
"2018-02-25 11:00",18.50
"2018-02-25 11:15",18.50
"2018-02-25 11:30",18.50
"2018-02-25 11:45",18.50
"2018-02-25 12:00",18.50
"2018-02-25 12:15",18.50
"2018-02-25 12:30",18.50
"2018-02-25 12:45",18.50
"2018-02-25 13:00",18.50
"2018-02-25 13:15",18.50
"2018-02-25 13:30",18.50
"2018-02-25 13:45",18.50
"2018-02-25 14:00",18.50
"2018-02-25 14:15",18.50
"2018-02-25 14:30",18.50
"2018-02-25 14:45",18.50
"2018-02-25 15:00",18.50
"2018-02-25 15:15",18.50
"2018-02-25 15:30",18.50
"2018-02-25 15:45",18.50
"2018-02-25 16:00",18.50
"2018-02-25 16:15",18.50
"2018-02-25 16:30",18.50
"2018-02-25 16:45",18.50
"2018-02-25 17:00",18.50
"2018-02-25 17:15",18.50
"2018-02-25 17:30",18.50
"2018-02-25 17:45",18.50
"2018-02-25 18:00",18.50
"2018-02-25 18:15",18.50
"2018-02-25 18:30",18.50
"2018-02-25 18:45",18.50
"2018-02-25 19:00",18.50
"2018-02-25 19:15",18.50
"2018-02-25 19:30",18.50
"2018-02-25 19:45",18.50
"2018-02-25 20:00",18.50
"2018-02-25 20:15",18.50
"2018-02-25 20:30",18.50
"2018-02-25 20:45",18.50
"2018-02-25 21:00",18.50
"2018-02-25 21:15",18.50
"2018-02-25 21:30",18.50
"2018-02-25 21:45",18.50
"2018-02-25 22:00",18.50
"2018-02-25 22:15",18.50
"2018-02-25 22:30",18.50
"2018-02-25 22:45",18.50
"2018-02-25 23:00",18.50
"2018-02-25 23:15",18.50
"2018-02-25 23:30",18.50
"2018-02-25 23:45",18.50
"2018-02-26 00:00",18.50
"2018-02-26 00:15",18.50
"2018-02-26 00:30",18.50
"2018-02-26 00:45",18.50
"2018-02-26 01:00",18.50
"2018-02-26 01:15",18.50
"2018-02-26 01:30",18.50
"2018-02-26 01:45",18.50
"2018-02-26 02:00",18.50
"2018-02-26 02:15",18.50
"2018-02-26 02:30",18.50
"2018-02-26 02:45",18.50
"2018-02-26 03:00",18.50
"2018-02-26 03:15",18.50
"2018-02-26 03:30",18.50
"2018-02-26 03:45",18.50
"2018-02-26 04:00",18.50
"2018-02-26 04:15",18.50
"2018-02-26 04:30",18.50
"2018-02-26 04:45",18.50
"2018-02-26 05:00",18.50
"2018-02-26 05:15",18.50
"2018-02-26 05:30",18.50
"2018-02-26 05:45",18.50
"2018-02-26 06:00",18.50
"2018-02-26 06:15",18.50
"2018-02-26 06:30",18.50
"2018-02-26 06:45",18.50
"2018-02-26 07:00",18.50
"2018-02-26 07:15",18.50
"2018-02-26 07:30",18.50
"2018-02-26 07:45",18.50
"2018-02-26 08:00",18.50
"2018-02-26 08:15",18.50
"2018-02-26 08:30",18.50
"2018-02-26 08:45",18.50
"2018-02-26 09:00",18.50
"2018-02-26 09:15",18.50
"2018-02-26 09:30",18.50
"2018-02-26 09:45",18.50
"2018-02-26 10:00",18.50
"2018-02-26 10:15",18.50
"2018-02-26 10:30",18.50
"2018-02-26 10:45",18.50
"2018-02-26 11:00",18.50
"2018-02-26 11:15",18.50
"2018-02-26 11:30",18.50
"2018-02-26 11:45",18.50
"2018-02-26 12:00",18.50
"2018-02-26 12:15",18.50
"2018-02-26 12:30",18.50
"2018-02-26 12:45",18.50
"2018-02-26 13:00",18.50
"2018-02-26 13:15",18.50
"2018-02-26 13:30",18.50
"2018-02-26 13:45",18.50
"2018-02-26 14:00",18.50
"2018-02-26 14:15",18.50
"2018-02-26 14:30",18.50
"2018-02-26 14:45",18.50
"2018-02-26 15:00",18.50
"2018-02-26 15:15",18.50
"2018-02-26 15:30",18.50
"2018-02-26 15:45",18.50
"2018-02-26 16:00",18.50
"2018-02-26 16:15",18.50
"2018-02-26 16:30",18.50
"2018-02-26 16:45",18.50
"2018-02-26 17:00",18.50
"2018-02-26 17:15",18.50
"2018-02-26 17:30",18.50
"2018-02-26 17:45",18.50
"2018-02-26 18:00",18.50
"2018-02-26 18:15",18.50
"2018-02-26 18:30",18.50
"2018-02-26 18:45",18.50
"2018-02-26 19:00",18.50
"2018-02-26 19:15",18.50
"2018-02-26 19:30",18.50
"2018-02-26 19:45",18.50
"2018-02-26 20:00",18.50
"2018-02-26 20:15",18.50
"2018-02-26 20:30",18.50
"2018-02-26 20:45",18.50
"2018-02-26 21:00",18.50
"2018-02-26 21:15",18.50
"2018-02-26 21:30",18.50
"2018-02-26 21:45",18.50
"2018-02-26 22:00",18.50
"2018-02-26 22:15",18.50
"2018-02-26 22:30",18.50
"2018-02-26 22:45",18.50
"2018-02-26 23:00",18.50
"2018-02-26 23:15",18.50
"2018-02-26 23:30",18.50
"2018-02-26 23:45",18.50
"2018-02-27 00:00",18.50
"2018-02-27 00:15",18.50
"2018-02-27 00:30",18.50
"2018-02-27 00:45",18.50
"2018-02-27 01:00",18.50
"2018-02-27 01:15",18.50
"2018-02-27 01:30",18.50
"2018-02-27 01:45",18.50
"2018-02-27 02:00",18.50
"2018-02-27 02:15",18.50
"2018-02-27 02:30",18.50
"2018-02-27 02:45",18.50
"2018-02-27 03:00",18.50
"2018-02-27 03:15",18.50
"2018-02-27 03:30",18.50
"2018-02-27 03:45",18.50
"2018-02-27 04:00",18.50
"2018-02-27 04:15",18.50
"2018-02-27 04:30",18.50
"2018-02-27 04:45",18.50
"2018-02-27 05:00",18.50
"2018-02-27 05:15",18.50
"2018-02-27 05:30",18.50
"2018-02-27 05:45",18.50
"2018-02-27 06:00",18.50
"2018-02-27 06:15",18.50
"2018-02-27 06:30",18.50
"2018-02-27 06:45",18.50
"2018-02-27 07:00",18.50
"2018-02-27 07:15",18.50
"2018-02-27 07:30",18.50
"2018-02-27 07:45",18.50
"2018-02-27 08:00",18.50
"2018-02-27 08:15",18.50
"2018-02-27 08:30",18.50
"2018-02-27 08:45",18.50
"2018-02-27 09:00",18.50
"2018-02-27 09:15",18.50
"2018-02-27 09:30",18.50
"2018-02-27 09:45",18.50
"2018-02-27 10:00",18.50
"2018-02-27 10:15",18.50
"2018-02-27 10:30",18.50
"2018-02-27 10:45",18.50
"2018-02-27 11:00",18.50
"2018-02-27 11:15",18.50
"2018-02-27 11:30",18.50
"2018-02-27 11:45",18.50
"2018-02-27 12:00",18.50
"2018-02-27 12:15",18.50
"2018-02-27 12:30",18.50
"2018-02-27 12:45",18.50
"2018-02-27 13:00",18.50
"2018-02-27 13:15",18.50
"2018-02-27 13:30",18.50
"2018-02-27 13:45",18.50
"2018-02-27 14:00",18.50
"2018-02-27 14:15",18.50
"2018-02-27 14:30",18.50
"2018-02-27 14:45",18.50
"2018-02-27 15:00",18.50
"2018-02-27 15:15",18.50
"2018-02-27 15:30",18.50
"2018-02-27 15:45",18.50
"2018-02-27 16:00",18.50
"2018-02-27 16:15",18.50
"2018-02-27 16:30",18.50
"2018-02-27 16:45",18.50
"2018-02-27 17:00",18.50
"2018-02-27 17:15",18.50
"2018-02-27 17:30",18.50
"2018-02-27 17:45",18.50
"2018-02-27 18:00",18.50
"2018-02-27 18:15",18.50
"2018-02-27 18:30",18.50
"2018-02-27 18:45",18.50
"2018-02-27 19:00",18.50
"2018-02-27 19:15",18.50
"2018-02-27 19:30",18.50
"2018-02-27 19:45",18.50
"2018-02-27 20:00",18.50
"2018-02-27 20:15",18.50
"2018-02-27 20:30",18.50
"2018-02-27 20:45",18.50
"2018-02-27 21:00",18.50
"2018-02-27 21:15",18.50
"2018-02-27 21:30",18.50
"2018-02-27 21:45",18.50
"2018-02-27 22:00",18.50
"2018-02-27 22:15",18.50
"2018-02-27 22:30",18.50
"2018-02-27 22:45",18.50
"2018-02-27 23:00",18.50
"2018-02-27 23:15",18.50
"2018-02-27 23:30",18.50
"2018-02-27 23:45",18.50
"2018-02-28 00:00",18.50
"2018-02-28 00:15",18.50
"2018-02-28 00:30",18.50
"2018-02-28 00:45",18.50
"2018-02-28 01:00",18.50
"2018-02-28 01:15",18.50
"2018-02-28 01:30",18.50
"2018-02-28 01:45",18.50
"2018-02-28 02:15",18.50
"2018-02-28 02:30",18.50
"2018-02-28 02:45",18.50
"2018-02-28 03:00",18.50
"2018-02-28 03:15",18.50
"2018-02-28 03:30",18.50
"2018-02-28 03:45",18.50
"2018-02-28 04:00",18.50
"2018-02-28 04:15",18.50
"2018-02-28 04:30",18.50
"2018-02-28 04:45",18.52
"2018-02-28 05:00",18.52
"2018-02-28 05:15",18.52
"2018-02-28 05:30",18.52
"2018-02-28 05:45",18.52
"2018-02-28 06:00",18.52
"2018-02-28 06:15",18.52
"2018-02-28 06:30",18.54
"2018-02-28 06:45",18.54
"2018-02-28 07:00",18.54
"2018-02-28 07:15",18.54
"2018-02-28 07:30",18.54
"2018-02-28 07:45",18.54
"2018-02-28 08:00",18.54
"2018-02-28 08:15",18.54
"2018-02-28 08:30",18.54
"2018-02-28 08:45",18.54
"2018-02-28 09:00",18.56
"2018-02-28 09:15",18.57
"2018-02-28 09:30",18.57
"2018-02-28 09:45",18.57
"2018-02-28 10:00",18.57
"2018-02-28 10:15",18.58
"2018-02-28 10:30",18.59
"2018-02-28 10:45",18.59
"2018-02-28 11:00",18.61
"2018-02-28 11:15",18.61
"2018-02-28 11:30",18.61
"2018-02-28 11:45",18.61
"2018-02-28 12:00",18.61
"2018-02-28 12:15",18.63
"2018-02-28 12:30",18.63
"2018-02-28 12:45",18.63
"2018-02-28 13:00",18.63
"2018-02-28 13:15",18.63
"2018-02-28 13:30",18.63
"2018-02-28 13:45",18.63
"2018-02-28 14:00",18.63
"2018-02-28 14:15",18.63
"2018-02-28 14:30",18.63
"2018-02-28 14:45",18.63
"2018-02-28 15:00",18.63
"2018-02-28 15:15",18.66
"2018-02-28 15:30",18.66
"2018-02-28 15:45",18.66
"2018-02-28 16:00",18.66
"2018-02-28 16:15",18.66
"2018-02-28 16:30",18.66
"2018-02-28 16:45",18.66
"2018-02-28 17:00",18.66
"2018-02-28 17:15",18.66
"2018-02-28 17:30",18.66
"2018-02-28 17:45",18.66
"2018-02-28 18:00",18.66
"2018-02-28 18:15",18.66
"2018-02-28 18:30",18.66
"2018-02-28 18:45",18.66
"2018-02-28 19:00",18.66
"2018-02-28 19:15",18.68
"2018-02-28 19:30",18.68
"2018-02-28 19:45",18.68
"2018-02-28 20:00",18.68
"2018-02-28 20:15",18.68
"2018-02-28 20:30",18.68
"2018-02-28 20:45",18.68
"2018-02-28 21:00",18.68
"2018-02-28 21:15",18.68
"2018-02-28 21:30",18.68
"2018-02-28 21:45",18.68
"2018-02-28 22:00",18.68
"2018-02-28 22:15",18.68
"2018-02-28 22:30",18.68
"2018-02-28 22:45",18.68
"2018-02-28 23:00",18.68
"2018-02-28 23:15",18.68
"2018-02-28 23:30",18.68
"2018-02-28 23:45",18.68
"2018-03-01 00:00",18.68
"2018-03-01 00:15",18.68
"2018-03-01 00:30",18.68
"2018-03-01 00:45",18.68
"2018-03-01 01:00",18.68
"2018-03-01 01:15",18.68
"2018-03-01 01:30",18.70
"2018-03-01 01:45",18.70
"2018-03-01 02:00",18.70
"2018-03-01 02:15",18.70
"2018-03-01 02:30",18.70
"2018-03-01 02:45",18.70
"2018-03-01 03:00",18.70
"2018-03-01 03:15",18.70
"2018-03-01 03:30",18.70
"2018-03-01 03:45",18.70
"2018-03-01 04:00",18.70
"2018-03-01 04:15",18.70
"2018-03-01 04:30",18.70
"2018-03-01 04:45",18.70
"2018-03-01 05:00",18.70
"2018-03-01 05:15",18.70
"2018-03-01 05:30",18.70
"2018-03-01 05:45",18.70
"2018-03-01 06:00",18.70
"2018-03-01 06:15",18.70
"2018-03-01 06:30",18.70
"2018-03-01 06:45",18.70
"2018-03-01 07:00",18.70
"2018-03-01 07:15",18.70
"2018-03-01 07:30",18.70
"2018-03-01 07:45",18.70
"2018-03-01 08:00",18.70
"2018-03-01 08:15",18.70
"2018-03-01 08:30",18.70
"2018-03-01 08:45",18.70
"2018-03-01 09:00",18.70
"2018-03-01 09:15",18.70
"2018-03-01 09:30",18.70
"2018-03-01 09:45",18.70
"2018-03-01 10:00",18.70
"2018-03-01 10:15",18.70
"2018-03-01 10:30",18.70
"2018-03-01 10:45",18.70
"2018-03-01 11:00",18.70
"2018-03-01 11:15",18.70
"2018-03-01 11:30",18.73
"2018-03-01 11:45",18.73
"2018-03-01 12:00",18.73
"2018-03-01 12:15",18.73
"2018-03-01 12:30",18.73
"2018-03-01 12:45",18.73
"2018-03-01 13:00",18.73
"2018-03-01 13:15",18.73
"2018-03-01 13:30",18.73
"2018-03-01 13:45",18.73
"2018-03-01 14:00",18.73
"2018-03-01 14:15",18.73
"2018-03-01 14:30",18.73
"2018-03-01 14:45",0.01
"2018-03-01 15:00",0.01
"2018-03-01 15:15",0.01
"2018-03-01 15:30",0.01
"2018-03-01 15:45",0.01
"2018-03-01 16:00",0.01
"2018-03-01 16:15",0.01
"2018-03-01 16:30",0.01
"2018-03-01 16:45",0.01
"2018-03-01 17:00",0.01
"2018-03-01 17:15",0.01
"2018-03-01 17:30",0.01
"2018-03-01 17:45",0.01
"2018-03-01 18:00",0.01
"2018-03-01 18:15",0.01
"2018-03-01 18:30",0.01
"2018-03-01 18:45",0.01
"2018-03-01 19:00",0.01
"2018-03-01 19:15",0.01
"2018-03-01 19:30",0.01
"2018-03-01 19:45",0.01
"2018-03-01 20:00",0.01
"2018-03-01 20:15",0.01
"2018-03-01 20:30",0.01
"2018-03-01 20:45",0.01
"2018-03-01 21:00",0.01
"2018-03-01 21:15",0.01
"2018-03-01 21:30",0.02
"2018-03-01 21:45",0.02
"2018-03-01 22:00",0.02
"2018-03-01 22:15",0.02
"2018-03-01 22:30",0.01
"2018-03-01 22:45",0.01
"2018-03-01 23:00",0.01
"2018-03-01 23:15",0.01
"2018-03-01 23:30",0.01
"2018-03-01 23:45",0.01
"2018-03-02 00:00",0.02
"2018-03-02 00:15",0.02
"2018-03-02 00:30",0.02
"2018-03-02 00:45",0.02
"2018-03-02 01:00",0.01
"2018-03-02 01:15",0.01
"2018-03-02 01:30",0.01
"2018-03-02 01:45",0.01
"2018-03-02 02:00",0.01
"2018-03-02 02:15",0.01
"2018-03-02 02:30",0.01
"2018-03-02 02:45",0.01
"2018-03-02 03:00",0.01
"2018-03-02 03:15",0.01
"2018-03-02 03:30",0.01
"2018-03-02 03:45",0.01
"2018-03-02 04:00",0.01
"2018-03-02 04:15",0.01
"2018-03-02 04:30",0.01
"2018-03-02 04:45",0.01
"2018-03-02 05:00",0.01
"2018-03-02 05:15",0.01
"2018-03-02 05:30",0.01
"2018-03-02 05:45",0.01
"2018-03-02 06:00",0.01
"2018-03-02 06:15",0.01
"2018-03-02 06:30",0.01
"2018-03-02 06:45",18.75
